{
  "listEdt" : [ {
    "emp" : {
      "id" : 435,
      "name" : "435",
      "shifts" : [ {
        "start" : [ 9, 0 ],
        "end" : [ 12, 0 ]
      }, {
        "start" : [ 13, 0 ],
        "end" : [ 17, 0 ]
      } ],
      "prefSlots" : null,
      "startingLoc" : {
        "id" : 6312,
        "name" : null,
        "latitude" : 44.085033,
        "longitude" : 3.7981117
      },
      "skills" : [ {
        "id" : 0,
        "name" : "MANAGEMENT",
        "level" : 4
      }, {
        "id" : 0,
        "name" : "MANAGEMENT",
        "level" : 4
      }, {
        "id" : 0,
        "name" : "MANAGEMENT",
        "level" : 7
      } ]
    },
    "planning" : [ {
      "job" : {
        "id" : -1,
        "desc" : "Home",
        "location" : {
          "id" : 6312,
          "name" : null,
          "latitude" : 44.085033,
          "longitude" : 3.7981117
        },
        "openings" : null,
        "preferredSlots" : null,
        "doAfter" : null,
        "nbEmpRequired" : 1,
        "deadline" : null,
        "skills" : [ ],
        "duration" : null,
        "pause" : true
      },
      "window" : {
        "start" : [ 9, 0 ],
        "end" : [ 9, 0 ]
      }
    }, {
      "job" : {
        "id" : 410,
        "desc" : "MANAGEMENT",
        "location" : {
          "id" : 8772,
          "name" : null,
          "latitude" : 43.400703,
          "longitude" : 3.931254
        },
        "openings" : {
          "start" : [ 12, 28 ],
          "end" : [ 17, 52 ]
        },
        "preferredSlots" : null,
        "doAfter" : null,
        "nbEmpRequired" : 1,
        "deadline" : [ 16, 31 ],
        "skills" : [ {
          "id" : 0,
          "name" : "MANAGEMENT",
          "level" : 3
        } ],
        "duration" : 5400.000000000,
        "pause" : false
      },
      "window" : {
        "start" : [ 10, 17 ],
        "end" : [ 11, 47 ]
      }
    }, {
      "job" : {
        "id" : -1,
        "desc" : "Pause",
        "location" : {
          "id" : 8772,
          "name" : null,
          "latitude" : 43.400703,
          "longitude" : 3.931254
        },
        "openings" : {
          "start" : [ 12, 28 ],
          "end" : [ 17, 52 ]
        },
        "preferredSlots" : null,
        "doAfter" : null,
        "nbEmpRequired" : 1,
        "deadline" : [ 16, 31 ],
        "skills" : [ {
          "id" : 0,
          "name" : "MANAGEMENT",
          "level" : 3
        } ],
        "duration" : 5400.000000000,
        "pause" : true
      },
      "window" : {
        "start" : [ 11, 48 ],
        "end" : [ 13, 0 ]
      }
    } ],
    "driving" : 4620.000000000,
    "valid" : true
  }, {
    "emp" : {
      "id" : 829,
      "name" : "829",
      "shifts" : [ {
        "start" : [ 9, 0 ],
        "end" : [ 12, 0 ]
      }, {
        "start" : [ 13, 0 ],
        "end" : [ 17, 0 ]
      } ],
      "prefSlots" : null,
      "startingLoc" : {
        "id" : 8544,
        "name" : null,
        "latitude" : 43.423832,
        "longitude" : 3.797767
      },
      "skills" : [ {
        "id" : 1,
        "name" : "ENGINEER",
        "level" : 9
      }, {
        "id" : 6,
        "name" : "CARPENTRY",
        "level" : 9
      }, {
        "id" : 7,
        "name" : "PAINTING",
        "level" : 6
      }, {
        "id" : 5,
        "name" : "GLAZING",
        "level" : 8
      }, {
        "id" : 3,
        "name" : "PLUMBING",
        "level" : 3
      }, {
        "id" : 5,
        "name" : "GLAZING",
        "level" : 1
      }, {
        "id" : 7,
        "name" : "PAINTING",
        "level" : 10
      }, {
        "id" : 8,
        "name" : "IRONWORK",
        "level" : 4
      } ]
    },
    "planning" : [ {
      "job" : {
        "id" : -1,
        "desc" : "Home",
        "location" : {
          "id" : 8544,
          "name" : null,
          "latitude" : 43.423832,
          "longitude" : 3.797767
        },
        "openings" : null,
        "preferredSlots" : null,
        "doAfter" : null,
        "nbEmpRequired" : 1,
        "deadline" : null,
        "skills" : [ ],
        "duration" : null,
        "pause" : true
      },
      "window" : {
        "start" : [ 9, 0 ],
        "end" : [ 9, 0 ]
      }
    }, {
      "job" : {
        "id" : 172,
        "desc" : "CARPENTRY",
        "location" : {
          "id" : 838,
          "name" : null,
          "latitude" : 44.093555,
          "longitude" : 4.2318907
        },
        "openings" : {
          "start" : [ 11, 8 ],
          "end" : [ 13, 43 ]
        },
        "preferredSlots" : null,
        "doAfter" : null,
        "nbEmpRequired" : 1,
        "deadline" : [ 12, 42 ],
        "skills" : [ {
          "id" : 6,
          "name" : "CARPENTRY",
          "level" : 3
        } ],
        "duration" : 2700.000000000,
        "pause" : false
      },
      "window" : {
        "start" : [ 10, 23 ],
        "end" : [ 11, 8 ]
      }
    }, {
      "job" : {
        "id" : -1,
        "desc" : "Pause",
        "location" : {
          "id" : 838,
          "name" : null,
          "latitude" : 44.093555,
          "longitude" : 4.2318907
        },
        "openings" : {
          "start" : [ 11, 8 ],
          "end" : [ 13, 43 ]
        },
        "preferredSlots" : null,
        "doAfter" : null,
        "nbEmpRequired" : 1,
        "deadline" : [ 12, 42 ],
        "skills" : [ {
          "id" : 6,
          "name" : "CARPENTRY",
          "level" : 3
        } ],
        "duration" : 2700.000000000,
        "pause" : true
      },
      "window" : {
        "start" : [ 11, 9 ],
        "end" : [ 13, 0 ]
      }
    }, {
      "job" : {
        "id" : 541,
        "desc" : "ENGINEER",
        "location" : {
          "id" : 1627,
          "name" : null,
          "latitude" : 44.03696,
          "longitude" : 4.1909037
        },
        "openings" : {
          "start" : [ 14, 56 ],
          "end" : [ 16, 21 ]
        },
        "preferredSlots" : null,
        "doAfter" : null,
        "nbEmpRequired" : 1,
        "deadline" : [ 13, 16 ],
        "skills" : [ {
          "id" : 1,
          "name" : "ENGINEER",
          "level" : 5
        } ],
        "duration" : 3600.000000000,
        "pause" : false
      },
      "window" : {
        "start" : [ 13, 8 ],
        "end" : [ 14, 8 ]
      }
    }, {
      "job" : {
        "id" : 434,
        "desc" : "GLAZING",
        "location" : {
          "id" : 6490,
          "name" : null,
          "latitude" : 43.77532,
          "longitude" : 3.7660403
        },
        "openings" : {
          "start" : [ 16, 59 ],
          "end" : [ 17, 33 ]
        },
        "preferredSlots" : null,
        "doAfter" : null,
        "nbEmpRequired" : 1,
        "deadline" : [ 13, 20 ],
        "skills" : [ {
          "id" : 5,
          "name" : "GLAZING",
          "level" : 5
        } ],
        "duration" : 2700.000000000,
        "pause" : false
      },
      "window" : {
        "start" : [ 14, 53 ],
        "end" : [ 15, 38 ]
      }
    }, {
      "job" : {
        "id" : 708,
        "desc" : "IRONWORK",
        "location" : {
          "id" : 1477,
          "name" : null,
          "latitude" : 43.968697,
          "longitude" : 3.8127682
        },
        "openings" : {
          "start" : [ 11, 41 ],
          "end" : [ 13, 4 ]
        },
        "preferredSlots" : null,
        "doAfter" : null,
        "nbEmpRequired" : 1,
        "deadline" : [ 15, 25 ],
        "skills" : [ {
          "id" : 8,
          "name" : "IRONWORK",
          "level" : 3
        } ],
        "duration" : 1800.000000000,
        "pause" : false
      },
      "window" : {
        "start" : [ 16, 0 ],
        "end" : [ 16, 30 ]
      }
    } ],
    "driving" : 9480.000000000,
    "valid" : true
  } ],
  "unassigned" : [ {
    "id" : 90,
    "desc" : "ELECTRICIAN",
    "location" : {
      "id" : 657,
      "name" : null,
      "latitude" : 43.522175,
      "longitude" : 4.1525564
    },
    "openings" : {
      "start" : [ 15, 25 ],
      "end" : [ 17, 57 ]
    },
    "preferredSlots" : null,
    "doAfter" : null,
    "nbEmpRequired" : 1,
    "deadline" : [ 10, 31 ],
    "skills" : [ {
      "id" : 2,
      "name" : "ELECTRICIAN",
      "level" : 4
    } ],
    "duration" : 3600.000000000,
    "pause" : false
  }, {
    "id" : 328,
    "desc" : "IRONWORK, TILER",
    "location" : {
      "id" : 9373,
      "name" : null,
      "latitude" : 43.590187,
      "longitude" : 3.746589
    },
    "openings" : {
      "start" : [ 11, 43 ],
      "end" : [ 14, 47 ]
    },
    "preferredSlots" : null,
    "doAfter" : null,
    "nbEmpRequired" : 1,
    "deadline" : [ 10, 39 ],
    "skills" : [ {
      "id" : 8,
      "name" : "IRONWORK",
      "level" : 5
    }, {
      "id" : 9,
      "name" : "TILER",
      "level" : 5
    } ],
    "duration" : 2700.000000000,
    "pause" : false
  }, {
    "id" : 438,
    "desc" : "ENGINEER, MASONRY",
    "location" : {
      "id" : 568,
      "name" : null,
      "latitude" : 43.597336,
      "longitude" : 4.0334253
    },
    "openings" : {
      "start" : [ 14, 31 ],
      "end" : [ 15, 24 ]
    },
    "preferredSlots" : null,
    "doAfter" : null,
    "nbEmpRequired" : 1,
    "deadline" : [ 10, 53 ],
    "skills" : [ {
      "id" : 1,
      "name" : "ENGINEER",
      "level" : 1
    }, {
      "id" : 4,
      "name" : "MASONRY",
      "level" : 4
    } ],
    "duration" : 2700.000000000,
    "pause" : false
  }, {
    "id" : 421,
    "desc" : "MASONRY, ENGINEER",
    "location" : {
      "id" : 5842,
      "name" : null,
      "latitude" : 43.919884,
      "longitude" : 3.789489
    },
    "openings" : {
      "start" : [ 10, 43 ],
      "end" : [ 10, 53 ]
    },
    "preferredSlots" : null,
    "doAfter" : null,
    "nbEmpRequired" : 1,
    "deadline" : [ 10, 58 ],
    "skills" : [ {
      "id" : 4,
      "name" : "MASONRY",
      "level" : 1
    }, {
      "id" : 1,
      "name" : "ENGINEER",
      "level" : 3
    } ],
    "duration" : 3600.000000000,
    "pause" : false
  }, {
    "id" : 983,
    "desc" : "PAINTING, MASONRY",
    "location" : {
      "id" : 6195,
      "name" : null,
      "latitude" : 43.46992,
      "longitude" : 4.0974455
    },
    "openings" : {
      "start" : [ 12, 14 ],
      "end" : [ 12, 38 ]
    },
    "preferredSlots" : null,
    "doAfter" : null,
    "nbEmpRequired" : 1,
    "deadline" : [ 11, 35 ],
    "skills" : [ {
      "id" : 7,
      "name" : "PAINTING",
      "level" : 4
    }, {
      "id" : 4,
      "name" : "MASONRY",
      "level" : 4
    } ],
    "duration" : 7200.000000000,
    "pause" : false
  }, {
    "id" : 152,
    "desc" : "MASONRY, ELECTRICIAN",
    "location" : {
      "id" : 1571,
      "name" : null,
      "latitude" : 43.864456,
      "longitude" : 4.26492
    },
    "openings" : {
      "start" : [ 14, 47 ],
      "end" : [ 16, 32 ]
    },
    "preferredSlots" : null,
    "doAfter" : null,
    "nbEmpRequired" : 1,
    "deadline" : [ 11, 48 ],
    "skills" : [ {
      "id" : 4,
      "name" : "MASONRY",
      "level" : 4
    }, {
      "id" : 2,
      "name" : "ELECTRICIAN",
      "level" : 4
    } ],
    "duration" : 1800.000000000,
    "pause" : false
  }, {
    "id" : 576,
    "desc" : "TILER",
    "location" : {
      "id" : 4609,
      "name" : null,
      "latitude" : 43.656097,
      "longitude" : 3.819886
    },
    "openings" : {
      "start" : [ 9, 28 ],
      "end" : [ 17, 28 ]
    },
    "preferredSlots" : null,
    "doAfter" : null,
    "nbEmpRequired" : 1,
    "deadline" : [ 13, 14 ],
    "skills" : [ {
      "id" : 9,
      "name" : "TILER",
      "level" : 4
    } ],
    "duration" : 5400.000000000,
    "pause" : false
  }, {
    "id" : 728,
    "desc" : "PAINTING",
    "location" : {
      "id" : 6079,
      "name" : null,
      "latitude" : 43.926113,
      "longitude" : 4.012034
    },
    "openings" : {
      "start" : [ 10, 17 ],
      "end" : [ 17, 44 ]
    },
    "preferredSlots" : null,
    "doAfter" : null,
    "nbEmpRequired" : 1,
    "deadline" : [ 15, 28 ],
    "skills" : [ {
      "id" : 7,
      "name" : "PAINTING",
      "level" : 2
    } ],
    "duration" : 3600.000000000,
    "pause" : false
  }, {
    "id" : 894,
    "desc" : "PAINTING",
    "location" : {
      "id" : 6801,
      "name" : null,
      "latitude" : 43.459938,
      "longitude" : 4.2249975
    },
    "openings" : {
      "start" : [ 14, 27 ],
      "end" : [ 16, 16 ]
    },
    "preferredSlots" : null,
    "doAfter" : null,
    "nbEmpRequired" : 1,
    "deadline" : [ 15, 45 ],
    "skills" : [ {
      "id" : 7,
      "name" : "PAINTING",
      "level" : 3
    } ],
    "duration" : 1800.000000000,
    "pause" : false
  }, {
    "id" : 88,
    "desc" : "TILER",
    "location" : {
      "id" : 7255,
      "name" : null,
      "latitude" : 43.77049,
      "longitude" : 4.178769
    },
    "openings" : {
      "start" : [ 13, 31 ],
      "end" : [ 14, 54 ]
    },
    "preferredSlots" : null,
    "doAfter" : null,
    "nbEmpRequired" : 1,
    "deadline" : [ 16, 53 ],
    "skills" : [ {
      "id" : 9,
      "name" : "TILER",
      "level" : 5
    } ],
    "duration" : 1800.000000000,
    "pause" : false
  }, {
    "id" : 543,
    "desc" : "IRONWORK, ELECTRICIAN",
    "location" : {
      "id" : 5646,
      "name" : null,
      "latitude" : 44.0877,
      "longitude" : 3.700515
    },
    "openings" : {
      "start" : [ 12, 37 ],
      "end" : [ 17, 4 ]
    },
    "preferredSlots" : null,
    "doAfter" : null,
    "nbEmpRequired" : 1,
    "deadline" : [ 16, 59 ],
    "skills" : [ {
      "id" : 8,
      "name" : "IRONWORK",
      "level" : 2
    }, {
      "id" : 2,
      "name" : "ELECTRICIAN",
      "level" : 1
    } ],
    "duration" : 5400.000000000,
    "pause" : false
  }, {
    "id" : 998,
    "desc" : "MASONRY, ENGINEER",
    "location" : {
      "id" : 5464,
      "name" : null,
      "latitude" : 43.93199,
      "longitude" : 3.7283466
    },
    "openings" : {
      "start" : [ 11, 19 ],
      "end" : [ 17, 5 ]
    },
    "preferredSlots" : null,
    "doAfter" : null,
    "nbEmpRequired" : 1,
    "deadline" : [ 17, 1 ],
    "skills" : [ {
      "id" : 4,
      "name" : "MASONRY",
      "level" : 2
    }, {
      "id" : 1,
      "name" : "ENGINEER",
      "level" : 5
    } ],
    "duration" : 3600.000000000,
    "pause" : false
  }, {
    "id" : 1,
    "desc" : "ENGINEER, IRONWORK",
    "location" : {
      "id" : 6498,
      "name" : null,
      "latitude" : 43.68891,
      "longitude" : 4.012261
    },
    "openings" : {
      "start" : [ 12, 8 ],
      "end" : [ 15, 36 ]
    },
    "preferredSlots" : null,
    "doAfter" : null,
    "nbEmpRequired" : 1,
    "deadline" : [ 17, 26 ],
    "skills" : [ {
      "id" : 1,
      "name" : "ENGINEER",
      "level" : 3
    }, {
      "id" : 8,
      "name" : "IRONWORK",
      "level" : 2
    } ],
    "duration" : 1800.000000000,
    "pause" : false
  }, {
    "id" : 110,
    "desc" : "PLUMBING, ELECTRICIAN",
    "location" : {
      "id" : 2874,
      "name" : null,
      "latitude" : 43.540306,
      "longitude" : 3.7645779
    },
    "openings" : {
      "start" : [ 9, 23 ],
      "end" : [ 14, 58 ]
    },
    "preferredSlots" : null,
    "doAfter" : null,
    "nbEmpRequired" : 1,
    "deadline" : [ 17, 47 ],
    "skills" : [ {
      "id" : 3,
      "name" : "PLUMBING",
      "level" : 2
    }, {
      "id" : 2,
      "name" : "ELECTRICIAN",
      "level" : 4
    } ],
    "duration" : 5400.000000000,
    "pause" : false
  }, {
    "id" : 757,
    "desc" : "MASONRY, PAINTING",
    "location" : {
      "id" : 9891,
      "name" : null,
      "latitude" : 43.929913,
      "longitude" : 3.9575183
    },
    "openings" : {
      "start" : [ 9, 8 ],
      "end" : [ 9, 34 ]
    },
    "preferredSlots" : null,
    "doAfter" : null,
    "nbEmpRequired" : 1,
    "deadline" : [ 17, 48 ],
    "skills" : [ {
      "id" : 4,
      "name" : "MASONRY",
      "level" : 4
    }, {
      "id" : 7,
      "name" : "PAINTING",
      "level" : 3
    } ],
    "duration" : 2700.000000000,
    "pause" : false
  } ],
  "valid" : true
}