{
  "listEdt" : [ {
    "emp" : {
      "id" : 534,
      "name" : "534",
      "shifts" : [ {
        "start" : [ 9, 0 ],
        "end" : [ 12, 0 ]
      }, {
        "start" : [ 13, 0 ],
        "end" : [ 17, 0 ]
      } ],
      "prefSlots" : null,
      "startingLoc" : {
        "id" : 2372,
        "name" : null,
        "latitude" : 44.082836,
        "longitude" : 3.9766395
      },
      "skills" : [ {
        "id" : 2,
        "name" : "ELECTRICIAN",
        "level" : 8
      } ]
    },
    "planning" : [ {
      "job" : {
        "id" : -1,
        "desc" : "Home",
        "location" : {
          "id" : 2372,
          "name" : null,
          "latitude" : 44.082836,
          "longitude" : 3.9766395
        },
        "openings" : null,
        "preferredSlots" : null,
        "doAfter" : null,
        "nbEmpRequired" : 1,
        "deadline" : null,
        "skills" : [ ],
        "duration" : null,
        "pause" : true
      },
      "window" : {
        "start" : [ 9, 0 ],
        "end" : [ 9, 0 ]
      }
    }, {
      "job" : {
        "id" : 819,
        "desc" : "ELECTRICIAN",
        "location" : {
          "id" : 9393,
          "name" : null,
          "latitude" : 43.84162,
          "longitude" : 4.216776
        },
        "openings" : {
          "start" : [ 16, 57 ],
          "end" : [ 17, 27 ]
        },
        "preferredSlots" : null,
        "doAfter" : null,
        "nbEmpRequired" : 1,
        "deadline" : [ 13, 7 ],
        "skills" : [ {
          "id" : 2,
          "name" : "ELECTRICIAN",
          "level" : 4
        } ],
        "duration" : 2700.000000000,
        "pause" : false
      },
      "window" : {
        "start" : [ 9, 33 ],
        "end" : [ 10, 18 ]
      }
    }, {
      "job" : {
        "id" : -1,
        "desc" : "Pause",
        "location" : {
          "id" : 9393,
          "name" : null,
          "latitude" : 43.84162,
          "longitude" : 4.216776
        },
        "openings" : {
          "start" : [ 16, 57 ],
          "end" : [ 17, 27 ]
        },
        "preferredSlots" : null,
        "doAfter" : null,
        "nbEmpRequired" : 1,
        "deadline" : [ 13, 7 ],
        "skills" : [ {
          "id" : 2,
          "name" : "ELECTRICIAN",
          "level" : 4
        } ],
        "duration" : 2700.000000000,
        "pause" : true
      },
      "window" : {
        "start" : [ 10, 19 ],
        "end" : [ 13, 0 ]
      }
    } ],
    "driving" : 1980.000000000,
    "valid" : true
  }, {
    "emp" : {
      "id" : 264,
      "name" : "264",
      "shifts" : [ {
        "start" : [ 9, 0 ],
        "end" : [ 12, 0 ]
      }, {
        "start" : [ 13, 0 ],
        "end" : [ 17, 0 ]
      } ],
      "prefSlots" : null,
      "startingLoc" : {
        "id" : 41,
        "name" : null,
        "latitude" : 43.95535,
        "longitude" : 4.227515
      },
      "skills" : [ {
        "id" : 6,
        "name" : "CARPENTRY",
        "level" : 4
      }, {
        "id" : 0,
        "name" : "MANAGEMENT",
        "level" : 2
      }, {
        "id" : 4,
        "name" : "MASONRY",
        "level" : 10
      }, {
        "id" : 3,
        "name" : "PLUMBING",
        "level" : 9
      }, {
        "id" : 9,
        "name" : "TILER",
        "level" : 6
      }, {
        "id" : 4,
        "name" : "MASONRY",
        "level" : 1
      }, {
        "id" : 8,
        "name" : "IRONWORK",
        "level" : 1
      }, {
        "id" : 1,
        "name" : "ENGINEER",
        "level" : 9
      } ]
    },
    "planning" : [ {
      "job" : {
        "id" : -1,
        "desc" : "Home",
        "location" : {
          "id" : 41,
          "name" : null,
          "latitude" : 43.95535,
          "longitude" : 4.227515
        },
        "openings" : null,
        "preferredSlots" : null,
        "doAfter" : null,
        "nbEmpRequired" : 1,
        "deadline" : null,
        "skills" : [ ],
        "duration" : null,
        "pause" : true
      },
      "window" : {
        "start" : [ 9, 0 ],
        "end" : [ 9, 0 ]
      }
    }, {
      "job" : {
        "id" : -1,
        "desc" : "Pause",
        "location" : {
          "id" : 41,
          "name" : null,
          "latitude" : 43.95535,
          "longitude" : 4.227515
        },
        "openings" : null,
        "preferredSlots" : null,
        "doAfter" : null,
        "nbEmpRequired" : 1,
        "deadline" : null,
        "skills" : [ ],
        "duration" : null,
        "pause" : true
      },
      "window" : {
        "start" : [ 9, 1 ],
        "end" : [ 13, 0 ]
      }
    } ],
    "driving" : 0.0,
    "valid" : true
  }, {
    "emp" : {
      "id" : 596,
      "name" : "596",
      "shifts" : [ {
        "start" : [ 9, 0 ],
        "end" : [ 12, 0 ]
      }, {
        "start" : [ 13, 0 ],
        "end" : [ 17, 0 ]
      } ],
      "prefSlots" : null,
      "startingLoc" : {
        "id" : 7973,
        "name" : null,
        "latitude" : 43.71071,
        "longitude" : 4.041869
      },
      "skills" : [ {
        "id" : 6,
        "name" : "CARPENTRY",
        "level" : 1
      }, {
        "id" : 0,
        "name" : "MANAGEMENT",
        "level" : 1
      }, {
        "id" : 2,
        "name" : "ELECTRICIAN",
        "level" : 4
      }, {
        "id" : 6,
        "name" : "CARPENTRY",
        "level" : 5
      }, {
        "id" : 9,
        "name" : "TILER",
        "level" : 3
      }, {
        "id" : 9,
        "name" : "TILER",
        "level" : 2
      }, {
        "id" : 8,
        "name" : "IRONWORK",
        "level" : 1
      }, {
        "id" : 6,
        "name" : "CARPENTRY",
        "level" : 8
      }, {
        "id" : 1,
        "name" : "ENGINEER",
        "level" : 2
      } ]
    },
    "planning" : [ {
      "job" : {
        "id" : -1,
        "desc" : "Home",
        "location" : {
          "id" : 7973,
          "name" : null,
          "latitude" : 43.71071,
          "longitude" : 4.041869
        },
        "openings" : null,
        "preferredSlots" : null,
        "doAfter" : null,
        "nbEmpRequired" : 1,
        "deadline" : null,
        "skills" : [ ],
        "duration" : null,
        "pause" : true
      },
      "window" : {
        "start" : [ 9, 0 ],
        "end" : [ 9, 0 ]
      }
    }, {
      "job" : {
        "id" : -1,
        "desc" : "Pause",
        "location" : {
          "id" : 7973,
          "name" : null,
          "latitude" : 43.71071,
          "longitude" : 4.041869
        },
        "openings" : null,
        "preferredSlots" : null,
        "doAfter" : null,
        "nbEmpRequired" : 1,
        "deadline" : null,
        "skills" : [ ],
        "duration" : null,
        "pause" : true
      },
      "window" : {
        "start" : [ 9, 1 ],
        "end" : [ 13, 0 ]
      }
    } ],
    "driving" : 0.0,
    "valid" : true
  }, {
    "emp" : {
      "id" : 464,
      "name" : "464",
      "shifts" : [ {
        "start" : [ 9, 0 ],
        "end" : [ 12, 0 ]
      }, {
        "start" : [ 13, 0 ],
        "end" : [ 17, 0 ]
      } ],
      "prefSlots" : null,
      "startingLoc" : {
        "id" : 8853,
        "name" : null,
        "latitude" : 44.08739,
        "longitude" : 3.725949
      },
      "skills" : [ {
        "id" : 8,
        "name" : "IRONWORK",
        "level" : 4
      }, {
        "id" : 9,
        "name" : "TILER",
        "level" : 8
      }, {
        "id" : 8,
        "name" : "IRONWORK",
        "level" : 1
      }, {
        "id" : 5,
        "name" : "GLAZING",
        "level" : 5
      }, {
        "id" : 9,
        "name" : "TILER",
        "level" : 4
      }, {
        "id" : 9,
        "name" : "TILER",
        "level" : 1
      }, {
        "id" : 8,
        "name" : "IRONWORK",
        "level" : 9
      }, {
        "id" : 3,
        "name" : "PLUMBING",
        "level" : 9
      }, {
        "id" : 1,
        "name" : "ENGINEER",
        "level" : 9
      }, {
        "id" : 5,
        "name" : "GLAZING",
        "level" : 8
      } ]
    },
    "planning" : [ {
      "job" : {
        "id" : -1,
        "desc" : "Home",
        "location" : {
          "id" : 8853,
          "name" : null,
          "latitude" : 44.08739,
          "longitude" : 3.725949
        },
        "openings" : null,
        "preferredSlots" : null,
        "doAfter" : null,
        "nbEmpRequired" : 1,
        "deadline" : null,
        "skills" : [ ],
        "duration" : null,
        "pause" : true
      },
      "window" : {
        "start" : [ 9, 0 ],
        "end" : [ 9, 0 ]
      }
    }, {
      "job" : {
        "id" : 892,
        "desc" : "IRONWORK",
        "location" : {
          "id" : 6626,
          "name" : null,
          "latitude" : 43.70023,
          "longitude" : 3.9378533
        },
        "openings" : {
          "start" : [ 10, 20 ],
          "end" : [ 16, 58 ]
        },
        "preferredSlots" : null,
        "doAfter" : null,
        "nbEmpRequired" : 1,
        "deadline" : [ 9, 12 ],
        "skills" : [ {
          "id" : 8,
          "name" : "IRONWORK",
          "level" : 2
        } ],
        "duration" : 7200.000000000,
        "pause" : false
      },
      "window" : {
        "start" : [ 9, 47 ],
        "end" : [ 11, 47 ]
      }
    }, {
      "job" : {
        "id" : -1,
        "desc" : "Pause",
        "location" : {
          "id" : 6626,
          "name" : null,
          "latitude" : 43.70023,
          "longitude" : 3.9378533
        },
        "openings" : {
          "start" : [ 10, 20 ],
          "end" : [ 16, 58 ]
        },
        "preferredSlots" : null,
        "doAfter" : null,
        "nbEmpRequired" : 1,
        "deadline" : [ 9, 12 ],
        "skills" : [ {
          "id" : 8,
          "name" : "IRONWORK",
          "level" : 2
        } ],
        "duration" : 7200.000000000,
        "pause" : true
      },
      "window" : {
        "start" : [ 11, 48 ],
        "end" : [ 13, 0 ]
      }
    }, {
      "job" : {
        "id" : 855,
        "desc" : "IRONWORK",
        "location" : {
          "id" : 6943,
          "name" : null,
          "latitude" : 43.469193,
          "longitude" : 3.8567882
        },
        "openings" : {
          "start" : [ 13, 49 ],
          "end" : [ 16, 33 ]
        },
        "preferredSlots" : null,
        "doAfter" : null,
        "nbEmpRequired" : 1,
        "deadline" : [ 9, 21 ],
        "skills" : [ {
          "id" : 8,
          "name" : "IRONWORK",
          "level" : 3
        } ],
        "duration" : 2700.000000000,
        "pause" : false
      },
      "window" : {
        "start" : [ 13, 27 ],
        "end" : [ 14, 12 ]
      }
    }, {
      "job" : {
        "id" : 26,
        "desc" : "IRONWORK",
        "location" : {
          "id" : 4992,
          "name" : null,
          "latitude" : 43.50773,
          "longitude" : 3.7593226
        },
        "openings" : {
          "start" : [ 10, 38 ],
          "end" : [ 16, 47 ]
        },
        "preferredSlots" : null,
        "doAfter" : null,
        "nbEmpRequired" : 1,
        "deadline" : [ 9, 53 ],
        "skills" : [ {
          "id" : 8,
          "name" : "IRONWORK",
          "level" : 2
        } ],
        "duration" : 3600.000000000,
        "pause" : false
      },
      "window" : {
        "start" : [ 14, 21 ],
        "end" : [ 15, 21 ]
      }
    }, {
      "job" : {
        "id" : 524,
        "desc" : "GLAZING",
        "location" : {
          "id" : 8352,
          "name" : null,
          "latitude" : 43.733257,
          "longitude" : 4.0743623
        },
        "openings" : {
          "start" : [ 15, 20 ],
          "end" : [ 17, 38 ]
        },
        "preferredSlots" : null,
        "doAfter" : null,
        "nbEmpRequired" : 1,
        "deadline" : [ 12, 16 ],
        "skills" : [ {
          "id" : 5,
          "name" : "GLAZING",
          "level" : 2
        } ],
        "duration" : 3600.000000000,
        "pause" : false
      },
      "window" : {
        "start" : [ 15, 57 ],
        "end" : [ 16, 57 ]
      }
    } ],
    "driving" : 7140.000000000,
    "valid" : true
  }, {
    "emp" : {
      "id" : 233,
      "name" : "233",
      "shifts" : [ {
        "start" : [ 9, 0 ],
        "end" : [ 12, 0 ]
      }, {
        "start" : [ 13, 0 ],
        "end" : [ 17, 0 ]
      } ],
      "prefSlots" : null,
      "startingLoc" : {
        "id" : 4850,
        "name" : null,
        "latitude" : 43.843994,
        "longitude" : 4.0737867
      },
      "skills" : [ {
        "id" : 1,
        "name" : "ENGINEER",
        "level" : 10
      }, {
        "id" : 8,
        "name" : "IRONWORK",
        "level" : 5
      }, {
        "id" : 1,
        "name" : "ENGINEER",
        "level" : 7
      } ]
    },
    "planning" : [ {
      "job" : {
        "id" : -1,
        "desc" : "Home",
        "location" : {
          "id" : 4850,
          "name" : null,
          "latitude" : 43.843994,
          "longitude" : 4.0737867
        },
        "openings" : null,
        "preferredSlots" : null,
        "doAfter" : null,
        "nbEmpRequired" : 1,
        "deadline" : null,
        "skills" : [ ],
        "duration" : null,
        "pause" : true
      },
      "window" : {
        "start" : [ 9, 0 ],
        "end" : [ 9, 0 ]
      }
    }, {
      "job" : {
        "id" : -1,
        "desc" : "Pause",
        "location" : {
          "id" : 4850,
          "name" : null,
          "latitude" : 43.843994,
          "longitude" : 4.0737867
        },
        "openings" : null,
        "preferredSlots" : null,
        "doAfter" : null,
        "nbEmpRequired" : 1,
        "deadline" : null,
        "skills" : [ ],
        "duration" : null,
        "pause" : true
      },
      "window" : {
        "start" : [ 9, 1 ],
        "end" : [ 13, 0 ]
      }
    } ],
    "driving" : 0.0,
    "valid" : true
  }, {
    "emp" : {
      "id" : 922,
      "name" : "922",
      "shifts" : [ {
        "start" : [ 9, 0 ],
        "end" : [ 12, 0 ]
      }, {
        "start" : [ 13, 0 ],
        "end" : [ 17, 0 ]
      } ],
      "prefSlots" : null,
      "startingLoc" : {
        "id" : 8371,
        "name" : null,
        "latitude" : 43.87682,
        "longitude" : 4.1532073
      },
      "skills" : [ {
        "id" : 7,
        "name" : "PAINTING",
        "level" : 1
      }, {
        "id" : 1,
        "name" : "ENGINEER",
        "level" : 2
      }, {
        "id" : 7,
        "name" : "PAINTING",
        "level" : 5
      }, {
        "id" : 8,
        "name" : "IRONWORK",
        "level" : 4
      }, {
        "id" : 8,
        "name" : "IRONWORK",
        "level" : 1
      } ]
    },
    "planning" : [ {
      "job" : {
        "id" : -1,
        "desc" : "Home",
        "location" : {
          "id" : 8371,
          "name" : null,
          "latitude" : 43.87682,
          "longitude" : 4.1532073
        },
        "openings" : null,
        "preferredSlots" : null,
        "doAfter" : null,
        "nbEmpRequired" : 1,
        "deadline" : null,
        "skills" : [ ],
        "duration" : null,
        "pause" : true
      },
      "window" : {
        "start" : [ 9, 0 ],
        "end" : [ 9, 0 ]
      }
    }, {
      "job" : {
        "id" : -1,
        "desc" : "Pause",
        "location" : {
          "id" : 8371,
          "name" : null,
          "latitude" : 43.87682,
          "longitude" : 4.1532073
        },
        "openings" : null,
        "preferredSlots" : null,
        "doAfter" : null,
        "nbEmpRequired" : 1,
        "deadline" : null,
        "skills" : [ ],
        "duration" : null,
        "pause" : true
      },
      "window" : {
        "start" : [ 9, 1 ],
        "end" : [ 13, 0 ]
      }
    } ],
    "driving" : 0.0,
    "valid" : true
  }, {
    "emp" : {
      "id" : 653,
      "name" : "653",
      "shifts" : [ {
        "start" : [ 9, 0 ],
        "end" : [ 12, 0 ]
      }, {
        "start" : [ 13, 0 ],
        "end" : [ 17, 0 ]
      } ],
      "prefSlots" : null,
      "startingLoc" : {
        "id" : 2811,
        "name" : null,
        "latitude" : 43.77146,
        "longitude" : 4.0941267
      },
      "skills" : [ {
        "id" : 2,
        "name" : "ELECTRICIAN",
        "level" : 3
      }, {
        "id" : 9,
        "name" : "TILER",
        "level" : 3
      }, {
        "id" : 8,
        "name" : "IRONWORK",
        "level" : 6
      } ]
    },
    "planning" : [ {
      "job" : {
        "id" : -1,
        "desc" : "Home",
        "location" : {
          "id" : 2811,
          "name" : null,
          "latitude" : 43.77146,
          "longitude" : 4.0941267
        },
        "openings" : null,
        "preferredSlots" : null,
        "doAfter" : null,
        "nbEmpRequired" : 1,
        "deadline" : null,
        "skills" : [ ],
        "duration" : null,
        "pause" : true
      },
      "window" : {
        "start" : [ 9, 0 ],
        "end" : [ 9, 0 ]
      }
    }, {
      "job" : {
        "id" : -1,
        "desc" : "Pause",
        "location" : {
          "id" : 2811,
          "name" : null,
          "latitude" : 43.77146,
          "longitude" : 4.0941267
        },
        "openings" : null,
        "preferredSlots" : null,
        "doAfter" : null,
        "nbEmpRequired" : 1,
        "deadline" : null,
        "skills" : [ ],
        "duration" : null,
        "pause" : true
      },
      "window" : {
        "start" : [ 9, 1 ],
        "end" : [ 13, 0 ]
      }
    } ],
    "driving" : 0.0,
    "valid" : true
  }, {
    "emp" : {
      "id" : 596,
      "name" : "596",
      "shifts" : [ {
        "start" : [ 9, 0 ],
        "end" : [ 12, 0 ]
      }, {
        "start" : [ 13, 0 ],
        "end" : [ 17, 0 ]
      } ],
      "prefSlots" : null,
      "startingLoc" : {
        "id" : 6058,
        "name" : null,
        "latitude" : 43.8473,
        "longitude" : 4.219721
      },
      "skills" : [ {
        "id" : 3,
        "name" : "PLUMBING",
        "level" : 4
      }, {
        "id" : 2,
        "name" : "ELECTRICIAN",
        "level" : 3
      }, {
        "id" : 0,
        "name" : "MANAGEMENT",
        "level" : 6
      }, {
        "id" : 4,
        "name" : "MASONRY",
        "level" : 6
      }, {
        "id" : 1,
        "name" : "ENGINEER",
        "level" : 3
      }, {
        "id" : 4,
        "name" : "MASONRY",
        "level" : 9
      }, {
        "id" : 4,
        "name" : "MASONRY",
        "level" : 2
      } ]
    },
    "planning" : [ {
      "job" : {
        "id" : -1,
        "desc" : "Home",
        "location" : {
          "id" : 6058,
          "name" : null,
          "latitude" : 43.8473,
          "longitude" : 4.219721
        },
        "openings" : null,
        "preferredSlots" : null,
        "doAfter" : null,
        "nbEmpRequired" : 1,
        "deadline" : null,
        "skills" : [ ],
        "duration" : null,
        "pause" : true
      },
      "window" : {
        "start" : [ 9, 0 ],
        "end" : [ 9, 0 ]
      }
    }, {
      "job" : {
        "id" : 461,
        "desc" : "MANAGEMENT",
        "location" : {
          "id" : 7848,
          "name" : null,
          "latitude" : 43.60722,
          "longitude" : 4.260838
        },
        "openings" : {
          "start" : [ 11, 52 ],
          "end" : [ 11, 54 ]
        },
        "preferredSlots" : null,
        "doAfter" : null,
        "nbEmpRequired" : 1,
        "deadline" : [ 9, 22 ],
        "skills" : [ {
          "id" : 0,
          "name" : "MANAGEMENT",
          "level" : 4
        } ],
        "duration" : 5400.000000000,
        "pause" : false
      },
      "window" : {
        "start" : [ 9, 27 ],
        "end" : [ 10, 57 ]
      }
    }, {
      "job" : {
        "id" : -1,
        "desc" : "Pause",
        "location" : {
          "id" : 7848,
          "name" : null,
          "latitude" : 43.60722,
          "longitude" : 4.260838
        },
        "openings" : {
          "start" : [ 11, 52 ],
          "end" : [ 11, 54 ]
        },
        "preferredSlots" : null,
        "doAfter" : null,
        "nbEmpRequired" : 1,
        "deadline" : [ 9, 22 ],
        "skills" : [ {
          "id" : 0,
          "name" : "MANAGEMENT",
          "level" : 4
        } ],
        "duration" : 5400.000000000,
        "pause" : true
      },
      "window" : {
        "start" : [ 10, 58 ],
        "end" : [ 13, 0 ]
      }
    } ],
    "driving" : 1620.000000000,
    "valid" : true
  }, {
    "emp" : {
      "id" : 376,
      "name" : "376",
      "shifts" : [ {
        "start" : [ 9, 0 ],
        "end" : [ 12, 0 ]
      }, {
        "start" : [ 13, 0 ],
        "end" : [ 17, 0 ]
      } ],
      "prefSlots" : null,
      "startingLoc" : {
        "id" : 492,
        "name" : null,
        "latitude" : 43.640175,
        "longitude" : 4.0817995
      },
      "skills" : [ {
        "id" : 1,
        "name" : "ENGINEER",
        "level" : 4
      } ]
    },
    "planning" : [ {
      "job" : {
        "id" : -1,
        "desc" : "Home",
        "location" : {
          "id" : 492,
          "name" : null,
          "latitude" : 43.640175,
          "longitude" : 4.0817995
        },
        "openings" : null,
        "preferredSlots" : null,
        "doAfter" : null,
        "nbEmpRequired" : 1,
        "deadline" : null,
        "skills" : [ ],
        "duration" : null,
        "pause" : true
      },
      "window" : {
        "start" : [ 9, 0 ],
        "end" : [ 9, 0 ]
      }
    }, {
      "job" : {
        "id" : -1,
        "desc" : "Pause",
        "location" : {
          "id" : 492,
          "name" : null,
          "latitude" : 43.640175,
          "longitude" : 4.0817995
        },
        "openings" : null,
        "preferredSlots" : null,
        "doAfter" : null,
        "nbEmpRequired" : 1,
        "deadline" : null,
        "skills" : [ ],
        "duration" : null,
        "pause" : true
      },
      "window" : {
        "start" : [ 9, 1 ],
        "end" : [ 13, 0 ]
      }
    } ],
    "driving" : 0.0,
    "valid" : true
  }, {
    "emp" : {
      "id" : 431,
      "name" : "431",
      "shifts" : [ {
        "start" : [ 9, 0 ],
        "end" : [ 12, 0 ]
      }, {
        "start" : [ 13, 0 ],
        "end" : [ 17, 0 ]
      } ],
      "prefSlots" : null,
      "startingLoc" : {
        "id" : 9085,
        "name" : null,
        "latitude" : 43.67096,
        "longitude" : 4.098199
      },
      "skills" : [ {
        "id" : 2,
        "name" : "ELECTRICIAN",
        "level" : 6
      }, {
        "id" : 6,
        "name" : "CARPENTRY",
        "level" : 1
      }, {
        "id" : 6,
        "name" : "CARPENTRY",
        "level" : 5
      }, {
        "id" : 1,
        "name" : "ENGINEER",
        "level" : 8
      } ]
    },
    "planning" : [ {
      "job" : {
        "id" : -1,
        "desc" : "Home",
        "location" : {
          "id" : 9085,
          "name" : null,
          "latitude" : 43.67096,
          "longitude" : 4.098199
        },
        "openings" : null,
        "preferredSlots" : null,
        "doAfter" : null,
        "nbEmpRequired" : 1,
        "deadline" : null,
        "skills" : [ ],
        "duration" : null,
        "pause" : true
      },
      "window" : {
        "start" : [ 9, 0 ],
        "end" : [ 9, 0 ]
      }
    }, {
      "job" : {
        "id" : -1,
        "desc" : "Pause",
        "location" : {
          "id" : 9085,
          "name" : null,
          "latitude" : 43.67096,
          "longitude" : 4.098199
        },
        "openings" : null,
        "preferredSlots" : null,
        "doAfter" : null,
        "nbEmpRequired" : 1,
        "deadline" : null,
        "skills" : [ ],
        "duration" : null,
        "pause" : true
      },
      "window" : {
        "start" : [ 9, 1 ],
        "end" : [ 13, 0 ]
      }
    } ],
    "driving" : 0.0,
    "valid" : true
  }, {
    "emp" : {
      "id" : 447,
      "name" : "447",
      "shifts" : [ {
        "start" : [ 9, 0 ],
        "end" : [ 12, 0 ]
      }, {
        "start" : [ 13, 0 ],
        "end" : [ 17, 0 ]
      } ],
      "prefSlots" : null,
      "startingLoc" : {
        "id" : 9485,
        "name" : null,
        "latitude" : 43.796726,
        "longitude" : 4.215022
      },
      "skills" : [ {
        "id" : 1,
        "name" : "ENGINEER",
        "level" : 2
      }, {
        "id" : 4,
        "name" : "MASONRY",
        "level" : 5
      }, {
        "id" : 2,
        "name" : "ELECTRICIAN",
        "level" : 8
      }, {
        "id" : 3,
        "name" : "PLUMBING",
        "level" : 6
      } ]
    },
    "planning" : [ {
      "job" : {
        "id" : -1,
        "desc" : "Home",
        "location" : {
          "id" : 9485,
          "name" : null,
          "latitude" : 43.796726,
          "longitude" : 4.215022
        },
        "openings" : null,
        "preferredSlots" : null,
        "doAfter" : null,
        "nbEmpRequired" : 1,
        "deadline" : null,
        "skills" : [ ],
        "duration" : null,
        "pause" : true
      },
      "window" : {
        "start" : [ 9, 0 ],
        "end" : [ 9, 0 ]
      }
    }, {
      "job" : {
        "id" : -1,
        "desc" : "Pause",
        "location" : {
          "id" : 9485,
          "name" : null,
          "latitude" : 43.796726,
          "longitude" : 4.215022
        },
        "openings" : null,
        "preferredSlots" : null,
        "doAfter" : null,
        "nbEmpRequired" : 1,
        "deadline" : null,
        "skills" : [ ],
        "duration" : null,
        "pause" : true
      },
      "window" : {
        "start" : [ 9, 1 ],
        "end" : [ 13, 0 ]
      }
    } ],
    "driving" : 0.0,
    "valid" : true
  }, {
    "emp" : {
      "id" : 596,
      "name" : "596",
      "shifts" : [ {
        "start" : [ 9, 0 ],
        "end" : [ 12, 0 ]
      }, {
        "start" : [ 13, 0 ],
        "end" : [ 17, 0 ]
      } ],
      "prefSlots" : null,
      "startingLoc" : {
        "id" : 4277,
        "name" : null,
        "latitude" : 44.068657,
        "longitude" : 3.9666824
      },
      "skills" : [ {
        "id" : 0,
        "name" : "MANAGEMENT",
        "level" : 3
      }, {
        "id" : 7,
        "name" : "PAINTING",
        "level" : 3
      }, {
        "id" : 2,
        "name" : "ELECTRICIAN",
        "level" : 6
      }, {
        "id" : 9,
        "name" : "TILER",
        "level" : 6
      }, {
        "id" : 9,
        "name" : "TILER",
        "level" : 7
      }, {
        "id" : 6,
        "name" : "CARPENTRY",
        "level" : 1
      }, {
        "id" : 9,
        "name" : "TILER",
        "level" : 7
      }, {
        "id" : 2,
        "name" : "ELECTRICIAN",
        "level" : 10
      }, {
        "id" : 1,
        "name" : "ENGINEER",
        "level" : 6
      } ]
    },
    "planning" : [ {
      "job" : {
        "id" : -1,
        "desc" : "Home",
        "location" : {
          "id" : 4277,
          "name" : null,
          "latitude" : 44.068657,
          "longitude" : 3.9666824
        },
        "openings" : null,
        "preferredSlots" : null,
        "doAfter" : null,
        "nbEmpRequired" : 1,
        "deadline" : null,
        "skills" : [ ],
        "duration" : null,
        "pause" : true
      },
      "window" : {
        "start" : [ 9, 0 ],
        "end" : [ 9, 0 ]
      }
    }, {
      "job" : {
        "id" : 709,
        "desc" : "ELECTRICIAN, PAINTING",
        "location" : {
          "id" : 2319,
          "name" : null,
          "latitude" : 43.589718,
          "longitude" : 3.975764
        },
        "openings" : {
          "start" : [ 10, 33 ],
          "end" : [ 14, 28 ]
        },
        "preferredSlots" : null,
        "doAfter" : null,
        "nbEmpRequired" : 1,
        "deadline" : [ 11, 45 ],
        "skills" : [ {
          "id" : 2,
          "name" : "ELECTRICIAN",
          "level" : 4
        }, {
          "id" : 7,
          "name" : "PAINTING",
          "level" : 2
        } ],
        "duration" : 5400.000000000,
        "pause" : false
      },
      "window" : {
        "start" : [ 9, 54 ],
        "end" : [ 11, 24 ]
      }
    }, {
      "job" : {
        "id" : -1,
        "desc" : "Pause",
        "location" : {
          "id" : 2319,
          "name" : null,
          "latitude" : 43.589718,
          "longitude" : 3.975764
        },
        "openings" : {
          "start" : [ 10, 33 ],
          "end" : [ 14, 28 ]
        },
        "preferredSlots" : null,
        "doAfter" : null,
        "nbEmpRequired" : 1,
        "deadline" : [ 11, 45 ],
        "skills" : [ {
          "id" : 2,
          "name" : "ELECTRICIAN",
          "level" : 4
        }, {
          "id" : 7,
          "name" : "PAINTING",
          "level" : 2
        } ],
        "duration" : 5400.000000000,
        "pause" : true
      },
      "window" : {
        "start" : [ 11, 25 ],
        "end" : [ 13, 0 ]
      }
    } ],
    "driving" : 3240.000000000,
    "valid" : true
  }, {
    "emp" : {
      "id" : 5,
      "name" : "5",
      "shifts" : [ {
        "start" : [ 9, 0 ],
        "end" : [ 12, 0 ]
      }, {
        "start" : [ 13, 0 ],
        "end" : [ 17, 0 ]
      } ],
      "prefSlots" : null,
      "startingLoc" : {
        "id" : 5036,
        "name" : null,
        "latitude" : 43.65183,
        "longitude" : 3.838674
      },
      "skills" : [ {
        "id" : 3,
        "name" : "PLUMBING",
        "level" : 7
      }, {
        "id" : 9,
        "name" : "TILER",
        "level" : 9
      }, {
        "id" : 7,
        "name" : "PAINTING",
        "level" : 9
      }, {
        "id" : 5,
        "name" : "GLAZING",
        "level" : 2
      }, {
        "id" : 0,
        "name" : "MANAGEMENT",
        "level" : 10
      }, {
        "id" : 8,
        "name" : "IRONWORK",
        "level" : 4
      } ]
    },
    "planning" : [ {
      "job" : {
        "id" : -1,
        "desc" : "Home",
        "location" : {
          "id" : 5036,
          "name" : null,
          "latitude" : 43.65183,
          "longitude" : 3.838674
        },
        "openings" : null,
        "preferredSlots" : null,
        "doAfter" : null,
        "nbEmpRequired" : 1,
        "deadline" : null,
        "skills" : [ ],
        "duration" : null,
        "pause" : true
      },
      "window" : {
        "start" : [ 9, 0 ],
        "end" : [ 9, 0 ]
      }
    }, {
      "job" : {
        "id" : 782,
        "desc" : "GLAZING",
        "location" : {
          "id" : 9113,
          "name" : null,
          "latitude" : 43.732105,
          "longitude" : 4.0239053
        },
        "openings" : {
          "start" : [ 15, 56 ],
          "end" : [ 16, 53 ]
        },
        "preferredSlots" : null,
        "doAfter" : null,
        "nbEmpRequired" : 1,
        "deadline" : [ 13, 52 ],
        "skills" : [ {
          "id" : 5,
          "name" : "GLAZING",
          "level" : 2
        } ],
        "duration" : 7200.000000000,
        "pause" : false
      },
      "window" : {
        "start" : [ 9, 18 ],
        "end" : [ 11, 18 ]
      }
    }, {
      "job" : {
        "id" : -1,
        "desc" : "Pause",
        "location" : {
          "id" : 9113,
          "name" : null,
          "latitude" : 43.732105,
          "longitude" : 4.0239053
        },
        "openings" : {
          "start" : [ 15, 56 ],
          "end" : [ 16, 53 ]
        },
        "preferredSlots" : null,
        "doAfter" : null,
        "nbEmpRequired" : 1,
        "deadline" : [ 13, 52 ],
        "skills" : [ {
          "id" : 5,
          "name" : "GLAZING",
          "level" : 2
        } ],
        "duration" : 7200.000000000,
        "pause" : true
      },
      "window" : {
        "start" : [ 11, 19 ],
        "end" : [ 13, 0 ]
      }
    } ],
    "driving" : 1080.000000000,
    "valid" : true
  }, {
    "emp" : {
      "id" : 559,
      "name" : "559",
      "shifts" : [ {
        "start" : [ 9, 0 ],
        "end" : [ 12, 0 ]
      }, {
        "start" : [ 13, 0 ],
        "end" : [ 17, 0 ]
      } ],
      "prefSlots" : null,
      "startingLoc" : {
        "id" : 8631,
        "name" : null,
        "latitude" : 44.062416,
        "longitude" : 3.8813832
      },
      "skills" : [ {
        "id" : 1,
        "name" : "ENGINEER",
        "level" : 4
      }, {
        "id" : 3,
        "name" : "PLUMBING",
        "level" : 2
      }, {
        "id" : 2,
        "name" : "ELECTRICIAN",
        "level" : 5
      }, {
        "id" : 3,
        "name" : "PLUMBING",
        "level" : 3
      }, {
        "id" : 1,
        "name" : "ENGINEER",
        "level" : 2
      }, {
        "id" : 7,
        "name" : "PAINTING",
        "level" : 3
      }, {
        "id" : 6,
        "name" : "CARPENTRY",
        "level" : 10
      } ]
    },
    "planning" : [ {
      "job" : {
        "id" : -1,
        "desc" : "Home",
        "location" : {
          "id" : 8631,
          "name" : null,
          "latitude" : 44.062416,
          "longitude" : 3.8813832
        },
        "openings" : null,
        "preferredSlots" : null,
        "doAfter" : null,
        "nbEmpRequired" : 1,
        "deadline" : null,
        "skills" : [ ],
        "duration" : null,
        "pause" : true
      },
      "window" : {
        "start" : [ 9, 0 ],
        "end" : [ 9, 0 ]
      }
    }, {
      "job" : {
        "id" : -1,
        "desc" : "Pause",
        "location" : {
          "id" : 8631,
          "name" : null,
          "latitude" : 44.062416,
          "longitude" : 3.8813832
        },
        "openings" : null,
        "preferredSlots" : null,
        "doAfter" : null,
        "nbEmpRequired" : 1,
        "deadline" : null,
        "skills" : [ ],
        "duration" : null,
        "pause" : true
      },
      "window" : {
        "start" : [ 9, 1 ],
        "end" : [ 13, 0 ]
      }
    } ],
    "driving" : 0.0,
    "valid" : true
  }, {
    "emp" : {
      "id" : 704,
      "name" : "704",
      "shifts" : [ {
        "start" : [ 9, 0 ],
        "end" : [ 12, 0 ]
      }, {
        "start" : [ 13, 0 ],
        "end" : [ 17, 0 ]
      } ],
      "prefSlots" : null,
      "startingLoc" : {
        "id" : 598,
        "name" : null,
        "latitude" : 43.952023,
        "longitude" : 3.8222318
      },
      "skills" : [ {
        "id" : 4,
        "name" : "MASONRY",
        "level" : 4
      }, {
        "id" : 1,
        "name" : "ENGINEER",
        "level" : 7
      }, {
        "id" : 8,
        "name" : "IRONWORK",
        "level" : 8
      }, {
        "id" : 6,
        "name" : "CARPENTRY",
        "level" : 2
      }, {
        "id" : 2,
        "name" : "ELECTRICIAN",
        "level" : 8
      }, {
        "id" : 4,
        "name" : "MASONRY",
        "level" : 1
      } ]
    },
    "planning" : [ {
      "job" : {
        "id" : -1,
        "desc" : "Home",
        "location" : {
          "id" : 598,
          "name" : null,
          "latitude" : 43.952023,
          "longitude" : 3.8222318
        },
        "openings" : null,
        "preferredSlots" : null,
        "doAfter" : null,
        "nbEmpRequired" : 1,
        "deadline" : null,
        "skills" : [ ],
        "duration" : null,
        "pause" : true
      },
      "window" : {
        "start" : [ 9, 0 ],
        "end" : [ 9, 0 ]
      }
    }, {
      "job" : {
        "id" : -1,
        "desc" : "Pause",
        "location" : {
          "id" : 598,
          "name" : null,
          "latitude" : 43.952023,
          "longitude" : 3.8222318
        },
        "openings" : null,
        "preferredSlots" : null,
        "doAfter" : null,
        "nbEmpRequired" : 1,
        "deadline" : null,
        "skills" : [ ],
        "duration" : null,
        "pause" : true
      },
      "window" : {
        "start" : [ 9, 1 ],
        "end" : [ 13, 0 ]
      }
    } ],
    "driving" : 0.0,
    "valid" : true
  }, {
    "emp" : {
      "id" : 51,
      "name" : "51",
      "shifts" : [ {
        "start" : [ 9, 0 ],
        "end" : [ 12, 0 ]
      }, {
        "start" : [ 13, 0 ],
        "end" : [ 17, 0 ]
      } ],
      "prefSlots" : null,
      "startingLoc" : {
        "id" : 6882,
        "name" : null,
        "latitude" : 43.72814,
        "longitude" : 4.2931986
      },
      "skills" : [ {
        "id" : 5,
        "name" : "GLAZING",
        "level" : 1
      }, {
        "id" : 8,
        "name" : "IRONWORK",
        "level" : 10
      }, {
        "id" : 8,
        "name" : "IRONWORK",
        "level" : 10
      }, {
        "id" : 6,
        "name" : "CARPENTRY",
        "level" : 10
      } ]
    },
    "planning" : [ {
      "job" : {
        "id" : -1,
        "desc" : "Home",
        "location" : {
          "id" : 6882,
          "name" : null,
          "latitude" : 43.72814,
          "longitude" : 4.2931986
        },
        "openings" : null,
        "preferredSlots" : null,
        "doAfter" : null,
        "nbEmpRequired" : 1,
        "deadline" : null,
        "skills" : [ ],
        "duration" : null,
        "pause" : true
      },
      "window" : {
        "start" : [ 9, 0 ],
        "end" : [ 9, 0 ]
      }
    }, {
      "job" : {
        "id" : -1,
        "desc" : "Pause",
        "location" : {
          "id" : 6882,
          "name" : null,
          "latitude" : 43.72814,
          "longitude" : 4.2931986
        },
        "openings" : null,
        "preferredSlots" : null,
        "doAfter" : null,
        "nbEmpRequired" : 1,
        "deadline" : null,
        "skills" : [ ],
        "duration" : null,
        "pause" : true
      },
      "window" : {
        "start" : [ 9, 1 ],
        "end" : [ 13, 0 ]
      }
    } ],
    "driving" : 0.0,
    "valid" : true
  }, {
    "emp" : {
      "id" : 699,
      "name" : "699",
      "shifts" : [ {
        "start" : [ 9, 0 ],
        "end" : [ 12, 0 ]
      }, {
        "start" : [ 13, 0 ],
        "end" : [ 17, 0 ]
      } ],
      "prefSlots" : null,
      "startingLoc" : {
        "id" : 2670,
        "name" : null,
        "latitude" : 43.658302,
        "longitude" : 3.968572
      },
      "skills" : [ {
        "id" : 6,
        "name" : "CARPENTRY",
        "level" : 4
      }, {
        "id" : 0,
        "name" : "MANAGEMENT",
        "level" : 4
      }, {
        "id" : 4,
        "name" : "MASONRY",
        "level" : 2
      }, {
        "id" : 2,
        "name" : "ELECTRICIAN",
        "level" : 10
      }, {
        "id" : 9,
        "name" : "TILER",
        "level" : 8
      }, {
        "id" : 5,
        "name" : "GLAZING",
        "level" : 10
      }, {
        "id" : 1,
        "name" : "ENGINEER",
        "level" : 5
      }, {
        "id" : 9,
        "name" : "TILER",
        "level" : 6
      } ]
    },
    "planning" : [ {
      "job" : {
        "id" : -1,
        "desc" : "Home",
        "location" : {
          "id" : 2670,
          "name" : null,
          "latitude" : 43.658302,
          "longitude" : 3.968572
        },
        "openings" : null,
        "preferredSlots" : null,
        "doAfter" : null,
        "nbEmpRequired" : 1,
        "deadline" : null,
        "skills" : [ ],
        "duration" : null,
        "pause" : true
      },
      "window" : {
        "start" : [ 9, 0 ],
        "end" : [ 9, 0 ]
      }
    }, {
      "job" : {
        "id" : 528,
        "desc" : "MANAGEMENT, GLAZING",
        "location" : {
          "id" : 5007,
          "name" : null,
          "latitude" : 43.482574,
          "longitude" : 3.858377
        },
        "openings" : {
          "start" : [ 14, 33 ],
          "end" : [ 16, 59 ]
        },
        "preferredSlots" : null,
        "doAfter" : null,
        "nbEmpRequired" : 1,
        "deadline" : [ 10, 10 ],
        "skills" : [ {
          "id" : 0,
          "name" : "MANAGEMENT",
          "level" : 3
        }, {
          "id" : 5,
          "name" : "GLAZING",
          "level" : 3
        } ],
        "duration" : 2700.000000000,
        "pause" : false
      },
      "window" : {
        "start" : [ 9, 22 ],
        "end" : [ 10, 7 ]
      }
    }, {
      "job" : {
        "id" : -1,
        "desc" : "Pause",
        "location" : {
          "id" : 5007,
          "name" : null,
          "latitude" : 43.482574,
          "longitude" : 3.858377
        },
        "openings" : {
          "start" : [ 14, 33 ],
          "end" : [ 16, 59 ]
        },
        "preferredSlots" : null,
        "doAfter" : null,
        "nbEmpRequired" : 1,
        "deadline" : [ 10, 10 ],
        "skills" : [ {
          "id" : 0,
          "name" : "MANAGEMENT",
          "level" : 3
        }, {
          "id" : 5,
          "name" : "GLAZING",
          "level" : 3
        } ],
        "duration" : 2700.000000000,
        "pause" : true
      },
      "window" : {
        "start" : [ 10, 8 ],
        "end" : [ 13, 0 ]
      }
    } ],
    "driving" : 1320.000000000,
    "valid" : true
  }, {
    "emp" : {
      "id" : 894,
      "name" : "894",
      "shifts" : [ {
        "start" : [ 9, 0 ],
        "end" : [ 12, 0 ]
      }, {
        "start" : [ 13, 0 ],
        "end" : [ 17, 0 ]
      } ],
      "prefSlots" : null,
      "startingLoc" : {
        "id" : 1296,
        "name" : null,
        "latitude" : 43.714027,
        "longitude" : 3.7574468
      },
      "skills" : [ {
        "id" : 7,
        "name" : "PAINTING",
        "level" : 10
      }, {
        "id" : 3,
        "name" : "PLUMBING",
        "level" : 3
      }, {
        "id" : 6,
        "name" : "CARPENTRY",
        "level" : 6
      } ]
    },
    "planning" : [ {
      "job" : {
        "id" : -1,
        "desc" : "Home",
        "location" : {
          "id" : 1296,
          "name" : null,
          "latitude" : 43.714027,
          "longitude" : 3.7574468
        },
        "openings" : null,
        "preferredSlots" : null,
        "doAfter" : null,
        "nbEmpRequired" : 1,
        "deadline" : null,
        "skills" : [ ],
        "duration" : null,
        "pause" : true
      },
      "window" : {
        "start" : [ 9, 0 ],
        "end" : [ 9, 0 ]
      }
    }, {
      "job" : {
        "id" : -1,
        "desc" : "Pause",
        "location" : {
          "id" : 1296,
          "name" : null,
          "latitude" : 43.714027,
          "longitude" : 3.7574468
        },
        "openings" : null,
        "preferredSlots" : null,
        "doAfter" : null,
        "nbEmpRequired" : 1,
        "deadline" : null,
        "skills" : [ ],
        "duration" : null,
        "pause" : true
      },
      "window" : {
        "start" : [ 9, 1 ],
        "end" : [ 13, 0 ]
      }
    } ],
    "driving" : 0.0,
    "valid" : true
  }, {
    "emp" : {
      "id" : 531,
      "name" : "531",
      "shifts" : [ {
        "start" : [ 9, 0 ],
        "end" : [ 12, 0 ]
      }, {
        "start" : [ 13, 0 ],
        "end" : [ 17, 0 ]
      } ],
      "prefSlots" : null,
      "startingLoc" : {
        "id" : 9342,
        "name" : null,
        "latitude" : 43.969673,
        "longitude" : 3.7439682
      },
      "skills" : [ {
        "id" : 2,
        "name" : "ELECTRICIAN",
        "level" : 3
      }, {
        "id" : 9,
        "name" : "TILER",
        "level" : 4
      }, {
        "id" : 6,
        "name" : "CARPENTRY",
        "level" : 2
      }, {
        "id" : 5,
        "name" : "GLAZING",
        "level" : 9
      }, {
        "id" : 3,
        "name" : "PLUMBING",
        "level" : 8
      } ]
    },
    "planning" : [ {
      "job" : {
        "id" : -1,
        "desc" : "Home",
        "location" : {
          "id" : 9342,
          "name" : null,
          "latitude" : 43.969673,
          "longitude" : 3.7439682
        },
        "openings" : null,
        "preferredSlots" : null,
        "doAfter" : null,
        "nbEmpRequired" : 1,
        "deadline" : null,
        "skills" : [ ],
        "duration" : null,
        "pause" : true
      },
      "window" : {
        "start" : [ 9, 0 ],
        "end" : [ 9, 0 ]
      }
    }, {
      "job" : {
        "id" : -1,
        "desc" : "Pause",
        "location" : {
          "id" : 9342,
          "name" : null,
          "latitude" : 43.969673,
          "longitude" : 3.7439682
        },
        "openings" : null,
        "preferredSlots" : null,
        "doAfter" : null,
        "nbEmpRequired" : 1,
        "deadline" : null,
        "skills" : [ ],
        "duration" : null,
        "pause" : true
      },
      "window" : {
        "start" : [ 9, 1 ],
        "end" : [ 13, 0 ]
      }
    } ],
    "driving" : 0.0,
    "valid" : true
  }, {
    "emp" : {
      "id" : 642,
      "name" : "642",
      "shifts" : [ {
        "start" : [ 9, 0 ],
        "end" : [ 12, 0 ]
      }, {
        "start" : [ 13, 0 ],
        "end" : [ 17, 0 ]
      } ],
      "prefSlots" : null,
      "startingLoc" : {
        "id" : 8859,
        "name" : null,
        "latitude" : 43.535492,
        "longitude" : 4.1889925
      },
      "skills" : [ {
        "id" : 6,
        "name" : "CARPENTRY",
        "level" : 10
      }, {
        "id" : 3,
        "name" : "PLUMBING",
        "level" : 10
      }, {
        "id" : 0,
        "name" : "MANAGEMENT",
        "level" : 7
      }, {
        "id" : 2,
        "name" : "ELECTRICIAN",
        "level" : 4
      }, {
        "id" : 7,
        "name" : "PAINTING",
        "level" : 4
      }, {
        "id" : 1,
        "name" : "ENGINEER",
        "level" : 7
      }, {
        "id" : 9,
        "name" : "TILER",
        "level" : 1
      } ]
    },
    "planning" : [ {
      "job" : {
        "id" : -1,
        "desc" : "Home",
        "location" : {
          "id" : 8859,
          "name" : null,
          "latitude" : 43.535492,
          "longitude" : 4.1889925
        },
        "openings" : null,
        "preferredSlots" : null,
        "doAfter" : null,
        "nbEmpRequired" : 1,
        "deadline" : null,
        "skills" : [ ],
        "duration" : null,
        "pause" : true
      },
      "window" : {
        "start" : [ 9, 0 ],
        "end" : [ 9, 0 ]
      }
    }, {
      "job" : {
        "id" : -1,
        "desc" : "Pause",
        "location" : {
          "id" : 8859,
          "name" : null,
          "latitude" : 43.535492,
          "longitude" : 4.1889925
        },
        "openings" : null,
        "preferredSlots" : null,
        "doAfter" : null,
        "nbEmpRequired" : 1,
        "deadline" : null,
        "skills" : [ ],
        "duration" : null,
        "pause" : true
      },
      "window" : {
        "start" : [ 9, 1 ],
        "end" : [ 13, 0 ]
      }
    } ],
    "driving" : 0.0,
    "valid" : true
  } ],
  "unassigned" : [ {
    "id" : 297,
    "desc" : "PAINTING, IRONWORK",
    "location" : {
      "id" : 5460,
      "name" : null,
      "latitude" : 43.51214,
      "longitude" : 3.8268952
    },
    "openings" : {
      "start" : [ 9, 4 ],
      "end" : [ 16, 53 ]
    },
    "preferredSlots" : null,
    "doAfter" : null,
    "nbEmpRequired" : 1,
    "deadline" : [ 12, 45 ],
    "skills" : [ {
      "id" : 7,
      "name" : "PAINTING",
      "level" : 1
    }, {
      "id" : 8,
      "name" : "IRONWORK",
      "level" : 5
    } ],
    "duration" : 3600.000000000,
    "pause" : false
  } ],
  "valid" : true
}