{
  "listEdt" : [ {
    "emp" : {
      "id" : 995,
      "name" : "995",
      "shifts" : [ {
        "start" : [ 9, 0 ],
        "end" : [ 12, 0 ]
      }, {
        "start" : [ 13, 0 ],
        "end" : [ 17, 0 ]
      } ],
      "prefSlots" : null,
      "startingLoc" : {
        "id" : 2125,
        "name" : null,
        "latitude" : 43.60334,
        "longitude" : 3.9362755
      },
      "skills" : [ {
        "id" : 1,
        "name" : "ENGINEER",
        "level" : 2
      }, {
        "id" : 1,
        "name" : "ENGINEER",
        "level" : 9
      }, {
        "id" : 3,
        "name" : "PLUMBING",
        "level" : 1
      }, {
        "id" : 3,
        "name" : "PLUMBING",
        "level" : 4
      }, {
        "id" : 7,
        "name" : "PAINTING",
        "level" : 4
      }, {
        "id" : 7,
        "name" : "PAINTING",
        "level" : 4
      }, {
        "id" : 8,
        "name" : "IRONWORK",
        "level" : 2
      }, {
        "id" : 8,
        "name" : "IRONWORK",
        "level" : 7
      } ]
    },
    "planning" : [ {
      "job" : {
        "id" : -1,
        "desc" : "Home",
        "location" : {
          "id" : 2125,
          "name" : null,
          "latitude" : 43.60334,
          "longitude" : 3.9362755
        },
        "openings" : null,
        "preferredSlots" : null,
        "doAfter" : null,
        "nbEmpRequired" : 1,
        "deadline" : null,
        "skills" : [ ],
        "duration" : null,
        "pause" : true
      },
      "window" : {
        "start" : [ 9, 0 ],
        "end" : [ 9, 0 ]
      }
    }, {
      "job" : {
        "id" : 291,
        "desc" : "IRONWORK",
        "location" : {
          "id" : 4785,
          "name" : null,
          "latitude" : 43.42732,
          "longitude" : 3.9269428
        },
        "openings" : {
          "start" : [ 12, 42 ],
          "end" : [ 14, 25 ]
        },
        "preferredSlots" : null,
        "doAfter" : null,
        "nbEmpRequired" : 1,
        "deadline" : [ 9, 25 ],
        "skills" : [ {
          "id" : 8,
          "name" : "IRONWORK",
          "level" : 4
        } ],
        "duration" : 3600.000000000,
        "pause" : false
      },
      "window" : {
        "start" : [ 9, 20 ],
        "end" : [ 10, 20 ]
      }
    }, {
      "job" : {
        "id" : 163,
        "desc" : "PLUMBING",
        "location" : {
          "id" : 2185,
          "name" : null,
          "latitude" : 43.546776,
          "longitude" : 3.8757195
        },
        "openings" : {
          "start" : [ 14, 50 ],
          "end" : [ 17, 20 ]
        },
        "preferredSlots" : null,
        "doAfter" : null,
        "nbEmpRequired" : 1,
        "deadline" : [ 11, 1 ],
        "skills" : [ {
          "id" : 3,
          "name" : "PLUMBING",
          "level" : 1
        } ],
        "duration" : 2700.000000000,
        "pause" : false
      },
      "window" : {
        "start" : [ 10, 34 ],
        "end" : [ 11, 19 ]
      }
    }, {
      "job" : {
        "id" : -1,
        "desc" : "Pause",
        "location" : {
          "id" : 2185,
          "name" : null,
          "latitude" : 43.546776,
          "longitude" : 3.8757195
        },
        "openings" : {
          "start" : [ 14, 50 ],
          "end" : [ 17, 20 ]
        },
        "preferredSlots" : null,
        "doAfter" : null,
        "nbEmpRequired" : 1,
        "deadline" : [ 11, 1 ],
        "skills" : [ {
          "id" : 3,
          "name" : "PLUMBING",
          "level" : 1
        } ],
        "duration" : 2700.000000000,
        "pause" : true
      },
      "window" : {
        "start" : [ 11, 20 ],
        "end" : [ 13, 0 ]
      }
    }, {
      "job" : {
        "id" : 558,
        "desc" : "PLUMBING, PAINTING",
        "location" : {
          "id" : 9644,
          "name" : null,
          "latitude" : 43.915855,
          "longitude" : 3.9856312
        },
        "openings" : {
          "start" : [ 10, 38 ],
          "end" : [ 15, 32 ]
        },
        "preferredSlots" : null,
        "doAfter" : null,
        "nbEmpRequired" : 1,
        "deadline" : [ 9, 56 ],
        "skills" : [ {
          "id" : 3,
          "name" : "PLUMBING",
          "level" : 2
        }, {
          "id" : 7,
          "name" : "PAINTING",
          "level" : 3
        } ],
        "duration" : 3600.000000000,
        "pause" : false
      },
      "window" : {
        "start" : [ 13, 42 ],
        "end" : [ 14, 42 ]
      }
    }, {
      "job" : {
        "id" : 690,
        "desc" : "IRONWORK",
        "location" : {
          "id" : 3026,
          "name" : null,
          "latitude" : 44.07735,
          "longitude" : 4.1140275
        },
        "openings" : {
          "start" : [ 11, 31 ],
          "end" : [ 16, 28 ]
        },
        "preferredSlots" : null,
        "doAfter" : null,
        "nbEmpRequired" : 1,
        "deadline" : [ 10, 47 ],
        "skills" : [ {
          "id" : 8,
          "name" : "IRONWORK",
          "level" : 5
        } ],
        "duration" : 2700.000000000,
        "pause" : false
      },
      "window" : {
        "start" : [ 15, 3 ],
        "end" : [ 15, 48 ]
      }
    } ],
    "driving" : 5820.000000000,
    "valid" : true
  }, {
    "emp" : {
      "id" : 170,
      "name" : "170",
      "shifts" : [ {
        "start" : [ 9, 0 ],
        "end" : [ 12, 0 ]
      }, {
        "start" : [ 13, 0 ],
        "end" : [ 17, 0 ]
      } ],
      "prefSlots" : null,
      "startingLoc" : {
        "id" : 9599,
        "name" : null,
        "latitude" : 44.017323,
        "longitude" : 3.8343487
      },
      "skills" : [ {
        "id" : 8,
        "name" : "IRONWORK",
        "level" : 8
      }, {
        "id" : 9,
        "name" : "TILER",
        "level" : 9
      }, {
        "id" : 2,
        "name" : "ELECTRICIAN",
        "level" : 4
      }, {
        "id" : 4,
        "name" : "MASONRY",
        "level" : 4
      }, {
        "id" : 9,
        "name" : "TILER",
        "level" : 6
      }, {
        "id" : 3,
        "name" : "PLUMBING",
        "level" : 10
      }, {
        "id" : 2,
        "name" : "ELECTRICIAN",
        "level" : 7
      }, {
        "id" : 9,
        "name" : "TILER",
        "level" : 4
      }, {
        "id" : 9,
        "name" : "TILER",
        "level" : 8
      }, {
        "id" : 4,
        "name" : "MASONRY",
        "level" : 10
      } ]
    },
    "planning" : [ {
      "job" : {
        "id" : -1,
        "desc" : "Home",
        "location" : {
          "id" : 9599,
          "name" : null,
          "latitude" : 44.017323,
          "longitude" : 3.8343487
        },
        "openings" : null,
        "preferredSlots" : null,
        "doAfter" : null,
        "nbEmpRequired" : 1,
        "deadline" : null,
        "skills" : [ ],
        "duration" : null,
        "pause" : true
      },
      "window" : {
        "start" : [ 9, 0 ],
        "end" : [ 9, 0 ]
      }
    }, {
      "job" : {
        "id" : 300,
        "desc" : "TILER",
        "location" : {
          "id" : 322,
          "name" : null,
          "latitude" : 43.715103,
          "longitude" : 3.7509968
        },
        "openings" : {
          "start" : [ 9, 17 ],
          "end" : [ 11, 9 ]
        },
        "preferredSlots" : null,
        "doAfter" : null,
        "nbEmpRequired" : 1,
        "deadline" : [ 11, 3 ],
        "skills" : [ {
          "id" : 9,
          "name" : "TILER",
          "level" : 2
        } ],
        "duration" : 3600.000000000,
        "pause" : false
      },
      "window" : {
        "start" : [ 9, 35 ],
        "end" : [ 10, 35 ]
      }
    }, {
      "job" : {
        "id" : 866,
        "desc" : "IRONWORK",
        "location" : {
          "id" : 5219,
          "name" : null,
          "latitude" : 43.571636,
          "longitude" : 3.9228203
        },
        "openings" : {
          "start" : [ 11, 38 ],
          "end" : [ 15, 29 ]
        },
        "preferredSlots" : null,
        "doAfter" : null,
        "nbEmpRequired" : 1,
        "deadline" : [ 13, 1 ],
        "skills" : [ {
          "id" : 8,
          "name" : "IRONWORK",
          "level" : 1
        } ],
        "duration" : 2700.000000000,
        "pause" : false
      },
      "window" : {
        "start" : [ 10, 57 ],
        "end" : [ 11, 42 ]
      }
    }, {
      "job" : {
        "id" : -1,
        "desc" : "Pause",
        "location" : {
          "id" : 5219,
          "name" : null,
          "latitude" : 43.571636,
          "longitude" : 3.9228203
        },
        "openings" : {
          "start" : [ 11, 38 ],
          "end" : [ 15, 29 ]
        },
        "preferredSlots" : null,
        "doAfter" : null,
        "nbEmpRequired" : 1,
        "deadline" : [ 13, 1 ],
        "skills" : [ {
          "id" : 8,
          "name" : "IRONWORK",
          "level" : 1
        } ],
        "duration" : 2700.000000000,
        "pause" : true
      },
      "window" : {
        "start" : [ 11, 43 ],
        "end" : [ 13, 0 ]
      }
    }, {
      "job" : {
        "id" : 81,
        "desc" : "TILER",
        "location" : {
          "id" : 4066,
          "name" : null,
          "latitude" : 43.443172,
          "longitude" : 3.9892573
        },
        "openings" : {
          "start" : [ 9, 4 ],
          "end" : [ 11, 32 ]
        },
        "preferredSlots" : null,
        "doAfter" : null,
        "nbEmpRequired" : 1,
        "deadline" : [ 12, 15 ],
        "skills" : [ {
          "id" : 9,
          "name" : "TILER",
          "level" : 2
        } ],
        "duration" : 3600.000000000,
        "pause" : false
      },
      "window" : {
        "start" : [ 13, 16 ],
        "end" : [ 14, 16 ]
      }
    }, {
      "job" : {
        "id" : 230,
        "desc" : "ELECTRICIAN",
        "location" : {
          "id" : 2553,
          "name" : null,
          "latitude" : 43.978348,
          "longitude" : 3.9293675
        },
        "openings" : {
          "start" : [ 9, 17 ],
          "end" : [ 14, 42 ]
        },
        "preferredSlots" : null,
        "doAfter" : null,
        "nbEmpRequired" : 1,
        "deadline" : [ 13, 0 ],
        "skills" : [ {
          "id" : 2,
          "name" : "ELECTRICIAN",
          "level" : 1
        } ],
        "duration" : 5400.000000000,
        "pause" : false
      },
      "window" : {
        "start" : [ 15, 16 ],
        "end" : [ 16, 46 ]
      }
    } ],
    "driving" : 7980.000000000,
    "valid" : true
  }, {
    "emp" : {
      "id" : 84,
      "name" : "84",
      "shifts" : [ {
        "start" : [ 9, 0 ],
        "end" : [ 12, 0 ]
      }, {
        "start" : [ 13, 0 ],
        "end" : [ 17, 0 ]
      } ],
      "prefSlots" : null,
      "startingLoc" : {
        "id" : 1107,
        "name" : null,
        "latitude" : 43.45794,
        "longitude" : 3.995818
      },
      "skills" : [ {
        "id" : 4,
        "name" : "MASONRY",
        "level" : 5
      }, {
        "id" : 2,
        "name" : "ELECTRICIAN",
        "level" : 4
      }, {
        "id" : 7,
        "name" : "PAINTING",
        "level" : 3
      }, {
        "id" : 4,
        "name" : "MASONRY",
        "level" : 10
      } ]
    },
    "planning" : [ {
      "job" : {
        "id" : -1,
        "desc" : "Home",
        "location" : {
          "id" : 1107,
          "name" : null,
          "latitude" : 43.45794,
          "longitude" : 3.995818
        },
        "openings" : null,
        "preferredSlots" : null,
        "doAfter" : null,
        "nbEmpRequired" : 1,
        "deadline" : null,
        "skills" : [ ],
        "duration" : null,
        "pause" : true
      },
      "window" : {
        "start" : [ 9, 0 ],
        "end" : [ 9, 0 ]
      }
    }, {
      "job" : {
        "id" : 895,
        "desc" : "PAINTING",
        "location" : {
          "id" : 5030,
          "name" : null,
          "latitude" : 43.419556,
          "longitude" : 4.256875
        },
        "openings" : {
          "start" : [ 9, 8 ],
          "end" : [ 15, 30 ]
        },
        "preferredSlots" : null,
        "doAfter" : null,
        "nbEmpRequired" : 1,
        "deadline" : [ 12, 29 ],
        "skills" : [ {
          "id" : 7,
          "name" : "PAINTING",
          "level" : 3
        } ],
        "duration" : 1800.000000000,
        "pause" : false
      },
      "window" : {
        "start" : [ 9, 22 ],
        "end" : [ 9, 52 ]
      }
    }, {
      "job" : {
        "id" : 643,
        "desc" : "PAINTING",
        "location" : {
          "id" : 3645,
          "name" : null,
          "latitude" : 43.535805,
          "longitude" : 4.2625976
        },
        "openings" : {
          "start" : [ 10, 35 ],
          "end" : [ 11, 57 ]
        },
        "preferredSlots" : null,
        "doAfter" : null,
        "nbEmpRequired" : 1,
        "deadline" : [ 17, 7 ],
        "skills" : [ {
          "id" : 7,
          "name" : "PAINTING",
          "level" : 3
        } ],
        "duration" : 3600.000000000,
        "pause" : false
      },
      "window" : {
        "start" : [ 10, 5 ],
        "end" : [ 11, 5 ]
      }
    }, {
      "job" : {
        "id" : -1,
        "desc" : "Pause",
        "location" : {
          "id" : 3645,
          "name" : null,
          "latitude" : 43.535805,
          "longitude" : 4.2625976
        },
        "openings" : {
          "start" : [ 10, 35 ],
          "end" : [ 11, 57 ]
        },
        "preferredSlots" : null,
        "doAfter" : null,
        "nbEmpRequired" : 1,
        "deadline" : [ 17, 7 ],
        "skills" : [ {
          "id" : 7,
          "name" : "PAINTING",
          "level" : 3
        } ],
        "duration" : 3600.000000000,
        "pause" : true
      },
      "window" : {
        "start" : [ 11, 6 ],
        "end" : [ 13, 0 ]
      }
    }, {
      "job" : {
        "id" : 838,
        "desc" : "ELECTRICIAN",
        "location" : {
          "id" : 2477,
          "name" : null,
          "latitude" : 44.064644,
          "longitude" : 4.036723
        },
        "openings" : {
          "start" : [ 12, 21 ],
          "end" : [ 15, 52 ]
        },
        "preferredSlots" : null,
        "doAfter" : null,
        "nbEmpRequired" : 1,
        "deadline" : [ 13, 48 ],
        "skills" : [ {
          "id" : 2,
          "name" : "ELECTRICIAN",
          "level" : 2
        } ],
        "duration" : 3600.000000000,
        "pause" : false
      },
      "window" : {
        "start" : [ 14, 2 ],
        "end" : [ 15, 2 ]
      }
    } ],
    "driving" : 5820.000000000,
    "valid" : true
  }, {
    "emp" : {
      "id" : 428,
      "name" : "428",
      "shifts" : [ {
        "start" : [ 9, 0 ],
        "end" : [ 12, 0 ]
      }, {
        "start" : [ 13, 0 ],
        "end" : [ 17, 0 ]
      } ],
      "prefSlots" : null,
      "startingLoc" : {
        "id" : 9295,
        "name" : null,
        "latitude" : 43.932552,
        "longitude" : 4.2139597
      },
      "skills" : [ {
        "id" : 0,
        "name" : "MANAGEMENT",
        "level" : 7
      } ]
    },
    "planning" : [ {
      "job" : {
        "id" : -1,
        "desc" : "Home",
        "location" : {
          "id" : 9295,
          "name" : null,
          "latitude" : 43.932552,
          "longitude" : 4.2139597
        },
        "openings" : null,
        "preferredSlots" : null,
        "doAfter" : null,
        "nbEmpRequired" : 1,
        "deadline" : null,
        "skills" : [ ],
        "duration" : null,
        "pause" : true
      },
      "window" : {
        "start" : [ 9, 0 ],
        "end" : [ 9, 0 ]
      }
    }, {
      "job" : {
        "id" : 37,
        "desc" : "MANAGEMENT",
        "location" : {
          "id" : 7117,
          "name" : null,
          "latitude" : 43.580086,
          "longitude" : 4.0244317
        },
        "openings" : {
          "start" : [ 11, 1 ],
          "end" : [ 17, 10 ]
        },
        "preferredSlots" : null,
        "doAfter" : null,
        "nbEmpRequired" : 1,
        "deadline" : [ 10, 6 ],
        "skills" : [ {
          "id" : 0,
          "name" : "MANAGEMENT",
          "level" : 1
        } ],
        "duration" : 3600.000000000,
        "pause" : false
      },
      "window" : {
        "start" : [ 9, 43 ],
        "end" : [ 10, 43 ]
      }
    }, {
      "job" : {
        "id" : 196,
        "desc" : "MANAGEMENT",
        "location" : {
          "id" : 4125,
          "name" : null,
          "latitude" : 43.69471,
          "longitude" : 4.1344957
        },
        "openings" : {
          "start" : [ 12, 0 ],
          "end" : [ 13, 41 ]
        },
        "preferredSlots" : null,
        "doAfter" : null,
        "nbEmpRequired" : 1,
        "deadline" : [ 12, 20 ],
        "skills" : [ {
          "id" : 0,
          "name" : "MANAGEMENT",
          "level" : 2
        } ],
        "duration" : 3600.000000000,
        "pause" : false
      },
      "window" : {
        "start" : [ 10, 59 ],
        "end" : [ 11, 59 ]
      }
    }, {
      "job" : {
        "id" : -1,
        "desc" : "Pause",
        "location" : {
          "id" : 4125,
          "name" : null,
          "latitude" : 43.69471,
          "longitude" : 4.1344957
        },
        "openings" : {
          "start" : [ 12, 0 ],
          "end" : [ 13, 41 ]
        },
        "preferredSlots" : null,
        "doAfter" : null,
        "nbEmpRequired" : 1,
        "deadline" : [ 12, 20 ],
        "skills" : [ {
          "id" : 0,
          "name" : "MANAGEMENT",
          "level" : 2
        } ],
        "duration" : 3600.000000000,
        "pause" : true
      },
      "window" : {
        "start" : [ 12, 0 ],
        "end" : [ 13, 0 ]
      }
    }, {
      "job" : {
        "id" : 264,
        "desc" : "MANAGEMENT",
        "location" : {
          "id" : 5720,
          "name" : null,
          "latitude" : 44.05131,
          "longitude" : 4.184664
        },
        "openings" : {
          "start" : [ 9, 14 ],
          "end" : [ 10, 33 ]
        },
        "preferredSlots" : null,
        "doAfter" : null,
        "nbEmpRequired" : 1,
        "deadline" : [ 11, 59 ],
        "skills" : [ {
          "id" : 0,
          "name" : "MANAGEMENT",
          "level" : 2
        } ],
        "duration" : 3600.000000000,
        "pause" : false
      },
      "window" : {
        "start" : [ 13, 40 ],
        "end" : [ 14, 40 ]
      }
    } ],
    "driving" : 5940.000000000,
    "valid" : true
  }, {
    "emp" : {
      "id" : 987,
      "name" : "987",
      "shifts" : [ {
        "start" : [ 9, 0 ],
        "end" : [ 12, 0 ]
      }, {
        "start" : [ 13, 0 ],
        "end" : [ 17, 0 ]
      } ],
      "prefSlots" : null,
      "startingLoc" : {
        "id" : 4093,
        "name" : null,
        "latitude" : 43.44751,
        "longitude" : 4.188775
      },
      "skills" : [ {
        "id" : 4,
        "name" : "MASONRY",
        "level" : 9
      }, {
        "id" : 1,
        "name" : "ENGINEER",
        "level" : 2
      }, {
        "id" : 6,
        "name" : "CARPENTRY",
        "level" : 2
      }, {
        "id" : 5,
        "name" : "GLAZING",
        "level" : 8
      }, {
        "id" : 9,
        "name" : "TILER",
        "level" : 8
      } ]
    },
    "planning" : [ {
      "job" : {
        "id" : -1,
        "desc" : "Home",
        "location" : {
          "id" : 4093,
          "name" : null,
          "latitude" : 43.44751,
          "longitude" : 4.188775
        },
        "openings" : null,
        "preferredSlots" : null,
        "doAfter" : null,
        "nbEmpRequired" : 1,
        "deadline" : null,
        "skills" : [ ],
        "duration" : null,
        "pause" : true
      },
      "window" : {
        "start" : [ 9, 0 ],
        "end" : [ 9, 0 ]
      }
    }, {
      "job" : {
        "id" : 768,
        "desc" : "CARPENTRY",
        "location" : {
          "id" : 5537,
          "name" : null,
          "latitude" : 43.40075,
          "longitude" : 3.8789287
        },
        "openings" : {
          "start" : [ 14, 38 ],
          "end" : [ 17, 51 ]
        },
        "preferredSlots" : null,
        "doAfter" : null,
        "nbEmpRequired" : 1,
        "deadline" : [ 12, 49 ],
        "skills" : [ {
          "id" : 6,
          "name" : "CARPENTRY",
          "level" : 2
        } ],
        "duration" : 2700.000000000,
        "pause" : false
      },
      "window" : {
        "start" : [ 9, 26 ],
        "end" : [ 10, 11 ]
      }
    }, {
      "job" : {
        "id" : 84,
        "desc" : "GLAZING, MASONRY",
        "location" : {
          "id" : 6766,
          "name" : null,
          "latitude" : 43.55175,
          "longitude" : 4.198275
        },
        "openings" : {
          "start" : [ 11, 35 ],
          "end" : [ 14, 0 ]
        },
        "preferredSlots" : null,
        "doAfter" : null,
        "nbEmpRequired" : 1,
        "deadline" : [ 12, 52 ],
        "skills" : [ {
          "id" : 5,
          "name" : "GLAZING",
          "level" : 4
        }, {
          "id" : 4,
          "name" : "MASONRY",
          "level" : 5
        } ],
        "duration" : 2700.000000000,
        "pause" : false
      },
      "window" : {
        "start" : [ 10, 42 ],
        "end" : [ 11, 27 ]
      }
    }, {
      "job" : {
        "id" : -1,
        "desc" : "Pause",
        "location" : {
          "id" : 6766,
          "name" : null,
          "latitude" : 43.55175,
          "longitude" : 4.198275
        },
        "openings" : {
          "start" : [ 11, 35 ],
          "end" : [ 14, 0 ]
        },
        "preferredSlots" : null,
        "doAfter" : null,
        "nbEmpRequired" : 1,
        "deadline" : [ 12, 52 ],
        "skills" : [ {
          "id" : 5,
          "name" : "GLAZING",
          "level" : 4
        }, {
          "id" : 4,
          "name" : "MASONRY",
          "level" : 5
        } ],
        "duration" : 2700.000000000,
        "pause" : true
      },
      "window" : {
        "start" : [ 11, 28 ],
        "end" : [ 13, 0 ]
      }
    }, {
      "job" : {
        "id" : 158,
        "desc" : "MASONRY, GLAZING",
        "location" : {
          "id" : 9215,
          "name" : null,
          "latitude" : 44.02825,
          "longitude" : 3.9333358
        },
        "openings" : {
          "start" : [ 14, 52 ],
          "end" : [ 17, 49 ]
        },
        "preferredSlots" : null,
        "doAfter" : null,
        "nbEmpRequired" : 1,
        "deadline" : [ 13, 1 ],
        "skills" : [ {
          "id" : 4,
          "name" : "MASONRY",
          "level" : 1
        }, {
          "id" : 5,
          "name" : "GLAZING",
          "level" : 5
        } ],
        "duration" : 3600.000000000,
        "pause" : false
      },
      "window" : {
        "start" : [ 13, 58 ],
        "end" : [ 14, 58 ]
      }
    }, {
      "job" : {
        "id" : 965,
        "desc" : "MASONRY, TILER",
        "location" : {
          "id" : 3449,
          "name" : null,
          "latitude" : 43.421913,
          "longitude" : 4.2907295
        },
        "openings" : {
          "start" : [ 9, 39 ],
          "end" : [ 13, 19 ]
        },
        "preferredSlots" : null,
        "doAfter" : null,
        "nbEmpRequired" : 1,
        "deadline" : [ 14, 56 ],
        "skills" : [ {
          "id" : 4,
          "name" : "MASONRY",
          "level" : 2
        }, {
          "id" : 9,
          "name" : "TILER",
          "level" : 2
        } ],
        "duration" : 1800.000000000,
        "pause" : false
      },
      "window" : {
        "start" : [ 16, 12 ],
        "end" : [ 16, 42 ]
      }
    } ],
    "driving" : 11340.000000000,
    "valid" : true
  }, {
    "emp" : {
      "id" : 20,
      "name" : "20",
      "shifts" : [ {
        "start" : [ 9, 0 ],
        "end" : [ 12, 0 ]
      }, {
        "start" : [ 13, 0 ],
        "end" : [ 17, 0 ]
      } ],
      "prefSlots" : null,
      "startingLoc" : {
        "id" : 1224,
        "name" : null,
        "latitude" : 44.031517,
        "longitude" : 4.0069647
      },
      "skills" : [ {
        "id" : 3,
        "name" : "PLUMBING",
        "level" : 3
      }, {
        "id" : 2,
        "name" : "ELECTRICIAN",
        "level" : 7
      }, {
        "id" : 1,
        "name" : "ENGINEER",
        "level" : 8
      } ]
    },
    "planning" : [ {
      "job" : {
        "id" : -1,
        "desc" : "Home",
        "location" : {
          "id" : 1224,
          "name" : null,
          "latitude" : 44.031517,
          "longitude" : 4.0069647
        },
        "openings" : null,
        "preferredSlots" : null,
        "doAfter" : null,
        "nbEmpRequired" : 1,
        "deadline" : null,
        "skills" : [ ],
        "duration" : null,
        "pause" : true
      },
      "window" : {
        "start" : [ 9, 0 ],
        "end" : [ 9, 0 ]
      }
    }, {
      "job" : {
        "id" : 898,
        "desc" : "ENGINEER",
        "location" : {
          "id" : 7269,
          "name" : null,
          "latitude" : 43.489025,
          "longitude" : 4.2787843
        },
        "openings" : {
          "start" : [ 14, 7 ],
          "end" : [ 16, 26 ]
        },
        "preferredSlots" : null,
        "doAfter" : null,
        "nbEmpRequired" : 1,
        "deadline" : [ 12, 57 ],
        "skills" : [ {
          "id" : 1,
          "name" : "ENGINEER",
          "level" : 5
        } ],
        "duration" : 2700.000000000,
        "pause" : false
      },
      "window" : {
        "start" : [ 10, 5 ],
        "end" : [ 10, 50 ]
      }
    }, {
      "job" : {
        "id" : -1,
        "desc" : "Pause",
        "location" : {
          "id" : 7269,
          "name" : null,
          "latitude" : 43.489025,
          "longitude" : 4.2787843
        },
        "openings" : {
          "start" : [ 14, 7 ],
          "end" : [ 16, 26 ]
        },
        "preferredSlots" : null,
        "doAfter" : null,
        "nbEmpRequired" : 1,
        "deadline" : [ 12, 57 ],
        "skills" : [ {
          "id" : 1,
          "name" : "ENGINEER",
          "level" : 5
        } ],
        "duration" : 2700.000000000,
        "pause" : true
      },
      "window" : {
        "start" : [ 10, 51 ],
        "end" : [ 13, 0 ]
      }
    } ],
    "driving" : 3900.000000000,
    "valid" : true
  }, {
    "emp" : {
      "id" : 818,
      "name" : "818",
      "shifts" : [ {
        "start" : [ 9, 0 ],
        "end" : [ 12, 0 ]
      }, {
        "start" : [ 13, 0 ],
        "end" : [ 17, 0 ]
      } ],
      "prefSlots" : null,
      "startingLoc" : {
        "id" : 2774,
        "name" : null,
        "latitude" : 43.49563,
        "longitude" : 3.7471137
      },
      "skills" : [ {
        "id" : 3,
        "name" : "PLUMBING",
        "level" : 5
      }, {
        "id" : 3,
        "name" : "PLUMBING",
        "level" : 2
      }, {
        "id" : 1,
        "name" : "ENGINEER",
        "level" : 4
      }, {
        "id" : 6,
        "name" : "CARPENTRY",
        "level" : 4
      } ]
    },
    "planning" : [ {
      "job" : {
        "id" : -1,
        "desc" : "Home",
        "location" : {
          "id" : 2774,
          "name" : null,
          "latitude" : 43.49563,
          "longitude" : 3.7471137
        },
        "openings" : null,
        "preferredSlots" : null,
        "doAfter" : null,
        "nbEmpRequired" : 1,
        "deadline" : null,
        "skills" : [ ],
        "duration" : null,
        "pause" : true
      },
      "window" : {
        "start" : [ 9, 0 ],
        "end" : [ 9, 0 ]
      }
    }, {
      "job" : {
        "id" : 699,
        "desc" : "CARPENTRY",
        "location" : {
          "id" : 498,
          "name" : null,
          "latitude" : 44.04403,
          "longitude" : 4.124714
        },
        "openings" : {
          "start" : [ 9, 22 ],
          "end" : [ 17, 39 ]
        },
        "preferredSlots" : null,
        "doAfter" : null,
        "nbEmpRequired" : 1,
        "deadline" : [ 10, 28 ],
        "skills" : [ {
          "id" : 6,
          "name" : "CARPENTRY",
          "level" : 3
        } ],
        "duration" : 1800.000000000,
        "pause" : false
      },
      "window" : {
        "start" : [ 10, 9 ],
        "end" : [ 10, 39 ]
      }
    }, {
      "job" : {
        "id" : -1,
        "desc" : "Pause",
        "location" : {
          "id" : 498,
          "name" : null,
          "latitude" : 44.04403,
          "longitude" : 4.124714
        },
        "openings" : {
          "start" : [ 9, 22 ],
          "end" : [ 17, 39 ]
        },
        "preferredSlots" : null,
        "doAfter" : null,
        "nbEmpRequired" : 1,
        "deadline" : [ 10, 28 ],
        "skills" : [ {
          "id" : 6,
          "name" : "CARPENTRY",
          "level" : 3
        } ],
        "duration" : 1800.000000000,
        "pause" : true
      },
      "window" : {
        "start" : [ 10, 40 ],
        "end" : [ 13, 0 ]
      }
    }, {
      "job" : {
        "id" : 222,
        "desc" : "ENGINEER, CARPENTRY",
        "location" : {
          "id" : 5798,
          "name" : null,
          "latitude" : 44.08643,
          "longitude" : 3.9395003
        },
        "openings" : {
          "start" : [ 15, 37 ],
          "end" : [ 15, 47 ]
        },
        "preferredSlots" : null,
        "doAfter" : null,
        "nbEmpRequired" : 1,
        "deadline" : [ 13, 59 ],
        "skills" : [ {
          "id" : 1,
          "name" : "ENGINEER",
          "level" : 3
        }, {
          "id" : 6,
          "name" : "CARPENTRY",
          "level" : 2
        } ],
        "duration" : 5400.000000000,
        "pause" : false
      },
      "window" : {
        "start" : [ 13, 16 ],
        "end" : [ 14, 46 ]
      }
    }, {
      "job" : {
        "id" : 589,
        "desc" : "PLUMBING",
        "location" : {
          "id" : 3350,
          "name" : null,
          "latitude" : 43.6393,
          "longitude" : 4.0808735
        },
        "openings" : {
          "start" : [ 14, 11 ],
          "end" : [ 17, 22 ]
        },
        "preferredSlots" : null,
        "doAfter" : null,
        "nbEmpRequired" : 1,
        "deadline" : [ 14, 55 ],
        "skills" : [ {
          "id" : 3,
          "name" : "PLUMBING",
          "level" : 5
        } ],
        "duration" : 3600.000000000,
        "pause" : false
      },
      "window" : {
        "start" : [ 15, 37 ],
        "end" : [ 16, 37 ]
      }
    } ],
    "driving" : 8160.000000000,
    "valid" : true
  }, {
    "emp" : {
      "id" : 220,
      "name" : "220",
      "shifts" : [ {
        "start" : [ 9, 0 ],
        "end" : [ 12, 0 ]
      }, {
        "start" : [ 13, 0 ],
        "end" : [ 17, 0 ]
      } ],
      "prefSlots" : null,
      "startingLoc" : {
        "id" : 8053,
        "name" : null,
        "latitude" : 43.686916,
        "longitude" : 3.9599094
      },
      "skills" : [ {
        "id" : 5,
        "name" : "GLAZING",
        "level" : 1
      }, {
        "id" : 0,
        "name" : "MANAGEMENT",
        "level" : 1
      }, {
        "id" : 8,
        "name" : "IRONWORK",
        "level" : 3
      }, {
        "id" : 8,
        "name" : "IRONWORK",
        "level" : 5
      }, {
        "id" : 2,
        "name" : "ELECTRICIAN",
        "level" : 5
      } ]
    },
    "planning" : [ {
      "job" : {
        "id" : -1,
        "desc" : "Home",
        "location" : {
          "id" : 8053,
          "name" : null,
          "latitude" : 43.686916,
          "longitude" : 3.9599094
        },
        "openings" : null,
        "preferredSlots" : null,
        "doAfter" : null,
        "nbEmpRequired" : 1,
        "deadline" : null,
        "skills" : [ ],
        "duration" : null,
        "pause" : true
      },
      "window" : {
        "start" : [ 9, 0 ],
        "end" : [ 9, 0 ]
      }
    }, {
      "job" : {
        "id" : 600,
        "desc" : "GLAZING, ELECTRICIAN",
        "location" : {
          "id" : 1167,
          "name" : null,
          "latitude" : 43.5381,
          "longitude" : 4.0230856
        },
        "openings" : {
          "start" : [ 14, 5 ],
          "end" : [ 15, 53 ]
        },
        "preferredSlots" : null,
        "doAfter" : null,
        "nbEmpRequired" : 1,
        "deadline" : [ 10, 19 ],
        "skills" : [ {
          "id" : 5,
          "name" : "GLAZING",
          "level" : 1
        }, {
          "id" : 2,
          "name" : "ELECTRICIAN",
          "level" : 2
        } ],
        "duration" : 2700.000000000,
        "pause" : false
      },
      "window" : {
        "start" : [ 9, 18 ],
        "end" : [ 10, 3 ]
      }
    }, {
      "job" : {
        "id" : 830,
        "desc" : "IRONWORK",
        "location" : {
          "id" : 9030,
          "name" : null,
          "latitude" : 43.594337,
          "longitude" : 4.297757
        },
        "openings" : {
          "start" : [ 10, 9 ],
          "end" : [ 15, 4 ]
        },
        "preferredSlots" : null,
        "doAfter" : null,
        "nbEmpRequired" : 1,
        "deadline" : [ 13, 21 ],
        "skills" : [ {
          "id" : 8,
          "name" : "IRONWORK",
          "level" : 2
        } ],
        "duration" : 2700.000000000,
        "pause" : false
      },
      "window" : {
        "start" : [ 10, 26 ],
        "end" : [ 11, 11 ]
      }
    }, {
      "job" : {
        "id" : -1,
        "desc" : "Pause",
        "location" : {
          "id" : 9030,
          "name" : null,
          "latitude" : 43.594337,
          "longitude" : 4.297757
        },
        "openings" : {
          "start" : [ 10, 9 ],
          "end" : [ 15, 4 ]
        },
        "preferredSlots" : null,
        "doAfter" : null,
        "nbEmpRequired" : 1,
        "deadline" : [ 13, 21 ],
        "skills" : [ {
          "id" : 8,
          "name" : "IRONWORK",
          "level" : 2
        } ],
        "duration" : 2700.000000000,
        "pause" : true
      },
      "window" : {
        "start" : [ 11, 12 ],
        "end" : [ 13, 0 ]
      }
    }, {
      "job" : {
        "id" : 722,
        "desc" : "IRONWORK",
        "location" : {
          "id" : 7741,
          "name" : null,
          "latitude" : 44.06083,
          "longitude" : 3.8178945
        },
        "openings" : {
          "start" : [ 9, 5 ],
          "end" : [ 9, 55 ]
        },
        "preferredSlots" : null,
        "doAfter" : null,
        "nbEmpRequired" : 1,
        "deadline" : [ 17, 54 ],
        "skills" : [ {
          "id" : 8,
          "name" : "IRONWORK",
          "level" : 4
        } ],
        "duration" : 3600.000000000,
        "pause" : false
      },
      "window" : {
        "start" : [ 14, 5 ],
        "end" : [ 15, 5 ]
      }
    } ],
    "driving" : 6360.000000000,
    "valid" : true
  }, {
    "emp" : {
      "id" : 860,
      "name" : "860",
      "shifts" : [ {
        "start" : [ 9, 0 ],
        "end" : [ 12, 0 ]
      }, {
        "start" : [ 13, 0 ],
        "end" : [ 17, 0 ]
      } ],
      "prefSlots" : null,
      "startingLoc" : {
        "id" : 1827,
        "name" : null,
        "latitude" : 43.402927,
        "longitude" : 4.0134573
      },
      "skills" : [ {
        "id" : 7,
        "name" : "PAINTING",
        "level" : 2
      }, {
        "id" : 2,
        "name" : "ELECTRICIAN",
        "level" : 8
      }, {
        "id" : 9,
        "name" : "TILER",
        "level" : 3
      }, {
        "id" : 0,
        "name" : "MANAGEMENT",
        "level" : 4
      }, {
        "id" : 7,
        "name" : "PAINTING",
        "level" : 7
      }, {
        "id" : 6,
        "name" : "CARPENTRY",
        "level" : 4
      }, {
        "id" : 4,
        "name" : "MASONRY",
        "level" : 7
      } ]
    },
    "planning" : [ {
      "job" : {
        "id" : -1,
        "desc" : "Home",
        "location" : {
          "id" : 1827,
          "name" : null,
          "latitude" : 43.402927,
          "longitude" : 4.0134573
        },
        "openings" : null,
        "preferredSlots" : null,
        "doAfter" : null,
        "nbEmpRequired" : 1,
        "deadline" : null,
        "skills" : [ ],
        "duration" : null,
        "pause" : true
      },
      "window" : {
        "start" : [ 9, 0 ],
        "end" : [ 9, 0 ]
      }
    }, {
      "job" : {
        "id" : 649,
        "desc" : "MASONRY, MANAGEMENT",
        "location" : {
          "id" : 6774,
          "name" : null,
          "latitude" : 43.668423,
          "longitude" : 3.7296062
        },
        "openings" : {
          "start" : [ 14, 11 ],
          "end" : [ 17, 36 ]
        },
        "preferredSlots" : null,
        "doAfter" : null,
        "nbEmpRequired" : 1,
        "deadline" : [ 9, 4 ],
        "skills" : [ {
          "id" : 4,
          "name" : "MASONRY",
          "level" : 1
        }, {
          "id" : 0,
          "name" : "MANAGEMENT",
          "level" : 1
        } ],
        "duration" : 1800.000000000,
        "pause" : false
      },
      "window" : {
        "start" : [ 9, 38 ],
        "end" : [ 10, 8 ]
      }
    }, {
      "job" : {
        "id" : 412,
        "desc" : "PAINTING, CARPENTRY",
        "location" : {
          "id" : 4548,
          "name" : null,
          "latitude" : 43.799587,
          "longitude" : 4.068675
        },
        "openings" : {
          "start" : [ 10, 33 ],
          "end" : [ 16, 23 ]
        },
        "preferredSlots" : null,
        "doAfter" : null,
        "nbEmpRequired" : 1,
        "deadline" : [ 13, 58 ],
        "skills" : [ {
          "id" : 7,
          "name" : "PAINTING",
          "level" : 2
        }, {
          "id" : 6,
          "name" : "CARPENTRY",
          "level" : 4
        } ],
        "duration" : 2700.000000000,
        "pause" : false
      },
      "window" : {
        "start" : [ 10, 39 ],
        "end" : [ 11, 24 ]
      }
    }, {
      "job" : {
        "id" : -1,
        "desc" : "Pause",
        "location" : {
          "id" : 4548,
          "name" : null,
          "latitude" : 43.799587,
          "longitude" : 4.068675
        },
        "openings" : {
          "start" : [ 10, 33 ],
          "end" : [ 16, 23 ]
        },
        "preferredSlots" : null,
        "doAfter" : null,
        "nbEmpRequired" : 1,
        "deadline" : [ 13, 58 ],
        "skills" : [ {
          "id" : 7,
          "name" : "PAINTING",
          "level" : 2
        }, {
          "id" : 6,
          "name" : "CARPENTRY",
          "level" : 4
        } ],
        "duration" : 2700.000000000,
        "pause" : true
      },
      "window" : {
        "start" : [ 11, 25 ],
        "end" : [ 13, 0 ]
      }
    }, {
      "job" : {
        "id" : 172,
        "desc" : "PAINTING",
        "location" : {
          "id" : 1511,
          "name" : null,
          "latitude" : 43.434826,
          "longitude" : 4.035571
        },
        "openings" : {
          "start" : [ 15, 23 ],
          "end" : [ 17, 23 ]
        },
        "preferredSlots" : null,
        "doAfter" : null,
        "nbEmpRequired" : 1,
        "deadline" : [ 13, 59 ],
        "skills" : [ {
          "id" : 7,
          "name" : "PAINTING",
          "level" : 4
        } ],
        "duration" : 1800.000000000,
        "pause" : false
      },
      "window" : {
        "start" : [ 13, 41 ],
        "end" : [ 14, 11 ]
      }
    }, {
      "job" : {
        "id" : 387,
        "desc" : "PAINTING",
        "location" : {
          "id" : 868,
          "name" : null,
          "latitude" : 43.953484,
          "longitude" : 3.8790421
        },
        "openings" : {
          "start" : [ 12, 15 ],
          "end" : [ 14, 4 ]
        },
        "preferredSlots" : null,
        "doAfter" : null,
        "nbEmpRequired" : 1,
        "deadline" : [ 14, 17 ],
        "skills" : [ {
          "id" : 7,
          "name" : "PAINTING",
          "level" : 4
        } ],
        "duration" : 3600.000000000,
        "pause" : false
      },
      "window" : {
        "start" : [ 15, 11 ],
        "end" : [ 16, 11 ]
      }
    } ],
    "driving" : 10200.000000000,
    "valid" : true
  }, {
    "emp" : {
      "id" : 784,
      "name" : "784",
      "shifts" : [ {
        "start" : [ 9, 0 ],
        "end" : [ 12, 0 ]
      }, {
        "start" : [ 13, 0 ],
        "end" : [ 17, 0 ]
      } ],
      "prefSlots" : null,
      "startingLoc" : {
        "id" : 6166,
        "name" : null,
        "latitude" : 43.885628,
        "longitude" : 4.217477
      },
      "skills" : [ {
        "id" : 8,
        "name" : "IRONWORK",
        "level" : 2
      }, {
        "id" : 2,
        "name" : "ELECTRICIAN",
        "level" : 8
      }, {
        "id" : 3,
        "name" : "PLUMBING",
        "level" : 9
      }, {
        "id" : 2,
        "name" : "ELECTRICIAN",
        "level" : 1
      }, {
        "id" : 5,
        "name" : "GLAZING",
        "level" : 9
      } ]
    },
    "planning" : [ {
      "job" : {
        "id" : -1,
        "desc" : "Home",
        "location" : {
          "id" : 6166,
          "name" : null,
          "latitude" : 43.885628,
          "longitude" : 4.217477
        },
        "openings" : null,
        "preferredSlots" : null,
        "doAfter" : null,
        "nbEmpRequired" : 1,
        "deadline" : null,
        "skills" : [ ],
        "duration" : null,
        "pause" : true
      },
      "window" : {
        "start" : [ 9, 0 ],
        "end" : [ 9, 0 ]
      }
    }, {
      "job" : {
        "id" : 486,
        "desc" : "GLAZING",
        "location" : {
          "id" : 5140,
          "name" : null,
          "latitude" : 43.413383,
          "longitude" : 4.1239233
        },
        "openings" : {
          "start" : [ 13, 43 ],
          "end" : [ 15, 4 ]
        },
        "preferredSlots" : null,
        "doAfter" : null,
        "nbEmpRequired" : 1,
        "deadline" : [ 14, 9 ],
        "skills" : [ {
          "id" : 5,
          "name" : "GLAZING",
          "level" : 5
        } ],
        "duration" : 5400.000000000,
        "pause" : false
      },
      "window" : {
        "start" : [ 9, 54 ],
        "end" : [ 11, 24 ]
      }
    }, {
      "job" : {
        "id" : -1,
        "desc" : "Pause",
        "location" : {
          "id" : 5140,
          "name" : null,
          "latitude" : 43.413383,
          "longitude" : 4.1239233
        },
        "openings" : {
          "start" : [ 13, 43 ],
          "end" : [ 15, 4 ]
        },
        "preferredSlots" : null,
        "doAfter" : null,
        "nbEmpRequired" : 1,
        "deadline" : [ 14, 9 ],
        "skills" : [ {
          "id" : 5,
          "name" : "GLAZING",
          "level" : 5
        } ],
        "duration" : 5400.000000000,
        "pause" : true
      },
      "window" : {
        "start" : [ 11, 25 ],
        "end" : [ 13, 0 ]
      }
    }, {
      "job" : {
        "id" : 682,
        "desc" : "PLUMBING, IRONWORK",
        "location" : {
          "id" : 2597,
          "name" : null,
          "latitude" : 43.746967,
          "longitude" : 3.758046
        },
        "openings" : {
          "start" : [ 13, 24 ],
          "end" : [ 17, 10 ]
        },
        "preferredSlots" : null,
        "doAfter" : null,
        "nbEmpRequired" : 1,
        "deadline" : [ 14, 35 ],
        "skills" : [ {
          "id" : 3,
          "name" : "PLUMBING",
          "level" : 5
        }, {
          "id" : 8,
          "name" : "IRONWORK",
          "level" : 2
        } ],
        "duration" : 7200.000000000,
        "pause" : false
      },
      "window" : {
        "start" : [ 13, 48 ],
        "end" : [ 15, 48 ]
      }
    } ],
    "driving" : 6120.000000000,
    "valid" : true
  } ],
  "unassigned" : [ {
    "id" : 935,
    "desc" : "MANAGEMENT, PLUMBING",
    "location" : {
      "id" : 8921,
      "name" : null,
      "latitude" : 43.40349,
      "longitude" : 3.95187
    },
    "openings" : {
      "start" : [ 11, 8 ],
      "end" : [ 13, 58 ]
    },
    "preferredSlots" : null,
    "doAfter" : null,
    "nbEmpRequired" : 1,
    "deadline" : [ 10, 26 ],
    "skills" : [ {
      "id" : 0,
      "name" : "MANAGEMENT",
      "level" : 2
    }, {
      "id" : 3,
      "name" : "PLUMBING",
      "level" : 4
    } ],
    "duration" : 5400.000000000,
    "pause" : false
  }, {
    "id" : 707,
    "desc" : "IRONWORK, CARPENTRY",
    "location" : {
      "id" : 7467,
      "name" : null,
      "latitude" : 43.928177,
      "longitude" : 4.063595
    },
    "openings" : {
      "start" : [ 10, 20 ],
      "end" : [ 16, 48 ]
    },
    "preferredSlots" : null,
    "doAfter" : null,
    "nbEmpRequired" : 1,
    "deadline" : [ 11, 33 ],
    "skills" : [ {
      "id" : 8,
      "name" : "IRONWORK",
      "level" : 2
    }, {
      "id" : 6,
      "name" : "CARPENTRY",
      "level" : 4
    } ],
    "duration" : 3600.000000000,
    "pause" : false
  }, {
    "id" : 714,
    "desc" : "CARPENTRY",
    "location" : {
      "id" : 8725,
      "name" : null,
      "latitude" : 43.44202,
      "longitude" : 4.057595
    },
    "openings" : {
      "start" : [ 9, 34 ],
      "end" : [ 16, 33 ]
    },
    "preferredSlots" : null,
    "doAfter" : null,
    "nbEmpRequired" : 1,
    "deadline" : [ 14, 20 ],
    "skills" : [ {
      "id" : 6,
      "name" : "CARPENTRY",
      "level" : 5
    } ],
    "duration" : 2700.000000000,
    "pause" : false
  }, {
    "id" : 614,
    "desc" : "TILER",
    "location" : {
      "id" : 544,
      "name" : null,
      "latitude" : 43.763493,
      "longitude" : 4.119928
    },
    "openings" : {
      "start" : [ 10, 20 ],
      "end" : [ 13, 27 ]
    },
    "preferredSlots" : null,
    "doAfter" : null,
    "nbEmpRequired" : 1,
    "deadline" : [ 14, 30 ],
    "skills" : [ {
      "id" : 9,
      "name" : "TILER",
      "level" : 5
    } ],
    "duration" : 5400.000000000,
    "pause" : false
  }, {
    "id" : 786,
    "desc" : "TILER, MANAGEMENT",
    "location" : {
      "id" : 2187,
      "name" : null,
      "latitude" : 43.745285,
      "longitude" : 3.9907146
    },
    "openings" : {
      "start" : [ 14, 55 ],
      "end" : [ 16, 26 ]
    },
    "preferredSlots" : null,
    "doAfter" : null,
    "nbEmpRequired" : 1,
    "deadline" : [ 15, 37 ],
    "skills" : [ {
      "id" : 9,
      "name" : "TILER",
      "level" : 2
    }, {
      "id" : 0,
      "name" : "MANAGEMENT",
      "level" : 2
    } ],
    "duration" : 5400.000000000,
    "pause" : false
  }, {
    "id" : 855,
    "desc" : "PAINTING, GLAZING",
    "location" : {
      "id" : 8155,
      "name" : null,
      "latitude" : 43.655655,
      "longitude" : 3.9946015
    },
    "openings" : {
      "start" : [ 12, 41 ],
      "end" : [ 13, 36 ]
    },
    "preferredSlots" : null,
    "doAfter" : null,
    "nbEmpRequired" : 1,
    "deadline" : [ 15, 37 ],
    "skills" : [ {
      "id" : 7,
      "name" : "PAINTING",
      "level" : 4
    }, {
      "id" : 5,
      "name" : "GLAZING",
      "level" : 3
    } ],
    "duration" : 2700.000000000,
    "pause" : false
  }, {
    "id" : 386,
    "desc" : "MANAGEMENT, GLAZING",
    "location" : {
      "id" : 7604,
      "name" : null,
      "latitude" : 43.477463,
      "longitude" : 3.7112358
    },
    "openings" : {
      "start" : [ 11, 5 ],
      "end" : [ 13, 2 ]
    },
    "preferredSlots" : null,
    "doAfter" : null,
    "nbEmpRequired" : 1,
    "deadline" : [ 15, 54 ],
    "skills" : [ {
      "id" : 0,
      "name" : "MANAGEMENT",
      "level" : 1
    }, {
      "id" : 5,
      "name" : "GLAZING",
      "level" : 3
    } ],
    "duration" : 1800.000000000,
    "pause" : false
  }, {
    "id" : 625,
    "desc" : "CARPENTRY, IRONWORK",
    "location" : {
      "id" : 2845,
      "name" : null,
      "latitude" : 43.440353,
      "longitude" : 4.259222
    },
    "openings" : {
      "start" : [ 9, 57 ],
      "end" : [ 14, 11 ]
    },
    "preferredSlots" : null,
    "doAfter" : null,
    "nbEmpRequired" : 1,
    "deadline" : [ 16, 10 ],
    "skills" : [ {
      "id" : 6,
      "name" : "CARPENTRY",
      "level" : 4
    }, {
      "id" : 8,
      "name" : "IRONWORK",
      "level" : 3
    } ],
    "duration" : 1800.000000000,
    "pause" : false
  }, {
    "id" : 599,
    "desc" : "GLAZING, CARPENTRY",
    "location" : {
      "id" : 3569,
      "name" : null,
      "latitude" : 43.904205,
      "longitude" : 4.2656355
    },
    "openings" : {
      "start" : [ 13, 21 ],
      "end" : [ 13, 24 ]
    },
    "preferredSlots" : null,
    "doAfter" : null,
    "nbEmpRequired" : 1,
    "deadline" : [ 16, 23 ],
    "skills" : [ {
      "id" : 5,
      "name" : "GLAZING",
      "level" : 5
    }, {
      "id" : 6,
      "name" : "CARPENTRY",
      "level" : 1
    } ],
    "duration" : 2700.000000000,
    "pause" : false
  }, {
    "id" : 976,
    "desc" : "CARPENTRY",
    "location" : {
      "id" : 8236,
      "name" : null,
      "latitude" : 43.62023,
      "longitude" : 4.1632967
    },
    "openings" : {
      "start" : [ 15, 45 ],
      "end" : [ 17, 33 ]
    },
    "preferredSlots" : null,
    "doAfter" : null,
    "nbEmpRequired" : 1,
    "deadline" : [ 16, 33 ],
    "skills" : [ {
      "id" : 6,
      "name" : "CARPENTRY",
      "level" : 3
    } ],
    "duration" : 5400.000000000,
    "pause" : false
  }, {
    "id" : 626,
    "desc" : "PAINTING",
    "location" : {
      "id" : 3687,
      "name" : null,
      "latitude" : 43.875164,
      "longitude" : 3.7597485
    },
    "openings" : {
      "start" : [ 11, 53 ],
      "end" : [ 12, 56 ]
    },
    "preferredSlots" : null,
    "doAfter" : null,
    "nbEmpRequired" : 1,
    "deadline" : [ 16, 35 ],
    "skills" : [ {
      "id" : 7,
      "name" : "PAINTING",
      "level" : 5
    } ],
    "duration" : 2700.000000000,
    "pause" : false
  }, {
    "id" : 349,
    "desc" : "PAINTING",
    "location" : {
      "id" : 6256,
      "name" : null,
      "latitude" : 43.40596,
      "longitude" : 3.7755458
    },
    "openings" : {
      "start" : [ 11, 30 ],
      "end" : [ 12, 11 ]
    },
    "preferredSlots" : null,
    "doAfter" : null,
    "nbEmpRequired" : 1,
    "deadline" : [ 16, 49 ],
    "skills" : [ {
      "id" : 7,
      "name" : "PAINTING",
      "level" : 4
    } ],
    "duration" : 5400.000000000,
    "pause" : false
  }, {
    "id" : 322,
    "desc" : "TILER",
    "location" : {
      "id" : 9804,
      "name" : null,
      "latitude" : 44.09736,
      "longitude" : 4.239299
    },
    "openings" : {
      "start" : [ 10, 28 ],
      "end" : [ 16, 9 ]
    },
    "preferredSlots" : null,
    "doAfter" : null,
    "nbEmpRequired" : 1,
    "deadline" : [ 17, 10 ],
    "skills" : [ {
      "id" : 9,
      "name" : "TILER",
      "level" : 5
    } ],
    "duration" : 2700.000000000,
    "pause" : false
  }, {
    "id" : 319,
    "desc" : "CARPENTRY, PAINTING",
    "location" : {
      "id" : 7107,
      "name" : null,
      "latitude" : 44.068897,
      "longitude" : 3.7960339
    },
    "openings" : {
      "start" : [ 10, 15 ],
      "end" : [ 14, 49 ]
    },
    "preferredSlots" : null,
    "doAfter" : null,
    "nbEmpRequired" : 1,
    "deadline" : [ 17, 14 ],
    "skills" : [ {
      "id" : 6,
      "name" : "CARPENTRY",
      "level" : 4
    }, {
      "id" : 7,
      "name" : "PAINTING",
      "level" : 3
    } ],
    "duration" : 3600.000000000,
    "pause" : false
  }, {
    "id" : 97,
    "desc" : "GLAZING, PLUMBING",
    "location" : {
      "id" : 8555,
      "name" : null,
      "latitude" : 43.980858,
      "longitude" : 3.73689
    },
    "openings" : {
      "start" : [ 12, 19 ],
      "end" : [ 13, 12 ]
    },
    "preferredSlots" : null,
    "doAfter" : null,
    "nbEmpRequired" : 1,
    "deadline" : [ 17, 23 ],
    "skills" : [ {
      "id" : 5,
      "name" : "GLAZING",
      "level" : 4
    }, {
      "id" : 3,
      "name" : "PLUMBING",
      "level" : 5
    } ],
    "duration" : 5400.000000000,
    "pause" : false
  }, {
    "id" : 139,
    "desc" : "CARPENTRY",
    "location" : {
      "id" : 7392,
      "name" : null,
      "latitude" : 43.544594,
      "longitude" : 3.734757
    },
    "openings" : {
      "start" : [ 12, 41 ],
      "end" : [ 13, 52 ]
    },
    "preferredSlots" : null,
    "doAfter" : null,
    "nbEmpRequired" : 1,
    "deadline" : [ 17, 35 ],
    "skills" : [ {
      "id" : 6,
      "name" : "CARPENTRY",
      "level" : 2
    } ],
    "duration" : 2700.000000000,
    "pause" : false
  }, {
    "id" : 942,
    "desc" : "MASONRY, TILER",
    "location" : {
      "id" : 603,
      "name" : null,
      "latitude" : 44.004402,
      "longitude" : 4.034925
    },
    "openings" : {
      "start" : [ 12, 53 ],
      "end" : [ 16, 57 ]
    },
    "preferredSlots" : null,
    "doAfter" : null,
    "nbEmpRequired" : 1,
    "deadline" : [ 17, 39 ],
    "skills" : [ {
      "id" : 4,
      "name" : "MASONRY",
      "level" : 2
    }, {
      "id" : 9,
      "name" : "TILER",
      "level" : 4
    } ],
    "duration" : 3600.000000000,
    "pause" : false
  }, {
    "id" : 809,
    "desc" : "CARPENTRY",
    "location" : {
      "id" : 2680,
      "name" : null,
      "latitude" : 43.480694,
      "longitude" : 4.0468206
    },
    "openings" : {
      "start" : [ 10, 50 ],
      "end" : [ 14, 32 ]
    },
    "preferredSlots" : null,
    "doAfter" : null,
    "nbEmpRequired" : 1,
    "deadline" : [ 17, 47 ],
    "skills" : [ {
      "id" : 6,
      "name" : "CARPENTRY",
      "level" : 1
    } ],
    "duration" : 1800.000000000,
    "pause" : false
  }, {
    "id" : 897,
    "desc" : "IRONWORK",
    "location" : {
      "id" : 438,
      "name" : null,
      "latitude" : 43.41927,
      "longitude" : 4.1710515
    },
    "openings" : {
      "start" : [ 14, 42 ],
      "end" : [ 17, 14 ]
    },
    "preferredSlots" : null,
    "doAfter" : null,
    "nbEmpRequired" : 1,
    "deadline" : [ 17, 57 ],
    "skills" : [ {
      "id" : 8,
      "name" : "IRONWORK",
      "level" : 1
    } ],
    "duration" : 2700.000000000,
    "pause" : false
  } ],
  "valid" : true
}