{
  "listEdt" : [ {
    "emp" : {
      "id" : 719,
      "name" : "719",
      "shifts" : [ {
        "start" : [ 9, 0 ],
        "end" : [ 12, 0 ]
      }, {
        "start" : [ 13, 0 ],
        "end" : [ 17, 0 ]
      } ],
      "prefSlots" : null,
      "startingLoc" : {
        "id" : 9206,
        "name" : null,
        "latitude" : 43.44389,
        "longitude" : 3.8903995
      },
      "skills" : [ {
        "id" : 1,
        "name" : "ENGINEER",
        "level" : 9
      }, {
        "id" : 7,
        "name" : "PAINTING",
        "level" : 3
      }, {
        "id" : 6,
        "name" : "CARPENTRY",
        "level" : 2
      }, {
        "id" : 4,
        "name" : "MASONRY",
        "level" : 8
      }, {
        "id" : 6,
        "name" : "CARPENTRY",
        "level" : 5
      } ]
    },
    "planning" : [ {
      "job" : {
        "id" : -1,
        "desc" : "Home",
        "location" : {
          "id" : 9206,
          "name" : null,
          "latitude" : 43.44389,
          "longitude" : 3.8903995
        },
        "openings" : null,
        "preferredSlots" : null,
        "doAfter" : null,
        "nbEmpRequired" : 1,
        "deadline" : null,
        "skills" : [ ],
        "duration" : null,
        "pause" : true
      },
      "window" : {
        "start" : [ 9, 0 ],
        "end" : [ 9, 0 ]
      }
    }, {
      "job" : {
        "id" : 997,
        "desc" : "MASONRY, PAINTING",
        "location" : {
          "id" : 4925,
          "name" : null,
          "latitude" : 44.000694,
          "longitude" : 4.032579
        },
        "openings" : {
          "start" : [ 10, 17 ],
          "end" : [ 10, 18 ]
        },
        "preferredSlots" : null,
        "doAfter" : null,
        "nbEmpRequired" : 1,
        "deadline" : [ 11, 9 ],
        "skills" : [ {
          "id" : 4,
          "name" : "MASONRY",
          "level" : 1
        }, {
          "id" : 7,
          "name" : "PAINTING",
          "level" : 1
        } ],
        "duration" : 1800.000000000,
        "pause" : false
      },
      "window" : {
        "start" : [ 10, 3 ],
        "end" : [ 10, 33 ]
      }
    }, {
      "job" : {
        "id" : 931,
        "desc" : "ENGINEER, CARPENTRY",
        "location" : {
          "id" : 8404,
          "name" : null,
          "latitude" : 43.761147,
          "longitude" : 4.281881
        },
        "openings" : {
          "start" : [ 9, 52 ],
          "end" : [ 10, 0 ]
        },
        "preferredSlots" : null,
        "doAfter" : null,
        "nbEmpRequired" : 1,
        "deadline" : [ 14, 30 ],
        "skills" : [ {
          "id" : 1,
          "name" : "ENGINEER",
          "level" : 5
        }, {
          "id" : 6,
          "name" : "CARPENTRY",
          "level" : 3
        } ],
        "duration" : 1800.000000000,
        "pause" : false
      },
      "window" : {
        "start" : [ 11, 7 ],
        "end" : [ 11, 37 ]
      }
    }, {
      "job" : {
        "id" : -1,
        "desc" : "Pause",
        "location" : {
          "id" : 8404,
          "name" : null,
          "latitude" : 43.761147,
          "longitude" : 4.281881
        },
        "openings" : {
          "start" : [ 9, 52 ],
          "end" : [ 10, 0 ]
        },
        "preferredSlots" : null,
        "doAfter" : null,
        "nbEmpRequired" : 1,
        "deadline" : [ 14, 30 ],
        "skills" : [ {
          "id" : 1,
          "name" : "ENGINEER",
          "level" : 5
        }, {
          "id" : 6,
          "name" : "CARPENTRY",
          "level" : 3
        } ],
        "duration" : 1800.000000000,
        "pause" : true
      },
      "window" : {
        "start" : [ 11, 38 ],
        "end" : [ 13, 0 ]
      }
    }, {
      "job" : {
        "id" : 557,
        "desc" : "MASONRY",
        "location" : {
          "id" : 430,
          "name" : null,
          "latitude" : 43.544914,
          "longitude" : 3.8522897
        },
        "openings" : {
          "start" : [ 10, 57 ],
          "end" : [ 16, 25 ]
        },
        "preferredSlots" : null,
        "doAfter" : null,
        "nbEmpRequired" : 1,
        "deadline" : [ 11, 48 ],
        "skills" : [ {
          "id" : 4,
          "name" : "MASONRY",
          "level" : 1
        } ],
        "duration" : 3600.000000000,
        "pause" : false
      },
      "window" : {
        "start" : [ 13, 43 ],
        "end" : [ 14, 43 ]
      }
    }, {
      "job" : {
        "id" : 704,
        "desc" : "MASONRY",
        "location" : {
          "id" : 759,
          "name" : null,
          "latitude" : 43.40178,
          "longitude" : 4.293862
        },
        "openings" : {
          "start" : [ 10, 25 ],
          "end" : [ 16, 25 ]
        },
        "preferredSlots" : null,
        "doAfter" : null,
        "nbEmpRequired" : 1,
        "deadline" : [ 12, 27 ],
        "skills" : [ {
          "id" : 4,
          "name" : "MASONRY",
          "level" : 3
        } ],
        "duration" : 5400.000000000,
        "pause" : false
      },
      "window" : {
        "start" : [ 15, 23 ],
        "end" : [ 16, 53 ]
      }
    } ],
    "driving" : 10800.000000000,
    "valid" : true
  }, {
    "emp" : {
      "id" : 706,
      "name" : "706",
      "shifts" : [ {
        "start" : [ 9, 0 ],
        "end" : [ 12, 0 ]
      }, {
        "start" : [ 13, 0 ],
        "end" : [ 17, 0 ]
      } ],
      "prefSlots" : null,
      "startingLoc" : {
        "id" : 6500,
        "name" : null,
        "latitude" : 43.964283,
        "longitude" : 4.1840186
      },
      "skills" : [ {
        "id" : 1,
        "name" : "ENGINEER",
        "level" : 3
      }, {
        "id" : 0,
        "name" : "MANAGEMENT",
        "level" : 2
      }, {
        "id" : 4,
        "name" : "MASONRY",
        "level" : 10
      }, {
        "id" : 5,
        "name" : "GLAZING",
        "level" : 2
      }, {
        "id" : 4,
        "name" : "MASONRY",
        "level" : 7
      }, {
        "id" : 9,
        "name" : "TILER",
        "level" : 3
      } ]
    },
    "planning" : [ {
      "job" : {
        "id" : -1,
        "desc" : "Home",
        "location" : {
          "id" : 6500,
          "name" : null,
          "latitude" : 43.964283,
          "longitude" : 4.1840186
        },
        "openings" : null,
        "preferredSlots" : null,
        "doAfter" : null,
        "nbEmpRequired" : 1,
        "deadline" : null,
        "skills" : [ ],
        "duration" : null,
        "pause" : true
      },
      "window" : {
        "start" : [ 9, 0 ],
        "end" : [ 9, 0 ]
      }
    }, {
      "job" : {
        "id" : 282,
        "desc" : "MANAGEMENT",
        "location" : {
          "id" : 7422,
          "name" : null,
          "latitude" : 43.955357,
          "longitude" : 4.127111
        },
        "openings" : {
          "start" : [ 14, 2 ],
          "end" : [ 16, 12 ]
        },
        "preferredSlots" : null,
        "doAfter" : null,
        "nbEmpRequired" : 1,
        "deadline" : [ 9, 46 ],
        "skills" : [ {
          "id" : 0,
          "name" : "MANAGEMENT",
          "level" : 1
        } ],
        "duration" : 1800.000000000,
        "pause" : false
      },
      "window" : {
        "start" : [ 9, 5 ],
        "end" : [ 9, 35 ]
      }
    }, {
      "job" : {
        "id" : 436,
        "desc" : "MANAGEMENT, MASONRY",
        "location" : {
          "id" : 3688,
          "name" : null,
          "latitude" : 43.544437,
          "longitude" : 4.2579865
        },
        "openings" : {
          "start" : [ 12, 43 ],
          "end" : [ 13, 44 ]
        },
        "preferredSlots" : null,
        "doAfter" : null,
        "nbEmpRequired" : 1,
        "deadline" : [ 10, 46 ],
        "skills" : [ {
          "id" : 0,
          "name" : "MANAGEMENT",
          "level" : 1
        }, {
          "id" : 4,
          "name" : "MASONRY",
          "level" : 5
        } ],
        "duration" : 2700.000000000,
        "pause" : false
      },
      "window" : {
        "start" : [ 10, 22 ],
        "end" : [ 11, 7 ]
      }
    }, {
      "job" : {
        "id" : -1,
        "desc" : "Pause",
        "location" : {
          "id" : 3688,
          "name" : null,
          "latitude" : 43.544437,
          "longitude" : 4.2579865
        },
        "openings" : {
          "start" : [ 12, 43 ],
          "end" : [ 13, 44 ]
        },
        "preferredSlots" : null,
        "doAfter" : null,
        "nbEmpRequired" : 1,
        "deadline" : [ 10, 46 ],
        "skills" : [ {
          "id" : 0,
          "name" : "MANAGEMENT",
          "level" : 1
        }, {
          "id" : 4,
          "name" : "MASONRY",
          "level" : 5
        } ],
        "duration" : 2700.000000000,
        "pause" : true
      },
      "window" : {
        "start" : [ 11, 8 ],
        "end" : [ 13, 0 ]
      }
    }, {
      "job" : {
        "id" : 763,
        "desc" : "MANAGEMENT, GLAZING",
        "location" : {
          "id" : 5405,
          "name" : null,
          "latitude" : 43.72752,
          "longitude" : 3.8868766
        },
        "openings" : {
          "start" : [ 14, 13 ],
          "end" : [ 16, 19 ]
        },
        "preferredSlots" : null,
        "doAfter" : null,
        "nbEmpRequired" : 1,
        "deadline" : [ 11, 4 ],
        "skills" : [ {
          "id" : 0,
          "name" : "MANAGEMENT",
          "level" : 1
        }, {
          "id" : 5,
          "name" : "GLAZING",
          "level" : 2
        } ],
        "duration" : 3600.000000000,
        "pause" : false
      },
      "window" : {
        "start" : [ 13, 37 ],
        "end" : [ 14, 37 ]
      }
    }, {
      "job" : {
        "id" : 812,
        "desc" : "MANAGEMENT",
        "location" : {
          "id" : 9629,
          "name" : null,
          "latitude" : 43.42103,
          "longitude" : 4.236399
        },
        "openings" : {
          "start" : [ 13, 1 ],
          "end" : [ 16, 30 ]
        },
        "preferredSlots" : null,
        "doAfter" : null,
        "nbEmpRequired" : 1,
        "deadline" : [ 11, 55 ],
        "skills" : [ {
          "id" : 0,
          "name" : "MANAGEMENT",
          "level" : 2
        } ],
        "duration" : 3600.000000000,
        "pause" : false
      },
      "window" : {
        "start" : [ 15, 22 ],
        "end" : [ 16, 22 ]
      }
    } ],
    "driving" : 8040.000000000,
    "valid" : true
  }, {
    "emp" : {
      "id" : 689,
      "name" : "689",
      "shifts" : [ {
        "start" : [ 9, 0 ],
        "end" : [ 12, 0 ]
      }, {
        "start" : [ 13, 0 ],
        "end" : [ 17, 0 ]
      } ],
      "prefSlots" : null,
      "startingLoc" : {
        "id" : 608,
        "name" : null,
        "latitude" : 43.435497,
        "longitude" : 4.1023893
      },
      "skills" : [ {
        "id" : 5,
        "name" : "GLAZING",
        "level" : 1
      }, {
        "id" : 2,
        "name" : "ELECTRICIAN",
        "level" : 10
      }, {
        "id" : 1,
        "name" : "ENGINEER",
        "level" : 4
      }, {
        "id" : 6,
        "name" : "CARPENTRY",
        "level" : 3
      }, {
        "id" : 4,
        "name" : "MASONRY",
        "level" : 8
      }, {
        "id" : 8,
        "name" : "IRONWORK",
        "level" : 6
      }, {
        "id" : 6,
        "name" : "CARPENTRY",
        "level" : 3
      }, {
        "id" : 2,
        "name" : "ELECTRICIAN",
        "level" : 7
      } ]
    },
    "planning" : [ {
      "job" : {
        "id" : -1,
        "desc" : "Home",
        "location" : {
          "id" : 608,
          "name" : null,
          "latitude" : 43.435497,
          "longitude" : 4.1023893
        },
        "openings" : null,
        "preferredSlots" : null,
        "doAfter" : null,
        "nbEmpRequired" : 1,
        "deadline" : null,
        "skills" : [ ],
        "duration" : null,
        "pause" : true
      },
      "window" : {
        "start" : [ 9, 0 ],
        "end" : [ 9, 0 ]
      }
    }, {
      "job" : {
        "id" : 287,
        "desc" : "ELECTRICIAN",
        "location" : {
          "id" : 7165,
          "name" : null,
          "latitude" : 43.796177,
          "longitude" : 3.9544768
        },
        "openings" : {
          "start" : [ 11, 58 ],
          "end" : [ 17, 23 ]
        },
        "preferredSlots" : null,
        "doAfter" : null,
        "nbEmpRequired" : 1,
        "deadline" : [ 10, 30 ],
        "skills" : [ {
          "id" : 2,
          "name" : "ELECTRICIAN",
          "level" : 5
        } ],
        "duration" : 1800.000000000,
        "pause" : false
      },
      "window" : {
        "start" : [ 9, 42 ],
        "end" : [ 10, 12 ]
      }
    }, {
      "job" : {
        "id" : 541,
        "desc" : "ELECTRICIAN",
        "location" : {
          "id" : 5309,
          "name" : null,
          "latitude" : 43.664833,
          "longitude" : 3.893053
        },
        "openings" : {
          "start" : [ 9, 4 ],
          "end" : [ 11, 9 ]
        },
        "preferredSlots" : null,
        "doAfter" : null,
        "nbEmpRequired" : 1,
        "deadline" : [ 12, 4 ],
        "skills" : [ {
          "id" : 2,
          "name" : "ELECTRICIAN",
          "level" : 1
        } ],
        "duration" : 1800.000000000,
        "pause" : false
      },
      "window" : {
        "start" : [ 10, 28 ],
        "end" : [ 10, 58 ]
      }
    }, {
      "job" : {
        "id" : -1,
        "desc" : "Pause",
        "location" : {
          "id" : 5309,
          "name" : null,
          "latitude" : 43.664833,
          "longitude" : 3.893053
        },
        "openings" : {
          "start" : [ 9, 4 ],
          "end" : [ 11, 9 ]
        },
        "preferredSlots" : null,
        "doAfter" : null,
        "nbEmpRequired" : 1,
        "deadline" : [ 12, 4 ],
        "skills" : [ {
          "id" : 2,
          "name" : "ELECTRICIAN",
          "level" : 1
        } ],
        "duration" : 1800.000000000,
        "pause" : true
      },
      "window" : {
        "start" : [ 10, 59 ],
        "end" : [ 13, 0 ]
      }
    }, {
      "job" : {
        "id" : 234,
        "desc" : "MASONRY",
        "location" : {
          "id" : 6666,
          "name" : null,
          "latitude" : 43.56302,
          "longitude" : 4.045081
        },
        "openings" : {
          "start" : [ 9, 18 ],
          "end" : [ 12, 30 ]
        },
        "preferredSlots" : null,
        "doAfter" : null,
        "nbEmpRequired" : 1,
        "deadline" : [ 12, 35 ],
        "skills" : [ {
          "id" : 4,
          "name" : "MASONRY",
          "level" : 3
        } ],
        "duration" : 5400.000000000,
        "pause" : false
      },
      "window" : {
        "start" : [ 13, 17 ],
        "end" : [ 14, 47 ]
      }
    }, {
      "job" : {
        "id" : 164,
        "desc" : "IRONWORK, GLAZING",
        "location" : {
          "id" : 177,
          "name" : null,
          "latitude" : 44.078526,
          "longitude" : 4.018019
        },
        "openings" : {
          "start" : [ 11, 20 ],
          "end" : [ 12, 5 ]
        },
        "preferredSlots" : null,
        "doAfter" : null,
        "nbEmpRequired" : 1,
        "deadline" : [ 13, 8 ],
        "skills" : [ {
          "id" : 8,
          "name" : "IRONWORK",
          "level" : 4
        }, {
          "id" : 5,
          "name" : "GLAZING",
          "level" : 1
        } ],
        "duration" : 2700.000000000,
        "pause" : false
      },
      "window" : {
        "start" : [ 15, 45 ],
        "end" : [ 16, 30 ]
      }
    } ],
    "driving" : 7980.000000000,
    "valid" : true
  }, {
    "emp" : {
      "id" : 552,
      "name" : "552",
      "shifts" : [ {
        "start" : [ 9, 0 ],
        "end" : [ 12, 0 ]
      }, {
        "start" : [ 13, 0 ],
        "end" : [ 17, 0 ]
      } ],
      "prefSlots" : null,
      "startingLoc" : {
        "id" : 2634,
        "name" : null,
        "latitude" : 44.073475,
        "longitude" : 3.7619023
      },
      "skills" : [ {
        "id" : 3,
        "name" : "PLUMBING",
        "level" : 10
      }, {
        "id" : 0,
        "name" : "MANAGEMENT",
        "level" : 7
      }, {
        "id" : 3,
        "name" : "PLUMBING",
        "level" : 7
      }, {
        "id" : 3,
        "name" : "PLUMBING",
        "level" : 9
      }, {
        "id" : 5,
        "name" : "GLAZING",
        "level" : 7
      }, {
        "id" : 8,
        "name" : "IRONWORK",
        "level" : 3
      }, {
        "id" : 3,
        "name" : "PLUMBING",
        "level" : 9
      }, {
        "id" : 0,
        "name" : "MANAGEMENT",
        "level" : 3
      } ]
    },
    "planning" : [ {
      "job" : {
        "id" : -1,
        "desc" : "Home",
        "location" : {
          "id" : 2634,
          "name" : null,
          "latitude" : 44.073475,
          "longitude" : 3.7619023
        },
        "openings" : null,
        "preferredSlots" : null,
        "doAfter" : null,
        "nbEmpRequired" : 1,
        "deadline" : null,
        "skills" : [ ],
        "duration" : null,
        "pause" : true
      },
      "window" : {
        "start" : [ 9, 0 ],
        "end" : [ 9, 0 ]
      }
    }, {
      "job" : {
        "id" : 71,
        "desc" : "GLAZING",
        "location" : {
          "id" : 4023,
          "name" : null,
          "latitude" : 43.786156,
          "longitude" : 3.8865669
        },
        "openings" : {
          "start" : [ 9, 44 ],
          "end" : [ 12, 27 ]
        },
        "preferredSlots" : null,
        "doAfter" : null,
        "nbEmpRequired" : 1,
        "deadline" : [ 9, 1 ],
        "skills" : [ {
          "id" : 5,
          "name" : "GLAZING",
          "level" : 3
        } ],
        "duration" : 2700.000000000,
        "pause" : false
      },
      "window" : {
        "start" : [ 9, 34 ],
        "end" : [ 10, 19 ]
      }
    }, {
      "job" : {
        "id" : 586,
        "desc" : "PLUMBING",
        "location" : {
          "id" : 6548,
          "name" : null,
          "latitude" : 43.84678,
          "longitude" : 3.9408336
        },
        "openings" : {
          "start" : [ 12, 46 ],
          "end" : [ 16, 38 ]
        },
        "preferredSlots" : null,
        "doAfter" : null,
        "nbEmpRequired" : 1,
        "deadline" : [ 10, 12 ],
        "skills" : [ {
          "id" : 3,
          "name" : "PLUMBING",
          "level" : 5
        } ],
        "duration" : 1800.000000000,
        "pause" : false
      },
      "window" : {
        "start" : [ 10, 28 ],
        "end" : [ 10, 58 ]
      }
    }, {
      "job" : {
        "id" : 741,
        "desc" : "MANAGEMENT",
        "location" : {
          "id" : 9885,
          "name" : null,
          "latitude" : 43.991997,
          "longitude" : 3.9730575
        },
        "openings" : {
          "start" : [ 10, 53 ],
          "end" : [ 17, 15 ]
        },
        "preferredSlots" : null,
        "doAfter" : null,
        "nbEmpRequired" : 1,
        "deadline" : [ 17, 40 ],
        "skills" : [ {
          "id" : 0,
          "name" : "MANAGEMENT",
          "level" : 4
        } ],
        "duration" : 1800.000000000,
        "pause" : false
      },
      "window" : {
        "start" : [ 11, 15 ],
        "end" : [ 11, 45 ]
      }
    }, {
      "job" : {
        "id" : -1,
        "desc" : "Pause",
        "location" : {
          "id" : 9885,
          "name" : null,
          "latitude" : 43.991997,
          "longitude" : 3.9730575
        },
        "openings" : {
          "start" : [ 10, 53 ],
          "end" : [ 17, 15 ]
        },
        "preferredSlots" : null,
        "doAfter" : null,
        "nbEmpRequired" : 1,
        "deadline" : [ 17, 40 ],
        "skills" : [ {
          "id" : 0,
          "name" : "MANAGEMENT",
          "level" : 4
        } ],
        "duration" : 1800.000000000,
        "pause" : true
      },
      "window" : {
        "start" : [ 11, 46 ],
        "end" : [ 13, 0 ]
      }
    }, {
      "job" : {
        "id" : 208,
        "desc" : "MANAGEMENT, PLUMBING",
        "location" : {
          "id" : 7927,
          "name" : null,
          "latitude" : 43.91826,
          "longitude" : 3.7306352
        },
        "openings" : {
          "start" : [ 11, 7 ],
          "end" : [ 14, 32 ]
        },
        "preferredSlots" : null,
        "doAfter" : null,
        "nbEmpRequired" : 1,
        "deadline" : [ 9, 2 ],
        "skills" : [ {
          "id" : 0,
          "name" : "MANAGEMENT",
          "level" : 1
        }, {
          "id" : 3,
          "name" : "PLUMBING",
          "level" : 5
        } ],
        "duration" : 7200.000000000,
        "pause" : false
      },
      "window" : {
        "start" : [ 13, 22 ],
        "end" : [ 15, 22 ]
      }
    }, {
      "job" : {
        "id" : 365,
        "desc" : "GLAZING",
        "location" : {
          "id" : 6182,
          "name" : null,
          "latitude" : 43.416195,
          "longitude" : 3.8476167
        },
        "openings" : {
          "start" : [ 15, 32 ],
          "end" : [ 16, 0 ]
        },
        "preferredSlots" : null,
        "doAfter" : null,
        "nbEmpRequired" : 1,
        "deadline" : [ 12, 12 ],
        "skills" : [ {
          "id" : 5,
          "name" : "GLAZING",
          "level" : 3
        } ],
        "duration" : 1800.000000000,
        "pause" : false
      },
      "window" : {
        "start" : [ 16, 19 ],
        "end" : [ 16, 49 ]
      }
    } ],
    "driving" : 8340.000000000,
    "valid" : true
  }, {
    "emp" : {
      "id" : 887,
      "name" : "887",
      "shifts" : [ {
        "start" : [ 9, 0 ],
        "end" : [ 12, 0 ]
      }, {
        "start" : [ 13, 0 ],
        "end" : [ 17, 0 ]
      } ],
      "prefSlots" : null,
      "startingLoc" : {
        "id" : 2945,
        "name" : null,
        "latitude" : 43.921852,
        "longitude" : 3.9479365
      },
      "skills" : [ {
        "id" : 2,
        "name" : "ELECTRICIAN",
        "level" : 7
      }, {
        "id" : 5,
        "name" : "GLAZING",
        "level" : 8
      } ]
    },
    "planning" : [ {
      "job" : {
        "id" : -1,
        "desc" : "Home",
        "location" : {
          "id" : 2945,
          "name" : null,
          "latitude" : 43.921852,
          "longitude" : 3.9479365
        },
        "openings" : null,
        "preferredSlots" : null,
        "doAfter" : null,
        "nbEmpRequired" : 1,
        "deadline" : null,
        "skills" : [ ],
        "duration" : null,
        "pause" : true
      },
      "window" : {
        "start" : [ 9, 0 ],
        "end" : [ 9, 0 ]
      }
    }, {
      "job" : {
        "id" : 557,
        "desc" : "GLAZING",
        "location" : {
          "id" : 1905,
          "name" : null,
          "latitude" : 43.991154,
          "longitude" : 4.2225866
        },
        "openings" : {
          "start" : [ 16, 7 ],
          "end" : [ 17, 54 ]
        },
        "preferredSlots" : null,
        "doAfter" : null,
        "nbEmpRequired" : 1,
        "deadline" : [ 13, 38 ],
        "skills" : [ {
          "id" : 5,
          "name" : "GLAZING",
          "level" : 1
        } ],
        "duration" : 5400.000000000,
        "pause" : false
      },
      "window" : {
        "start" : [ 9, 24 ],
        "end" : [ 10, 54 ]
      }
    }, {
      "job" : {
        "id" : -1,
        "desc" : "Pause",
        "location" : {
          "id" : 1905,
          "name" : null,
          "latitude" : 43.991154,
          "longitude" : 4.2225866
        },
        "openings" : {
          "start" : [ 16, 7 ],
          "end" : [ 17, 54 ]
        },
        "preferredSlots" : null,
        "doAfter" : null,
        "nbEmpRequired" : 1,
        "deadline" : [ 13, 38 ],
        "skills" : [ {
          "id" : 5,
          "name" : "GLAZING",
          "level" : 1
        } ],
        "duration" : 5400.000000000,
        "pause" : true
      },
      "window" : {
        "start" : [ 10, 55 ],
        "end" : [ 13, 0 ]
      }
    }, {
      "job" : {
        "id" : 591,
        "desc" : "GLAZING",
        "location" : {
          "id" : 5119,
          "name" : null,
          "latitude" : 43.69413,
          "longitude" : 3.9936109
        },
        "openings" : {
          "start" : [ 9, 19 ],
          "end" : [ 10, 43 ]
        },
        "preferredSlots" : null,
        "doAfter" : null,
        "nbEmpRequired" : 1,
        "deadline" : [ 14, 27 ],
        "skills" : [ {
          "id" : 5,
          "name" : "GLAZING",
          "level" : 5
        } ],
        "duration" : 5400.000000000,
        "pause" : false
      },
      "window" : {
        "start" : [ 13, 38 ],
        "end" : [ 15, 8 ]
      }
    } ],
    "driving" : 3720.000000000,
    "valid" : true
  } ],
  "unassigned" : [ {
    "id" : 502,
    "desc" : "MANAGEMENT, PAINTING",
    "location" : {
      "id" : 2588,
      "name" : null,
      "latitude" : 43.502144,
      "longitude" : 3.9202282
    },
    "openings" : {
      "start" : [ 9, 32 ],
      "end" : [ 16, 14 ]
    },
    "preferredSlots" : null,
    "doAfter" : null,
    "nbEmpRequired" : 1,
    "deadline" : [ 9, 1 ],
    "skills" : [ {
      "id" : 0,
      "name" : "MANAGEMENT",
      "level" : 4
    }, {
      "id" : 7,
      "name" : "PAINTING",
      "level" : 2
    } ],
    "duration" : 3600.000000000,
    "pause" : false
  }, {
    "id" : 373,
    "desc" : "TILER, PAINTING",
    "location" : {
      "id" : 8657,
      "name" : null,
      "latitude" : 43.793102,
      "longitude" : 4.01482
    },
    "openings" : {
      "start" : [ 9, 28 ],
      "end" : [ 15, 56 ]
    },
    "preferredSlots" : null,
    "doAfter" : null,
    "nbEmpRequired" : 1,
    "deadline" : [ 9, 7 ],
    "skills" : [ {
      "id" : 9,
      "name" : "TILER",
      "level" : 5
    }, {
      "id" : 7,
      "name" : "PAINTING",
      "level" : 5
    } ],
    "duration" : 2700.000000000,
    "pause" : false
  }, {
    "id" : 177,
    "desc" : "MANAGEMENT, IRONWORK",
    "location" : {
      "id" : 6069,
      "name" : null,
      "latitude" : 43.71141,
      "longitude" : 3.963195
    },
    "openings" : {
      "start" : [ 12, 7 ],
      "end" : [ 16, 31 ]
    },
    "preferredSlots" : null,
    "doAfter" : null,
    "nbEmpRequired" : 1,
    "deadline" : [ 11, 0 ],
    "skills" : [ {
      "id" : 0,
      "name" : "MANAGEMENT",
      "level" : 3
    }, {
      "id" : 8,
      "name" : "IRONWORK",
      "level" : 4
    } ],
    "duration" : 2700.000000000,
    "pause" : false
  }, {
    "id" : 461,
    "desc" : "GLAZING, PAINTING",
    "location" : {
      "id" : 9456,
      "name" : null,
      "latitude" : 43.469322,
      "longitude" : 4.197236
    },
    "openings" : {
      "start" : [ 9, 37 ],
      "end" : [ 11, 9 ]
    },
    "preferredSlots" : null,
    "doAfter" : null,
    "nbEmpRequired" : 1,
    "deadline" : [ 11, 13 ],
    "skills" : [ {
      "id" : 5,
      "name" : "GLAZING",
      "level" : 1
    }, {
      "id" : 7,
      "name" : "PAINTING",
      "level" : 1
    } ],
    "duration" : 2700.000000000,
    "pause" : false
  }, {
    "id" : 355,
    "desc" : "TILER",
    "location" : {
      "id" : 319,
      "name" : null,
      "latitude" : 43.694767,
      "longitude" : 4.01204
    },
    "openings" : {
      "start" : [ 14, 33 ],
      "end" : [ 16, 24 ]
    },
    "preferredSlots" : null,
    "doAfter" : null,
    "nbEmpRequired" : 1,
    "deadline" : [ 11, 16 ],
    "skills" : [ {
      "id" : 9,
      "name" : "TILER",
      "level" : 4
    } ],
    "duration" : 3600.000000000,
    "pause" : false
  }, {
    "id" : 746,
    "desc" : "GLAZING, MASONRY",
    "location" : {
      "id" : 1250,
      "name" : null,
      "latitude" : 43.91784,
      "longitude" : 3.8253074
    },
    "openings" : {
      "start" : [ 11, 29 ],
      "end" : [ 15, 0 ]
    },
    "preferredSlots" : null,
    "doAfter" : null,
    "nbEmpRequired" : 1,
    "deadline" : [ 11, 44 ],
    "skills" : [ {
      "id" : 5,
      "name" : "GLAZING",
      "level" : 5
    }, {
      "id" : 4,
      "name" : "MASONRY",
      "level" : 3
    } ],
    "duration" : 1800.000000000,
    "pause" : false
  }, {
    "id" : 223,
    "desc" : "PLUMBING, MASONRY",
    "location" : {
      "id" : 4235,
      "name" : null,
      "latitude" : 43.575176,
      "longitude" : 3.748919
    },
    "openings" : {
      "start" : [ 12, 19 ],
      "end" : [ 17, 28 ]
    },
    "preferredSlots" : null,
    "doAfter" : null,
    "nbEmpRequired" : 1,
    "deadline" : [ 12, 12 ],
    "skills" : [ {
      "id" : 3,
      "name" : "PLUMBING",
      "level" : 3
    }, {
      "id" : 4,
      "name" : "MASONRY",
      "level" : 4
    } ],
    "duration" : 1800.000000000,
    "pause" : false
  }, {
    "id" : 441,
    "desc" : "ENGINEER, GLAZING",
    "location" : {
      "id" : 5510,
      "name" : null,
      "latitude" : 43.713814,
      "longitude" : 3.9761646
    },
    "openings" : {
      "start" : [ 12, 40 ],
      "end" : [ 17, 51 ]
    },
    "preferredSlots" : null,
    "doAfter" : null,
    "nbEmpRequired" : 1,
    "deadline" : [ 12, 29 ],
    "skills" : [ {
      "id" : 1,
      "name" : "ENGINEER",
      "level" : 2
    }, {
      "id" : 5,
      "name" : "GLAZING",
      "level" : 2
    } ],
    "duration" : 2700.000000000,
    "pause" : false
  }, {
    "id" : 475,
    "desc" : "MASONRY, GLAZING",
    "location" : {
      "id" : 2577,
      "name" : null,
      "latitude" : 43.72382,
      "longitude" : 3.787169
    },
    "openings" : {
      "start" : [ 12, 34 ],
      "end" : [ 15, 56 ]
    },
    "preferredSlots" : null,
    "doAfter" : null,
    "nbEmpRequired" : 1,
    "deadline" : [ 12, 31 ],
    "skills" : [ {
      "id" : 4,
      "name" : "MASONRY",
      "level" : 4
    }, {
      "id" : 5,
      "name" : "GLAZING",
      "level" : 2
    } ],
    "duration" : 5400.000000000,
    "pause" : false
  }, {
    "id" : 912,
    "desc" : "GLAZING, MASONRY",
    "location" : {
      "id" : 1820,
      "name" : null,
      "latitude" : 43.59972,
      "longitude" : 3.969474
    },
    "openings" : {
      "start" : [ 10, 28 ],
      "end" : [ 16, 30 ]
    },
    "preferredSlots" : null,
    "doAfter" : null,
    "nbEmpRequired" : 1,
    "deadline" : [ 13, 9 ],
    "skills" : [ {
      "id" : 5,
      "name" : "GLAZING",
      "level" : 1
    }, {
      "id" : 4,
      "name" : "MASONRY",
      "level" : 3
    } ],
    "duration" : 5400.000000000,
    "pause" : false
  }, {
    "id" : 699,
    "desc" : "TILER",
    "location" : {
      "id" : 8553,
      "name" : null,
      "latitude" : 43.545902,
      "longitude" : 3.8281486
    },
    "openings" : {
      "start" : [ 14, 16 ],
      "end" : [ 14, 57 ]
    },
    "preferredSlots" : null,
    "doAfter" : null,
    "nbEmpRequired" : 1,
    "deadline" : [ 13, 11 ],
    "skills" : [ {
      "id" : 9,
      "name" : "TILER",
      "level" : 4
    } ],
    "duration" : 3600.000000000,
    "pause" : false
  }, {
    "id" : 390,
    "desc" : "PLUMBING",
    "location" : {
      "id" : 1814,
      "name" : null,
      "latitude" : 43.82933,
      "longitude" : 4.2612824
    },
    "openings" : {
      "start" : [ 11, 34 ],
      "end" : [ 17, 5 ]
    },
    "preferredSlots" : null,
    "doAfter" : null,
    "nbEmpRequired" : 1,
    "deadline" : [ 13, 24 ],
    "skills" : [ {
      "id" : 3,
      "name" : "PLUMBING",
      "level" : 2
    } ],
    "duration" : 5400.000000000,
    "pause" : false
  }, {
    "id" : 751,
    "desc" : "PAINTING",
    "location" : {
      "id" : 5714,
      "name" : null,
      "latitude" : 43.455837,
      "longitude" : 4.2486897
    },
    "openings" : {
      "start" : [ 13, 54 ],
      "end" : [ 17, 51 ]
    },
    "preferredSlots" : null,
    "doAfter" : null,
    "nbEmpRequired" : 1,
    "deadline" : [ 13, 46 ],
    "skills" : [ {
      "id" : 7,
      "name" : "PAINTING",
      "level" : 5
    } ],
    "duration" : 3600.000000000,
    "pause" : false
  }, {
    "id" : 370,
    "desc" : "GLAZING, CARPENTRY",
    "location" : {
      "id" : 6299,
      "name" : null,
      "latitude" : 43.987904,
      "longitude" : 4.1509886
    },
    "openings" : {
      "start" : [ 13, 49 ],
      "end" : [ 16, 15 ]
    },
    "preferredSlots" : null,
    "doAfter" : null,
    "nbEmpRequired" : 1,
    "deadline" : [ 13, 55 ],
    "skills" : [ {
      "id" : 5,
      "name" : "GLAZING",
      "level" : 2
    }, {
      "id" : 6,
      "name" : "CARPENTRY",
      "level" : 5
    } ],
    "duration" : 3600.000000000,
    "pause" : false
  }, {
    "id" : 452,
    "desc" : "CARPENTRY",
    "location" : {
      "id" : 8049,
      "name" : null,
      "latitude" : 43.65551,
      "longitude" : 4.0277224
    },
    "openings" : {
      "start" : [ 11, 5 ],
      "end" : [ 15, 34 ]
    },
    "preferredSlots" : null,
    "doAfter" : null,
    "nbEmpRequired" : 1,
    "deadline" : [ 14, 3 ],
    "skills" : [ {
      "id" : 6,
      "name" : "CARPENTRY",
      "level" : 5
    } ],
    "duration" : 5400.000000000,
    "pause" : false
  }, {
    "id" : 823,
    "desc" : "CARPENTRY",
    "location" : {
      "id" : 2937,
      "name" : null,
      "latitude" : 43.95308,
      "longitude" : 4.292409
    },
    "openings" : {
      "start" : [ 9, 57 ],
      "end" : [ 15, 2 ]
    },
    "preferredSlots" : null,
    "doAfter" : null,
    "nbEmpRequired" : 1,
    "deadline" : [ 14, 35 ],
    "skills" : [ {
      "id" : 6,
      "name" : "CARPENTRY",
      "level" : 2
    } ],
    "duration" : 3600.000000000,
    "pause" : false
  }, {
    "id" : 959,
    "desc" : "MANAGEMENT",
    "location" : {
      "id" : 5529,
      "name" : null,
      "latitude" : 43.449226,
      "longitude" : 3.778516
    },
    "openings" : {
      "start" : [ 15, 41 ],
      "end" : [ 16, 56 ]
    },
    "preferredSlots" : null,
    "doAfter" : null,
    "nbEmpRequired" : 1,
    "deadline" : [ 14, 50 ],
    "skills" : [ {
      "id" : 0,
      "name" : "MANAGEMENT",
      "level" : 5
    } ],
    "duration" : 3600.000000000,
    "pause" : false
  }, {
    "id" : 309,
    "desc" : "PAINTING",
    "location" : {
      "id" : 7289,
      "name" : null,
      "latitude" : 44.07537,
      "longitude" : 4.0085588
    },
    "openings" : {
      "start" : [ 11, 8 ],
      "end" : [ 14, 9 ]
    },
    "preferredSlots" : null,
    "doAfter" : null,
    "nbEmpRequired" : 1,
    "deadline" : [ 15, 5 ],
    "skills" : [ {
      "id" : 7,
      "name" : "PAINTING",
      "level" : 3
    } ],
    "duration" : 1800.000000000,
    "pause" : false
  }, {
    "id" : 491,
    "desc" : "PAINTING, ELECTRICIAN",
    "location" : {
      "id" : 7146,
      "name" : null,
      "latitude" : 43.871525,
      "longitude" : 3.8434167
    },
    "openings" : {
      "start" : [ 11, 17 ],
      "end" : [ 16, 29 ]
    },
    "preferredSlots" : null,
    "doAfter" : null,
    "nbEmpRequired" : 1,
    "deadline" : [ 15, 10 ],
    "skills" : [ {
      "id" : 7,
      "name" : "PAINTING",
      "level" : 1
    }, {
      "id" : 2,
      "name" : "ELECTRICIAN",
      "level" : 4
    } ],
    "duration" : 1800.000000000,
    "pause" : false
  }, {
    "id" : 596,
    "desc" : "ELECTRICIAN, ENGINEER",
    "location" : {
      "id" : 5308,
      "name" : null,
      "latitude" : 43.67888,
      "longitude" : 4.2782893
    },
    "openings" : {
      "start" : [ 10, 45 ],
      "end" : [ 17, 28 ]
    },
    "preferredSlots" : null,
    "doAfter" : null,
    "nbEmpRequired" : 1,
    "deadline" : [ 15, 13 ],
    "skills" : [ {
      "id" : 2,
      "name" : "ELECTRICIAN",
      "level" : 1
    }, {
      "id" : 1,
      "name" : "ENGINEER",
      "level" : 4
    } ],
    "duration" : 2700.000000000,
    "pause" : false
  }, {
    "id" : 856,
    "desc" : "CARPENTRY",
    "location" : {
      "id" : 8420,
      "name" : null,
      "latitude" : 43.569847,
      "longitude" : 4.0295763
    },
    "openings" : {
      "start" : [ 14, 41 ],
      "end" : [ 16, 48 ]
    },
    "preferredSlots" : null,
    "doAfter" : null,
    "nbEmpRequired" : 1,
    "deadline" : [ 15, 21 ],
    "skills" : [ {
      "id" : 6,
      "name" : "CARPENTRY",
      "level" : 5
    } ],
    "duration" : 2700.000000000,
    "pause" : false
  }, {
    "id" : 991,
    "desc" : "PLUMBING",
    "location" : {
      "id" : 4552,
      "name" : null,
      "latitude" : 43.626484,
      "longitude" : 4.026124
    },
    "openings" : {
      "start" : [ 10, 36 ],
      "end" : [ 12, 18 ]
    },
    "preferredSlots" : null,
    "doAfter" : null,
    "nbEmpRequired" : 1,
    "deadline" : [ 15, 50 ],
    "skills" : [ {
      "id" : 3,
      "name" : "PLUMBING",
      "level" : 5
    } ],
    "duration" : 3600.000000000,
    "pause" : false
  }, {
    "id" : 290,
    "desc" : "ENGINEER",
    "location" : {
      "id" : 4055,
      "name" : null,
      "latitude" : 43.492374,
      "longitude" : 3.818147
    },
    "openings" : {
      "start" : [ 11, 11 ],
      "end" : [ 16, 46 ]
    },
    "preferredSlots" : null,
    "doAfter" : null,
    "nbEmpRequired" : 1,
    "deadline" : [ 16, 30 ],
    "skills" : [ {
      "id" : 1,
      "name" : "ENGINEER",
      "level" : 5
    } ],
    "duration" : 3600.000000000,
    "pause" : false
  }, {
    "id" : 200,
    "desc" : "PAINTING, IRONWORK",
    "location" : {
      "id" : 3241,
      "name" : null,
      "latitude" : 43.981293,
      "longitude" : 4.2919917
    },
    "openings" : {
      "start" : [ 9, 12 ],
      "end" : [ 17, 42 ]
    },
    "preferredSlots" : null,
    "doAfter" : null,
    "nbEmpRequired" : 1,
    "deadline" : [ 16, 31 ],
    "skills" : [ {
      "id" : 7,
      "name" : "PAINTING",
      "level" : 3
    }, {
      "id" : 8,
      "name" : "IRONWORK",
      "level" : 2
    } ],
    "duration" : 2700.000000000,
    "pause" : false
  }, {
    "id" : 505,
    "desc" : "MANAGEMENT, GLAZING",
    "location" : {
      "id" : 8655,
      "name" : null,
      "latitude" : 43.428753,
      "longitude" : 3.7750778
    },
    "openings" : {
      "start" : [ 14, 24 ],
      "end" : [ 17, 35 ]
    },
    "preferredSlots" : null,
    "doAfter" : null,
    "nbEmpRequired" : 1,
    "deadline" : [ 16, 37 ],
    "skills" : [ {
      "id" : 0,
      "name" : "MANAGEMENT",
      "level" : 5
    }, {
      "id" : 5,
      "name" : "GLAZING",
      "level" : 5
    } ],
    "duration" : 2700.000000000,
    "pause" : false
  }, {
    "id" : 391,
    "desc" : "PAINTING",
    "location" : {
      "id" : 5882,
      "name" : null,
      "latitude" : 43.463253,
      "longitude" : 3.8307316
    },
    "openings" : {
      "start" : [ 14, 43 ],
      "end" : [ 16, 21 ]
    },
    "preferredSlots" : null,
    "doAfter" : null,
    "nbEmpRequired" : 1,
    "deadline" : [ 17, 8 ],
    "skills" : [ {
      "id" : 7,
      "name" : "PAINTING",
      "level" : 1
    } ],
    "duration" : 2700.000000000,
    "pause" : false
  }, {
    "id" : 641,
    "desc" : "ELECTRICIAN",
    "location" : {
      "id" : 3488,
      "name" : null,
      "latitude" : 43.85984,
      "longitude" : 3.868178
    },
    "openings" : {
      "start" : [ 14, 26 ],
      "end" : [ 14, 40 ]
    },
    "preferredSlots" : null,
    "doAfter" : null,
    "nbEmpRequired" : 1,
    "deadline" : [ 17, 26 ],
    "skills" : [ {
      "id" : 2,
      "name" : "ELECTRICIAN",
      "level" : 2
    } ],
    "duration" : 7200.000000000,
    "pause" : false
  }, {
    "id" : 629,
    "desc" : "ENGINEER, ELECTRICIAN",
    "location" : {
      "id" : 5841,
      "name" : null,
      "latitude" : 43.98392,
      "longitude" : 4.160935
    },
    "openings" : {
      "start" : [ 9, 39 ],
      "end" : [ 14, 38 ]
    },
    "preferredSlots" : null,
    "doAfter" : null,
    "nbEmpRequired" : 1,
    "deadline" : [ 17, 29 ],
    "skills" : [ {
      "id" : 1,
      "name" : "ENGINEER",
      "level" : 4
    }, {
      "id" : 2,
      "name" : "ELECTRICIAN",
      "level" : 1
    } ],
    "duration" : 1800.000000000,
    "pause" : false
  }, {
    "id" : 475,
    "desc" : "TILER, GLAZING",
    "location" : {
      "id" : 2326,
      "name" : null,
      "latitude" : 44.00309,
      "longitude" : 4.100815
    },
    "openings" : {
      "start" : [ 15, 13 ],
      "end" : [ 15, 55 ]
    },
    "preferredSlots" : null,
    "doAfter" : null,
    "nbEmpRequired" : 1,
    "deadline" : [ 17, 34 ],
    "skills" : [ {
      "id" : 9,
      "name" : "TILER",
      "level" : 5
    }, {
      "id" : 5,
      "name" : "GLAZING",
      "level" : 3
    } ],
    "duration" : 1800.000000000,
    "pause" : false
  }, {
    "id" : 183,
    "desc" : "GLAZING, CARPENTRY",
    "location" : {
      "id" : 5501,
      "name" : null,
      "latitude" : 43.543976,
      "longitude" : 3.8077068
    },
    "openings" : {
      "start" : [ 15, 47 ],
      "end" : [ 17, 34 ]
    },
    "preferredSlots" : null,
    "doAfter" : null,
    "nbEmpRequired" : 1,
    "deadline" : [ 17, 44 ],
    "skills" : [ {
      "id" : 5,
      "name" : "GLAZING",
      "level" : 4
    }, {
      "id" : 6,
      "name" : "CARPENTRY",
      "level" : 5
    } ],
    "duration" : 2700.000000000,
    "pause" : false
  }, {
    "id" : 128,
    "desc" : "PAINTING, ENGINEER",
    "location" : {
      "id" : 4439,
      "name" : null,
      "latitude" : 43.855724,
      "longitude" : 4.0479846
    },
    "openings" : {
      "start" : [ 13, 55 ],
      "end" : [ 15, 20 ]
    },
    "preferredSlots" : null,
    "doAfter" : null,
    "nbEmpRequired" : 1,
    "deadline" : [ 17, 53 ],
    "skills" : [ {
      "id" : 7,
      "name" : "PAINTING",
      "level" : 4
    }, {
      "id" : 1,
      "name" : "ENGINEER",
      "level" : 4
    } ],
    "duration" : 5400.000000000,
    "pause" : false
  } ],
  "valid" : true
}