{
  "listEdt" : [ {
    "emp" : {
      "id" : 421,
      "name" : "421",
      "shifts" : [ {
        "start" : [ 9, 0 ],
        "end" : [ 12, 0 ]
      }, {
        "start" : [ 13, 0 ],
        "end" : [ 17, 0 ]
      } ],
      "prefSlots" : null,
      "startingLoc" : {
        "id" : 3124,
        "name" : null,
        "latitude" : 43.959373,
        "longitude" : 4.1681776
      },
      "skills" : [ {
        "id" : 9,
        "name" : "TILER",
        "level" : 4
      }, {
        "id" : 1,
        "name" : "ENGINEER",
        "level" : 10
      }, {
        "id" : 5,
        "name" : "GLAZING",
        "level" : 6
      }, {
        "id" : 9,
        "name" : "TILER",
        "level" : 5
      } ]
    },
    "planning" : [ {
      "job" : {
        "id" : -1,
        "desc" : "Home",
        "location" : {
          "id" : 3124,
          "name" : null,
          "latitude" : 43.959373,
          "longitude" : 4.1681776
        },
        "openings" : null,
        "preferredSlots" : null,
        "doAfter" : null,
        "nbEmpRequired" : 1,
        "deadline" : null,
        "skills" : [ ],
        "duration" : null,
        "pause" : true
      },
      "window" : {
        "start" : [ 9, 0 ],
        "end" : [ 9, 0 ]
      }
    }, {
      "job" : {
        "id" : 742,
        "desc" : "TILER",
        "location" : {
          "id" : 974,
          "name" : null,
          "latitude" : 43.47441,
          "longitude" : 3.908975
        },
        "openings" : {
          "start" : [ 12, 22 ],
          "end" : [ 13, 28 ]
        },
        "preferredSlots" : null,
        "doAfter" : null,
        "nbEmpRequired" : 1,
        "deadline" : [ 11, 18 ],
        "skills" : [ {
          "id" : 9,
          "name" : "TILER",
          "level" : 5
        } ],
        "duration" : 1800.000000000,
        "pause" : false
      },
      "window" : {
        "start" : [ 9, 58 ],
        "end" : [ 10, 28 ]
      }
    }, {
      "job" : {
        "id" : 321,
        "desc" : "ENGINEER",
        "location" : {
          "id" : 1977,
          "name" : null,
          "latitude" : 43.98028,
          "longitude" : 3.7815433
        },
        "openings" : {
          "start" : [ 11, 56 ],
          "end" : [ 17, 25 ]
        },
        "preferredSlots" : null,
        "doAfter" : null,
        "nbEmpRequired" : 1,
        "deadline" : [ 13, 4 ],
        "skills" : [ {
          "id" : 1,
          "name" : "ENGINEER",
          "level" : 3
        } ],
        "duration" : 1800.000000000,
        "pause" : false
      },
      "window" : {
        "start" : [ 11, 26 ],
        "end" : [ 11, 56 ]
      }
    }, {
      "job" : {
        "id" : -1,
        "desc" : "Pause",
        "location" : {
          "id" : 1977,
          "name" : null,
          "latitude" : 43.98028,
          "longitude" : 3.7815433
        },
        "openings" : {
          "start" : [ 11, 56 ],
          "end" : [ 17, 25 ]
        },
        "preferredSlots" : null,
        "doAfter" : null,
        "nbEmpRequired" : 1,
        "deadline" : [ 13, 4 ],
        "skills" : [ {
          "id" : 1,
          "name" : "ENGINEER",
          "level" : 3
        } ],
        "duration" : 1800.000000000,
        "pause" : true
      },
      "window" : {
        "start" : [ 11, 57 ],
        "end" : [ 13, 0 ]
      }
    }, {
      "job" : {
        "id" : 344,
        "desc" : "TILER",
        "location" : {
          "id" : 2876,
          "name" : null,
          "latitude" : 44.04882,
          "longitude" : 4.1985373
        },
        "openings" : {
          "start" : [ 14, 43 ],
          "end" : [ 15, 25 ]
        },
        "preferredSlots" : null,
        "doAfter" : null,
        "nbEmpRequired" : 1,
        "deadline" : [ 14, 4 ],
        "skills" : [ {
          "id" : 9,
          "name" : "TILER",
          "level" : 1
        } ],
        "duration" : 3600.000000000,
        "pause" : false
      },
      "window" : {
        "start" : [ 13, 35 ],
        "end" : [ 14, 35 ]
      }
    }, {
      "job" : {
        "id" : 54,
        "desc" : "GLAZING",
        "location" : {
          "id" : 1847,
          "name" : null,
          "latitude" : 43.633247,
          "longitude" : 4.239314
        },
        "openings" : {
          "start" : [ 13, 26 ],
          "end" : [ 17, 32 ]
        },
        "preferredSlots" : null,
        "doAfter" : null,
        "nbEmpRequired" : 1,
        "deadline" : [ 14, 8 ],
        "skills" : [ {
          "id" : 5,
          "name" : "GLAZING",
          "level" : 1
        } ],
        "duration" : 3600.000000000,
        "pause" : false
      },
      "window" : {
        "start" : [ 15, 22 ],
        "end" : [ 16, 22 ]
      }
    } ],
    "driving" : 11880.000000000,
    "valid" : true
  }, {
    "emp" : {
      "id" : 83,
      "name" : "83",
      "shifts" : [ {
        "start" : [ 9, 0 ],
        "end" : [ 12, 0 ]
      }, {
        "start" : [ 13, 0 ],
        "end" : [ 17, 0 ]
      } ],
      "prefSlots" : null,
      "startingLoc" : {
        "id" : 1505,
        "name" : null,
        "latitude" : 43.986496,
        "longitude" : 3.940391
      },
      "skills" : [ {
        "id" : 9,
        "name" : "TILER",
        "level" : 10
      }, {
        "id" : 4,
        "name" : "MASONRY",
        "level" : 8
      }, {
        "id" : 7,
        "name" : "PAINTING",
        "level" : 9
      }, {
        "id" : 0,
        "name" : "MANAGEMENT",
        "level" : 2
      }, {
        "id" : 5,
        "name" : "GLAZING",
        "level" : 1
      }, {
        "id" : 1,
        "name" : "ENGINEER",
        "level" : 2
      }, {
        "id" : 0,
        "name" : "MANAGEMENT",
        "level" : 8
      }, {
        "id" : 7,
        "name" : "PAINTING",
        "level" : 8
      }, {
        "id" : 8,
        "name" : "IRONWORK",
        "level" : 6
      } ]
    },
    "planning" : [ {
      "job" : {
        "id" : -1,
        "desc" : "Home",
        "location" : {
          "id" : 1505,
          "name" : null,
          "latitude" : 43.986496,
          "longitude" : 3.940391
        },
        "openings" : null,
        "preferredSlots" : null,
        "doAfter" : null,
        "nbEmpRequired" : 1,
        "deadline" : null,
        "skills" : [ ],
        "duration" : null,
        "pause" : true
      },
      "window" : {
        "start" : [ 9, 0 ],
        "end" : [ 9, 0 ]
      }
    }, {
      "job" : {
        "id" : 887,
        "desc" : "TILER, MASONRY",
        "location" : {
          "id" : 5525,
          "name" : null,
          "latitude" : 43.751858,
          "longitude" : 4.063339
        },
        "openings" : {
          "start" : [ 13, 40 ],
          "end" : [ 16, 35 ]
        },
        "preferredSlots" : null,
        "doAfter" : null,
        "nbEmpRequired" : 1,
        "deadline" : [ 10, 21 ],
        "skills" : [ {
          "id" : 9,
          "name" : "TILER",
          "level" : 2
        }, {
          "id" : 4,
          "name" : "MASONRY",
          "level" : 5
        } ],
        "duration" : 2700.000000000,
        "pause" : false
      },
      "window" : {
        "start" : [ 9, 28 ],
        "end" : [ 10, 13 ]
      }
    }, {
      "job" : {
        "id" : 571,
        "desc" : "IRONWORK",
        "location" : {
          "id" : 3504,
          "name" : null,
          "latitude" : 43.9629,
          "longitude" : 4.0359783
        },
        "openings" : {
          "start" : [ 11, 18 ],
          "end" : [ 13, 25 ]
        },
        "preferredSlots" : null,
        "doAfter" : null,
        "nbEmpRequired" : 1,
        "deadline" : [ 11, 6 ],
        "skills" : [ {
          "id" : 8,
          "name" : "IRONWORK",
          "level" : 5
        } ],
        "duration" : 1800.000000000,
        "pause" : false
      },
      "window" : {
        "start" : [ 10, 37 ],
        "end" : [ 11, 7 ]
      }
    }, {
      "job" : {
        "id" : 291,
        "desc" : "MANAGEMENT",
        "location" : {
          "id" : 4247,
          "name" : null,
          "latitude" : 44.0732,
          "longitude" : 3.8896
        },
        "openings" : {
          "start" : [ 10, 20 ],
          "end" : [ 16, 7 ]
        },
        "preferredSlots" : null,
        "doAfter" : null,
        "nbEmpRequired" : 1,
        "deadline" : [ 14, 50 ],
        "skills" : [ {
          "id" : 0,
          "name" : "MANAGEMENT",
          "level" : 3
        } ],
        "duration" : 1800.000000000,
        "pause" : false
      },
      "window" : {
        "start" : [ 11, 24 ],
        "end" : [ 11, 54 ]
      }
    }, {
      "job" : {
        "id" : -1,
        "desc" : "Pause",
        "location" : {
          "id" : 4247,
          "name" : null,
          "latitude" : 44.0732,
          "longitude" : 3.8896
        },
        "openings" : {
          "start" : [ 10, 20 ],
          "end" : [ 16, 7 ]
        },
        "preferredSlots" : null,
        "doAfter" : null,
        "nbEmpRequired" : 1,
        "deadline" : [ 14, 50 ],
        "skills" : [ {
          "id" : 0,
          "name" : "MANAGEMENT",
          "level" : 3
        } ],
        "duration" : 1800.000000000,
        "pause" : true
      },
      "window" : {
        "start" : [ 11, 55 ],
        "end" : [ 13, 0 ]
      }
    }, {
      "job" : {
        "id" : 971,
        "desc" : "IRONWORK",
        "location" : {
          "id" : 9059,
          "name" : null,
          "latitude" : 43.680805,
          "longitude" : 4.2845244
        },
        "openings" : {
          "start" : [ 10, 36 ],
          "end" : [ 13, 2 ]
        },
        "preferredSlots" : null,
        "doAfter" : null,
        "nbEmpRequired" : 1,
        "deadline" : [ 11, 24 ],
        "skills" : [ {
          "id" : 8,
          "name" : "IRONWORK",
          "level" : 5
        } ],
        "duration" : 1800.000000000,
        "pause" : false
      },
      "window" : {
        "start" : [ 13, 54 ],
        "end" : [ 14, 24 ]
      }
    }, {
      "job" : {
        "id" : 23,
        "desc" : "PAINTING",
        "location" : {
          "id" : 3629,
          "name" : null,
          "latitude" : 43.59932,
          "longitude" : 3.8386173
        },
        "openings" : {
          "start" : [ 10, 57 ],
          "end" : [ 16, 16 ]
        },
        "preferredSlots" : null,
        "doAfter" : null,
        "nbEmpRequired" : 1,
        "deadline" : [ 12, 31 ],
        "skills" : [ {
          "id" : 7,
          "name" : "PAINTING",
          "level" : 2
        } ],
        "duration" : 3600.000000000,
        "pause" : false
      },
      "window" : {
        "start" : [ 15, 2 ],
        "end" : [ 16, 2 ]
      }
    }, {
      "job" : {
        "id" : 968,
        "desc" : "PAINTING",
        "location" : {
          "id" : 8567,
          "name" : null,
          "latitude" : 43.69484,
          "longitude" : 3.8744082
        },
        "openings" : {
          "start" : [ 12, 49 ],
          "end" : [ 15, 21 ]
        },
        "preferredSlots" : null,
        "doAfter" : null,
        "nbEmpRequired" : 1,
        "deadline" : [ 13, 33 ],
        "skills" : [ {
          "id" : 7,
          "name" : "PAINTING",
          "level" : 1
        } ],
        "duration" : 2700.000000000,
        "pause" : false
      },
      "window" : {
        "start" : [ 16, 14 ],
        "end" : [ 16, 59 ]
      }
    } ],
    "driving" : 10380.000000000,
    "valid" : true
  }, {
    "emp" : {
      "id" : 528,
      "name" : "528",
      "shifts" : [ {
        "start" : [ 9, 0 ],
        "end" : [ 12, 0 ]
      }, {
        "start" : [ 13, 0 ],
        "end" : [ 17, 0 ]
      } ],
      "prefSlots" : null,
      "startingLoc" : {
        "id" : 5765,
        "name" : null,
        "latitude" : 43.560596,
        "longitude" : 3.7304509
      },
      "skills" : [ {
        "id" : 1,
        "name" : "ENGINEER",
        "level" : 8
      }, {
        "id" : 8,
        "name" : "IRONWORK",
        "level" : 9
      }, {
        "id" : 7,
        "name" : "PAINTING",
        "level" : 2
      }, {
        "id" : 2,
        "name" : "ELECTRICIAN",
        "level" : 8
      }, {
        "id" : 8,
        "name" : "IRONWORK",
        "level" : 10
      }, {
        "id" : 7,
        "name" : "PAINTING",
        "level" : 3
      }, {
        "id" : 4,
        "name" : "MASONRY",
        "level" : 3
      }, {
        "id" : 9,
        "name" : "TILER",
        "level" : 1
      } ]
    },
    "planning" : [ {
      "job" : {
        "id" : -1,
        "desc" : "Home",
        "location" : {
          "id" : 5765,
          "name" : null,
          "latitude" : 43.560596,
          "longitude" : 3.7304509
        },
        "openings" : null,
        "preferredSlots" : null,
        "doAfter" : null,
        "nbEmpRequired" : 1,
        "deadline" : null,
        "skills" : [ ],
        "duration" : null,
        "pause" : true
      },
      "window" : {
        "start" : [ 9, 0 ],
        "end" : [ 9, 0 ]
      }
    }, {
      "job" : {
        "id" : -1,
        "desc" : "Pause",
        "location" : {
          "id" : 5765,
          "name" : null,
          "latitude" : 43.560596,
          "longitude" : 3.7304509
        },
        "openings" : null,
        "preferredSlots" : null,
        "doAfter" : null,
        "nbEmpRequired" : 1,
        "deadline" : null,
        "skills" : [ ],
        "duration" : null,
        "pause" : true
      },
      "window" : {
        "start" : [ 9, 1 ],
        "end" : [ 13, 0 ]
      }
    } ],
    "driving" : 0.0,
    "valid" : true
  }, {
    "emp" : {
      "id" : 231,
      "name" : "231",
      "shifts" : [ {
        "start" : [ 9, 0 ],
        "end" : [ 12, 0 ]
      }, {
        "start" : [ 13, 0 ],
        "end" : [ 17, 0 ]
      } ],
      "prefSlots" : null,
      "startingLoc" : {
        "id" : 8629,
        "name" : null,
        "latitude" : 43.775803,
        "longitude" : 4.2797313
      },
      "skills" : [ {
        "id" : 4,
        "name" : "MASONRY",
        "level" : 7
      } ]
    },
    "planning" : [ {
      "job" : {
        "id" : -1,
        "desc" : "Home",
        "location" : {
          "id" : 8629,
          "name" : null,
          "latitude" : 43.775803,
          "longitude" : 4.2797313
        },
        "openings" : null,
        "preferredSlots" : null,
        "doAfter" : null,
        "nbEmpRequired" : 1,
        "deadline" : null,
        "skills" : [ ],
        "duration" : null,
        "pause" : true
      },
      "window" : {
        "start" : [ 9, 0 ],
        "end" : [ 9, 0 ]
      }
    }, {
      "job" : {
        "id" : -1,
        "desc" : "Pause",
        "location" : {
          "id" : 8629,
          "name" : null,
          "latitude" : 43.775803,
          "longitude" : 4.2797313
        },
        "openings" : null,
        "preferredSlots" : null,
        "doAfter" : null,
        "nbEmpRequired" : 1,
        "deadline" : null,
        "skills" : [ ],
        "duration" : null,
        "pause" : true
      },
      "window" : {
        "start" : [ 9, 1 ],
        "end" : [ 13, 0 ]
      }
    } ],
    "driving" : 0.0,
    "valid" : true
  }, {
    "emp" : {
      "id" : 274,
      "name" : "274",
      "shifts" : [ {
        "start" : [ 9, 0 ],
        "end" : [ 12, 0 ]
      }, {
        "start" : [ 13, 0 ],
        "end" : [ 17, 0 ]
      } ],
      "prefSlots" : null,
      "startingLoc" : {
        "id" : 4557,
        "name" : null,
        "latitude" : 43.425606,
        "longitude" : 4.219859
      },
      "skills" : [ {
        "id" : 2,
        "name" : "ELECTRICIAN",
        "level" : 8
      }, {
        "id" : 3,
        "name" : "PLUMBING",
        "level" : 6
      }, {
        "id" : 9,
        "name" : "TILER",
        "level" : 3
      }, {
        "id" : 7,
        "name" : "PAINTING",
        "level" : 10
      }, {
        "id" : 8,
        "name" : "IRONWORK",
        "level" : 3
      }, {
        "id" : 4,
        "name" : "MASONRY",
        "level" : 4
      } ]
    },
    "planning" : [ {
      "job" : {
        "id" : -1,
        "desc" : "Home",
        "location" : {
          "id" : 4557,
          "name" : null,
          "latitude" : 43.425606,
          "longitude" : 4.219859
        },
        "openings" : null,
        "preferredSlots" : null,
        "doAfter" : null,
        "nbEmpRequired" : 1,
        "deadline" : null,
        "skills" : [ ],
        "duration" : null,
        "pause" : true
      },
      "window" : {
        "start" : [ 9, 0 ],
        "end" : [ 9, 0 ]
      }
    }, {
      "job" : {
        "id" : 9,
        "desc" : "PLUMBING, ELECTRICIAN",
        "location" : {
          "id" : 5243,
          "name" : null,
          "latitude" : 44.03797,
          "longitude" : 3.7431493
        },
        "openings" : {
          "start" : [ 13, 33 ],
          "end" : [ 13, 57 ]
        },
        "preferredSlots" : null,
        "doAfter" : null,
        "nbEmpRequired" : 1,
        "deadline" : [ 9, 53 ],
        "skills" : [ {
          "id" : 3,
          "name" : "PLUMBING",
          "level" : 4
        }, {
          "id" : 2,
          "name" : "ELECTRICIAN",
          "level" : 4
        } ],
        "duration" : 1800.000000000,
        "pause" : false
      },
      "window" : {
        "start" : [ 10, 19 ],
        "end" : [ 10, 49 ]
      }
    }, {
      "job" : {
        "id" : -1,
        "desc" : "Pause",
        "location" : {
          "id" : 5243,
          "name" : null,
          "latitude" : 44.03797,
          "longitude" : 3.7431493
        },
        "openings" : {
          "start" : [ 13, 33 ],
          "end" : [ 13, 57 ]
        },
        "preferredSlots" : null,
        "doAfter" : null,
        "nbEmpRequired" : 1,
        "deadline" : [ 9, 53 ],
        "skills" : [ {
          "id" : 3,
          "name" : "PLUMBING",
          "level" : 4
        }, {
          "id" : 2,
          "name" : "ELECTRICIAN",
          "level" : 4
        } ],
        "duration" : 1800.000000000,
        "pause" : true
      },
      "window" : {
        "start" : [ 10, 50 ],
        "end" : [ 13, 0 ]
      }
    }, {
      "job" : {
        "id" : 963,
        "desc" : "PLUMBING",
        "location" : {
          "id" : 8607,
          "name" : null,
          "latitude" : 43.632545,
          "longitude" : 4.1769667
        },
        "openings" : {
          "start" : [ 14, 41 ],
          "end" : [ 17, 42 ]
        },
        "preferredSlots" : null,
        "doAfter" : null,
        "nbEmpRequired" : 1,
        "deadline" : [ 13, 46 ],
        "skills" : [ {
          "id" : 3,
          "name" : "PLUMBING",
          "level" : 1
        } ],
        "duration" : 3600.000000000,
        "pause" : false
      },
      "window" : {
        "start" : [ 13, 57 ],
        "end" : [ 14, 57 ]
      }
    }, {
      "job" : {
        "id" : 674,
        "desc" : "PAINTING",
        "location" : {
          "id" : 9559,
          "name" : null,
          "latitude" : 43.678314,
          "longitude" : 3.83306
        },
        "openings" : {
          "start" : [ 15, 45 ],
          "end" : [ 16, 6 ]
        },
        "preferredSlots" : null,
        "doAfter" : null,
        "nbEmpRequired" : 1,
        "deadline" : [ 16, 29 ],
        "skills" : [ {
          "id" : 7,
          "name" : "PAINTING",
          "level" : 5
        } ],
        "duration" : 3600.000000000,
        "pause" : false
      },
      "window" : {
        "start" : [ 15, 26 ],
        "end" : [ 16, 26 ]
      }
    } ],
    "driving" : 9900.000000000,
    "valid" : true
  } ],
  "unassigned" : [ {
    "id" : 242,
    "desc" : "PLUMBING, ENGINEER",
    "location" : {
      "id" : 8353,
      "name" : null,
      "latitude" : 44.024513,
      "longitude" : 4.261581
    },
    "openings" : {
      "start" : [ 13, 28 ],
      "end" : [ 17, 2 ]
    },
    "preferredSlots" : null,
    "doAfter" : null,
    "nbEmpRequired" : 1,
    "deadline" : [ 9, 43 ],
    "skills" : [ {
      "id" : 3,
      "name" : "PLUMBING",
      "level" : 5
    }, {
      "id" : 1,
      "name" : "ENGINEER",
      "level" : 2
    } ],
    "duration" : 3600.000000000,
    "pause" : false
  }, {
    "id" : 380,
    "desc" : "GLAZING, MANAGEMENT",
    "location" : {
      "id" : 9687,
      "name" : null,
      "latitude" : 44.092003,
      "longitude" : 4.0122113
    },
    "openings" : {
      "start" : [ 11, 38 ],
      "end" : [ 16, 12 ]
    },
    "preferredSlots" : null,
    "doAfter" : null,
    "nbEmpRequired" : 1,
    "deadline" : [ 11, 52 ],
    "skills" : [ {
      "id" : 5,
      "name" : "GLAZING",
      "level" : 5
    }, {
      "id" : 0,
      "name" : "MANAGEMENT",
      "level" : 5
    } ],
    "duration" : 5400.000000000,
    "pause" : false
  }, {
    "id" : 774,
    "desc" : "MANAGEMENT, ENGINEER",
    "location" : {
      "id" : 141,
      "name" : null,
      "latitude" : 44.094746,
      "longitude" : 4.197173
    },
    "openings" : {
      "start" : [ 9, 13 ],
      "end" : [ 11, 25 ]
    },
    "preferredSlots" : null,
    "doAfter" : null,
    "nbEmpRequired" : 1,
    "deadline" : [ 12, 26 ],
    "skills" : [ {
      "id" : 0,
      "name" : "MANAGEMENT",
      "level" : 3
    }, {
      "id" : 1,
      "name" : "ENGINEER",
      "level" : 4
    } ],
    "duration" : 2700.000000000,
    "pause" : false
  }, {
    "id" : 526,
    "desc" : "ELECTRICIAN, MANAGEMENT",
    "location" : {
      "id" : 7005,
      "name" : null,
      "latitude" : 43.615074,
      "longitude" : 4.0176334
    },
    "openings" : {
      "start" : [ 9, 51 ],
      "end" : [ 15, 35 ]
    },
    "preferredSlots" : null,
    "doAfter" : null,
    "nbEmpRequired" : 1,
    "deadline" : [ 13, 45 ],
    "skills" : [ {
      "id" : 2,
      "name" : "ELECTRICIAN",
      "level" : 1
    }, {
      "id" : 0,
      "name" : "MANAGEMENT",
      "level" : 1
    } ],
    "duration" : 2700.000000000,
    "pause" : false
  }, {
    "id" : 681,
    "desc" : "MANAGEMENT, TILER",
    "location" : {
      "id" : 6108,
      "name" : null,
      "latitude" : 43.613575,
      "longitude" : 4.2526345
    },
    "openings" : {
      "start" : [ 9, 54 ],
      "end" : [ 14, 35 ]
    },
    "preferredSlots" : null,
    "doAfter" : null,
    "nbEmpRequired" : 1,
    "deadline" : [ 14, 7 ],
    "skills" : [ {
      "id" : 0,
      "name" : "MANAGEMENT",
      "level" : 4
    }, {
      "id" : 9,
      "name" : "TILER",
      "level" : 3
    } ],
    "duration" : 3600.000000000,
    "pause" : false
  }, {
    "id" : 5,
    "desc" : "PLUMBING, MASONRY",
    "location" : {
      "id" : 967,
      "name" : null,
      "latitude" : 43.599293,
      "longitude" : 3.7105465
    },
    "openings" : {
      "start" : [ 9, 9 ],
      "end" : [ 16, 46 ]
    },
    "preferredSlots" : null,
    "doAfter" : null,
    "nbEmpRequired" : 1,
    "deadline" : [ 15, 45 ],
    "skills" : [ {
      "id" : 3,
      "name" : "PLUMBING",
      "level" : 3
    }, {
      "id" : 4,
      "name" : "MASONRY",
      "level" : 5
    } ],
    "duration" : 1800.000000000,
    "pause" : false
  }, {
    "id" : 834,
    "desc" : "CARPENTRY",
    "location" : {
      "id" : 5548,
      "name" : null,
      "latitude" : 43.664402,
      "longitude" : 3.8478522
    },
    "openings" : {
      "start" : [ 10, 49 ],
      "end" : [ 16, 3 ]
    },
    "preferredSlots" : null,
    "doAfter" : null,
    "nbEmpRequired" : 1,
    "deadline" : [ 16, 49 ],
    "skills" : [ {
      "id" : 6,
      "name" : "CARPENTRY",
      "level" : 1
    } ],
    "duration" : 3600.000000000,
    "pause" : false
  } ],
  "valid" : true
}