{
  "listEdt" : [ {
    "emp" : {
      "id" : 221,
      "name" : "221",
      "shifts" : [ {
        "start" : [ 9, 0 ],
        "end" : [ 12, 0 ]
      }, {
        "start" : [ 13, 0 ],
        "end" : [ 17, 0 ]
      } ],
      "prefSlots" : null,
      "startingLoc" : {
        "id" : 7662,
        "name" : null,
        "latitude" : 43.95168,
        "longitude" : 4.252845
      },
      "skills" : [ {
        "id" : 4,
        "name" : "MASONRY",
        "level" : 10
      }, {
        "id" : 8,
        "name" : "IRONWORK",
        "level" : 4
      }, {
        "id" : 0,
        "name" : "MANAGEMENT",
        "level" : 2
      }, {
        "id" : 4,
        "name" : "MASONRY",
        "level" : 8
      }, {
        "id" : 1,
        "name" : "ENGINEER",
        "level" : 7
      }, {
        "id" : 6,
        "name" : "CARPENTRY",
        "level" : 5
      }, {
        "id" : 1,
        "name" : "ENGINEER",
        "level" : 8
      }, {
        "id" : 9,
        "name" : "TILER",
        "level" : 2
      }, {
        "id" : 3,
        "name" : "PLUMBING",
        "level" : 6
      }, {
        "id" : 1,
        "name" : "ENGINEER",
        "level" : 6
      } ]
    },
    "planning" : [ {
      "job" : {
        "id" : -1,
        "desc" : "Home",
        "location" : {
          "id" : 7662,
          "name" : null,
          "latitude" : 43.95168,
          "longitude" : 4.252845
        },
        "openings" : null,
        "preferredSlots" : null,
        "doAfter" : null,
        "nbEmpRequired" : 1,
        "deadline" : null,
        "skills" : [ ],
        "duration" : null,
        "pause" : true
      },
      "window" : {
        "start" : [ 9, 0 ],
        "end" : [ 9, 0 ]
      }
    }, {
      "job" : {
        "id" : 78,
        "desc" : "TILER",
        "location" : {
          "id" : 8924,
          "name" : null,
          "latitude" : 43.606426,
          "longitude" : 4.2798147
        },
        "openings" : {
          "start" : [ 11, 44 ],
          "end" : [ 17, 42 ]
        },
        "preferredSlots" : null,
        "doAfter" : null,
        "nbEmpRequired" : 1,
        "deadline" : [ 9, 35 ],
        "skills" : [ {
          "id" : 9,
          "name" : "TILER",
          "level" : 2
        } ],
        "duration" : 2700.000000000,
        "pause" : false
      },
      "window" : {
        "start" : [ 9, 39 ],
        "end" : [ 10, 24 ]
      }
    }, {
      "job" : {
        "id" : 16,
        "desc" : "MANAGEMENT, MASONRY",
        "location" : {
          "id" : 8489,
          "name" : null,
          "latitude" : 43.80241,
          "longitude" : 4.2899914
        },
        "openings" : {
          "start" : [ 10, 34 ],
          "end" : [ 15, 40 ]
        },
        "preferredSlots" : null,
        "doAfter" : null,
        "nbEmpRequired" : 1,
        "deadline" : [ 13, 55 ],
        "skills" : [ {
          "id" : 0,
          "name" : "MANAGEMENT",
          "level" : 1
        }, {
          "id" : 4,
          "name" : "MASONRY",
          "level" : 1
        } ],
        "duration" : 3600.000000000,
        "pause" : false
      },
      "window" : {
        "start" : [ 10, 46 ],
        "end" : [ 11, 46 ]
      }
    }, {
      "job" : {
        "id" : -1,
        "desc" : "Pause",
        "location" : {
          "id" : 8489,
          "name" : null,
          "latitude" : 43.80241,
          "longitude" : 4.2899914
        },
        "openings" : {
          "start" : [ 10, 34 ],
          "end" : [ 15, 40 ]
        },
        "preferredSlots" : null,
        "doAfter" : null,
        "nbEmpRequired" : 1,
        "deadline" : [ 13, 55 ],
        "skills" : [ {
          "id" : 0,
          "name" : "MANAGEMENT",
          "level" : 1
        }, {
          "id" : 4,
          "name" : "MASONRY",
          "level" : 1
        } ],
        "duration" : 3600.000000000,
        "pause" : true
      },
      "window" : {
        "start" : [ 11, 47 ],
        "end" : [ 13, 0 ]
      }
    }, {
      "job" : {
        "id" : 494,
        "desc" : "PLUMBING, ENGINEER",
        "location" : {
          "id" : 7531,
          "name" : null,
          "latitude" : 43.78503,
          "longitude" : 4.272791
        },
        "openings" : {
          "start" : [ 16, 33 ],
          "end" : [ 17, 51 ]
        },
        "preferredSlots" : null,
        "doAfter" : null,
        "nbEmpRequired" : 1,
        "deadline" : [ 11, 9 ],
        "skills" : [ {
          "id" : 3,
          "name" : "PLUMBING",
          "level" : 4
        }, {
          "id" : 1,
          "name" : "ENGINEER",
          "level" : 5
        } ],
        "duration" : 5400.000000000,
        "pause" : false
      },
      "window" : {
        "start" : [ 13, 3 ],
        "end" : [ 14, 33 ]
      }
    }, {
      "job" : {
        "id" : 917,
        "desc" : "MASONRY",
        "location" : {
          "id" : 2362,
          "name" : null,
          "latitude" : 44.04827,
          "longitude" : 4.0143695
        },
        "openings" : {
          "start" : [ 16, 16 ],
          "end" : [ 17, 55 ]
        },
        "preferredSlots" : null,
        "doAfter" : null,
        "nbEmpRequired" : 1,
        "deadline" : [ 15, 19 ],
        "skills" : [ {
          "id" : 4,
          "name" : "MASONRY",
          "level" : 3
        } ],
        "duration" : 1800.000000000,
        "pause" : false
      },
      "window" : {
        "start" : [ 15, 9 ],
        "end" : [ 15, 39 ]
      }
    }, {
      "job" : {
        "id" : 195,
        "desc" : "CARPENTRY",
        "location" : {
          "id" : 2447,
          "name" : null,
          "latitude" : 44.09455,
          "longitude" : 4.2257867
        },
        "openings" : {
          "start" : [ 14, 14 ],
          "end" : [ 16, 44 ]
        },
        "preferredSlots" : null,
        "doAfter" : null,
        "nbEmpRequired" : 1,
        "deadline" : [ 16, 10 ],
        "skills" : [ {
          "id" : 6,
          "name" : "CARPENTRY",
          "level" : 4
        } ],
        "duration" : 3600.000000000,
        "pause" : false
      },
      "window" : {
        "start" : [ 15, 57 ],
        "end" : [ 16, 57 ]
      }
    } ],
    "driving" : 7080.000000000,
    "valid" : true
  }, {
    "emp" : {
      "id" : 42,
      "name" : "42",
      "shifts" : [ {
        "start" : [ 9, 0 ],
        "end" : [ 12, 0 ]
      }, {
        "start" : [ 13, 0 ],
        "end" : [ 17, 0 ]
      } ],
      "prefSlots" : null,
      "startingLoc" : {
        "id" : 5377,
        "name" : null,
        "latitude" : 43.740063,
        "longitude" : 4.1409235
      },
      "skills" : [ {
        "id" : 5,
        "name" : "GLAZING",
        "level" : 5
      }, {
        "id" : 5,
        "name" : "GLAZING",
        "level" : 3
      } ]
    },
    "planning" : [ {
      "job" : {
        "id" : -1,
        "desc" : "Home",
        "location" : {
          "id" : 5377,
          "name" : null,
          "latitude" : 43.740063,
          "longitude" : 4.1409235
        },
        "openings" : null,
        "preferredSlots" : null,
        "doAfter" : null,
        "nbEmpRequired" : 1,
        "deadline" : null,
        "skills" : [ ],
        "duration" : null,
        "pause" : true
      },
      "window" : {
        "start" : [ 9, 0 ],
        "end" : [ 9, 0 ]
      }
    }, {
      "job" : {
        "id" : -1,
        "desc" : "Pause",
        "location" : {
          "id" : 5377,
          "name" : null,
          "latitude" : 43.740063,
          "longitude" : 4.1409235
        },
        "openings" : null,
        "preferredSlots" : null,
        "doAfter" : null,
        "nbEmpRequired" : 1,
        "deadline" : null,
        "skills" : [ ],
        "duration" : null,
        "pause" : true
      },
      "window" : {
        "start" : [ 9, 1 ],
        "end" : [ 13, 0 ]
      }
    } ],
    "driving" : 0.0,
    "valid" : true
  }, {
    "emp" : {
      "id" : 954,
      "name" : "954",
      "shifts" : [ {
        "start" : [ 9, 0 ],
        "end" : [ 12, 0 ]
      }, {
        "start" : [ 13, 0 ],
        "end" : [ 17, 0 ]
      } ],
      "prefSlots" : null,
      "startingLoc" : {
        "id" : 5101,
        "name" : null,
        "latitude" : 43.674538,
        "longitude" : 4.285629
      },
      "skills" : [ {
        "id" : 7,
        "name" : "PAINTING",
        "level" : 9
      }, {
        "id" : 3,
        "name" : "PLUMBING",
        "level" : 5
      }, {
        "id" : 4,
        "name" : "MASONRY",
        "level" : 1
      }, {
        "id" : 4,
        "name" : "MASONRY",
        "level" : 5
      }, {
        "id" : 3,
        "name" : "PLUMBING",
        "level" : 8
      }, {
        "id" : 5,
        "name" : "GLAZING",
        "level" : 5
      }, {
        "id" : 5,
        "name" : "GLAZING",
        "level" : 9
      }, {
        "id" : 4,
        "name" : "MASONRY",
        "level" : 3
      } ]
    },
    "planning" : [ {
      "job" : {
        "id" : -1,
        "desc" : "Home",
        "location" : {
          "id" : 5101,
          "name" : null,
          "latitude" : 43.674538,
          "longitude" : 4.285629
        },
        "openings" : null,
        "preferredSlots" : null,
        "doAfter" : null,
        "nbEmpRequired" : 1,
        "deadline" : null,
        "skills" : [ ],
        "duration" : null,
        "pause" : true
      },
      "window" : {
        "start" : [ 9, 0 ],
        "end" : [ 9, 0 ]
      }
    }, {
      "job" : {
        "id" : -1,
        "desc" : "Pause",
        "location" : {
          "id" : 5101,
          "name" : null,
          "latitude" : 43.674538,
          "longitude" : 4.285629
        },
        "openings" : null,
        "preferredSlots" : null,
        "doAfter" : null,
        "nbEmpRequired" : 1,
        "deadline" : null,
        "skills" : [ ],
        "duration" : null,
        "pause" : true
      },
      "window" : {
        "start" : [ 9, 1 ],
        "end" : [ 13, 0 ]
      }
    } ],
    "driving" : 0.0,
    "valid" : true
  }, {
    "emp" : {
      "id" : 477,
      "name" : "477",
      "shifts" : [ {
        "start" : [ 9, 0 ],
        "end" : [ 12, 0 ]
      }, {
        "start" : [ 13, 0 ],
        "end" : [ 17, 0 ]
      } ],
      "prefSlots" : null,
      "startingLoc" : {
        "id" : 319,
        "name" : null,
        "latitude" : 43.921684,
        "longitude" : 3.749689
      },
      "skills" : [ {
        "id" : 3,
        "name" : "PLUMBING",
        "level" : 2
      } ]
    },
    "planning" : [ {
      "job" : {
        "id" : -1,
        "desc" : "Home",
        "location" : {
          "id" : 319,
          "name" : null,
          "latitude" : 43.921684,
          "longitude" : 3.749689
        },
        "openings" : null,
        "preferredSlots" : null,
        "doAfter" : null,
        "nbEmpRequired" : 1,
        "deadline" : null,
        "skills" : [ ],
        "duration" : null,
        "pause" : true
      },
      "window" : {
        "start" : [ 9, 0 ],
        "end" : [ 9, 0 ]
      }
    }, {
      "job" : {
        "id" : -1,
        "desc" : "Pause",
        "location" : {
          "id" : 319,
          "name" : null,
          "latitude" : 43.921684,
          "longitude" : 3.749689
        },
        "openings" : null,
        "preferredSlots" : null,
        "doAfter" : null,
        "nbEmpRequired" : 1,
        "deadline" : null,
        "skills" : [ ],
        "duration" : null,
        "pause" : true
      },
      "window" : {
        "start" : [ 9, 1 ],
        "end" : [ 13, 0 ]
      }
    } ],
    "driving" : 0.0,
    "valid" : true
  }, {
    "emp" : {
      "id" : 68,
      "name" : "68",
      "shifts" : [ {
        "start" : [ 9, 0 ],
        "end" : [ 12, 0 ]
      }, {
        "start" : [ 13, 0 ],
        "end" : [ 17, 0 ]
      } ],
      "prefSlots" : null,
      "startingLoc" : {
        "id" : 7582,
        "name" : null,
        "latitude" : 43.960747,
        "longitude" : 4.1762037
      },
      "skills" : [ {
        "id" : 5,
        "name" : "GLAZING",
        "level" : 4
      }, {
        "id" : 7,
        "name" : "PAINTING",
        "level" : 10
      }, {
        "id" : 5,
        "name" : "GLAZING",
        "level" : 6
      }, {
        "id" : 6,
        "name" : "CARPENTRY",
        "level" : 3
      }, {
        "id" : 7,
        "name" : "PAINTING",
        "level" : 3
      }, {
        "id" : 0,
        "name" : "MANAGEMENT",
        "level" : 7
      }, {
        "id" : 6,
        "name" : "CARPENTRY",
        "level" : 2
      }, {
        "id" : 0,
        "name" : "MANAGEMENT",
        "level" : 1
      }, {
        "id" : 6,
        "name" : "CARPENTRY",
        "level" : 1
      } ]
    },
    "planning" : [ {
      "job" : {
        "id" : -1,
        "desc" : "Home",
        "location" : {
          "id" : 7582,
          "name" : null,
          "latitude" : 43.960747,
          "longitude" : 4.1762037
        },
        "openings" : null,
        "preferredSlots" : null,
        "doAfter" : null,
        "nbEmpRequired" : 1,
        "deadline" : null,
        "skills" : [ ],
        "duration" : null,
        "pause" : true
      },
      "window" : {
        "start" : [ 9, 0 ],
        "end" : [ 9, 0 ]
      }
    }, {
      "job" : {
        "id" : 996,
        "desc" : "MANAGEMENT",
        "location" : {
          "id" : 6183,
          "name" : null,
          "latitude" : 43.910446,
          "longitude" : 3.7580216
        },
        "openings" : {
          "start" : [ 9, 15 ],
          "end" : [ 17, 48 ]
        },
        "preferredSlots" : null,
        "doAfter" : null,
        "nbEmpRequired" : 1,
        "deadline" : [ 13, 59 ],
        "skills" : [ {
          "id" : 0,
          "name" : "MANAGEMENT",
          "level" : 4
        } ],
        "duration" : 3600.000000000,
        "pause" : false
      },
      "window" : {
        "start" : [ 9, 34 ],
        "end" : [ 10, 34 ]
      }
    }, {
      "job" : {
        "id" : -1,
        "desc" : "Pause",
        "location" : {
          "id" : 6183,
          "name" : null,
          "latitude" : 43.910446,
          "longitude" : 3.7580216
        },
        "openings" : {
          "start" : [ 9, 15 ],
          "end" : [ 17, 48 ]
        },
        "preferredSlots" : null,
        "doAfter" : null,
        "nbEmpRequired" : 1,
        "deadline" : [ 13, 59 ],
        "skills" : [ {
          "id" : 0,
          "name" : "MANAGEMENT",
          "level" : 4
        } ],
        "duration" : 3600.000000000,
        "pause" : true
      },
      "window" : {
        "start" : [ 10, 35 ],
        "end" : [ 13, 0 ]
      }
    } ],
    "driving" : 2040.000000000,
    "valid" : true
  } ],
  "unassigned" : [ {
    "id" : 927,
    "desc" : "ELECTRICIAN",
    "location" : {
      "id" : 3420,
      "name" : null,
      "latitude" : 43.793434,
      "longitude" : 4.0764422
    },
    "openings" : {
      "start" : [ 9, 58 ],
      "end" : [ 14, 1 ]
    },
    "preferredSlots" : null,
    "doAfter" : null,
    "nbEmpRequired" : 1,
    "deadline" : [ 10, 12 ],
    "skills" : [ {
      "id" : 2,
      "name" : "ELECTRICIAN",
      "level" : 1
    } ],
    "duration" : 1800.000000000,
    "pause" : false
  }, {
    "id" : 514,
    "desc" : "GLAZING, IRONWORK",
    "location" : {
      "id" : 7221,
      "name" : null,
      "latitude" : 43.945198,
      "longitude" : 4.0500283
    },
    "openings" : {
      "start" : [ 12, 53 ],
      "end" : [ 16, 18 ]
    },
    "preferredSlots" : null,
    "doAfter" : null,
    "nbEmpRequired" : 1,
    "deadline" : [ 10, 49 ],
    "skills" : [ {
      "id" : 5,
      "name" : "GLAZING",
      "level" : 2
    }, {
      "id" : 8,
      "name" : "IRONWORK",
      "level" : 3
    } ],
    "duration" : 2700.000000000,
    "pause" : false
  }, {
    "id" : 301,
    "desc" : "TILER, MANAGEMENT",
    "location" : {
      "id" : 8411,
      "name" : null,
      "latitude" : 43.92955,
      "longitude" : 3.8619537
    },
    "openings" : {
      "start" : [ 13, 5 ],
      "end" : [ 17, 7 ]
    },
    "preferredSlots" : null,
    "doAfter" : null,
    "nbEmpRequired" : 1,
    "deadline" : [ 16, 32 ],
    "skills" : [ {
      "id" : 9,
      "name" : "TILER",
      "level" : 5
    }, {
      "id" : 0,
      "name" : "MANAGEMENT",
      "level" : 4
    } ],
    "duration" : 3600.000000000,
    "pause" : false
  }, {
    "id" : 91,
    "desc" : "IRONWORK, TILER",
    "location" : {
      "id" : 6665,
      "name" : null,
      "latitude" : 43.576237,
      "longitude" : 4.217516
    },
    "openings" : {
      "start" : [ 14, 15 ],
      "end" : [ 15, 21 ]
    },
    "preferredSlots" : null,
    "doAfter" : null,
    "nbEmpRequired" : 1,
    "deadline" : [ 16, 40 ],
    "skills" : [ {
      "id" : 8,
      "name" : "IRONWORK",
      "level" : 5
    }, {
      "id" : 9,
      "name" : "TILER",
      "level" : 5
    } ],
    "duration" : 2700.000000000,
    "pause" : false
  } ],
  "valid" : true
}