{
  "listEdt" : [ {
    "emp" : {
      "id" : 293,
      "name" : "293",
      "shifts" : [ {
        "start" : [ 9, 0 ],
        "end" : [ 12, 0 ]
      }, {
        "start" : [ 13, 0 ],
        "end" : [ 17, 0 ]
      } ],
      "prefSlots" : null,
      "startingLoc" : {
        "id" : 2458,
        "name" : null,
        "latitude" : 43.58692,
        "longitude" : 3.9757373
      },
      "skills" : [ {
        "id" : 8,
        "name" : "IRONWORK",
        "level" : 8
      }, {
        "id" : 3,
        "name" : "PLUMBING",
        "level" : 7
      }, {
        "id" : 9,
        "name" : "TILER",
        "level" : 3
      }, {
        "id" : 3,
        "name" : "PLUMBING",
        "level" : 7
      }, {
        "id" : 0,
        "name" : "MANAGEMENT",
        "level" : 8
      }, {
        "id" : 8,
        "name" : "IRONWORK",
        "level" : 2
      }, {
        "id" : 4,
        "name" : "MASONRY",
        "level" : 10
      }, {
        "id" : 9,
        "name" : "TILER",
        "level" : 5
      }, {
        "id" : 8,
        "name" : "IRONWORK",
        "level" : 3
      } ]
    },
    "planning" : [ {
      "job" : {
        "id" : -1,
        "desc" : "Home",
        "location" : {
          "id" : 2458,
          "name" : null,
          "latitude" : 43.58692,
          "longitude" : 3.9757373
        },
        "openings" : null,
        "preferredSlots" : null,
        "doAfter" : null,
        "nbEmpRequired" : 1,
        "deadline" : null,
        "skills" : [ ],
        "duration" : null,
        "pause" : true
      },
      "window" : {
        "start" : [ 9, 0 ],
        "end" : [ 9, 0 ]
      }
    }, {
      "job" : {
        "id" : 756,
        "desc" : "PLUMBING",
        "location" : {
          "id" : 5339,
          "name" : null,
          "latitude" : 43.71547,
          "longitude" : 3.7657177
        },
        "openings" : {
          "start" : [ 10, 24 ],
          "end" : [ 16, 17 ]
        },
        "preferredSlots" : null,
        "doAfter" : null,
        "nbEmpRequired" : 1,
        "deadline" : [ 9, 0 ],
        "skills" : [ {
          "id" : 3,
          "name" : "PLUMBING",
          "level" : 1
        } ],
        "duration" : 5400.000000000,
        "pause" : false
      },
      "window" : {
        "start" : [ 9, 23 ],
        "end" : [ 10, 53 ]
      }
    }, {
      "job" : {
        "id" : 839,
        "desc" : "TILER",
        "location" : {
          "id" : 8263,
          "name" : null,
          "latitude" : 43.651707,
          "longitude" : 3.7547162
        },
        "openings" : {
          "start" : [ 9, 15 ],
          "end" : [ 9, 56 ]
        },
        "preferredSlots" : null,
        "doAfter" : null,
        "nbEmpRequired" : 1,
        "deadline" : [ 9, 6 ],
        "skills" : [ {
          "id" : 9,
          "name" : "TILER",
          "level" : 4
        } ],
        "duration" : 2700.000000000,
        "pause" : false
      },
      "window" : {
        "start" : [ 11, 1 ],
        "end" : [ 11, 46 ]
      }
    }, {
      "job" : {
        "id" : -1,
        "desc" : "Pause",
        "location" : {
          "id" : 8263,
          "name" : null,
          "latitude" : 43.651707,
          "longitude" : 3.7547162
        },
        "openings" : {
          "start" : [ 9, 15 ],
          "end" : [ 9, 56 ]
        },
        "preferredSlots" : null,
        "doAfter" : null,
        "nbEmpRequired" : 1,
        "deadline" : [ 9, 6 ],
        "skills" : [ {
          "id" : 9,
          "name" : "TILER",
          "level" : 4
        } ],
        "duration" : 2700.000000000,
        "pause" : true
      },
      "window" : {
        "start" : [ 11, 47 ],
        "end" : [ 13, 0 ]
      }
    }, {
      "job" : {
        "id" : 470,
        "desc" : "PLUMBING",
        "location" : {
          "id" : 913,
          "name" : null,
          "latitude" : 43.501495,
          "longitude" : 4.2263794
        },
        "openings" : {
          "start" : [ 9, 11 ],
          "end" : [ 16, 26 ]
        },
        "preferredSlots" : null,
        "doAfter" : null,
        "nbEmpRequired" : 1,
        "deadline" : [ 9, 6 ],
        "skills" : [ {
          "id" : 3,
          "name" : "PLUMBING",
          "level" : 4
        } ],
        "duration" : 5400.000000000,
        "pause" : false
      },
      "window" : {
        "start" : [ 13, 42 ],
        "end" : [ 15, 12 ]
      }
    }, {
      "job" : {
        "id" : 94,
        "desc" : "IRONWORK",
        "location" : {
          "id" : 233,
          "name" : null,
          "latitude" : 43.631554,
          "longitude" : 3.7232385
        },
        "openings" : {
          "start" : [ 9, 54 ],
          "end" : [ 12, 30 ]
        },
        "preferredSlots" : null,
        "doAfter" : null,
        "nbEmpRequired" : 1,
        "deadline" : [ 9, 41 ],
        "skills" : [ {
          "id" : 8,
          "name" : "IRONWORK",
          "level" : 5
        } ],
        "duration" : 1800.000000000,
        "pause" : false
      },
      "window" : {
        "start" : [ 15, 56 ],
        "end" : [ 16, 26 ]
      }
    } ],
    "driving" : 7020.000000000,
    "valid" : true
  }, {
    "emp" : {
      "id" : 190,
      "name" : "190",
      "shifts" : [ {
        "start" : [ 9, 0 ],
        "end" : [ 12, 0 ]
      }, {
        "start" : [ 13, 0 ],
        "end" : [ 17, 0 ]
      } ],
      "prefSlots" : null,
      "startingLoc" : {
        "id" : 9042,
        "name" : null,
        "latitude" : 43.840523,
        "longitude" : 4.2689285
      },
      "skills" : [ {
        "id" : 3,
        "name" : "PLUMBING",
        "level" : 8
      } ]
    },
    "planning" : [ {
      "job" : {
        "id" : -1,
        "desc" : "Home",
        "location" : {
          "id" : 9042,
          "name" : null,
          "latitude" : 43.840523,
          "longitude" : 4.2689285
        },
        "openings" : null,
        "preferredSlots" : null,
        "doAfter" : null,
        "nbEmpRequired" : 1,
        "deadline" : null,
        "skills" : [ ],
        "duration" : null,
        "pause" : true
      },
      "window" : {
        "start" : [ 9, 0 ],
        "end" : [ 9, 0 ]
      }
    }, {
      "job" : {
        "id" : 958,
        "desc" : "PLUMBING",
        "location" : {
          "id" : 9383,
          "name" : null,
          "latitude" : 43.81173,
          "longitude" : 4.1173086
        },
        "openings" : {
          "start" : [ 12, 21 ],
          "end" : [ 15, 24 ]
        },
        "preferredSlots" : null,
        "doAfter" : null,
        "nbEmpRequired" : 1,
        "deadline" : [ 9, 48 ],
        "skills" : [ {
          "id" : 3,
          "name" : "PLUMBING",
          "level" : 5
        } ],
        "duration" : 1800.000000000,
        "pause" : false
      },
      "window" : {
        "start" : [ 9, 13 ],
        "end" : [ 9, 43 ]
      }
    }, {
      "job" : {
        "id" : 613,
        "desc" : "PLUMBING",
        "location" : {
          "id" : 63,
          "name" : null,
          "latitude" : 43.60842,
          "longitude" : 4.2931952
        },
        "openings" : {
          "start" : [ 12, 31 ],
          "end" : [ 17, 45 ]
        },
        "preferredSlots" : null,
        "doAfter" : null,
        "nbEmpRequired" : 1,
        "deadline" : [ 10, 26 ],
        "skills" : [ {
          "id" : 3,
          "name" : "PLUMBING",
          "level" : 4
        } ],
        "duration" : 5400.000000000,
        "pause" : false
      },
      "window" : {
        "start" : [ 10, 10 ],
        "end" : [ 11, 40 ]
      }
    }, {
      "job" : {
        "id" : -1,
        "desc" : "Pause",
        "location" : {
          "id" : 63,
          "name" : null,
          "latitude" : 43.60842,
          "longitude" : 4.2931952
        },
        "openings" : {
          "start" : [ 12, 31 ],
          "end" : [ 17, 45 ]
        },
        "preferredSlots" : null,
        "doAfter" : null,
        "nbEmpRequired" : 1,
        "deadline" : [ 10, 26 ],
        "skills" : [ {
          "id" : 3,
          "name" : "PLUMBING",
          "level" : 4
        } ],
        "duration" : 5400.000000000,
        "pause" : true
      },
      "window" : {
        "start" : [ 11, 41 ],
        "end" : [ 13, 0 ]
      }
    }, {
      "job" : {
        "id" : 387,
        "desc" : "PLUMBING",
        "location" : {
          "id" : 2545,
          "name" : null,
          "latitude" : 43.97286,
          "longitude" : 4.2171683
        },
        "openings" : {
          "start" : [ 16, 1 ],
          "end" : [ 17, 31 ]
        },
        "preferredSlots" : null,
        "doAfter" : null,
        "nbEmpRequired" : 1,
        "deadline" : [ 11, 35 ],
        "skills" : [ {
          "id" : 3,
          "name" : "PLUMBING",
          "level" : 1
        } ],
        "duration" : 3600.000000000,
        "pause" : false
      },
      "window" : {
        "start" : [ 13, 41 ],
        "end" : [ 14, 41 ]
      }
    }, {
      "job" : {
        "id" : 126,
        "desc" : "PLUMBING",
        "location" : {
          "id" : 7282,
          "name" : null,
          "latitude" : 44.049805,
          "longitude" : 3.838063
        },
        "openings" : {
          "start" : [ 12, 26 ],
          "end" : [ 17, 2 ]
        },
        "preferredSlots" : null,
        "doAfter" : null,
        "nbEmpRequired" : 1,
        "deadline" : [ 14, 27 ],
        "skills" : [ {
          "id" : 3,
          "name" : "PLUMBING",
          "level" : 5
        } ],
        "duration" : 3600.000000000,
        "pause" : false
      },
      "window" : {
        "start" : [ 15, 13 ],
        "end" : [ 16, 13 ]
      }
    } ],
    "driving" : 6780.000000000,
    "valid" : true
  } ],
  "unassigned" : [ {
    "id" : 557,
    "desc" : "ELECTRICIAN, TILER",
    "location" : {
      "id" : 1283,
      "name" : null,
      "latitude" : 43.440033,
      "longitude" : 4.283638
    },
    "openings" : {
      "start" : [ 13, 48 ],
      "end" : [ 16, 20 ]
    },
    "preferredSlots" : null,
    "doAfter" : null,
    "nbEmpRequired" : 1,
    "deadline" : [ 9, 18 ],
    "skills" : [ {
      "id" : 2,
      "name" : "ELECTRICIAN",
      "level" : 3
    }, {
      "id" : 9,
      "name" : "TILER",
      "level" : 1
    } ],
    "duration" : 1800.000000000,
    "pause" : false
  }, {
    "id" : 392,
    "desc" : "TILER, PAINTING",
    "location" : {
      "id" : 368,
      "name" : null,
      "latitude" : 43.58926,
      "longitude" : 3.932424
    },
    "openings" : {
      "start" : [ 12, 46 ],
      "end" : [ 15, 36 ]
    },
    "preferredSlots" : null,
    "doAfter" : null,
    "nbEmpRequired" : 1,
    "deadline" : [ 9, 21 ],
    "skills" : [ {
      "id" : 9,
      "name" : "TILER",
      "level" : 1
    }, {
      "id" : 7,
      "name" : "PAINTING",
      "level" : 2
    } ],
    "duration" : 3600.000000000,
    "pause" : false
  }, {
    "id" : 395,
    "desc" : "IRONWORK, TILER",
    "location" : {
      "id" : 3746,
      "name" : null,
      "latitude" : 43.79137,
      "longitude" : 3.7742763
    },
    "openings" : {
      "start" : [ 10, 32 ],
      "end" : [ 11, 28 ]
    },
    "preferredSlots" : null,
    "doAfter" : null,
    "nbEmpRequired" : 1,
    "deadline" : [ 9, 43 ],
    "skills" : [ {
      "id" : 8,
      "name" : "IRONWORK",
      "level" : 5
    }, {
      "id" : 9,
      "name" : "TILER",
      "level" : 3
    } ],
    "duration" : 5400.000000000,
    "pause" : false
  }, {
    "id" : 893,
    "desc" : "MANAGEMENT",
    "location" : {
      "id" : 1432,
      "name" : null,
      "latitude" : 44.006943,
      "longitude" : 3.943484
    },
    "openings" : {
      "start" : [ 9, 12 ],
      "end" : [ 10, 28 ]
    },
    "preferredSlots" : null,
    "doAfter" : null,
    "nbEmpRequired" : 1,
    "deadline" : [ 10, 14 ],
    "skills" : [ {
      "id" : 0,
      "name" : "MANAGEMENT",
      "level" : 2
    } ],
    "duration" : 5400.000000000,
    "pause" : false
  }, {
    "id" : 23,
    "desc" : "IRONWORK, TILER",
    "location" : {
      "id" : 3354,
      "name" : null,
      "latitude" : 43.58471,
      "longitude" : 3.8131852
    },
    "openings" : {
      "start" : [ 11, 45 ],
      "end" : [ 17, 29 ]
    },
    "preferredSlots" : null,
    "doAfter" : null,
    "nbEmpRequired" : 1,
    "deadline" : [ 10, 19 ],
    "skills" : [ {
      "id" : 8,
      "name" : "IRONWORK",
      "level" : 2
    }, {
      "id" : 9,
      "name" : "TILER",
      "level" : 2
    } ],
    "duration" : 1800.000000000,
    "pause" : false
  }, {
    "id" : 645,
    "desc" : "PLUMBING, ELECTRICIAN",
    "location" : {
      "id" : 7679,
      "name" : null,
      "latitude" : 43.48481,
      "longitude" : 3.9059968
    },
    "openings" : {
      "start" : [ 11, 23 ],
      "end" : [ 15, 35 ]
    },
    "preferredSlots" : null,
    "doAfter" : null,
    "nbEmpRequired" : 1,
    "deadline" : [ 10, 23 ],
    "skills" : [ {
      "id" : 3,
      "name" : "PLUMBING",
      "level" : 3
    }, {
      "id" : 2,
      "name" : "ELECTRICIAN",
      "level" : 1
    } ],
    "duration" : 2700.000000000,
    "pause" : false
  }, {
    "id" : 269,
    "desc" : "IRONWORK, PAINTING",
    "location" : {
      "id" : 7096,
      "name" : null,
      "latitude" : 43.759014,
      "longitude" : 3.9329872
    },
    "openings" : {
      "start" : [ 15, 36 ],
      "end" : [ 17, 31 ]
    },
    "preferredSlots" : null,
    "doAfter" : null,
    "nbEmpRequired" : 1,
    "deadline" : [ 10, 36 ],
    "skills" : [ {
      "id" : 8,
      "name" : "IRONWORK",
      "level" : 3
    }, {
      "id" : 7,
      "name" : "PAINTING",
      "level" : 4
    } ],
    "duration" : 5400.000000000,
    "pause" : false
  }, {
    "id" : 152,
    "desc" : "MASONRY, CARPENTRY",
    "location" : {
      "id" : 6923,
      "name" : null,
      "latitude" : 43.590065,
      "longitude" : 3.9097505
    },
    "openings" : {
      "start" : [ 9, 11 ],
      "end" : [ 16, 42 ]
    },
    "preferredSlots" : null,
    "doAfter" : null,
    "nbEmpRequired" : 1,
    "deadline" : [ 10, 39 ],
    "skills" : [ {
      "id" : 4,
      "name" : "MASONRY",
      "level" : 5
    }, {
      "id" : 6,
      "name" : "CARPENTRY",
      "level" : 1
    } ],
    "duration" : 2700.000000000,
    "pause" : false
  }, {
    "id" : 836,
    "desc" : "CARPENTRY, MASONRY",
    "location" : {
      "id" : 1085,
      "name" : null,
      "latitude" : 43.777424,
      "longitude" : 4.0934834
    },
    "openings" : {
      "start" : [ 11, 58 ],
      "end" : [ 13, 29 ]
    },
    "preferredSlots" : null,
    "doAfter" : null,
    "nbEmpRequired" : 1,
    "deadline" : [ 10, 42 ],
    "skills" : [ {
      "id" : 6,
      "name" : "CARPENTRY",
      "level" : 1
    }, {
      "id" : 4,
      "name" : "MASONRY",
      "level" : 5
    } ],
    "duration" : 5400.000000000,
    "pause" : false
  }, {
    "id" : 342,
    "desc" : "ELECTRICIAN, PLUMBING",
    "location" : {
      "id" : 3892,
      "name" : null,
      "latitude" : 43.93746,
      "longitude" : 3.7802498
    },
    "openings" : {
      "start" : [ 12, 19 ],
      "end" : [ 13, 58 ]
    },
    "preferredSlots" : null,
    "doAfter" : null,
    "nbEmpRequired" : 1,
    "deadline" : [ 10, 51 ],
    "skills" : [ {
      "id" : 2,
      "name" : "ELECTRICIAN",
      "level" : 5
    }, {
      "id" : 3,
      "name" : "PLUMBING",
      "level" : 1
    } ],
    "duration" : 2700.000000000,
    "pause" : false
  }, {
    "id" : 411,
    "desc" : "MASONRY",
    "location" : {
      "id" : 5668,
      "name" : null,
      "latitude" : 43.571423,
      "longitude" : 4.0973845
    },
    "openings" : {
      "start" : [ 12, 4 ],
      "end" : [ 16, 45 ]
    },
    "preferredSlots" : null,
    "doAfter" : null,
    "nbEmpRequired" : 1,
    "deadline" : [ 10, 52 ],
    "skills" : [ {
      "id" : 4,
      "name" : "MASONRY",
      "level" : 4
    } ],
    "duration" : 2700.000000000,
    "pause" : false
  }, {
    "id" : 509,
    "desc" : "GLAZING, CARPENTRY",
    "location" : {
      "id" : 6047,
      "name" : null,
      "latitude" : 43.60521,
      "longitude" : 3.824758
    },
    "openings" : {
      "start" : [ 13, 13 ],
      "end" : [ 13, 25 ]
    },
    "preferredSlots" : null,
    "doAfter" : null,
    "nbEmpRequired" : 1,
    "deadline" : [ 10, 56 ],
    "skills" : [ {
      "id" : 5,
      "name" : "GLAZING",
      "level" : 1
    }, {
      "id" : 6,
      "name" : "CARPENTRY",
      "level" : 4
    } ],
    "duration" : 2700.000000000,
    "pause" : false
  }, {
    "id" : 985,
    "desc" : "CARPENTRY",
    "location" : {
      "id" : 5598,
      "name" : null,
      "latitude" : 43.94419,
      "longitude" : 4.0924087
    },
    "openings" : {
      "start" : [ 9, 13 ],
      "end" : [ 16, 6 ]
    },
    "preferredSlots" : null,
    "doAfter" : null,
    "nbEmpRequired" : 1,
    "deadline" : [ 11, 1 ],
    "skills" : [ {
      "id" : 6,
      "name" : "CARPENTRY",
      "level" : 3
    } ],
    "duration" : 3600.000000000,
    "pause" : false
  }, {
    "id" : 533,
    "desc" : "GLAZING, PLUMBING",
    "location" : {
      "id" : 4088,
      "name" : null,
      "latitude" : 43.78385,
      "longitude" : 3.7421048
    },
    "openings" : {
      "start" : [ 14, 54 ],
      "end" : [ 16, 44 ]
    },
    "preferredSlots" : null,
    "doAfter" : null,
    "nbEmpRequired" : 1,
    "deadline" : [ 11, 21 ],
    "skills" : [ {
      "id" : 5,
      "name" : "GLAZING",
      "level" : 2
    }, {
      "id" : 3,
      "name" : "PLUMBING",
      "level" : 1
    } ],
    "duration" : 3600.000000000,
    "pause" : false
  }, {
    "id" : 905,
    "desc" : "PLUMBING, IRONWORK",
    "location" : {
      "id" : 1536,
      "name" : null,
      "latitude" : 43.665825,
      "longitude" : 3.793309
    },
    "openings" : {
      "start" : [ 10, 31 ],
      "end" : [ 17, 42 ]
    },
    "preferredSlots" : null,
    "doAfter" : null,
    "nbEmpRequired" : 1,
    "deadline" : [ 11, 22 ],
    "skills" : [ {
      "id" : 3,
      "name" : "PLUMBING",
      "level" : 5
    }, {
      "id" : 8,
      "name" : "IRONWORK",
      "level" : 5
    } ],
    "duration" : 2700.000000000,
    "pause" : false
  }, {
    "id" : 45,
    "desc" : "IRONWORK",
    "location" : {
      "id" : 572,
      "name" : null,
      "latitude" : 43.43844,
      "longitude" : 3.701606
    },
    "openings" : {
      "start" : [ 11, 17 ],
      "end" : [ 17, 51 ]
    },
    "preferredSlots" : null,
    "doAfter" : null,
    "nbEmpRequired" : 1,
    "deadline" : [ 11, 27 ],
    "skills" : [ {
      "id" : 8,
      "name" : "IRONWORK",
      "level" : 3
    } ],
    "duration" : 2700.000000000,
    "pause" : false
  }, {
    "id" : 864,
    "desc" : "ENGINEER",
    "location" : {
      "id" : 3412,
      "name" : null,
      "latitude" : 43.75658,
      "longitude" : 3.9066906
    },
    "openings" : {
      "start" : [ 16, 29 ],
      "end" : [ 16, 41 ]
    },
    "preferredSlots" : null,
    "doAfter" : null,
    "nbEmpRequired" : 1,
    "deadline" : [ 11, 27 ],
    "skills" : [ {
      "id" : 1,
      "name" : "ENGINEER",
      "level" : 4
    } ],
    "duration" : 2700.000000000,
    "pause" : false
  }, {
    "id" : 783,
    "desc" : "TILER",
    "location" : {
      "id" : 7682,
      "name" : null,
      "latitude" : 43.99698,
      "longitude" : 3.9509215
    },
    "openings" : {
      "start" : [ 9, 59 ],
      "end" : [ 13, 24 ]
    },
    "preferredSlots" : null,
    "doAfter" : null,
    "nbEmpRequired" : 1,
    "deadline" : [ 11, 31 ],
    "skills" : [ {
      "id" : 9,
      "name" : "TILER",
      "level" : 2
    } ],
    "duration" : 7200.000000000,
    "pause" : false
  }, {
    "id" : 849,
    "desc" : "IRONWORK, TILER",
    "location" : {
      "id" : 6672,
      "name" : null,
      "latitude" : 44.00364,
      "longitude" : 4.1083546
    },
    "openings" : {
      "start" : [ 9, 33 ],
      "end" : [ 17, 50 ]
    },
    "preferredSlots" : null,
    "doAfter" : null,
    "nbEmpRequired" : 1,
    "deadline" : [ 11, 43 ],
    "skills" : [ {
      "id" : 8,
      "name" : "IRONWORK",
      "level" : 3
    }, {
      "id" : 9,
      "name" : "TILER",
      "level" : 1
    } ],
    "duration" : 1800.000000000,
    "pause" : false
  }, {
    "id" : 216,
    "desc" : "MASONRY",
    "location" : {
      "id" : 2351,
      "name" : null,
      "latitude" : 43.75406,
      "longitude" : 4.2768974
    },
    "openings" : {
      "start" : [ 16, 6 ],
      "end" : [ 17, 59 ]
    },
    "preferredSlots" : null,
    "doAfter" : null,
    "nbEmpRequired" : 1,
    "deadline" : [ 11, 45 ],
    "skills" : [ {
      "id" : 4,
      "name" : "MASONRY",
      "level" : 3
    } ],
    "duration" : 5400.000000000,
    "pause" : false
  }, {
    "id" : 521,
    "desc" : "IRONWORK",
    "location" : {
      "id" : 8038,
      "name" : null,
      "latitude" : 43.775806,
      "longitude" : 3.7894738
    },
    "openings" : {
      "start" : [ 10, 26 ],
      "end" : [ 13, 49 ]
    },
    "preferredSlots" : null,
    "doAfter" : null,
    "nbEmpRequired" : 1,
    "deadline" : [ 11, 51 ],
    "skills" : [ {
      "id" : 8,
      "name" : "IRONWORK",
      "level" : 2
    } ],
    "duration" : 1800.000000000,
    "pause" : false
  }, {
    "id" : 416,
    "desc" : "TILER, ENGINEER",
    "location" : {
      "id" : 5983,
      "name" : null,
      "latitude" : 44.005592,
      "longitude" : 3.9370399
    },
    "openings" : {
      "start" : [ 9, 5 ],
      "end" : [ 15, 23 ]
    },
    "preferredSlots" : null,
    "doAfter" : null,
    "nbEmpRequired" : 1,
    "deadline" : [ 11, 56 ],
    "skills" : [ {
      "id" : 9,
      "name" : "TILER",
      "level" : 3
    }, {
      "id" : 1,
      "name" : "ENGINEER",
      "level" : 3
    } ],
    "duration" : 2700.000000000,
    "pause" : false
  }, {
    "id" : 672,
    "desc" : "IRONWORK",
    "location" : {
      "id" : 7830,
      "name" : null,
      "latitude" : 43.844185,
      "longitude" : 4.209665
    },
    "openings" : {
      "start" : [ 10, 26 ],
      "end" : [ 11, 31 ]
    },
    "preferredSlots" : null,
    "doAfter" : null,
    "nbEmpRequired" : 1,
    "deadline" : [ 12, 0 ],
    "skills" : [ {
      "id" : 8,
      "name" : "IRONWORK",
      "level" : 4
    } ],
    "duration" : 7200.000000000,
    "pause" : false
  }, {
    "id" : 226,
    "desc" : "PLUMBING, IRONWORK",
    "location" : {
      "id" : 5327,
      "name" : null,
      "latitude" : 43.40053,
      "longitude" : 4.26909
    },
    "openings" : {
      "start" : [ 16, 17 ],
      "end" : [ 17, 38 ]
    },
    "preferredSlots" : null,
    "doAfter" : null,
    "nbEmpRequired" : 1,
    "deadline" : [ 12, 1 ],
    "skills" : [ {
      "id" : 3,
      "name" : "PLUMBING",
      "level" : 5
    }, {
      "id" : 8,
      "name" : "IRONWORK",
      "level" : 1
    } ],
    "duration" : 3600.000000000,
    "pause" : false
  }, {
    "id" : 467,
    "desc" : "MASONRY, GLAZING",
    "location" : {
      "id" : 2163,
      "name" : null,
      "latitude" : 44.041084,
      "longitude" : 4.0947475
    },
    "openings" : {
      "start" : [ 10, 26 ],
      "end" : [ 12, 21 ]
    },
    "preferredSlots" : null,
    "doAfter" : null,
    "nbEmpRequired" : 1,
    "deadline" : [ 12, 4 ],
    "skills" : [ {
      "id" : 4,
      "name" : "MASONRY",
      "level" : 1
    }, {
      "id" : 5,
      "name" : "GLAZING",
      "level" : 4
    } ],
    "duration" : 1800.000000000,
    "pause" : false
  }, {
    "id" : 442,
    "desc" : "TILER, PAINTING",
    "location" : {
      "id" : 8637,
      "name" : null,
      "latitude" : 43.51261,
      "longitude" : 4.067912
    },
    "openings" : {
      "start" : [ 12, 13 ],
      "end" : [ 16, 6 ]
    },
    "preferredSlots" : null,
    "doAfter" : null,
    "nbEmpRequired" : 1,
    "deadline" : [ 12, 12 ],
    "skills" : [ {
      "id" : 9,
      "name" : "TILER",
      "level" : 5
    }, {
      "id" : 7,
      "name" : "PAINTING",
      "level" : 3
    } ],
    "duration" : 5400.000000000,
    "pause" : false
  }, {
    "id" : 260,
    "desc" : "ELECTRICIAN, TILER",
    "location" : {
      "id" : 1627,
      "name" : null,
      "latitude" : 43.475212,
      "longitude" : 4.233187
    },
    "openings" : {
      "start" : [ 12, 9 ],
      "end" : [ 13, 57 ]
    },
    "preferredSlots" : null,
    "doAfter" : null,
    "nbEmpRequired" : 1,
    "deadline" : [ 12, 21 ],
    "skills" : [ {
      "id" : 2,
      "name" : "ELECTRICIAN",
      "level" : 1
    }, {
      "id" : 9,
      "name" : "TILER",
      "level" : 4
    } ],
    "duration" : 2700.000000000,
    "pause" : false
  }, {
    "id" : 946,
    "desc" : "IRONWORK",
    "location" : {
      "id" : 2271,
      "name" : null,
      "latitude" : 44.039696,
      "longitude" : 4.0783973
    },
    "openings" : {
      "start" : [ 16, 7 ],
      "end" : [ 17, 3 ]
    },
    "preferredSlots" : null,
    "doAfter" : null,
    "nbEmpRequired" : 1,
    "deadline" : [ 12, 28 ],
    "skills" : [ {
      "id" : 8,
      "name" : "IRONWORK",
      "level" : 1
    } ],
    "duration" : 2700.000000000,
    "pause" : false
  }, {
    "id" : 246,
    "desc" : "MASONRY, IRONWORK",
    "location" : {
      "id" : 1369,
      "name" : null,
      "latitude" : 43.61938,
      "longitude" : 3.8455758
    },
    "openings" : {
      "start" : [ 9, 50 ],
      "end" : [ 13, 56 ]
    },
    "preferredSlots" : null,
    "doAfter" : null,
    "nbEmpRequired" : 1,
    "deadline" : [ 12, 30 ],
    "skills" : [ {
      "id" : 4,
      "name" : "MASONRY",
      "level" : 3
    }, {
      "id" : 8,
      "name" : "IRONWORK",
      "level" : 4
    } ],
    "duration" : 3600.000000000,
    "pause" : false
  }, {
    "id" : 592,
    "desc" : "MANAGEMENT, MASONRY",
    "location" : {
      "id" : 1660,
      "name" : null,
      "latitude" : 43.58052,
      "longitude" : 4.290953
    },
    "openings" : {
      "start" : [ 11, 8 ],
      "end" : [ 16, 41 ]
    },
    "preferredSlots" : null,
    "doAfter" : null,
    "nbEmpRequired" : 1,
    "deadline" : [ 12, 32 ],
    "skills" : [ {
      "id" : 0,
      "name" : "MANAGEMENT",
      "level" : 3
    }, {
      "id" : 4,
      "name" : "MASONRY",
      "level" : 1
    } ],
    "duration" : 2700.000000000,
    "pause" : false
  }, {
    "id" : 546,
    "desc" : "PAINTING, ENGINEER",
    "location" : {
      "id" : 9601,
      "name" : null,
      "latitude" : 43.796577,
      "longitude" : 3.8943584
    },
    "openings" : {
      "start" : [ 16, 13 ],
      "end" : [ 17, 1 ]
    },
    "preferredSlots" : null,
    "doAfter" : null,
    "nbEmpRequired" : 1,
    "deadline" : [ 12, 32 ],
    "skills" : [ {
      "id" : 7,
      "name" : "PAINTING",
      "level" : 1
    }, {
      "id" : 1,
      "name" : "ENGINEER",
      "level" : 3
    } ],
    "duration" : 1800.000000000,
    "pause" : false
  }, {
    "id" : 119,
    "desc" : "GLAZING, PLUMBING",
    "location" : {
      "id" : 6832,
      "name" : null,
      "latitude" : 43.906487,
      "longitude" : 4.021613
    },
    "openings" : {
      "start" : [ 15, 34 ],
      "end" : [ 16, 7 ]
    },
    "preferredSlots" : null,
    "doAfter" : null,
    "nbEmpRequired" : 1,
    "deadline" : [ 12, 33 ],
    "skills" : [ {
      "id" : 5,
      "name" : "GLAZING",
      "level" : 4
    }, {
      "id" : 3,
      "name" : "PLUMBING",
      "level" : 1
    } ],
    "duration" : 1800.000000000,
    "pause" : false
  }, {
    "id" : 478,
    "desc" : "PLUMBING, ELECTRICIAN",
    "location" : {
      "id" : 1131,
      "name" : null,
      "latitude" : 43.507164,
      "longitude" : 4.08298
    },
    "openings" : {
      "start" : [ 9, 17 ],
      "end" : [ 15, 27 ]
    },
    "preferredSlots" : null,
    "doAfter" : null,
    "nbEmpRequired" : 1,
    "deadline" : [ 12, 35 ],
    "skills" : [ {
      "id" : 3,
      "name" : "PLUMBING",
      "level" : 2
    }, {
      "id" : 2,
      "name" : "ELECTRICIAN",
      "level" : 5
    } ],
    "duration" : 3600.000000000,
    "pause" : false
  }, {
    "id" : 799,
    "desc" : "ELECTRICIAN, PLUMBING",
    "location" : {
      "id" : 2480,
      "name" : null,
      "latitude" : 43.465965,
      "longitude" : 4.1879663
    },
    "openings" : {
      "start" : [ 12, 36 ],
      "end" : [ 17, 37 ]
    },
    "preferredSlots" : null,
    "doAfter" : null,
    "nbEmpRequired" : 1,
    "deadline" : [ 12, 38 ],
    "skills" : [ {
      "id" : 2,
      "name" : "ELECTRICIAN",
      "level" : 1
    }, {
      "id" : 3,
      "name" : "PLUMBING",
      "level" : 1
    } ],
    "duration" : 7200.000000000,
    "pause" : false
  }, {
    "id" : 267,
    "desc" : "MANAGEMENT, PAINTING",
    "location" : {
      "id" : 7177,
      "name" : null,
      "latitude" : 43.460297,
      "longitude" : 3.8563251
    },
    "openings" : {
      "start" : [ 16, 4 ],
      "end" : [ 16, 45 ]
    },
    "preferredSlots" : null,
    "doAfter" : null,
    "nbEmpRequired" : 1,
    "deadline" : [ 12, 46 ],
    "skills" : [ {
      "id" : 0,
      "name" : "MANAGEMENT",
      "level" : 5
    }, {
      "id" : 7,
      "name" : "PAINTING",
      "level" : 2
    } ],
    "duration" : 3600.000000000,
    "pause" : false
  }, {
    "id" : 603,
    "desc" : "GLAZING, ENGINEER",
    "location" : {
      "id" : 3177,
      "name" : null,
      "latitude" : 43.88772,
      "longitude" : 4.1211195
    },
    "openings" : {
      "start" : [ 12, 43 ],
      "end" : [ 16, 32 ]
    },
    "preferredSlots" : null,
    "doAfter" : null,
    "nbEmpRequired" : 1,
    "deadline" : [ 12, 47 ],
    "skills" : [ {
      "id" : 5,
      "name" : "GLAZING",
      "level" : 1
    }, {
      "id" : 1,
      "name" : "ENGINEER",
      "level" : 1
    } ],
    "duration" : 2700.000000000,
    "pause" : false
  }, {
    "id" : 430,
    "desc" : "ENGINEER",
    "location" : {
      "id" : 8084,
      "name" : null,
      "latitude" : 43.506752,
      "longitude" : 3.7966373
    },
    "openings" : {
      "start" : [ 16, 25 ],
      "end" : [ 16, 51 ]
    },
    "preferredSlots" : null,
    "doAfter" : null,
    "nbEmpRequired" : 1,
    "deadline" : [ 12, 53 ],
    "skills" : [ {
      "id" : 1,
      "name" : "ENGINEER",
      "level" : 3
    } ],
    "duration" : 1800.000000000,
    "pause" : false
  }, {
    "id" : 208,
    "desc" : "ENGINEER, MASONRY",
    "location" : {
      "id" : 5815,
      "name" : null,
      "latitude" : 43.679314,
      "longitude" : 3.718057
    },
    "openings" : {
      "start" : [ 14, 7 ],
      "end" : [ 17, 10 ]
    },
    "preferredSlots" : null,
    "doAfter" : null,
    "nbEmpRequired" : 1,
    "deadline" : [ 12, 53 ],
    "skills" : [ {
      "id" : 1,
      "name" : "ENGINEER",
      "level" : 4
    }, {
      "id" : 4,
      "name" : "MASONRY",
      "level" : 3
    } ],
    "duration" : 3600.000000000,
    "pause" : false
  }, {
    "id" : 248,
    "desc" : "GLAZING",
    "location" : {
      "id" : 5743,
      "name" : null,
      "latitude" : 43.67164,
      "longitude" : 3.832288
    },
    "openings" : {
      "start" : [ 10, 21 ],
      "end" : [ 17, 49 ]
    },
    "preferredSlots" : null,
    "doAfter" : null,
    "nbEmpRequired" : 1,
    "deadline" : [ 12, 56 ],
    "skills" : [ {
      "id" : 5,
      "name" : "GLAZING",
      "level" : 3
    } ],
    "duration" : 3600.000000000,
    "pause" : false
  }, {
    "id" : 165,
    "desc" : "CARPENTRY, ELECTRICIAN",
    "location" : {
      "id" : 407,
      "name" : null,
      "latitude" : 43.452778,
      "longitude" : 4.272954
    },
    "openings" : {
      "start" : [ 11, 48 ],
      "end" : [ 13, 2 ]
    },
    "preferredSlots" : null,
    "doAfter" : null,
    "nbEmpRequired" : 1,
    "deadline" : [ 12, 57 ],
    "skills" : [ {
      "id" : 6,
      "name" : "CARPENTRY",
      "level" : 5
    }, {
      "id" : 2,
      "name" : "ELECTRICIAN",
      "level" : 2
    } ],
    "duration" : 3600.000000000,
    "pause" : false
  }, {
    "id" : 979,
    "desc" : "GLAZING",
    "location" : {
      "id" : 900,
      "name" : null,
      "latitude" : 43.660275,
      "longitude" : 4.1441483
    },
    "openings" : {
      "start" : [ 12, 54 ],
      "end" : [ 17, 58 ]
    },
    "preferredSlots" : null,
    "doAfter" : null,
    "nbEmpRequired" : 1,
    "deadline" : [ 13, 6 ],
    "skills" : [ {
      "id" : 5,
      "name" : "GLAZING",
      "level" : 2
    } ],
    "duration" : 2700.000000000,
    "pause" : false
  }, {
    "id" : 11,
    "desc" : "CARPENTRY, ENGINEER",
    "location" : {
      "id" : 7834,
      "name" : null,
      "latitude" : 43.50422,
      "longitude" : 4.0272675
    },
    "openings" : {
      "start" : [ 16, 57 ],
      "end" : [ 17, 10 ]
    },
    "preferredSlots" : null,
    "doAfter" : null,
    "nbEmpRequired" : 1,
    "deadline" : [ 13, 11 ],
    "skills" : [ {
      "id" : 6,
      "name" : "CARPENTRY",
      "level" : 2
    }, {
      "id" : 1,
      "name" : "ENGINEER",
      "level" : 5
    } ],
    "duration" : 3600.000000000,
    "pause" : false
  }, {
    "id" : 885,
    "desc" : "CARPENTRY",
    "location" : {
      "id" : 3401,
      "name" : null,
      "latitude" : 43.526733,
      "longitude" : 3.7760596
    },
    "openings" : {
      "start" : [ 11, 21 ],
      "end" : [ 14, 3 ]
    },
    "preferredSlots" : null,
    "doAfter" : null,
    "nbEmpRequired" : 1,
    "deadline" : [ 13, 14 ],
    "skills" : [ {
      "id" : 6,
      "name" : "CARPENTRY",
      "level" : 3
    } ],
    "duration" : 2700.000000000,
    "pause" : false
  }, {
    "id" : 783,
    "desc" : "ELECTRICIAN",
    "location" : {
      "id" : 4430,
      "name" : null,
      "latitude" : 43.700527,
      "longitude" : 4.011566
    },
    "openings" : {
      "start" : [ 9, 33 ],
      "end" : [ 10, 8 ]
    },
    "preferredSlots" : null,
    "doAfter" : null,
    "nbEmpRequired" : 1,
    "deadline" : [ 13, 15 ],
    "skills" : [ {
      "id" : 2,
      "name" : "ELECTRICIAN",
      "level" : 3
    } ],
    "duration" : 5400.000000000,
    "pause" : false
  }, {
    "id" : 98,
    "desc" : "MANAGEMENT, ENGINEER",
    "location" : {
      "id" : 1398,
      "name" : null,
      "latitude" : 43.97092,
      "longitude" : 4.205889
    },
    "openings" : {
      "start" : [ 16, 40 ],
      "end" : [ 16, 45 ]
    },
    "preferredSlots" : null,
    "doAfter" : null,
    "nbEmpRequired" : 1,
    "deadline" : [ 13, 22 ],
    "skills" : [ {
      "id" : 0,
      "name" : "MANAGEMENT",
      "level" : 2
    }, {
      "id" : 1,
      "name" : "ENGINEER",
      "level" : 5
    } ],
    "duration" : 1800.000000000,
    "pause" : false
  }, {
    "id" : 916,
    "desc" : "IRONWORK, MASONRY",
    "location" : {
      "id" : 3544,
      "name" : null,
      "latitude" : 43.974644,
      "longitude" : 4.244004
    },
    "openings" : {
      "start" : [ 9, 12 ],
      "end" : [ 10, 25 ]
    },
    "preferredSlots" : null,
    "doAfter" : null,
    "nbEmpRequired" : 1,
    "deadline" : [ 13, 30 ],
    "skills" : [ {
      "id" : 8,
      "name" : "IRONWORK",
      "level" : 2
    }, {
      "id" : 4,
      "name" : "MASONRY",
      "level" : 2
    } ],
    "duration" : 2700.000000000,
    "pause" : false
  }, {
    "id" : 953,
    "desc" : "ELECTRICIAN, ENGINEER",
    "location" : {
      "id" : 5856,
      "name" : null,
      "latitude" : 44.033367,
      "longitude" : 4.10215
    },
    "openings" : {
      "start" : [ 10, 1 ],
      "end" : [ 13, 46 ]
    },
    "preferredSlots" : null,
    "doAfter" : null,
    "nbEmpRequired" : 1,
    "deadline" : [ 13, 41 ],
    "skills" : [ {
      "id" : 2,
      "name" : "ELECTRICIAN",
      "level" : 4
    }, {
      "id" : 1,
      "name" : "ENGINEER",
      "level" : 2
    } ],
    "duration" : 2700.000000000,
    "pause" : false
  }, {
    "id" : 751,
    "desc" : "MANAGEMENT",
    "location" : {
      "id" : 1306,
      "name" : null,
      "latitude" : 44.02382,
      "longitude" : 3.773415
    },
    "openings" : {
      "start" : [ 11, 36 ],
      "end" : [ 17, 30 ]
    },
    "preferredSlots" : null,
    "doAfter" : null,
    "nbEmpRequired" : 1,
    "deadline" : [ 13, 41 ],
    "skills" : [ {
      "id" : 0,
      "name" : "MANAGEMENT",
      "level" : 1
    } ],
    "duration" : 3600.000000000,
    "pause" : false
  }, {
    "id" : 953,
    "desc" : "ENGINEER, PAINTING",
    "location" : {
      "id" : 7113,
      "name" : null,
      "latitude" : 43.449577,
      "longitude" : 3.8250988
    },
    "openings" : {
      "start" : [ 13, 6 ],
      "end" : [ 14, 27 ]
    },
    "preferredSlots" : null,
    "doAfter" : null,
    "nbEmpRequired" : 1,
    "deadline" : [ 13, 54 ],
    "skills" : [ {
      "id" : 1,
      "name" : "ENGINEER",
      "level" : 3
    }, {
      "id" : 7,
      "name" : "PAINTING",
      "level" : 2
    } ],
    "duration" : 1800.000000000,
    "pause" : false
  }, {
    "id" : 674,
    "desc" : "PLUMBING, ENGINEER",
    "location" : {
      "id" : 1660,
      "name" : null,
      "latitude" : 43.410446,
      "longitude" : 3.8759243
    },
    "openings" : {
      "start" : [ 12, 0 ],
      "end" : [ 17, 33 ]
    },
    "preferredSlots" : null,
    "doAfter" : null,
    "nbEmpRequired" : 1,
    "deadline" : [ 14, 1 ],
    "skills" : [ {
      "id" : 3,
      "name" : "PLUMBING",
      "level" : 2
    }, {
      "id" : 1,
      "name" : "ENGINEER",
      "level" : 5
    } ],
    "duration" : 1800.000000000,
    "pause" : false
  }, {
    "id" : 698,
    "desc" : "CARPENTRY",
    "location" : {
      "id" : 7605,
      "name" : null,
      "latitude" : 43.777596,
      "longitude" : 4.218352
    },
    "openings" : {
      "start" : [ 9, 15 ],
      "end" : [ 11, 53 ]
    },
    "preferredSlots" : null,
    "doAfter" : null,
    "nbEmpRequired" : 1,
    "deadline" : [ 14, 3 ],
    "skills" : [ {
      "id" : 6,
      "name" : "CARPENTRY",
      "level" : 4
    } ],
    "duration" : 3600.000000000,
    "pause" : false
  }, {
    "id" : 518,
    "desc" : "TILER, MANAGEMENT",
    "location" : {
      "id" : 3718,
      "name" : null,
      "latitude" : 43.618828,
      "longitude" : 4.063248
    },
    "openings" : {
      "start" : [ 15, 34 ],
      "end" : [ 17, 56 ]
    },
    "preferredSlots" : null,
    "doAfter" : null,
    "nbEmpRequired" : 1,
    "deadline" : [ 14, 5 ],
    "skills" : [ {
      "id" : 9,
      "name" : "TILER",
      "level" : 1
    }, {
      "id" : 0,
      "name" : "MANAGEMENT",
      "level" : 5
    } ],
    "duration" : 1800.000000000,
    "pause" : false
  }, {
    "id" : 26,
    "desc" : "GLAZING, CARPENTRY",
    "location" : {
      "id" : 8726,
      "name" : null,
      "latitude" : 43.58078,
      "longitude" : 4.1576953
    },
    "openings" : {
      "start" : [ 10, 49 ],
      "end" : [ 16, 54 ]
    },
    "preferredSlots" : null,
    "doAfter" : null,
    "nbEmpRequired" : 1,
    "deadline" : [ 14, 12 ],
    "skills" : [ {
      "id" : 5,
      "name" : "GLAZING",
      "level" : 3
    }, {
      "id" : 6,
      "name" : "CARPENTRY",
      "level" : 5
    } ],
    "duration" : 7200.000000000,
    "pause" : false
  }, {
    "id" : 928,
    "desc" : "ELECTRICIAN",
    "location" : {
      "id" : 8214,
      "name" : null,
      "latitude" : 43.577065,
      "longitude" : 4.096755
    },
    "openings" : {
      "start" : [ 10, 4 ],
      "end" : [ 14, 27 ]
    },
    "preferredSlots" : null,
    "doAfter" : null,
    "nbEmpRequired" : 1,
    "deadline" : [ 14, 15 ],
    "skills" : [ {
      "id" : 2,
      "name" : "ELECTRICIAN",
      "level" : 5
    } ],
    "duration" : 2700.000000000,
    "pause" : false
  }, {
    "id" : 750,
    "desc" : "TILER, MANAGEMENT",
    "location" : {
      "id" : 199,
      "name" : null,
      "latitude" : 43.685596,
      "longitude" : 4.0040956
    },
    "openings" : {
      "start" : [ 15, 47 ],
      "end" : [ 16, 15 ]
    },
    "preferredSlots" : null,
    "doAfter" : null,
    "nbEmpRequired" : 1,
    "deadline" : [ 14, 17 ],
    "skills" : [ {
      "id" : 9,
      "name" : "TILER",
      "level" : 4
    }, {
      "id" : 0,
      "name" : "MANAGEMENT",
      "level" : 5
    } ],
    "duration" : 1800.000000000,
    "pause" : false
  }, {
    "id" : 654,
    "desc" : "PAINTING, IRONWORK",
    "location" : {
      "id" : 1119,
      "name" : null,
      "latitude" : 43.710873,
      "longitude" : 3.965287
    },
    "openings" : {
      "start" : [ 12, 18 ],
      "end" : [ 17, 9 ]
    },
    "preferredSlots" : null,
    "doAfter" : null,
    "nbEmpRequired" : 1,
    "deadline" : [ 14, 24 ],
    "skills" : [ {
      "id" : 7,
      "name" : "PAINTING",
      "level" : 3
    }, {
      "id" : 8,
      "name" : "IRONWORK",
      "level" : 1
    } ],
    "duration" : 3600.000000000,
    "pause" : false
  }, {
    "id" : 620,
    "desc" : "GLAZING, MASONRY",
    "location" : {
      "id" : 6909,
      "name" : null,
      "latitude" : 43.429756,
      "longitude" : 4.0464816
    },
    "openings" : {
      "start" : [ 13, 59 ],
      "end" : [ 15, 13 ]
    },
    "preferredSlots" : null,
    "doAfter" : null,
    "nbEmpRequired" : 1,
    "deadline" : [ 14, 28 ],
    "skills" : [ {
      "id" : 5,
      "name" : "GLAZING",
      "level" : 4
    }, {
      "id" : 4,
      "name" : "MASONRY",
      "level" : 1
    } ],
    "duration" : 2700.000000000,
    "pause" : false
  }, {
    "id" : 427,
    "desc" : "TILER, ENGINEER",
    "location" : {
      "id" : 5387,
      "name" : null,
      "latitude" : 43.72556,
      "longitude" : 3.799806
    },
    "openings" : {
      "start" : [ 9, 0 ],
      "end" : [ 10, 29 ]
    },
    "preferredSlots" : null,
    "doAfter" : null,
    "nbEmpRequired" : 1,
    "deadline" : [ 14, 40 ],
    "skills" : [ {
      "id" : 9,
      "name" : "TILER",
      "level" : 2
    }, {
      "id" : 1,
      "name" : "ENGINEER",
      "level" : 1
    } ],
    "duration" : 3600.000000000,
    "pause" : false
  }, {
    "id" : 447,
    "desc" : "GLAZING, PAINTING",
    "location" : {
      "id" : 3863,
      "name" : null,
      "latitude" : 43.684055,
      "longitude" : 3.925677
    },
    "openings" : {
      "start" : [ 11, 5 ],
      "end" : [ 14, 27 ]
    },
    "preferredSlots" : null,
    "doAfter" : null,
    "nbEmpRequired" : 1,
    "deadline" : [ 14, 53 ],
    "skills" : [ {
      "id" : 5,
      "name" : "GLAZING",
      "level" : 3
    }, {
      "id" : 7,
      "name" : "PAINTING",
      "level" : 1
    } ],
    "duration" : 2700.000000000,
    "pause" : false
  }, {
    "id" : 199,
    "desc" : "MASONRY, ENGINEER",
    "location" : {
      "id" : 9722,
      "name" : null,
      "latitude" : 43.427086,
      "longitude" : 4.1450677
    },
    "openings" : {
      "start" : [ 13, 18 ],
      "end" : [ 15, 40 ]
    },
    "preferredSlots" : null,
    "doAfter" : null,
    "nbEmpRequired" : 1,
    "deadline" : [ 14, 56 ],
    "skills" : [ {
      "id" : 4,
      "name" : "MASONRY",
      "level" : 3
    }, {
      "id" : 1,
      "name" : "ENGINEER",
      "level" : 3
    } ],
    "duration" : 3600.000000000,
    "pause" : false
  }, {
    "id" : 477,
    "desc" : "TILER",
    "location" : {
      "id" : 7533,
      "name" : null,
      "latitude" : 44.072624,
      "longitude" : 3.9473267
    },
    "openings" : {
      "start" : [ 14, 20 ],
      "end" : [ 16, 24 ]
    },
    "preferredSlots" : null,
    "doAfter" : null,
    "nbEmpRequired" : 1,
    "deadline" : [ 14, 56 ],
    "skills" : [ {
      "id" : 9,
      "name" : "TILER",
      "level" : 5
    } ],
    "duration" : 3600.000000000,
    "pause" : false
  }, {
    "id" : 278,
    "desc" : "TILER",
    "location" : {
      "id" : 6322,
      "name" : null,
      "latitude" : 43.586483,
      "longitude" : 4.1993384
    },
    "openings" : {
      "start" : [ 9, 28 ],
      "end" : [ 11, 28 ]
    },
    "preferredSlots" : null,
    "doAfter" : null,
    "nbEmpRequired" : 1,
    "deadline" : [ 15, 6 ],
    "skills" : [ {
      "id" : 9,
      "name" : "TILER",
      "level" : 4
    } ],
    "duration" : 5400.000000000,
    "pause" : false
  }, {
    "id" : 358,
    "desc" : "IRONWORK, TILER",
    "location" : {
      "id" : 7716,
      "name" : null,
      "latitude" : 43.817234,
      "longitude" : 4.051919
    },
    "openings" : {
      "start" : [ 11, 19 ],
      "end" : [ 14, 26 ]
    },
    "preferredSlots" : null,
    "doAfter" : null,
    "nbEmpRequired" : 1,
    "deadline" : [ 15, 10 ],
    "skills" : [ {
      "id" : 8,
      "name" : "IRONWORK",
      "level" : 3
    }, {
      "id" : 9,
      "name" : "TILER",
      "level" : 4
    } ],
    "duration" : 3600.000000000,
    "pause" : false
  }, {
    "id" : 592,
    "desc" : "TILER, PLUMBING",
    "location" : {
      "id" : 6047,
      "name" : null,
      "latitude" : 43.535763,
      "longitude" : 4.0598783
    },
    "openings" : {
      "start" : [ 14, 10 ],
      "end" : [ 14, 15 ]
    },
    "preferredSlots" : null,
    "doAfter" : null,
    "nbEmpRequired" : 1,
    "deadline" : [ 15, 16 ],
    "skills" : [ {
      "id" : 9,
      "name" : "TILER",
      "level" : 2
    }, {
      "id" : 3,
      "name" : "PLUMBING",
      "level" : 5
    } ],
    "duration" : 1800.000000000,
    "pause" : false
  }, {
    "id" : 152,
    "desc" : "PAINTING, ELECTRICIAN",
    "location" : {
      "id" : 8356,
      "name" : null,
      "latitude" : 43.61211,
      "longitude" : 4.0791144
    },
    "openings" : {
      "start" : [ 15, 33 ],
      "end" : [ 17, 48 ]
    },
    "preferredSlots" : null,
    "doAfter" : null,
    "nbEmpRequired" : 1,
    "deadline" : [ 15, 20 ],
    "skills" : [ {
      "id" : 7,
      "name" : "PAINTING",
      "level" : 4
    }, {
      "id" : 2,
      "name" : "ELECTRICIAN",
      "level" : 5
    } ],
    "duration" : 3600.000000000,
    "pause" : false
  }, {
    "id" : 611,
    "desc" : "PLUMBING",
    "location" : {
      "id" : 9491,
      "name" : null,
      "latitude" : 43.63754,
      "longitude" : 4.1533275
    },
    "openings" : {
      "start" : [ 9, 36 ],
      "end" : [ 11, 1 ]
    },
    "preferredSlots" : null,
    "doAfter" : null,
    "nbEmpRequired" : 1,
    "deadline" : [ 15, 21 ],
    "skills" : [ {
      "id" : 3,
      "name" : "PLUMBING",
      "level" : 5
    } ],
    "duration" : 1800.000000000,
    "pause" : false
  }, {
    "id" : 727,
    "desc" : "ELECTRICIAN, GLAZING",
    "location" : {
      "id" : 1613,
      "name" : null,
      "latitude" : 43.84594,
      "longitude" : 4.1121063
    },
    "openings" : {
      "start" : [ 10, 53 ],
      "end" : [ 13, 55 ]
    },
    "preferredSlots" : null,
    "doAfter" : null,
    "nbEmpRequired" : 1,
    "deadline" : [ 15, 28 ],
    "skills" : [ {
      "id" : 2,
      "name" : "ELECTRICIAN",
      "level" : 2
    }, {
      "id" : 5,
      "name" : "GLAZING",
      "level" : 4
    } ],
    "duration" : 3600.000000000,
    "pause" : false
  }, {
    "id" : 899,
    "desc" : "PLUMBING",
    "location" : {
      "id" : 8384,
      "name" : null,
      "latitude" : 43.558655,
      "longitude" : 4.2433467
    },
    "openings" : {
      "start" : [ 10, 13 ],
      "end" : [ 11, 22 ]
    },
    "preferredSlots" : null,
    "doAfter" : null,
    "nbEmpRequired" : 1,
    "deadline" : [ 15, 40 ],
    "skills" : [ {
      "id" : 3,
      "name" : "PLUMBING",
      "level" : 5
    } ],
    "duration" : 1800.000000000,
    "pause" : false
  }, {
    "id" : 221,
    "desc" : "CARPENTRY, MASONRY",
    "location" : {
      "id" : 6750,
      "name" : null,
      "latitude" : 43.510933,
      "longitude" : 3.750808
    },
    "openings" : {
      "start" : [ 12, 15 ],
      "end" : [ 17, 50 ]
    },
    "preferredSlots" : null,
    "doAfter" : null,
    "nbEmpRequired" : 1,
    "deadline" : [ 15, 41 ],
    "skills" : [ {
      "id" : 6,
      "name" : "CARPENTRY",
      "level" : 2
    }, {
      "id" : 4,
      "name" : "MASONRY",
      "level" : 2
    } ],
    "duration" : 3600.000000000,
    "pause" : false
  }, {
    "id" : 703,
    "desc" : "CARPENTRY",
    "location" : {
      "id" : 7790,
      "name" : null,
      "latitude" : 43.82705,
      "longitude" : 4.1117034
    },
    "openings" : {
      "start" : [ 15, 32 ],
      "end" : [ 15, 56 ]
    },
    "preferredSlots" : null,
    "doAfter" : null,
    "nbEmpRequired" : 1,
    "deadline" : [ 15, 50 ],
    "skills" : [ {
      "id" : 6,
      "name" : "CARPENTRY",
      "level" : 1
    } ],
    "duration" : 3600.000000000,
    "pause" : false
  }, {
    "id" : 404,
    "desc" : "MASONRY, GLAZING",
    "location" : {
      "id" : 5544,
      "name" : null,
      "latitude" : 43.90238,
      "longitude" : 3.8160305
    },
    "openings" : {
      "start" : [ 9, 56 ],
      "end" : [ 16, 41 ]
    },
    "preferredSlots" : null,
    "doAfter" : null,
    "nbEmpRequired" : 1,
    "deadline" : [ 15, 52 ],
    "skills" : [ {
      "id" : 4,
      "name" : "MASONRY",
      "level" : 1
    }, {
      "id" : 5,
      "name" : "GLAZING",
      "level" : 3
    } ],
    "duration" : 7200.000000000,
    "pause" : false
  }, {
    "id" : 247,
    "desc" : "PAINTING, PLUMBING",
    "location" : {
      "id" : 6772,
      "name" : null,
      "latitude" : 43.461708,
      "longitude" : 3.9548023
    },
    "openings" : {
      "start" : [ 9, 57 ],
      "end" : [ 11, 51 ]
    },
    "preferredSlots" : null,
    "doAfter" : null,
    "nbEmpRequired" : 1,
    "deadline" : [ 15, 52 ],
    "skills" : [ {
      "id" : 7,
      "name" : "PAINTING",
      "level" : 5
    }, {
      "id" : 3,
      "name" : "PLUMBING",
      "level" : 4
    } ],
    "duration" : 3600.000000000,
    "pause" : false
  }, {
    "id" : 659,
    "desc" : "TILER",
    "location" : {
      "id" : 2354,
      "name" : null,
      "latitude" : 44.016594,
      "longitude" : 3.888073
    },
    "openings" : {
      "start" : [ 10, 54 ],
      "end" : [ 12, 40 ]
    },
    "preferredSlots" : null,
    "doAfter" : null,
    "nbEmpRequired" : 1,
    "deadline" : [ 16, 7 ],
    "skills" : [ {
      "id" : 9,
      "name" : "TILER",
      "level" : 3
    } ],
    "duration" : 7200.000000000,
    "pause" : false
  }, {
    "id" : 214,
    "desc" : "PLUMBING",
    "location" : {
      "id" : 270,
      "name" : null,
      "latitude" : 43.673145,
      "longitude" : 4.0897455
    },
    "openings" : {
      "start" : [ 11, 19 ],
      "end" : [ 11, 41 ]
    },
    "preferredSlots" : null,
    "doAfter" : null,
    "nbEmpRequired" : 1,
    "deadline" : [ 16, 19 ],
    "skills" : [ {
      "id" : 3,
      "name" : "PLUMBING",
      "level" : 3
    } ],
    "duration" : 1800.000000000,
    "pause" : false
  }, {
    "id" : 864,
    "desc" : "CARPENTRY, PLUMBING",
    "location" : {
      "id" : 6021,
      "name" : null,
      "latitude" : 44.064903,
      "longitude" : 3.925487
    },
    "openings" : {
      "start" : [ 13, 19 ],
      "end" : [ 15, 0 ]
    },
    "preferredSlots" : null,
    "doAfter" : null,
    "nbEmpRequired" : 1,
    "deadline" : [ 16, 29 ],
    "skills" : [ {
      "id" : 6,
      "name" : "CARPENTRY",
      "level" : 2
    }, {
      "id" : 3,
      "name" : "PLUMBING",
      "level" : 5
    } ],
    "duration" : 5400.000000000,
    "pause" : false
  }, {
    "id" : 639,
    "desc" : "CARPENTRY, PLUMBING",
    "location" : {
      "id" : 1743,
      "name" : null,
      "latitude" : 43.568153,
      "longitude" : 3.710712
    },
    "openings" : {
      "start" : [ 13, 31 ],
      "end" : [ 17, 14 ]
    },
    "preferredSlots" : null,
    "doAfter" : null,
    "nbEmpRequired" : 1,
    "deadline" : [ 16, 29 ],
    "skills" : [ {
      "id" : 6,
      "name" : "CARPENTRY",
      "level" : 2
    }, {
      "id" : 3,
      "name" : "PLUMBING",
      "level" : 3
    } ],
    "duration" : 7200.000000000,
    "pause" : false
  }, {
    "id" : 243,
    "desc" : "MANAGEMENT",
    "location" : {
      "id" : 3182,
      "name" : null,
      "latitude" : 44.01567,
      "longitude" : 3.7550693
    },
    "openings" : {
      "start" : [ 11, 12 ],
      "end" : [ 17, 16 ]
    },
    "preferredSlots" : null,
    "doAfter" : null,
    "nbEmpRequired" : 1,
    "deadline" : [ 16, 34 ],
    "skills" : [ {
      "id" : 0,
      "name" : "MANAGEMENT",
      "level" : 1
    } ],
    "duration" : 3600.000000000,
    "pause" : false
  }, {
    "id" : 942,
    "desc" : "ELECTRICIAN",
    "location" : {
      "id" : 7606,
      "name" : null,
      "latitude" : 44.062737,
      "longitude" : 4.211396
    },
    "openings" : {
      "start" : [ 12, 59 ],
      "end" : [ 14, 27 ]
    },
    "preferredSlots" : null,
    "doAfter" : null,
    "nbEmpRequired" : 1,
    "deadline" : [ 16, 47 ],
    "skills" : [ {
      "id" : 2,
      "name" : "ELECTRICIAN",
      "level" : 1
    } ],
    "duration" : 5400.000000000,
    "pause" : false
  }, {
    "id" : 59,
    "desc" : "ENGINEER",
    "location" : {
      "id" : 3989,
      "name" : null,
      "latitude" : 44.0893,
      "longitude" : 3.7666824
    },
    "openings" : {
      "start" : [ 13, 34 ],
      "end" : [ 16, 11 ]
    },
    "preferredSlots" : null,
    "doAfter" : null,
    "nbEmpRequired" : 1,
    "deadline" : [ 16, 48 ],
    "skills" : [ {
      "id" : 1,
      "name" : "ENGINEER",
      "level" : 5
    } ],
    "duration" : 2700.000000000,
    "pause" : false
  }, {
    "id" : 643,
    "desc" : "PLUMBING, IRONWORK",
    "location" : {
      "id" : 1234,
      "name" : null,
      "latitude" : 43.847675,
      "longitude" : 3.77886
    },
    "openings" : {
      "start" : [ 11, 22 ],
      "end" : [ 16, 24 ]
    },
    "preferredSlots" : null,
    "doAfter" : null,
    "nbEmpRequired" : 1,
    "deadline" : [ 16, 53 ],
    "skills" : [ {
      "id" : 3,
      "name" : "PLUMBING",
      "level" : 3
    }, {
      "id" : 8,
      "name" : "IRONWORK",
      "level" : 2
    } ],
    "duration" : 2700.000000000,
    "pause" : false
  }, {
    "id" : 95,
    "desc" : "MASONRY, ENGINEER",
    "location" : {
      "id" : 8794,
      "name" : null,
      "latitude" : 43.589447,
      "longitude" : 3.9254723
    },
    "openings" : {
      "start" : [ 10, 50 ],
      "end" : [ 12, 21 ]
    },
    "preferredSlots" : null,
    "doAfter" : null,
    "nbEmpRequired" : 1,
    "deadline" : [ 16, 57 ],
    "skills" : [ {
      "id" : 4,
      "name" : "MASONRY",
      "level" : 4
    }, {
      "id" : 1,
      "name" : "ENGINEER",
      "level" : 2
    } ],
    "duration" : 3600.000000000,
    "pause" : false
  }, {
    "id" : 148,
    "desc" : "CARPENTRY",
    "location" : {
      "id" : 6179,
      "name" : null,
      "latitude" : 43.92681,
      "longitude" : 3.8852649
    },
    "openings" : {
      "start" : [ 15, 2 ],
      "end" : [ 17, 25 ]
    },
    "preferredSlots" : null,
    "doAfter" : null,
    "nbEmpRequired" : 1,
    "deadline" : [ 16, 59 ],
    "skills" : [ {
      "id" : 6,
      "name" : "CARPENTRY",
      "level" : 2
    } ],
    "duration" : 5400.000000000,
    "pause" : false
  }, {
    "id" : 640,
    "desc" : "ENGINEER",
    "location" : {
      "id" : 6984,
      "name" : null,
      "latitude" : 43.91733,
      "longitude" : 4.2509837
    },
    "openings" : {
      "start" : [ 10, 32 ],
      "end" : [ 10, 47 ]
    },
    "preferredSlots" : null,
    "doAfter" : null,
    "nbEmpRequired" : 1,
    "deadline" : [ 17, 3 ],
    "skills" : [ {
      "id" : 1,
      "name" : "ENGINEER",
      "level" : 5
    } ],
    "duration" : 3600.000000000,
    "pause" : false
  }, {
    "id" : 319,
    "desc" : "ENGINEER, CARPENTRY",
    "location" : {
      "id" : 1232,
      "name" : null,
      "latitude" : 44.054165,
      "longitude" : 3.8131413
    },
    "openings" : {
      "start" : [ 9, 5 ],
      "end" : [ 9, 37 ]
    },
    "preferredSlots" : null,
    "doAfter" : null,
    "nbEmpRequired" : 1,
    "deadline" : [ 17, 5 ],
    "skills" : [ {
      "id" : 1,
      "name" : "ENGINEER",
      "level" : 5
    }, {
      "id" : 6,
      "name" : "CARPENTRY",
      "level" : 1
    } ],
    "duration" : 2700.000000000,
    "pause" : false
  }, {
    "id" : 660,
    "desc" : "CARPENTRY, TILER",
    "location" : {
      "id" : 3605,
      "name" : null,
      "latitude" : 43.962845,
      "longitude" : 3.8932571
    },
    "openings" : {
      "start" : [ 12, 34 ],
      "end" : [ 17, 0 ]
    },
    "preferredSlots" : null,
    "doAfter" : null,
    "nbEmpRequired" : 1,
    "deadline" : [ 17, 16 ],
    "skills" : [ {
      "id" : 6,
      "name" : "CARPENTRY",
      "level" : 2
    }, {
      "id" : 9,
      "name" : "TILER",
      "level" : 4
    } ],
    "duration" : 3600.000000000,
    "pause" : false
  }, {
    "id" : 733,
    "desc" : "GLAZING, CARPENTRY",
    "location" : {
      "id" : 2399,
      "name" : null,
      "latitude" : 44.091045,
      "longitude" : 4.1741695
    },
    "openings" : {
      "start" : [ 14, 14 ],
      "end" : [ 17, 7 ]
    },
    "preferredSlots" : null,
    "doAfter" : null,
    "nbEmpRequired" : 1,
    "deadline" : [ 17, 17 ],
    "skills" : [ {
      "id" : 5,
      "name" : "GLAZING",
      "level" : 3
    }, {
      "id" : 6,
      "name" : "CARPENTRY",
      "level" : 4
    } ],
    "duration" : 2700.000000000,
    "pause" : false
  }, {
    "id" : 752,
    "desc" : "PLUMBING, GLAZING",
    "location" : {
      "id" : 2525,
      "name" : null,
      "latitude" : 43.550526,
      "longitude" : 4.1469655
    },
    "openings" : {
      "start" : [ 12, 3 ],
      "end" : [ 12, 58 ]
    },
    "preferredSlots" : null,
    "doAfter" : null,
    "nbEmpRequired" : 1,
    "deadline" : [ 17, 24 ],
    "skills" : [ {
      "id" : 3,
      "name" : "PLUMBING",
      "level" : 3
    }, {
      "id" : 5,
      "name" : "GLAZING",
      "level" : 5
    } ],
    "duration" : 3600.000000000,
    "pause" : false
  }, {
    "id" : 40,
    "desc" : "MANAGEMENT, PLUMBING",
    "location" : {
      "id" : 8844,
      "name" : null,
      "latitude" : 43.509106,
      "longitude" : 3.850729
    },
    "openings" : {
      "start" : [ 12, 47 ],
      "end" : [ 17, 27 ]
    },
    "preferredSlots" : null,
    "doAfter" : null,
    "nbEmpRequired" : 1,
    "deadline" : [ 17, 24 ],
    "skills" : [ {
      "id" : 0,
      "name" : "MANAGEMENT",
      "level" : 4
    }, {
      "id" : 3,
      "name" : "PLUMBING",
      "level" : 1
    } ],
    "duration" : 1800.000000000,
    "pause" : false
  }, {
    "id" : 129,
    "desc" : "PAINTING, PLUMBING",
    "location" : {
      "id" : 1556,
      "name" : null,
      "latitude" : 43.751503,
      "longitude" : 3.7967982
    },
    "openings" : {
      "start" : [ 13, 48 ],
      "end" : [ 15, 7 ]
    },
    "preferredSlots" : null,
    "doAfter" : null,
    "nbEmpRequired" : 1,
    "deadline" : [ 17, 29 ],
    "skills" : [ {
      "id" : 7,
      "name" : "PAINTING",
      "level" : 4
    }, {
      "id" : 3,
      "name" : "PLUMBING",
      "level" : 3
    } ],
    "duration" : 3600.000000000,
    "pause" : false
  }, {
    "id" : 76,
    "desc" : "MASONRY",
    "location" : {
      "id" : 9346,
      "name" : null,
      "latitude" : 43.41789,
      "longitude" : 4.2396965
    },
    "openings" : {
      "start" : [ 14, 45 ],
      "end" : [ 17, 18 ]
    },
    "preferredSlots" : null,
    "doAfter" : null,
    "nbEmpRequired" : 1,
    "deadline" : [ 17, 42 ],
    "skills" : [ {
      "id" : 4,
      "name" : "MASONRY",
      "level" : 3
    } ],
    "duration" : 3600.000000000,
    "pause" : false
  }, {
    "id" : 972,
    "desc" : "MASONRY, PAINTING",
    "location" : {
      "id" : 5893,
      "name" : null,
      "latitude" : 43.722057,
      "longitude" : 3.8082073
    },
    "openings" : {
      "start" : [ 12, 7 ],
      "end" : [ 12, 28 ]
    },
    "preferredSlots" : null,
    "doAfter" : null,
    "nbEmpRequired" : 1,
    "deadline" : [ 17, 50 ],
    "skills" : [ {
      "id" : 4,
      "name" : "MASONRY",
      "level" : 3
    }, {
      "id" : 7,
      "name" : "PAINTING",
      "level" : 2
    } ],
    "duration" : 5400.000000000,
    "pause" : false
  }, {
    "id" : 162,
    "desc" : "ENGINEER, PAINTING",
    "location" : {
      "id" : 6171,
      "name" : null,
      "latitude" : 44.072624,
      "longitude" : 4.2086716
    },
    "openings" : {
      "start" : [ 10, 28 ],
      "end" : [ 17, 12 ]
    },
    "preferredSlots" : null,
    "doAfter" : null,
    "nbEmpRequired" : 1,
    "deadline" : [ 17, 51 ],
    "skills" : [ {
      "id" : 1,
      "name" : "ENGINEER",
      "level" : 3
    }, {
      "id" : 7,
      "name" : "PAINTING",
      "level" : 2
    } ],
    "duration" : 3600.000000000,
    "pause" : false
  } ],
  "valid" : true
}