{
  "listEdt" : [ {
    "emp" : {
      "id" : 692,
      "name" : "692",
      "shifts" : [ {
        "start" : [ 9, 0 ],
        "end" : [ 12, 0 ]
      }, {
        "start" : [ 13, 0 ],
        "end" : [ 17, 0 ]
      } ],
      "prefSlots" : null,
      "startingLoc" : {
        "id" : 6661,
        "name" : null,
        "latitude" : 43.558052,
        "longitude" : 3.891899
      },
      "skills" : [ {
        "id" : 7,
        "name" : "PAINTING",
        "level" : 3
      }, {
        "id" : 2,
        "name" : "ELECTRICIAN",
        "level" : 3
      }, {
        "id" : 6,
        "name" : "CARPENTRY",
        "level" : 1
      }, {
        "id" : 2,
        "name" : "ELECTRICIAN",
        "level" : 8
      }, {
        "id" : 3,
        "name" : "PLUMBING",
        "level" : 9
      }, {
        "id" : 8,
        "name" : "IRONWORK",
        "level" : 7
      }, {
        "id" : 8,
        "name" : "IRONWORK",
        "level" : 6
      }, {
        "id" : 1,
        "name" : "ENGINEER",
        "level" : 8
      }, {
        "id" : 5,
        "name" : "GLAZING",
        "level" : 8
      } ]
    },
    "planning" : [ {
      "job" : {
        "id" : -1,
        "desc" : "Home",
        "location" : {
          "id" : 6661,
          "name" : null,
          "latitude" : 43.558052,
          "longitude" : 3.891899
        },
        "openings" : null,
        "preferredSlots" : null,
        "doAfter" : null,
        "nbEmpRequired" : 1,
        "deadline" : null,
        "skills" : [ ],
        "duration" : null,
        "pause" : true
      },
      "window" : {
        "start" : [ 9, 0 ],
        "end" : [ 9, 0 ]
      }
    }, {
      "job" : {
        "id" : 273,
        "desc" : "IRONWORK",
        "location" : {
          "id" : 5392,
          "name" : null,
          "latitude" : 43.906532,
          "longitude" : 3.9054222
        },
        "openings" : {
          "start" : [ 12, 58 ],
          "end" : [ 13, 3 ]
        },
        "preferredSlots" : null,
        "doAfter" : null,
        "nbEmpRequired" : 1,
        "deadline" : [ 10, 3 ],
        "skills" : [ {
          "id" : 8,
          "name" : "IRONWORK",
          "level" : 5
        } ],
        "duration" : 1800.000000000,
        "pause" : false
      },
      "window" : {
        "start" : [ 9, 39 ],
        "end" : [ 10, 9 ]
      }
    }, {
      "job" : {
        "id" : 466,
        "desc" : "ELECTRICIAN",
        "location" : {
          "id" : 6273,
          "name" : null,
          "latitude" : 43.426586,
          "longitude" : 4.274198
        },
        "openings" : {
          "start" : [ 16, 13 ],
          "end" : [ 17, 14 ]
        },
        "preferredSlots" : null,
        "doAfter" : null,
        "nbEmpRequired" : 1,
        "deadline" : [ 11, 55 ],
        "skills" : [ {
          "id" : 2,
          "name" : "ELECTRICIAN",
          "level" : 2
        } ],
        "duration" : 1800.000000000,
        "pause" : false
      },
      "window" : {
        "start" : [ 11, 11 ],
        "end" : [ 11, 41 ]
      }
    }, {
      "job" : {
        "id" : -1,
        "desc" : "Pause",
        "location" : {
          "id" : 6273,
          "name" : null,
          "latitude" : 43.426586,
          "longitude" : 4.274198
        },
        "openings" : {
          "start" : [ 16, 13 ],
          "end" : [ 17, 14 ]
        },
        "preferredSlots" : null,
        "doAfter" : null,
        "nbEmpRequired" : 1,
        "deadline" : [ 11, 55 ],
        "skills" : [ {
          "id" : 2,
          "name" : "ELECTRICIAN",
          "level" : 2
        } ],
        "duration" : 1800.000000000,
        "pause" : true
      },
      "window" : {
        "start" : [ 11, 42 ],
        "end" : [ 13, 0 ]
      }
    }, {
      "job" : {
        "id" : 53,
        "desc" : "IRONWORK",
        "location" : {
          "id" : 2881,
          "name" : null,
          "latitude" : 43.972908,
          "longitude" : 3.7518773
        },
        "openings" : {
          "start" : [ 10, 9 ],
          "end" : [ 17, 36 ]
        },
        "preferredSlots" : null,
        "doAfter" : null,
        "nbEmpRequired" : 1,
        "deadline" : [ 17, 56 ],
        "skills" : [ {
          "id" : 8,
          "name" : "IRONWORK",
          "level" : 1
        } ],
        "duration" : 1800.000000000,
        "pause" : false
      },
      "window" : {
        "start" : [ 14, 14 ],
        "end" : [ 14, 44 ]
      }
    }, {
      "job" : {
        "id" : 527,
        "desc" : "ENGINEER",
        "location" : {
          "id" : 9182,
          "name" : null,
          "latitude" : 43.8738,
          "longitude" : 4.2321153
        },
        "openings" : {
          "start" : [ 9, 35 ],
          "end" : [ 15, 10 ]
        },
        "preferredSlots" : null,
        "doAfter" : null,
        "nbEmpRequired" : 1,
        "deadline" : [ 10, 36 ],
        "skills" : [ {
          "id" : 1,
          "name" : "ENGINEER",
          "level" : 2
        } ],
        "duration" : 1800.000000000,
        "pause" : false
      },
      "window" : {
        "start" : [ 15, 25 ],
        "end" : [ 15, 55 ]
      }
    }, {
      "job" : {
        "id" : 854,
        "desc" : "GLAZING, PLUMBING",
        "location" : {
          "id" : 7565,
          "name" : null,
          "latitude" : 43.646587,
          "longitude" : 4.287076
        },
        "openings" : {
          "start" : [ 12, 48 ],
          "end" : [ 17, 7 ]
        },
        "preferredSlots" : null,
        "doAfter" : null,
        "nbEmpRequired" : 1,
        "deadline" : [ 11, 57 ],
        "skills" : [ {
          "id" : 5,
          "name" : "GLAZING",
          "level" : 2
        }, {
          "id" : 3,
          "name" : "PLUMBING",
          "level" : 2
        } ],
        "duration" : 1800.000000000,
        "pause" : false
      },
      "window" : {
        "start" : [ 16, 21 ],
        "end" : [ 16, 51 ]
      }
    } ],
    "driving" : 14520.000000000,
    "valid" : true
  }, {
    "emp" : {
      "id" : 103,
      "name" : "103",
      "shifts" : [ {
        "start" : [ 9, 0 ],
        "end" : [ 12, 0 ]
      }, {
        "start" : [ 13, 0 ],
        "end" : [ 17, 0 ]
      } ],
      "prefSlots" : null,
      "startingLoc" : {
        "id" : 9059,
        "name" : null,
        "latitude" : 43.891777,
        "longitude" : 3.8771877
      },
      "skills" : [ {
        "id" : 1,
        "name" : "ENGINEER",
        "level" : 1
      }, {
        "id" : 2,
        "name" : "ELECTRICIAN",
        "level" : 3
      } ]
    },
    "planning" : [ {
      "job" : {
        "id" : -1,
        "desc" : "Home",
        "location" : {
          "id" : 9059,
          "name" : null,
          "latitude" : 43.891777,
          "longitude" : 3.8771877
        },
        "openings" : null,
        "preferredSlots" : null,
        "doAfter" : null,
        "nbEmpRequired" : 1,
        "deadline" : null,
        "skills" : [ ],
        "duration" : null,
        "pause" : true
      },
      "window" : {
        "start" : [ 9, 0 ],
        "end" : [ 9, 0 ]
      }
    }, {
      "job" : {
        "id" : -1,
        "desc" : "Pause",
        "location" : {
          "id" : 9059,
          "name" : null,
          "latitude" : 43.891777,
          "longitude" : 3.8771877
        },
        "openings" : null,
        "preferredSlots" : null,
        "doAfter" : null,
        "nbEmpRequired" : 1,
        "deadline" : null,
        "skills" : [ ],
        "duration" : null,
        "pause" : true
      },
      "window" : {
        "start" : [ 9, 1 ],
        "end" : [ 13, 0 ]
      }
    } ],
    "driving" : 0.0,
    "valid" : true
  }, {
    "emp" : {
      "id" : 1000,
      "name" : "1000",
      "shifts" : [ {
        "start" : [ 9, 0 ],
        "end" : [ 12, 0 ]
      }, {
        "start" : [ 13, 0 ],
        "end" : [ 17, 0 ]
      } ],
      "prefSlots" : null,
      "startingLoc" : {
        "id" : 5418,
        "name" : null,
        "latitude" : 44.086433,
        "longitude" : 3.8766136
      },
      "skills" : [ {
        "id" : 4,
        "name" : "MASONRY",
        "level" : 7
      }, {
        "id" : 3,
        "name" : "PLUMBING",
        "level" : 3
      }, {
        "id" : 8,
        "name" : "IRONWORK",
        "level" : 5
      }, {
        "id" : 5,
        "name" : "GLAZING",
        "level" : 10
      }, {
        "id" : 0,
        "name" : "MANAGEMENT",
        "level" : 10
      }, {
        "id" : 6,
        "name" : "CARPENTRY",
        "level" : 2
      }, {
        "id" : 6,
        "name" : "CARPENTRY",
        "level" : 9
      }, {
        "id" : 9,
        "name" : "TILER",
        "level" : 3
      }, {
        "id" : 8,
        "name" : "IRONWORK",
        "level" : 2
      }, {
        "id" : 7,
        "name" : "PAINTING",
        "level" : 5
      } ]
    },
    "planning" : [ {
      "job" : {
        "id" : -1,
        "desc" : "Home",
        "location" : {
          "id" : 5418,
          "name" : null,
          "latitude" : 44.086433,
          "longitude" : 3.8766136
        },
        "openings" : null,
        "preferredSlots" : null,
        "doAfter" : null,
        "nbEmpRequired" : 1,
        "deadline" : null,
        "skills" : [ ],
        "duration" : null,
        "pause" : true
      },
      "window" : {
        "start" : [ 9, 0 ],
        "end" : [ 9, 0 ]
      }
    }, {
      "job" : {
        "id" : 945,
        "desc" : "MANAGEMENT",
        "location" : {
          "id" : 6355,
          "name" : null,
          "latitude" : 43.83428,
          "longitude" : 4.25175
        },
        "openings" : {
          "start" : [ 10, 51 ],
          "end" : [ 14, 33 ]
        },
        "preferredSlots" : null,
        "doAfter" : null,
        "nbEmpRequired" : 1,
        "deadline" : [ 9, 2 ],
        "skills" : [ {
          "id" : 0,
          "name" : "MANAGEMENT",
          "level" : 3
        } ],
        "duration" : 1800.000000000,
        "pause" : false
      },
      "window" : {
        "start" : [ 9, 42 ],
        "end" : [ 10, 12 ]
      }
    }, {
      "job" : {
        "id" : 96,
        "desc" : "MANAGEMENT",
        "location" : {
          "id" : 2261,
          "name" : null,
          "latitude" : 43.846565,
          "longitude" : 3.8734138
        },
        "openings" : {
          "start" : [ 10, 45 ],
          "end" : [ 15, 37 ]
        },
        "preferredSlots" : null,
        "doAfter" : null,
        "nbEmpRequired" : 1,
        "deadline" : [ 17, 31 ],
        "skills" : [ {
          "id" : 0,
          "name" : "MANAGEMENT",
          "level" : 3
        } ],
        "duration" : 1800.000000000,
        "pause" : false
      },
      "window" : {
        "start" : [ 10, 43 ],
        "end" : [ 11, 13 ]
      }
    }, {
      "job" : {
        "id" : 277,
        "desc" : "TILER",
        "location" : {
          "id" : 873,
          "name" : null,
          "latitude" : 43.882565,
          "longitude" : 3.9171593
        },
        "openings" : {
          "start" : [ 12, 36 ],
          "end" : [ 16, 5 ]
        },
        "preferredSlots" : null,
        "doAfter" : null,
        "nbEmpRequired" : 1,
        "deadline" : [ 14, 0 ],
        "skills" : [ {
          "id" : 9,
          "name" : "TILER",
          "level" : 1
        } ],
        "duration" : 1800.000000000,
        "pause" : false
      },
      "window" : {
        "start" : [ 11, 19 ],
        "end" : [ 11, 49 ]
      }
    }, {
      "job" : {
        "id" : -1,
        "desc" : "Pause",
        "location" : {
          "id" : 873,
          "name" : null,
          "latitude" : 43.882565,
          "longitude" : 3.9171593
        },
        "openings" : {
          "start" : [ 12, 36 ],
          "end" : [ 16, 5 ]
        },
        "preferredSlots" : null,
        "doAfter" : null,
        "nbEmpRequired" : 1,
        "deadline" : [ 14, 0 ],
        "skills" : [ {
          "id" : 9,
          "name" : "TILER",
          "level" : 1
        } ],
        "duration" : 1800.000000000,
        "pause" : true
      },
      "window" : {
        "start" : [ 11, 50 ],
        "end" : [ 13, 0 ]
      }
    }, {
      "job" : {
        "id" : 682,
        "desc" : "MASONRY, IRONWORK",
        "location" : {
          "id" : 9903,
          "name" : null,
          "latitude" : 44.017788,
          "longitude" : 4.0678787
        },
        "openings" : {
          "start" : [ 10, 32 ],
          "end" : [ 11, 23 ]
        },
        "preferredSlots" : null,
        "doAfter" : null,
        "nbEmpRequired" : 1,
        "deadline" : [ 16, 58 ],
        "skills" : [ {
          "id" : 4,
          "name" : "MASONRY",
          "level" : 1
        }, {
          "id" : 8,
          "name" : "IRONWORK",
          "level" : 5
        } ],
        "duration" : 1800.000000000,
        "pause" : false
      },
      "window" : {
        "start" : [ 13, 20 ],
        "end" : [ 13, 50 ]
      }
    }, {
      "job" : {
        "id" : 387,
        "desc" : "MASONRY, GLAZING",
        "location" : {
          "id" : 1450,
          "name" : null,
          "latitude" : 43.700363,
          "longitude" : 4.213713
        },
        "openings" : {
          "start" : [ 14, 19 ],
          "end" : [ 17, 17 ]
        },
        "preferredSlots" : null,
        "doAfter" : null,
        "nbEmpRequired" : 1,
        "deadline" : [ 11, 17 ],
        "skills" : [ {
          "id" : 4,
          "name" : "MASONRY",
          "level" : 1
        }, {
          "id" : 5,
          "name" : "GLAZING",
          "level" : 4
        } ],
        "duration" : 1800.000000000,
        "pause" : false
      },
      "window" : {
        "start" : [ 14, 28 ],
        "end" : [ 14, 58 ]
      }
    }, {
      "job" : {
        "id" : 158,
        "desc" : "CARPENTRY",
        "location" : {
          "id" : 70,
          "name" : null,
          "latitude" : 44.02315,
          "longitude" : 3.810493
        },
        "openings" : {
          "start" : [ 11, 54 ],
          "end" : [ 16, 19 ]
        },
        "preferredSlots" : null,
        "doAfter" : null,
        "nbEmpRequired" : 1,
        "deadline" : [ 15, 54 ],
        "skills" : [ {
          "id" : 6,
          "name" : "CARPENTRY",
          "level" : 5
        } ],
        "duration" : 1800.000000000,
        "pause" : false
      },
      "window" : {
        "start" : [ 15, 47 ],
        "end" : [ 16, 17 ]
      }
    } ],
    "driving" : 11160.000000000,
    "valid" : true
  }, {
    "emp" : {
      "id" : 654,
      "name" : "654",
      "shifts" : [ {
        "start" : [ 9, 0 ],
        "end" : [ 12, 0 ]
      }, {
        "start" : [ 13, 0 ],
        "end" : [ 17, 0 ]
      } ],
      "prefSlots" : null,
      "startingLoc" : {
        "id" : 6661,
        "name" : null,
        "latitude" : 43.659203,
        "longitude" : 4.050036
      },
      "skills" : [ {
        "id" : 1,
        "name" : "ENGINEER",
        "level" : 5
      }, {
        "id" : 4,
        "name" : "MASONRY",
        "level" : 8
      }, {
        "id" : 5,
        "name" : "GLAZING",
        "level" : 6
      }, {
        "id" : 2,
        "name" : "ELECTRICIAN",
        "level" : 1
      }, {
        "id" : 8,
        "name" : "IRONWORK",
        "level" : 6
      }, {
        "id" : 7,
        "name" : "PAINTING",
        "level" : 7
      }, {
        "id" : 3,
        "name" : "PLUMBING",
        "level" : 7
      }, {
        "id" : 5,
        "name" : "GLAZING",
        "level" : 1
      }, {
        "id" : 1,
        "name" : "ENGINEER",
        "level" : 2
      } ]
    },
    "planning" : [ {
      "job" : {
        "id" : -1,
        "desc" : "Home",
        "location" : {
          "id" : 6661,
          "name" : null,
          "latitude" : 43.659203,
          "longitude" : 4.050036
        },
        "openings" : null,
        "preferredSlots" : null,
        "doAfter" : null,
        "nbEmpRequired" : 1,
        "deadline" : null,
        "skills" : [ ],
        "duration" : null,
        "pause" : true
      },
      "window" : {
        "start" : [ 9, 0 ],
        "end" : [ 9, 0 ]
      }
    }, {
      "job" : {
        "id" : 75,
        "desc" : "MASONRY",
        "location" : {
          "id" : 9470,
          "name" : null,
          "latitude" : 43.8749,
          "longitude" : 4.101341
        },
        "openings" : {
          "start" : [ 11, 0 ],
          "end" : [ 11, 41 ]
        },
        "preferredSlots" : null,
        "doAfter" : null,
        "nbEmpRequired" : 1,
        "deadline" : [ 13, 40 ],
        "skills" : [ {
          "id" : 4,
          "name" : "MASONRY",
          "level" : 2
        } ],
        "duration" : 2700.000000000,
        "pause" : false
      },
      "window" : {
        "start" : [ 9, 25 ],
        "end" : [ 10, 10 ]
      }
    }, {
      "job" : {
        "id" : 129,
        "desc" : "IRONWORK",
        "location" : {
          "id" : 7449,
          "name" : null,
          "latitude" : 43.43676,
          "longitude" : 4.090486
        },
        "openings" : {
          "start" : [ 11, 13 ],
          "end" : [ 13, 58 ]
        },
        "preferredSlots" : null,
        "doAfter" : null,
        "nbEmpRequired" : 1,
        "deadline" : [ 17, 31 ],
        "skills" : [ {
          "id" : 8,
          "name" : "IRONWORK",
          "level" : 4
        } ],
        "duration" : 2700.000000000,
        "pause" : false
      },
      "window" : {
        "start" : [ 10, 59 ],
        "end" : [ 11, 44 ]
      }
    }, {
      "job" : {
        "id" : -1,
        "desc" : "Pause",
        "location" : {
          "id" : 7449,
          "name" : null,
          "latitude" : 43.43676,
          "longitude" : 4.090486
        },
        "openings" : {
          "start" : [ 11, 13 ],
          "end" : [ 13, 58 ]
        },
        "preferredSlots" : null,
        "doAfter" : null,
        "nbEmpRequired" : 1,
        "deadline" : [ 17, 31 ],
        "skills" : [ {
          "id" : 8,
          "name" : "IRONWORK",
          "level" : 4
        } ],
        "duration" : 2700.000000000,
        "pause" : true
      },
      "window" : {
        "start" : [ 11, 45 ],
        "end" : [ 13, 0 ]
      }
    }, {
      "job" : {
        "id" : 965,
        "desc" : "ENGINEER",
        "location" : {
          "id" : 803,
          "name" : null,
          "latitude" : 43.67561,
          "longitude" : 3.8228207
        },
        "openings" : {
          "start" : [ 13, 35 ],
          "end" : [ 15, 17 ]
        },
        "preferredSlots" : null,
        "doAfter" : null,
        "nbEmpRequired" : 1,
        "deadline" : [ 17, 48 ],
        "skills" : [ {
          "id" : 1,
          "name" : "ENGINEER",
          "level" : 2
        } ],
        "duration" : 2700.000000000,
        "pause" : false
      },
      "window" : {
        "start" : [ 13, 35 ],
        "end" : [ 14, 20 ]
      }
    }, {
      "job" : {
        "id" : 692,
        "desc" : "MASONRY, PLUMBING",
        "location" : {
          "id" : 1423,
          "name" : null,
          "latitude" : 43.93441,
          "longitude" : 4.0982995
        },
        "openings" : {
          "start" : [ 9, 15 ],
          "end" : [ 13, 30 ]
        },
        "preferredSlots" : null,
        "doAfter" : null,
        "nbEmpRequired" : 1,
        "deadline" : [ 13, 29 ],
        "skills" : [ {
          "id" : 4,
          "name" : "MASONRY",
          "level" : 4
        }, {
          "id" : 3,
          "name" : "PLUMBING",
          "level" : 1
        } ],
        "duration" : 2700.000000000,
        "pause" : false
      },
      "window" : {
        "start" : [ 14, 57 ],
        "end" : [ 15, 42 ]
      }
    }, {
      "job" : {
        "id" : 876,
        "desc" : "MASONRY, PAINTING",
        "location" : {
          "id" : 1011,
          "name" : null,
          "latitude" : 44.050156,
          "longitude" : 3.9763303
        },
        "openings" : {
          "start" : [ 10, 39 ],
          "end" : [ 11, 43 ]
        },
        "preferredSlots" : null,
        "doAfter" : null,
        "nbEmpRequired" : 1,
        "deadline" : [ 10, 9 ],
        "skills" : [ {
          "id" : 4,
          "name" : "MASONRY",
          "level" : 3
        }, {
          "id" : 7,
          "name" : "PAINTING",
          "level" : 2
        } ],
        "duration" : 2700.000000000,
        "pause" : false
      },
      "window" : {
        "start" : [ 15, 59 ],
        "end" : [ 16, 44 ]
      }
    } ],
    "driving" : 9780.000000000,
    "valid" : true
  }, {
    "emp" : {
      "id" : 722,
      "name" : "722",
      "shifts" : [ {
        "start" : [ 9, 0 ],
        "end" : [ 12, 0 ]
      }, {
        "start" : [ 13, 0 ],
        "end" : [ 17, 0 ]
      } ],
      "prefSlots" : null,
      "startingLoc" : {
        "id" : 8763,
        "name" : null,
        "latitude" : 43.751366,
        "longitude" : 3.9561753
      },
      "skills" : [ {
        "id" : 4,
        "name" : "MASONRY",
        "level" : 6
      }, {
        "id" : 1,
        "name" : "ENGINEER",
        "level" : 5
      }, {
        "id" : 4,
        "name" : "MASONRY",
        "level" : 6
      }, {
        "id" : 6,
        "name" : "CARPENTRY",
        "level" : 7
      }, {
        "id" : 3,
        "name" : "PLUMBING",
        "level" : 9
      }, {
        "id" : 2,
        "name" : "ELECTRICIAN",
        "level" : 7
      }, {
        "id" : 9,
        "name" : "TILER",
        "level" : 4
      }, {
        "id" : 9,
        "name" : "TILER",
        "level" : 5
      }, {
        "id" : 2,
        "name" : "ELECTRICIAN",
        "level" : 9
      } ]
    },
    "planning" : [ {
      "job" : {
        "id" : -1,
        "desc" : "Home",
        "location" : {
          "id" : 8763,
          "name" : null,
          "latitude" : 43.751366,
          "longitude" : 3.9561753
        },
        "openings" : null,
        "preferredSlots" : null,
        "doAfter" : null,
        "nbEmpRequired" : 1,
        "deadline" : null,
        "skills" : [ ],
        "duration" : null,
        "pause" : true
      },
      "window" : {
        "start" : [ 9, 0 ],
        "end" : [ 9, 0 ]
      }
    }, {
      "job" : {
        "id" : 34,
        "desc" : "TILER, PLUMBING",
        "location" : {
          "id" : 1470,
          "name" : null,
          "latitude" : 43.442833,
          "longitude" : 4.1157656
        },
        "openings" : {
          "start" : [ 10, 8 ],
          "end" : [ 16, 53 ]
        },
        "preferredSlots" : null,
        "doAfter" : null,
        "nbEmpRequired" : 1,
        "deadline" : [ 14, 41 ],
        "skills" : [ {
          "id" : 9,
          "name" : "TILER",
          "level" : 2
        }, {
          "id" : 3,
          "name" : "PLUMBING",
          "level" : 4
        } ],
        "duration" : 1800.000000000,
        "pause" : false
      },
      "window" : {
        "start" : [ 9, 37 ],
        "end" : [ 10, 7 ]
      }
    }, {
      "job" : {
        "id" : 763,
        "desc" : "CARPENTRY, MASONRY",
        "location" : {
          "id" : 6219,
          "name" : null,
          "latitude" : 43.727524,
          "longitude" : 4.0264177
        },
        "openings" : {
          "start" : [ 12, 1 ],
          "end" : [ 17, 55 ]
        },
        "preferredSlots" : null,
        "doAfter" : null,
        "nbEmpRequired" : 1,
        "deadline" : [ 14, 12 ],
        "skills" : [ {
          "id" : 6,
          "name" : "CARPENTRY",
          "level" : 2
        }, {
          "id" : 4,
          "name" : "MASONRY",
          "level" : 3
        } ],
        "duration" : 1800.000000000,
        "pause" : false
      },
      "window" : {
        "start" : [ 10, 40 ],
        "end" : [ 11, 10 ]
      }
    }, {
      "job" : {
        "id" : -1,
        "desc" : "Pause",
        "location" : {
          "id" : 6219,
          "name" : null,
          "latitude" : 43.727524,
          "longitude" : 4.0264177
        },
        "openings" : {
          "start" : [ 12, 1 ],
          "end" : [ 17, 55 ]
        },
        "preferredSlots" : null,
        "doAfter" : null,
        "nbEmpRequired" : 1,
        "deadline" : [ 14, 12 ],
        "skills" : [ {
          "id" : 6,
          "name" : "CARPENTRY",
          "level" : 2
        }, {
          "id" : 4,
          "name" : "MASONRY",
          "level" : 3
        } ],
        "duration" : 1800.000000000,
        "pause" : true
      },
      "window" : {
        "start" : [ 11, 11 ],
        "end" : [ 13, 0 ]
      }
    }, {
      "job" : {
        "id" : 85,
        "desc" : "CARPENTRY",
        "location" : {
          "id" : 7742,
          "name" : null,
          "latitude" : 43.587563,
          "longitude" : 4.285062
        },
        "openings" : {
          "start" : [ 11, 41 ],
          "end" : [ 17, 54 ]
        },
        "preferredSlots" : null,
        "doAfter" : null,
        "nbEmpRequired" : 1,
        "deadline" : [ 10, 6 ],
        "skills" : [ {
          "id" : 6,
          "name" : "CARPENTRY",
          "level" : 4
        } ],
        "duration" : 1800.000000000,
        "pause" : false
      },
      "window" : {
        "start" : [ 13, 26 ],
        "end" : [ 13, 56 ]
      }
    }, {
      "job" : {
        "id" : 804,
        "desc" : "PLUMBING, TILER",
        "location" : {
          "id" : 6434,
          "name" : null,
          "latitude" : 43.67883,
          "longitude" : 4.0291033
        },
        "openings" : {
          "start" : [ 14, 24 ],
          "end" : [ 14, 54 ]
        },
        "preferredSlots" : null,
        "doAfter" : null,
        "nbEmpRequired" : 1,
        "deadline" : [ 9, 51 ],
        "skills" : [ {
          "id" : 3,
          "name" : "PLUMBING",
          "level" : 2
        }, {
          "id" : 9,
          "name" : "TILER",
          "level" : 4
        } ],
        "duration" : 2700.000000000,
        "pause" : false
      },
      "window" : {
        "start" : [ 14, 19 ],
        "end" : [ 15, 4 ]
      }
    }, {
      "job" : {
        "id" : 393,
        "desc" : "ENGINEER, ELECTRICIAN",
        "location" : {
          "id" : 5466,
          "name" : null,
          "latitude" : 43.627666,
          "longitude" : 3.8567085
        },
        "openings" : {
          "start" : [ 13, 1 ],
          "end" : [ 16, 43 ]
        },
        "preferredSlots" : null,
        "doAfter" : null,
        "nbEmpRequired" : 1,
        "deadline" : [ 17, 20 ],
        "skills" : [ {
          "id" : 1,
          "name" : "ENGINEER",
          "level" : 3
        }, {
          "id" : 2,
          "name" : "ELECTRICIAN",
          "level" : 1
        } ],
        "duration" : 2700.000000000,
        "pause" : false
      },
      "window" : {
        "start" : [ 15, 19 ],
        "end" : [ 16, 4 ]
      }
    } ],
    "driving" : 8040.000000000,
    "valid" : true
  }, {
    "emp" : {
      "id" : 901,
      "name" : "901",
      "shifts" : [ {
        "start" : [ 9, 0 ],
        "end" : [ 12, 0 ]
      }, {
        "start" : [ 13, 0 ],
        "end" : [ 17, 0 ]
      } ],
      "prefSlots" : null,
      "startingLoc" : {
        "id" : 3766,
        "name" : null,
        "latitude" : 43.81878,
        "longitude" : 4.0578604
      },
      "skills" : [ {
        "id" : 2,
        "name" : "ELECTRICIAN",
        "level" : 1
      }, {
        "id" : 0,
        "name" : "MANAGEMENT",
        "level" : 9
      }, {
        "id" : 8,
        "name" : "IRONWORK",
        "level" : 4
      }, {
        "id" : 7,
        "name" : "PAINTING",
        "level" : 7
      }, {
        "id" : 4,
        "name" : "MASONRY",
        "level" : 9
      }, {
        "id" : 0,
        "name" : "MANAGEMENT",
        "level" : 2
      }, {
        "id" : 6,
        "name" : "CARPENTRY",
        "level" : 7
      }, {
        "id" : 8,
        "name" : "IRONWORK",
        "level" : 8
      }, {
        "id" : 0,
        "name" : "MANAGEMENT",
        "level" : 2
      } ]
    },
    "planning" : [ {
      "job" : {
        "id" : -1,
        "desc" : "Home",
        "location" : {
          "id" : 3766,
          "name" : null,
          "latitude" : 43.81878,
          "longitude" : 4.0578604
        },
        "openings" : null,
        "preferredSlots" : null,
        "doAfter" : null,
        "nbEmpRequired" : 1,
        "deadline" : null,
        "skills" : [ ],
        "duration" : null,
        "pause" : true
      },
      "window" : {
        "start" : [ 9, 0 ],
        "end" : [ 9, 0 ]
      }
    }, {
      "job" : {
        "id" : 211,
        "desc" : "IRONWORK, MANAGEMENT",
        "location" : {
          "id" : 5711,
          "name" : null,
          "latitude" : 43.822243,
          "longitude" : 3.8186429
        },
        "openings" : {
          "start" : [ 13, 44 ],
          "end" : [ 17, 44 ]
        },
        "preferredSlots" : null,
        "doAfter" : null,
        "nbEmpRequired" : 1,
        "deadline" : [ 16, 2 ],
        "skills" : [ {
          "id" : 8,
          "name" : "IRONWORK",
          "level" : 3
        }, {
          "id" : 0,
          "name" : "MANAGEMENT",
          "level" : 2
        } ],
        "duration" : 1800.000000000,
        "pause" : false
      },
      "window" : {
        "start" : [ 9, 20 ],
        "end" : [ 9, 50 ]
      }
    }, {
      "job" : {
        "id" : 180,
        "desc" : "IRONWORK",
        "location" : {
          "id" : 4837,
          "name" : null,
          "latitude" : 43.619514,
          "longitude" : 3.7318223
        },
        "openings" : {
          "start" : [ 11, 42 ],
          "end" : [ 15, 12 ]
        },
        "preferredSlots" : null,
        "doAfter" : null,
        "nbEmpRequired" : 1,
        "deadline" : [ 12, 41 ],
        "skills" : [ {
          "id" : 8,
          "name" : "IRONWORK",
          "level" : 4
        } ],
        "duration" : 3600.000000000,
        "pause" : false
      },
      "window" : {
        "start" : [ 10, 14 ],
        "end" : [ 11, 14 ]
      }
    }, {
      "job" : {
        "id" : -1,
        "desc" : "Pause",
        "location" : {
          "id" : 4837,
          "name" : null,
          "latitude" : 43.619514,
          "longitude" : 3.7318223
        },
        "openings" : {
          "start" : [ 11, 42 ],
          "end" : [ 15, 12 ]
        },
        "preferredSlots" : null,
        "doAfter" : null,
        "nbEmpRequired" : 1,
        "deadline" : [ 12, 41 ],
        "skills" : [ {
          "id" : 8,
          "name" : "IRONWORK",
          "level" : 4
        } ],
        "duration" : 3600.000000000,
        "pause" : true
      },
      "window" : {
        "start" : [ 11, 15 ],
        "end" : [ 13, 0 ]
      }
    }, {
      "job" : {
        "id" : 303,
        "desc" : "PAINTING, CARPENTRY",
        "location" : {
          "id" : 6646,
          "name" : null,
          "latitude" : 43.862312,
          "longitude" : 4.131206
        },
        "openings" : {
          "start" : [ 11, 26 ],
          "end" : [ 12, 49 ]
        },
        "preferredSlots" : null,
        "doAfter" : null,
        "nbEmpRequired" : 1,
        "deadline" : [ 13, 48 ],
        "skills" : [ {
          "id" : 7,
          "name" : "PAINTING",
          "level" : 5
        }, {
          "id" : 6,
          "name" : "CARPENTRY",
          "level" : 3
        } ],
        "duration" : 3600.000000000,
        "pause" : false
      },
      "window" : {
        "start" : [ 13, 42 ],
        "end" : [ 14, 42 ]
      }
    }, {
      "job" : {
        "id" : 636,
        "desc" : "MASONRY",
        "location" : {
          "id" : 4919,
          "name" : null,
          "latitude" : 43.47204,
          "longitude" : 4.014984
        },
        "openings" : {
          "start" : [ 14, 21 ],
          "end" : [ 15, 28 ]
        },
        "preferredSlots" : null,
        "doAfter" : null,
        "nbEmpRequired" : 1,
        "deadline" : [ 12, 37 ],
        "skills" : [ {
          "id" : 4,
          "name" : "MASONRY",
          "level" : 4
        } ],
        "duration" : 3600.000000000,
        "pause" : false
      },
      "window" : {
        "start" : [ 15, 27 ],
        "end" : [ 16, 27 ]
      }
    } ],
    "driving" : 7860.000000000,
    "valid" : true
  }, {
    "emp" : {
      "id" : 223,
      "name" : "223",
      "shifts" : [ {
        "start" : [ 9, 0 ],
        "end" : [ 12, 0 ]
      }, {
        "start" : [ 13, 0 ],
        "end" : [ 17, 0 ]
      } ],
      "prefSlots" : null,
      "startingLoc" : {
        "id" : 7290,
        "name" : null,
        "latitude" : 43.60561,
        "longitude" : 4.268136
      },
      "skills" : [ {
        "id" : 7,
        "name" : "PAINTING",
        "level" : 7
      }, {
        "id" : 2,
        "name" : "ELECTRICIAN",
        "level" : 6
      }, {
        "id" : 2,
        "name" : "ELECTRICIAN",
        "level" : 4
      }, {
        "id" : 3,
        "name" : "PLUMBING",
        "level" : 3
      }, {
        "id" : 6,
        "name" : "CARPENTRY",
        "level" : 4
      } ]
    },
    "planning" : [ {
      "job" : {
        "id" : -1,
        "desc" : "Home",
        "location" : {
          "id" : 7290,
          "name" : null,
          "latitude" : 43.60561,
          "longitude" : 4.268136
        },
        "openings" : null,
        "preferredSlots" : null,
        "doAfter" : null,
        "nbEmpRequired" : 1,
        "deadline" : null,
        "skills" : [ ],
        "duration" : null,
        "pause" : true
      },
      "window" : {
        "start" : [ 9, 0 ],
        "end" : [ 9, 0 ]
      }
    }, {
      "job" : {
        "id" : 823,
        "desc" : "ELECTRICIAN, PAINTING",
        "location" : {
          "id" : 4718,
          "name" : null,
          "latitude" : 43.506927,
          "longitude" : 4.186303
        },
        "openings" : {
          "start" : [ 9, 31 ],
          "end" : [ 10, 40 ]
        },
        "preferredSlots" : null,
        "doAfter" : null,
        "nbEmpRequired" : 1,
        "deadline" : [ 11, 40 ],
        "skills" : [ {
          "id" : 2,
          "name" : "ELECTRICIAN",
          "level" : 4
        }, {
          "id" : 7,
          "name" : "PAINTING",
          "level" : 1
        } ],
        "duration" : 1800.000000000,
        "pause" : false
      },
      "window" : {
        "start" : [ 9, 13 ],
        "end" : [ 9, 43 ]
      }
    }, {
      "job" : {
        "id" : 70,
        "desc" : "CARPENTRY, ELECTRICIAN",
        "location" : {
          "id" : 7824,
          "name" : null,
          "latitude" : 43.928658,
          "longitude" : 4.14907
        },
        "openings" : {
          "start" : [ 12, 17 ],
          "end" : [ 15, 15 ]
        },
        "preferredSlots" : null,
        "doAfter" : null,
        "nbEmpRequired" : 1,
        "deadline" : [ 14, 42 ],
        "skills" : [ {
          "id" : 6,
          "name" : "CARPENTRY",
          "level" : 4
        }, {
          "id" : 2,
          "name" : "ELECTRICIAN",
          "level" : 3
        } ],
        "duration" : 3600.000000000,
        "pause" : false
      },
      "window" : {
        "start" : [ 10, 30 ],
        "end" : [ 11, 30 ]
      }
    }, {
      "job" : {
        "id" : -1,
        "desc" : "Pause",
        "location" : {
          "id" : 7824,
          "name" : null,
          "latitude" : 43.928658,
          "longitude" : 4.14907
        },
        "openings" : {
          "start" : [ 12, 17 ],
          "end" : [ 15, 15 ]
        },
        "preferredSlots" : null,
        "doAfter" : null,
        "nbEmpRequired" : 1,
        "deadline" : [ 14, 42 ],
        "skills" : [ {
          "id" : 6,
          "name" : "CARPENTRY",
          "level" : 4
        }, {
          "id" : 2,
          "name" : "ELECTRICIAN",
          "level" : 3
        } ],
        "duration" : 3600.000000000,
        "pause" : true
      },
      "window" : {
        "start" : [ 11, 31 ],
        "end" : [ 13, 0 ]
      }
    }, {
      "job" : {
        "id" : 260,
        "desc" : "CARPENTRY, PLUMBING",
        "location" : {
          "id" : 6521,
          "name" : null,
          "latitude" : 44.033936,
          "longitude" : 4.29516
        },
        "openings" : {
          "start" : [ 9, 42 ],
          "end" : [ 12, 48 ]
        },
        "preferredSlots" : null,
        "doAfter" : null,
        "nbEmpRequired" : 1,
        "deadline" : [ 15, 53 ],
        "skills" : [ {
          "id" : 6,
          "name" : "CARPENTRY",
          "level" : 4
        }, {
          "id" : 3,
          "name" : "PLUMBING",
          "level" : 1
        } ],
        "duration" : 3600.000000000,
        "pause" : false
      },
      "window" : {
        "start" : [ 13, 17 ],
        "end" : [ 14, 17 ]
      }
    }, {
      "job" : {
        "id" : 209,
        "desc" : "ELECTRICIAN",
        "location" : {
          "id" : 2320,
          "name" : null,
          "latitude" : 43.54159,
          "longitude" : 3.8584263
        },
        "openings" : {
          "start" : [ 9, 6 ],
          "end" : [ 16, 49 ]
        },
        "preferredSlots" : null,
        "doAfter" : null,
        "nbEmpRequired" : 1,
        "deadline" : [ 14, 41 ],
        "skills" : [ {
          "id" : 2,
          "name" : "ELECTRICIAN",
          "level" : 5
        } ],
        "duration" : 3600.000000000,
        "pause" : false
      },
      "window" : {
        "start" : [ 15, 23 ],
        "end" : [ 16, 23 ]
      }
    } ],
    "driving" : 8580.000000000,
    "valid" : true
  }, {
    "emp" : {
      "id" : 92,
      "name" : "92",
      "shifts" : [ {
        "start" : [ 9, 0 ],
        "end" : [ 12, 0 ]
      }, {
        "start" : [ 13, 0 ],
        "end" : [ 17, 0 ]
      } ],
      "prefSlots" : null,
      "startingLoc" : {
        "id" : 2151,
        "name" : null,
        "latitude" : 43.912144,
        "longitude" : 4.229811
      },
      "skills" : [ {
        "id" : 4,
        "name" : "MASONRY",
        "level" : 6
      }, {
        "id" : 3,
        "name" : "PLUMBING",
        "level" : 10
      }, {
        "id" : 9,
        "name" : "TILER",
        "level" : 7
      }, {
        "id" : 1,
        "name" : "ENGINEER",
        "level" : 10
      }, {
        "id" : 6,
        "name" : "CARPENTRY",
        "level" : 3
      }, {
        "id" : 4,
        "name" : "MASONRY",
        "level" : 10
      }, {
        "id" : 8,
        "name" : "IRONWORK",
        "level" : 2
      }, {
        "id" : 4,
        "name" : "MASONRY",
        "level" : 9
      } ]
    },
    "planning" : [ {
      "job" : {
        "id" : -1,
        "desc" : "Home",
        "location" : {
          "id" : 2151,
          "name" : null,
          "latitude" : 43.912144,
          "longitude" : 4.229811
        },
        "openings" : null,
        "preferredSlots" : null,
        "doAfter" : null,
        "nbEmpRequired" : 1,
        "deadline" : null,
        "skills" : [ ],
        "duration" : null,
        "pause" : true
      },
      "window" : {
        "start" : [ 9, 0 ],
        "end" : [ 9, 0 ]
      }
    }, {
      "job" : {
        "id" : 313,
        "desc" : "ENGINEER",
        "location" : {
          "id" : 2930,
          "name" : null,
          "latitude" : 43.74453,
          "longitude" : 3.7685268
        },
        "openings" : {
          "start" : [ 10, 26 ],
          "end" : [ 10, 49 ]
        },
        "preferredSlots" : null,
        "doAfter" : null,
        "nbEmpRequired" : 1,
        "deadline" : [ 17, 33 ],
        "skills" : [ {
          "id" : 1,
          "name" : "ENGINEER",
          "level" : 4
        } ],
        "duration" : 2700.000000000,
        "pause" : false
      },
      "window" : {
        "start" : [ 9, 42 ],
        "end" : [ 10, 27 ]
      }
    }, {
      "job" : {
        "id" : 881,
        "desc" : "ENGINEER",
        "location" : {
          "id" : 1945,
          "name" : null,
          "latitude" : 43.9675,
          "longitude" : 3.7506576
        },
        "openings" : {
          "start" : [ 14, 50 ],
          "end" : [ 16, 36 ]
        },
        "preferredSlots" : null,
        "doAfter" : null,
        "nbEmpRequired" : 1,
        "deadline" : [ 12, 48 ],
        "skills" : [ {
          "id" : 1,
          "name" : "ENGINEER",
          "level" : 4
        } ],
        "duration" : 3600.000000000,
        "pause" : false
      },
      "window" : {
        "start" : [ 10, 52 ],
        "end" : [ 11, 52 ]
      }
    }, {
      "job" : {
        "id" : -1,
        "desc" : "Pause",
        "location" : {
          "id" : 1945,
          "name" : null,
          "latitude" : 43.9675,
          "longitude" : 3.7506576
        },
        "openings" : {
          "start" : [ 14, 50 ],
          "end" : [ 16, 36 ]
        },
        "preferredSlots" : null,
        "doAfter" : null,
        "nbEmpRequired" : 1,
        "deadline" : [ 12, 48 ],
        "skills" : [ {
          "id" : 1,
          "name" : "ENGINEER",
          "level" : 4
        } ],
        "duration" : 3600.000000000,
        "pause" : true
      },
      "window" : {
        "start" : [ 11, 53 ],
        "end" : [ 13, 0 ]
      }
    }, {
      "job" : {
        "id" : 631,
        "desc" : "PLUMBING",
        "location" : {
          "id" : 3156,
          "name" : null,
          "latitude" : 43.967873,
          "longitude" : 3.917767
        },
        "openings" : {
          "start" : [ 10, 2 ],
          "end" : [ 10, 58 ]
        },
        "preferredSlots" : null,
        "doAfter" : null,
        "nbEmpRequired" : 1,
        "deadline" : [ 15, 51 ],
        "skills" : [ {
          "id" : 3,
          "name" : "PLUMBING",
          "level" : 5
        } ],
        "duration" : 3600.000000000,
        "pause" : false
      },
      "window" : {
        "start" : [ 13, 14 ],
        "end" : [ 14, 14 ]
      }
    }, {
      "job" : {
        "id" : 112,
        "desc" : "PLUMBING",
        "location" : {
          "id" : 689,
          "name" : null,
          "latitude" : 43.94728,
          "longitude" : 4.0457726
        },
        "openings" : {
          "start" : [ 11, 0 ],
          "end" : [ 17, 53 ]
        },
        "preferredSlots" : null,
        "doAfter" : null,
        "nbEmpRequired" : 1,
        "deadline" : [ 13, 51 ],
        "skills" : [ {
          "id" : 3,
          "name" : "PLUMBING",
          "level" : 3
        } ],
        "duration" : 3600.000000000,
        "pause" : false
      },
      "window" : {
        "start" : [ 14, 25 ],
        "end" : [ 15, 25 ]
      }
    }, {
      "job" : {
        "id" : 839,
        "desc" : "TILER",
        "location" : {
          "id" : 6317,
          "name" : null,
          "latitude" : 43.810543,
          "longitude" : 3.8793113
        },
        "openings" : {
          "start" : [ 14, 53 ],
          "end" : [ 17, 14 ]
        },
        "preferredSlots" : null,
        "doAfter" : null,
        "nbEmpRequired" : 1,
        "deadline" : [ 14, 23 ],
        "skills" : [ {
          "id" : 9,
          "name" : "TILER",
          "level" : 3
        } ],
        "duration" : 3600.000000000,
        "pause" : false
      },
      "window" : {
        "start" : [ 15, 46 ],
        "end" : [ 16, 46 ]
      }
    } ],
    "driving" : 6780.000000000,
    "valid" : true
  }, {
    "emp" : {
      "id" : 728,
      "name" : "728",
      "shifts" : [ {
        "start" : [ 9, 0 ],
        "end" : [ 12, 0 ]
      }, {
        "start" : [ 13, 0 ],
        "end" : [ 17, 0 ]
      } ],
      "prefSlots" : null,
      "startingLoc" : {
        "id" : 139,
        "name" : null,
        "latitude" : 43.836937,
        "longitude" : 4.0106974
      },
      "skills" : [ {
        "id" : 6,
        "name" : "CARPENTRY",
        "level" : 8
      }, {
        "id" : 4,
        "name" : "MASONRY",
        "level" : 6
      }, {
        "id" : 1,
        "name" : "ENGINEER",
        "level" : 2
      }, {
        "id" : 1,
        "name" : "ENGINEER",
        "level" : 7
      }, {
        "id" : 6,
        "name" : "CARPENTRY",
        "level" : 7
      }, {
        "id" : 9,
        "name" : "TILER",
        "level" : 8
      }, {
        "id" : 4,
        "name" : "MASONRY",
        "level" : 4
      } ]
    },
    "planning" : [ {
      "job" : {
        "id" : -1,
        "desc" : "Home",
        "location" : {
          "id" : 139,
          "name" : null,
          "latitude" : 43.836937,
          "longitude" : 4.0106974
        },
        "openings" : null,
        "preferredSlots" : null,
        "doAfter" : null,
        "nbEmpRequired" : 1,
        "deadline" : null,
        "skills" : [ ],
        "duration" : null,
        "pause" : true
      },
      "window" : {
        "start" : [ 9, 0 ],
        "end" : [ 9, 0 ]
      }
    }, {
      "job" : {
        "id" : 546,
        "desc" : "CARPENTRY",
        "location" : {
          "id" : 413,
          "name" : null,
          "latitude" : 43.934135,
          "longitude" : 4.1485724
        },
        "openings" : {
          "start" : [ 13, 11 ],
          "end" : [ 13, 37 ]
        },
        "preferredSlots" : null,
        "doAfter" : null,
        "nbEmpRequired" : 1,
        "deadline" : [ 12, 34 ],
        "skills" : [ {
          "id" : 6,
          "name" : "CARPENTRY",
          "level" : 2
        } ],
        "duration" : 5400.000000000,
        "pause" : false
      },
      "window" : {
        "start" : [ 9, 16 ],
        "end" : [ 10, 46 ]
      }
    }, {
      "job" : {
        "id" : -1,
        "desc" : "Pause",
        "location" : {
          "id" : 413,
          "name" : null,
          "latitude" : 43.934135,
          "longitude" : 4.1485724
        },
        "openings" : {
          "start" : [ 13, 11 ],
          "end" : [ 13, 37 ]
        },
        "preferredSlots" : null,
        "doAfter" : null,
        "nbEmpRequired" : 1,
        "deadline" : [ 12, 34 ],
        "skills" : [ {
          "id" : 6,
          "name" : "CARPENTRY",
          "level" : 2
        } ],
        "duration" : 5400.000000000,
        "pause" : true
      },
      "window" : {
        "start" : [ 10, 47 ],
        "end" : [ 13, 0 ]
      }
    }, {
      "job" : {
        "id" : 2,
        "desc" : "ENGINEER",
        "location" : {
          "id" : 5304,
          "name" : null,
          "latitude" : 43.643463,
          "longitude" : 4.001493
        },
        "openings" : {
          "start" : [ 10, 37 ],
          "end" : [ 14, 56 ]
        },
        "preferredSlots" : null,
        "doAfter" : null,
        "nbEmpRequired" : 1,
        "deadline" : [ 10, 33 ],
        "skills" : [ {
          "id" : 1,
          "name" : "ENGINEER",
          "level" : 4
        } ],
        "duration" : 5400.000000000,
        "pause" : false
      },
      "window" : {
        "start" : [ 13, 35 ],
        "end" : [ 15, 5 ]
      }
    }, {
      "job" : {
        "id" : 994,
        "desc" : "CARPENTRY, TILER",
        "location" : {
          "id" : 5626,
          "name" : null,
          "latitude" : 43.57745,
          "longitude" : 4.235898
        },
        "openings" : {
          "start" : [ 9, 24 ],
          "end" : [ 11, 33 ]
        },
        "preferredSlots" : null,
        "doAfter" : null,
        "nbEmpRequired" : 1,
        "deadline" : [ 17, 27 ],
        "skills" : [ {
          "id" : 6,
          "name" : "CARPENTRY",
          "level" : 2
        }, {
          "id" : 9,
          "name" : "TILER",
          "level" : 4
        } ],
        "duration" : 5400.000000000,
        "pause" : false
      },
      "window" : {
        "start" : [ 15, 26 ],
        "end" : [ 16, 56 ]
      }
    } ],
    "driving" : 4320.000000000,
    "valid" : true
  }, {
    "emp" : {
      "id" : 967,
      "name" : "967",
      "shifts" : [ {
        "start" : [ 9, 0 ],
        "end" : [ 12, 0 ]
      }, {
        "start" : [ 13, 0 ],
        "end" : [ 17, 0 ]
      } ],
      "prefSlots" : null,
      "startingLoc" : {
        "id" : 6184,
        "name" : null,
        "latitude" : 43.832207,
        "longitude" : 3.7490468
      },
      "skills" : [ {
        "id" : 1,
        "name" : "ENGINEER",
        "level" : 3
      } ]
    },
    "planning" : [ {
      "job" : {
        "id" : -1,
        "desc" : "Home",
        "location" : {
          "id" : 6184,
          "name" : null,
          "latitude" : 43.832207,
          "longitude" : 3.7490468
        },
        "openings" : null,
        "preferredSlots" : null,
        "doAfter" : null,
        "nbEmpRequired" : 1,
        "deadline" : null,
        "skills" : [ ],
        "duration" : null,
        "pause" : true
      },
      "window" : {
        "start" : [ 9, 0 ],
        "end" : [ 9, 0 ]
      }
    }, {
      "job" : {
        "id" : -1,
        "desc" : "Pause",
        "location" : {
          "id" : 6184,
          "name" : null,
          "latitude" : 43.832207,
          "longitude" : 3.7490468
        },
        "openings" : null,
        "preferredSlots" : null,
        "doAfter" : null,
        "nbEmpRequired" : 1,
        "deadline" : null,
        "skills" : [ ],
        "duration" : null,
        "pause" : true
      },
      "window" : {
        "start" : [ 9, 1 ],
        "end" : [ 13, 0 ]
      }
    } ],
    "driving" : 0.0,
    "valid" : true
  }, {
    "emp" : {
      "id" : 860,
      "name" : "860",
      "shifts" : [ {
        "start" : [ 9, 0 ],
        "end" : [ 12, 0 ]
      }, {
        "start" : [ 13, 0 ],
        "end" : [ 17, 0 ]
      } ],
      "prefSlots" : null,
      "startingLoc" : {
        "id" : 4832,
        "name" : null,
        "latitude" : 44.020607,
        "longitude" : 3.726389
      },
      "skills" : [ {
        "id" : 1,
        "name" : "ENGINEER",
        "level" : 7
      }, {
        "id" : 3,
        "name" : "PLUMBING",
        "level" : 10
      }, {
        "id" : 7,
        "name" : "PAINTING",
        "level" : 5
      }, {
        "id" : 4,
        "name" : "MASONRY",
        "level" : 2
      }, {
        "id" : 1,
        "name" : "ENGINEER",
        "level" : 5
      }, {
        "id" : 4,
        "name" : "MASONRY",
        "level" : 6
      } ]
    },
    "planning" : [ {
      "job" : {
        "id" : -1,
        "desc" : "Home",
        "location" : {
          "id" : 4832,
          "name" : null,
          "latitude" : 44.020607,
          "longitude" : 3.726389
        },
        "openings" : null,
        "preferredSlots" : null,
        "doAfter" : null,
        "nbEmpRequired" : 1,
        "deadline" : null,
        "skills" : [ ],
        "duration" : null,
        "pause" : true
      },
      "window" : {
        "start" : [ 9, 0 ],
        "end" : [ 9, 0 ]
      }
    }, {
      "job" : {
        "id" : -1,
        "desc" : "Pause",
        "location" : {
          "id" : 4832,
          "name" : null,
          "latitude" : 44.020607,
          "longitude" : 3.726389
        },
        "openings" : null,
        "preferredSlots" : null,
        "doAfter" : null,
        "nbEmpRequired" : 1,
        "deadline" : null,
        "skills" : [ ],
        "duration" : null,
        "pause" : true
      },
      "window" : {
        "start" : [ 9, 1 ],
        "end" : [ 13, 0 ]
      }
    } ],
    "driving" : 0.0,
    "valid" : true
  }, {
    "emp" : {
      "id" : 840,
      "name" : "840",
      "shifts" : [ {
        "start" : [ 9, 0 ],
        "end" : [ 12, 0 ]
      }, {
        "start" : [ 13, 0 ],
        "end" : [ 17, 0 ]
      } ],
      "prefSlots" : null,
      "startingLoc" : {
        "id" : 6380,
        "name" : null,
        "latitude" : 43.492332,
        "longitude" : 4.077577
      },
      "skills" : [ {
        "id" : 0,
        "name" : "MANAGEMENT",
        "level" : 10
      } ]
    },
    "planning" : [ {
      "job" : {
        "id" : -1,
        "desc" : "Home",
        "location" : {
          "id" : 6380,
          "name" : null,
          "latitude" : 43.492332,
          "longitude" : 4.077577
        },
        "openings" : null,
        "preferredSlots" : null,
        "doAfter" : null,
        "nbEmpRequired" : 1,
        "deadline" : null,
        "skills" : [ ],
        "duration" : null,
        "pause" : true
      },
      "window" : {
        "start" : [ 9, 0 ],
        "end" : [ 9, 0 ]
      }
    }, {
      "job" : {
        "id" : 977,
        "desc" : "MANAGEMENT",
        "location" : {
          "id" : 9891,
          "name" : null,
          "latitude" : 43.951378,
          "longitude" : 3.7426715
        },
        "openings" : {
          "start" : [ 15, 56 ],
          "end" : [ 17, 52 ]
        },
        "preferredSlots" : null,
        "doAfter" : null,
        "nbEmpRequired" : 1,
        "deadline" : [ 13, 8 ],
        "skills" : [ {
          "id" : 0,
          "name" : "MANAGEMENT",
          "level" : 3
        } ],
        "duration" : 7200.000000000,
        "pause" : false
      },
      "window" : {
        "start" : [ 9, 58 ],
        "end" : [ 11, 58 ]
      }
    }, {
      "job" : {
        "id" : -1,
        "desc" : "Pause",
        "location" : {
          "id" : 9891,
          "name" : null,
          "latitude" : 43.951378,
          "longitude" : 3.7426715
        },
        "openings" : {
          "start" : [ 15, 56 ],
          "end" : [ 17, 52 ]
        },
        "preferredSlots" : null,
        "doAfter" : null,
        "nbEmpRequired" : 1,
        "deadline" : [ 13, 8 ],
        "skills" : [ {
          "id" : 0,
          "name" : "MANAGEMENT",
          "level" : 3
        } ],
        "duration" : 7200.000000000,
        "pause" : true
      },
      "window" : {
        "start" : [ 11, 59 ],
        "end" : [ 13, 0 ]
      }
    } ],
    "driving" : 3480.000000000,
    "valid" : true
  }, {
    "emp" : {
      "id" : 323,
      "name" : "323",
      "shifts" : [ {
        "start" : [ 9, 0 ],
        "end" : [ 12, 0 ]
      }, {
        "start" : [ 13, 0 ],
        "end" : [ 17, 0 ]
      } ],
      "prefSlots" : null,
      "startingLoc" : {
        "id" : 315,
        "name" : null,
        "latitude" : 44.0535,
        "longitude" : 3.906262
      },
      "skills" : [ {
        "id" : 5,
        "name" : "GLAZING",
        "level" : 2
      }, {
        "id" : 8,
        "name" : "IRONWORK",
        "level" : 6
      } ]
    },
    "planning" : [ {
      "job" : {
        "id" : -1,
        "desc" : "Home",
        "location" : {
          "id" : 315,
          "name" : null,
          "latitude" : 44.0535,
          "longitude" : 3.906262
        },
        "openings" : null,
        "preferredSlots" : null,
        "doAfter" : null,
        "nbEmpRequired" : 1,
        "deadline" : null,
        "skills" : [ ],
        "duration" : null,
        "pause" : true
      },
      "window" : {
        "start" : [ 9, 0 ],
        "end" : [ 9, 0 ]
      }
    }, {
      "job" : {
        "id" : -1,
        "desc" : "Pause",
        "location" : {
          "id" : 315,
          "name" : null,
          "latitude" : 44.0535,
          "longitude" : 3.906262
        },
        "openings" : null,
        "preferredSlots" : null,
        "doAfter" : null,
        "nbEmpRequired" : 1,
        "deadline" : null,
        "skills" : [ ],
        "duration" : null,
        "pause" : true
      },
      "window" : {
        "start" : [ 9, 1 ],
        "end" : [ 13, 0 ]
      }
    } ],
    "driving" : 0.0,
    "valid" : true
  }, {
    "emp" : {
      "id" : 390,
      "name" : "390",
      "shifts" : [ {
        "start" : [ 9, 0 ],
        "end" : [ 12, 0 ]
      }, {
        "start" : [ 13, 0 ],
        "end" : [ 17, 0 ]
      } ],
      "prefSlots" : null,
      "startingLoc" : {
        "id" : 7710,
        "name" : null,
        "latitude" : 43.46973,
        "longitude" : 3.9236355
      },
      "skills" : [ {
        "id" : 7,
        "name" : "PAINTING",
        "level" : 7
      }, {
        "id" : 1,
        "name" : "ENGINEER",
        "level" : 5
      }, {
        "id" : 8,
        "name" : "IRONWORK",
        "level" : 10
      }, {
        "id" : 1,
        "name" : "ENGINEER",
        "level" : 8
      }, {
        "id" : 3,
        "name" : "PLUMBING",
        "level" : 3
      }, {
        "id" : 1,
        "name" : "ENGINEER",
        "level" : 9
      } ]
    },
    "planning" : [ {
      "job" : {
        "id" : -1,
        "desc" : "Home",
        "location" : {
          "id" : 7710,
          "name" : null,
          "latitude" : 43.46973,
          "longitude" : 3.9236355
        },
        "openings" : null,
        "preferredSlots" : null,
        "doAfter" : null,
        "nbEmpRequired" : 1,
        "deadline" : null,
        "skills" : [ ],
        "duration" : null,
        "pause" : true
      },
      "window" : {
        "start" : [ 9, 0 ],
        "end" : [ 9, 0 ]
      }
    }, {
      "job" : {
        "id" : -1,
        "desc" : "Pause",
        "location" : {
          "id" : 7710,
          "name" : null,
          "latitude" : 43.46973,
          "longitude" : 3.9236355
        },
        "openings" : null,
        "preferredSlots" : null,
        "doAfter" : null,
        "nbEmpRequired" : 1,
        "deadline" : null,
        "skills" : [ ],
        "duration" : null,
        "pause" : true
      },
      "window" : {
        "start" : [ 9, 1 ],
        "end" : [ 13, 0 ]
      }
    } ],
    "driving" : 0.0,
    "valid" : true
  }, {
    "emp" : {
      "id" : 709,
      "name" : "709",
      "shifts" : [ {
        "start" : [ 9, 0 ],
        "end" : [ 12, 0 ]
      }, {
        "start" : [ 13, 0 ],
        "end" : [ 17, 0 ]
      } ],
      "prefSlots" : null,
      "startingLoc" : {
        "id" : 6988,
        "name" : null,
        "latitude" : 44.044518,
        "longitude" : 3.7013004
      },
      "skills" : [ {
        "id" : 1,
        "name" : "ENGINEER",
        "level" : 5
      }, {
        "id" : 8,
        "name" : "IRONWORK",
        "level" : 8
      }, {
        "id" : 4,
        "name" : "MASONRY",
        "level" : 5
      }, {
        "id" : 5,
        "name" : "GLAZING",
        "level" : 3
      }, {
        "id" : 7,
        "name" : "PAINTING",
        "level" : 7
      }, {
        "id" : 5,
        "name" : "GLAZING",
        "level" : 8
      }, {
        "id" : 5,
        "name" : "GLAZING",
        "level" : 10
      }, {
        "id" : 6,
        "name" : "CARPENTRY",
        "level" : 1
      } ]
    },
    "planning" : [ {
      "job" : {
        "id" : -1,
        "desc" : "Home",
        "location" : {
          "id" : 6988,
          "name" : null,
          "latitude" : 44.044518,
          "longitude" : 3.7013004
        },
        "openings" : null,
        "preferredSlots" : null,
        "doAfter" : null,
        "nbEmpRequired" : 1,
        "deadline" : null,
        "skills" : [ ],
        "duration" : null,
        "pause" : true
      },
      "window" : {
        "start" : [ 9, 0 ],
        "end" : [ 9, 0 ]
      }
    }, {
      "job" : {
        "id" : 243,
        "desc" : "GLAZING, MASONRY",
        "location" : {
          "id" : 3191,
          "name" : null,
          "latitude" : 43.870197,
          "longitude" : 3.7519786
        },
        "openings" : {
          "start" : [ 16, 37 ],
          "end" : [ 16, 38 ]
        },
        "preferredSlots" : null,
        "doAfter" : null,
        "nbEmpRequired" : 1,
        "deadline" : [ 17, 51 ],
        "skills" : [ {
          "id" : 5,
          "name" : "GLAZING",
          "level" : 2
        }, {
          "id" : 4,
          "name" : "MASONRY",
          "level" : 2
        } ],
        "duration" : 3600.000000000,
        "pause" : false
      },
      "window" : {
        "start" : [ 9, 20 ],
        "end" : [ 10, 20 ]
      }
    }, {
      "job" : {
        "id" : 774,
        "desc" : "MASONRY, GLAZING",
        "location" : {
          "id" : 3622,
          "name" : null,
          "latitude" : 43.590878,
          "longitude" : 3.9905114
        },
        "openings" : {
          "start" : [ 13, 19 ],
          "end" : [ 13, 26 ]
        },
        "preferredSlots" : null,
        "doAfter" : null,
        "nbEmpRequired" : 1,
        "deadline" : [ 9, 20 ],
        "skills" : [ {
          "id" : 4,
          "name" : "MASONRY",
          "level" : 1
        }, {
          "id" : 5,
          "name" : "GLAZING",
          "level" : 3
        } ],
        "duration" : 3600.000000000,
        "pause" : false
      },
      "window" : {
        "start" : [ 10, 57 ],
        "end" : [ 11, 57 ]
      }
    }, {
      "job" : {
        "id" : -1,
        "desc" : "Pause",
        "location" : {
          "id" : 3622,
          "name" : null,
          "latitude" : 43.590878,
          "longitude" : 3.9905114
        },
        "openings" : {
          "start" : [ 13, 19 ],
          "end" : [ 13, 26 ]
        },
        "preferredSlots" : null,
        "doAfter" : null,
        "nbEmpRequired" : 1,
        "deadline" : [ 9, 20 ],
        "skills" : [ {
          "id" : 4,
          "name" : "MASONRY",
          "level" : 1
        }, {
          "id" : 5,
          "name" : "GLAZING",
          "level" : 3
        } ],
        "duration" : 3600.000000000,
        "pause" : true
      },
      "window" : {
        "start" : [ 11, 58 ],
        "end" : [ 13, 0 ]
      }
    }, {
      "job" : {
        "id" : 58,
        "desc" : "GLAZING",
        "location" : {
          "id" : 7196,
          "name" : null,
          "latitude" : 44.069378,
          "longitude" : 4.296178
        },
        "openings" : {
          "start" : [ 13, 20 ],
          "end" : [ 17, 38 ]
        },
        "preferredSlots" : null,
        "doAfter" : null,
        "nbEmpRequired" : 1,
        "deadline" : [ 13, 21 ],
        "skills" : [ {
          "id" : 5,
          "name" : "GLAZING",
          "level" : 5
        } ],
        "duration" : 3600.000000000,
        "pause" : false
      },
      "window" : {
        "start" : [ 13, 59 ],
        "end" : [ 14, 59 ]
      }
    }, {
      "job" : {
        "id" : 41,
        "desc" : "PAINTING, GLAZING",
        "location" : {
          "id" : 3282,
          "name" : null,
          "latitude" : 43.58223,
          "longitude" : 4.1730313
        },
        "openings" : {
          "start" : [ 16, 17 ],
          "end" : [ 17, 5 ]
        },
        "preferredSlots" : null,
        "doAfter" : null,
        "nbEmpRequired" : 1,
        "deadline" : [ 9, 38 ],
        "skills" : [ {
          "id" : 7,
          "name" : "PAINTING",
          "level" : 4
        }, {
          "id" : 5,
          "name" : "GLAZING",
          "level" : 3
        } ],
        "duration" : 3600.000000000,
        "pause" : false
      },
      "window" : {
        "start" : [ 15, 55 ],
        "end" : [ 16, 55 ]
      }
    } ],
    "driving" : 10320.000000000,
    "valid" : true
  }, {
    "emp" : {
      "id" : 637,
      "name" : "637",
      "shifts" : [ {
        "start" : [ 9, 0 ],
        "end" : [ 12, 0 ]
      }, {
        "start" : [ 13, 0 ],
        "end" : [ 17, 0 ]
      } ],
      "prefSlots" : null,
      "startingLoc" : {
        "id" : 62,
        "name" : null,
        "latitude" : 43.6037,
        "longitude" : 4.1345205
      },
      "skills" : [ {
        "id" : 4,
        "name" : "MASONRY",
        "level" : 1
      }, {
        "id" : 0,
        "name" : "MANAGEMENT",
        "level" : 9
      }, {
        "id" : 4,
        "name" : "MASONRY",
        "level" : 9
      } ]
    },
    "planning" : [ {
      "job" : {
        "id" : -1,
        "desc" : "Home",
        "location" : {
          "id" : 62,
          "name" : null,
          "latitude" : 43.6037,
          "longitude" : 4.1345205
        },
        "openings" : null,
        "preferredSlots" : null,
        "doAfter" : null,
        "nbEmpRequired" : 1,
        "deadline" : null,
        "skills" : [ ],
        "duration" : null,
        "pause" : true
      },
      "window" : {
        "start" : [ 9, 0 ],
        "end" : [ 9, 0 ]
      }
    }, {
      "job" : {
        "id" : -1,
        "desc" : "Pause",
        "location" : {
          "id" : 62,
          "name" : null,
          "latitude" : 43.6037,
          "longitude" : 4.1345205
        },
        "openings" : null,
        "preferredSlots" : null,
        "doAfter" : null,
        "nbEmpRequired" : 1,
        "deadline" : null,
        "skills" : [ ],
        "duration" : null,
        "pause" : true
      },
      "window" : {
        "start" : [ 9, 1 ],
        "end" : [ 13, 0 ]
      }
    } ],
    "driving" : 0.0,
    "valid" : true
  }, {
    "emp" : {
      "id" : 873,
      "name" : "873",
      "shifts" : [ {
        "start" : [ 9, 0 ],
        "end" : [ 12, 0 ]
      }, {
        "start" : [ 13, 0 ],
        "end" : [ 17, 0 ]
      } ],
      "prefSlots" : null,
      "startingLoc" : {
        "id" : 3081,
        "name" : null,
        "latitude" : 43.50868,
        "longitude" : 4.2294207
      },
      "skills" : [ {
        "id" : 2,
        "name" : "ELECTRICIAN",
        "level" : 4
      }, {
        "id" : 4,
        "name" : "MASONRY",
        "level" : 3
      }, {
        "id" : 2,
        "name" : "ELECTRICIAN",
        "level" : 6
      } ]
    },
    "planning" : [ {
      "job" : {
        "id" : -1,
        "desc" : "Home",
        "location" : {
          "id" : 3081,
          "name" : null,
          "latitude" : 43.50868,
          "longitude" : 4.2294207
        },
        "openings" : null,
        "preferredSlots" : null,
        "doAfter" : null,
        "nbEmpRequired" : 1,
        "deadline" : null,
        "skills" : [ ],
        "duration" : null,
        "pause" : true
      },
      "window" : {
        "start" : [ 9, 0 ],
        "end" : [ 9, 0 ]
      }
    }, {
      "job" : {
        "id" : -1,
        "desc" : "Pause",
        "location" : {
          "id" : 3081,
          "name" : null,
          "latitude" : 43.50868,
          "longitude" : 4.2294207
        },
        "openings" : null,
        "preferredSlots" : null,
        "doAfter" : null,
        "nbEmpRequired" : 1,
        "deadline" : null,
        "skills" : [ ],
        "duration" : null,
        "pause" : true
      },
      "window" : {
        "start" : [ 9, 1 ],
        "end" : [ 13, 0 ]
      }
    } ],
    "driving" : 0.0,
    "valid" : true
  }, {
    "emp" : {
      "id" : 633,
      "name" : "633",
      "shifts" : [ {
        "start" : [ 9, 0 ],
        "end" : [ 12, 0 ]
      }, {
        "start" : [ 13, 0 ],
        "end" : [ 17, 0 ]
      } ],
      "prefSlots" : null,
      "startingLoc" : {
        "id" : 178,
        "name" : null,
        "latitude" : 43.697372,
        "longitude" : 4.0906115
      },
      "skills" : [ {
        "id" : 1,
        "name" : "ENGINEER",
        "level" : 4
      }, {
        "id" : 3,
        "name" : "PLUMBING",
        "level" : 4
      }, {
        "id" : 8,
        "name" : "IRONWORK",
        "level" : 1
      }, {
        "id" : 4,
        "name" : "MASONRY",
        "level" : 1
      }, {
        "id" : 7,
        "name" : "PAINTING",
        "level" : 4
      }, {
        "id" : 0,
        "name" : "MANAGEMENT",
        "level" : 3
      }, {
        "id" : 3,
        "name" : "PLUMBING",
        "level" : 10
      }, {
        "id" : 2,
        "name" : "ELECTRICIAN",
        "level" : 5
      }, {
        "id" : 1,
        "name" : "ENGINEER",
        "level" : 8
      } ]
    },
    "planning" : [ {
      "job" : {
        "id" : -1,
        "desc" : "Home",
        "location" : {
          "id" : 178,
          "name" : null,
          "latitude" : 43.697372,
          "longitude" : 4.0906115
        },
        "openings" : null,
        "preferredSlots" : null,
        "doAfter" : null,
        "nbEmpRequired" : 1,
        "deadline" : null,
        "skills" : [ ],
        "duration" : null,
        "pause" : true
      },
      "window" : {
        "start" : [ 9, 0 ],
        "end" : [ 9, 0 ]
      }
    }, {
      "job" : {
        "id" : -1,
        "desc" : "Pause",
        "location" : {
          "id" : 178,
          "name" : null,
          "latitude" : 43.697372,
          "longitude" : 4.0906115
        },
        "openings" : null,
        "preferredSlots" : null,
        "doAfter" : null,
        "nbEmpRequired" : 1,
        "deadline" : null,
        "skills" : [ ],
        "duration" : null,
        "pause" : true
      },
      "window" : {
        "start" : [ 9, 1 ],
        "end" : [ 13, 0 ]
      }
    } ],
    "driving" : 0.0,
    "valid" : true
  }, {
    "emp" : {
      "id" : 761,
      "name" : "761",
      "shifts" : [ {
        "start" : [ 9, 0 ],
        "end" : [ 12, 0 ]
      }, {
        "start" : [ 13, 0 ],
        "end" : [ 17, 0 ]
      } ],
      "prefSlots" : null,
      "startingLoc" : {
        "id" : 497,
        "name" : null,
        "latitude" : 43.96441,
        "longitude" : 3.9624724
      },
      "skills" : [ {
        "id" : 7,
        "name" : "PAINTING",
        "level" : 4
      }, {
        "id" : 6,
        "name" : "CARPENTRY",
        "level" : 8
      }, {
        "id" : 3,
        "name" : "PLUMBING",
        "level" : 8
      }, {
        "id" : 8,
        "name" : "IRONWORK",
        "level" : 5
      }, {
        "id" : 3,
        "name" : "PLUMBING",
        "level" : 7
      }, {
        "id" : 5,
        "name" : "GLAZING",
        "level" : 4
      }, {
        "id" : 3,
        "name" : "PLUMBING",
        "level" : 7
      } ]
    },
    "planning" : [ {
      "job" : {
        "id" : -1,
        "desc" : "Home",
        "location" : {
          "id" : 497,
          "name" : null,
          "latitude" : 43.96441,
          "longitude" : 3.9624724
        },
        "openings" : null,
        "preferredSlots" : null,
        "doAfter" : null,
        "nbEmpRequired" : 1,
        "deadline" : null,
        "skills" : [ ],
        "duration" : null,
        "pause" : true
      },
      "window" : {
        "start" : [ 9, 0 ],
        "end" : [ 9, 0 ]
      }
    }, {
      "job" : {
        "id" : 143,
        "desc" : "GLAZING",
        "location" : {
          "id" : 6396,
          "name" : null,
          "latitude" : 43.540188,
          "longitude" : 4.2603726
        },
        "openings" : {
          "start" : [ 14, 32 ],
          "end" : [ 17, 28 ]
        },
        "preferredSlots" : null,
        "doAfter" : null,
        "nbEmpRequired" : 1,
        "deadline" : [ 12, 37 ],
        "skills" : [ {
          "id" : 5,
          "name" : "GLAZING",
          "level" : 4
        } ],
        "duration" : 3600.000000000,
        "pause" : false
      },
      "window" : {
        "start" : [ 9, 53 ],
        "end" : [ 10, 53 ]
      }
    }, {
      "job" : {
        "id" : -1,
        "desc" : "Pause",
        "location" : {
          "id" : 6396,
          "name" : null,
          "latitude" : 43.540188,
          "longitude" : 4.2603726
        },
        "openings" : {
          "start" : [ 14, 32 ],
          "end" : [ 17, 28 ]
        },
        "preferredSlots" : null,
        "doAfter" : null,
        "nbEmpRequired" : 1,
        "deadline" : [ 12, 37 ],
        "skills" : [ {
          "id" : 5,
          "name" : "GLAZING",
          "level" : 4
        } ],
        "duration" : 3600.000000000,
        "pause" : true
      },
      "window" : {
        "start" : [ 10, 54 ],
        "end" : [ 13, 0 ]
      }
    }, {
      "job" : {
        "id" : 234,
        "desc" : "PAINTING, GLAZING",
        "location" : {
          "id" : 2860,
          "name" : null,
          "latitude" : 43.519993,
          "longitude" : 3.9603837
        },
        "openings" : {
          "start" : [ 11, 44 ],
          "end" : [ 13, 53 ]
        },
        "preferredSlots" : null,
        "doAfter" : null,
        "nbEmpRequired" : 1,
        "deadline" : [ 14, 12 ],
        "skills" : [ {
          "id" : 7,
          "name" : "PAINTING",
          "level" : 3
        }, {
          "id" : 5,
          "name" : "GLAZING",
          "level" : 3
        } ],
        "duration" : 5400.000000000,
        "pause" : false
      },
      "window" : {
        "start" : [ 13, 25 ],
        "end" : [ 14, 55 ]
      }
    } ],
    "driving" : 4680.000000000,
    "valid" : true
  }, {
    "emp" : {
      "id" : 792,
      "name" : "792",
      "shifts" : [ {
        "start" : [ 9, 0 ],
        "end" : [ 12, 0 ]
      }, {
        "start" : [ 13, 0 ],
        "end" : [ 17, 0 ]
      } ],
      "prefSlots" : null,
      "startingLoc" : {
        "id" : 7198,
        "name" : null,
        "latitude" : 43.922836,
        "longitude" : 4.066776
      },
      "skills" : [ {
        "id" : 2,
        "name" : "ELECTRICIAN",
        "level" : 9
      }, {
        "id" : 7,
        "name" : "PAINTING",
        "level" : 5
      } ]
    },
    "planning" : [ {
      "job" : {
        "id" : -1,
        "desc" : "Home",
        "location" : {
          "id" : 7198,
          "name" : null,
          "latitude" : 43.922836,
          "longitude" : 4.066776
        },
        "openings" : null,
        "preferredSlots" : null,
        "doAfter" : null,
        "nbEmpRequired" : 1,
        "deadline" : null,
        "skills" : [ ],
        "duration" : null,
        "pause" : true
      },
      "window" : {
        "start" : [ 9, 0 ],
        "end" : [ 9, 0 ]
      }
    }, {
      "job" : {
        "id" : -1,
        "desc" : "Pause",
        "location" : {
          "id" : 7198,
          "name" : null,
          "latitude" : 43.922836,
          "longitude" : 4.066776
        },
        "openings" : null,
        "preferredSlots" : null,
        "doAfter" : null,
        "nbEmpRequired" : 1,
        "deadline" : null,
        "skills" : [ ],
        "duration" : null,
        "pause" : true
      },
      "window" : {
        "start" : [ 9, 1 ],
        "end" : [ 13, 0 ]
      }
    } ],
    "driving" : 0.0,
    "valid" : true
  } ],
  "unassigned" : [ {
    "id" : 602,
    "desc" : "TILER, GLAZING",
    "location" : {
      "id" : 8001,
      "name" : null,
      "latitude" : 43.675022,
      "longitude" : 4.1952524
    },
    "openings" : {
      "start" : [ 13, 0 ],
      "end" : [ 16, 3 ]
    },
    "preferredSlots" : null,
    "doAfter" : null,
    "nbEmpRequired" : 1,
    "deadline" : [ 10, 48 ],
    "skills" : [ {
      "id" : 9,
      "name" : "TILER",
      "level" : 1
    }, {
      "id" : 5,
      "name" : "GLAZING",
      "level" : 1
    } ],
    "duration" : 2700.000000000,
    "pause" : false
  }, {
    "id" : 197,
    "desc" : "GLAZING, TILER",
    "location" : {
      "id" : 9034,
      "name" : null,
      "latitude" : 43.9302,
      "longitude" : 3.7457783
    },
    "openings" : {
      "start" : [ 10, 28 ],
      "end" : [ 12, 54 ]
    },
    "preferredSlots" : null,
    "doAfter" : null,
    "nbEmpRequired" : 1,
    "deadline" : [ 11, 47 ],
    "skills" : [ {
      "id" : 5,
      "name" : "GLAZING",
      "level" : 5
    }, {
      "id" : 9,
      "name" : "TILER",
      "level" : 4
    } ],
    "duration" : 3600.000000000,
    "pause" : false
  }, {
    "id" : 49,
    "desc" : "MASONRY, GLAZING",
    "location" : {
      "id" : 9076,
      "name" : null,
      "latitude" : 43.807346,
      "longitude" : 4.2351756
    },
    "openings" : {
      "start" : [ 10, 23 ],
      "end" : [ 17, 51 ]
    },
    "preferredSlots" : null,
    "doAfter" : null,
    "nbEmpRequired" : 1,
    "deadline" : [ 16, 18 ],
    "skills" : [ {
      "id" : 4,
      "name" : "MASONRY",
      "level" : 1
    }, {
      "id" : 5,
      "name" : "GLAZING",
      "level" : 5
    } ],
    "duration" : 3600.000000000,
    "pause" : false
  }, {
    "id" : 255,
    "desc" : "GLAZING",
    "location" : {
      "id" : 1577,
      "name" : null,
      "latitude" : 43.946404,
      "longitude" : 4.046838
    },
    "openings" : {
      "start" : [ 10, 33 ],
      "end" : [ 11, 35 ]
    },
    "preferredSlots" : null,
    "doAfter" : null,
    "nbEmpRequired" : 1,
    "deadline" : [ 11, 20 ],
    "skills" : [ {
      "id" : 5,
      "name" : "GLAZING",
      "level" : 5
    } ],
    "duration" : 5400.000000000,
    "pause" : false
  }, {
    "id" : 287,
    "desc" : "GLAZING, TILER",
    "location" : {
      "id" : 2038,
      "name" : null,
      "latitude" : 43.99594,
      "longitude" : 4.06897
    },
    "openings" : {
      "start" : [ 15, 8 ],
      "end" : [ 15, 58 ]
    },
    "preferredSlots" : null,
    "doAfter" : null,
    "nbEmpRequired" : 1,
    "deadline" : [ 15, 7 ],
    "skills" : [ {
      "id" : 5,
      "name" : "GLAZING",
      "level" : 5
    }, {
      "id" : 9,
      "name" : "TILER",
      "level" : 1
    } ],
    "duration" : 7200.000000000,
    "pause" : false
  }, {
    "id" : 952,
    "desc" : "ENGINEER, GLAZING",
    "location" : {
      "id" : 8165,
      "name" : null,
      "latitude" : 43.4568,
      "longitude" : 4.2682276
    },
    "openings" : {
      "start" : [ 10, 58 ],
      "end" : [ 16, 4 ]
    },
    "preferredSlots" : null,
    "doAfter" : null,
    "nbEmpRequired" : 1,
    "deadline" : [ 10, 52 ],
    "skills" : [ {
      "id" : 1,
      "name" : "ENGINEER",
      "level" : 2
    }, {
      "id" : 5,
      "name" : "GLAZING",
      "level" : 4
    } ],
    "duration" : 7200.000000000,
    "pause" : false
  } ],
  "valid" : true
}