{
  "listEdt" : [ {
    "emp" : {
      "id" : 314,
      "name" : "314",
      "shifts" : [ {
        "start" : [ 9, 0 ],
        "end" : [ 12, 0 ]
      }, {
        "start" : [ 13, 0 ],
        "end" : [ 17, 0 ]
      } ],
      "prefSlots" : null,
      "startingLoc" : {
        "id" : 1325,
        "name" : null,
        "latitude" : 43.723,
        "longitude" : 4.095254
      },
      "skills" : [ {
        "id" : 6,
        "name" : "CARPENTRY",
        "level" : 4
      }, {
        "id" : 6,
        "name" : "CARPENTRY",
        "level" : 9
      }, {
        "id" : 2,
        "name" : "ELECTRICIAN",
        "level" : 4
      } ]
    },
    "planning" : [ {
      "job" : {
        "id" : -1,
        "desc" : "Home",
        "location" : {
          "id" : 1325,
          "name" : null,
          "latitude" : 43.723,
          "longitude" : 4.095254
        },
        "openings" : null,
        "preferredSlots" : null,
        "doAfter" : null,
        "nbEmpRequired" : 1,
        "deadline" : null,
        "skills" : [ ],
        "duration" : null,
        "pause" : true
      },
      "window" : {
        "start" : [ 9, 0 ],
        "end" : [ 9, 0 ]
      }
    }, {
      "job" : {
        "id" : 742,
        "desc" : "ELECTRICIAN",
        "location" : {
          "id" : 4740,
          "name" : null,
          "latitude" : 43.427605,
          "longitude" : 4.2329187
        },
        "openings" : {
          "start" : [ 16, 4 ],
          "end" : [ 17, 22 ]
        },
        "preferredSlots" : null,
        "doAfter" : null,
        "nbEmpRequired" : 1,
        "deadline" : [ 13, 58 ],
        "skills" : [ {
          "id" : 2,
          "name" : "ELECTRICIAN",
          "level" : 4
        } ],
        "duration" : 1800.000000000,
        "pause" : false
      },
      "window" : {
        "start" : [ 9, 35 ],
        "end" : [ 10, 5 ]
      }
    }, {
      "job" : {
        "id" : 84,
        "desc" : "ELECTRICIAN",
        "location" : {
          "id" : 2427,
          "name" : null,
          "latitude" : 43.821358,
          "longitude" : 4.1318407
        },
        "openings" : {
          "start" : [ 14, 41 ],
          "end" : [ 15, 48 ]
        },
        "preferredSlots" : null,
        "doAfter" : null,
        "nbEmpRequired" : 1,
        "deadline" : [ 17, 49 ],
        "skills" : [ {
          "id" : 2,
          "name" : "ELECTRICIAN",
          "level" : 3
        } ],
        "duration" : 1800.000000000,
        "pause" : false
      },
      "window" : {
        "start" : [ 10, 50 ],
        "end" : [ 11, 20 ]
      }
    }, {
      "job" : {
        "id" : -1,
        "desc" : "Pause",
        "location" : {
          "id" : 2427,
          "name" : null,
          "latitude" : 43.821358,
          "longitude" : 4.1318407
        },
        "openings" : {
          "start" : [ 14, 41 ],
          "end" : [ 15, 48 ]
        },
        "preferredSlots" : null,
        "doAfter" : null,
        "nbEmpRequired" : 1,
        "deadline" : [ 17, 49 ],
        "skills" : [ {
          "id" : 2,
          "name" : "ELECTRICIAN",
          "level" : 3
        } ],
        "duration" : 1800.000000000,
        "pause" : true
      },
      "window" : {
        "start" : [ 11, 21 ],
        "end" : [ 13, 0 ]
      }
    }, {
      "job" : {
        "id" : 705,
        "desc" : "CARPENTRY",
        "location" : {
          "id" : 5473,
          "name" : null,
          "latitude" : 44.087593,
          "longitude" : 3.780251
        },
        "openings" : {
          "start" : [ 11, 44 ],
          "end" : [ 16, 58 ]
        },
        "preferredSlots" : null,
        "doAfter" : null,
        "nbEmpRequired" : 1,
        "deadline" : [ 17, 40 ],
        "skills" : [ {
          "id" : 6,
          "name" : "CARPENTRY",
          "level" : 2
        } ],
        "duration" : 1800.000000000,
        "pause" : false
      },
      "window" : {
        "start" : [ 13, 41 ],
        "end" : [ 14, 11 ]
      }
    }, {
      "job" : {
        "id" : 536,
        "desc" : "CARPENTRY",
        "location" : {
          "id" : 8322,
          "name" : null,
          "latitude" : 44.089775,
          "longitude" : 4.298315
        },
        "openings" : {
          "start" : [ 14, 17 ],
          "end" : [ 16, 8 ]
        },
        "preferredSlots" : null,
        "doAfter" : null,
        "nbEmpRequired" : 1,
        "deadline" : [ 13, 57 ],
        "skills" : [ {
          "id" : 6,
          "name" : "CARPENTRY",
          "level" : 4
        } ],
        "duration" : 1800.000000000,
        "pause" : false
      },
      "window" : {
        "start" : [ 14, 53 ],
        "end" : [ 15, 23 ]
      }
    } ],
    "driving" : 9780.000000000,
    "valid" : true
  }, {
    "emp" : {
      "id" : 251,
      "name" : "251",
      "shifts" : [ {
        "start" : [ 9, 0 ],
        "end" : [ 12, 0 ]
      }, {
        "start" : [ 13, 0 ],
        "end" : [ 17, 0 ]
      } ],
      "prefSlots" : null,
      "startingLoc" : {
        "id" : 944,
        "name" : null,
        "latitude" : 43.70371,
        "longitude" : 4.144624
      },
      "skills" : [ {
        "id" : 2,
        "name" : "ELECTRICIAN",
        "level" : 8
      }, {
        "id" : 3,
        "name" : "PLUMBING",
        "level" : 3
      }, {
        "id" : 2,
        "name" : "ELECTRICIAN",
        "level" : 6
      }, {
        "id" : 9,
        "name" : "TILER",
        "level" : 7
      } ]
    },
    "planning" : [ {
      "job" : {
        "id" : -1,
        "desc" : "Home",
        "location" : {
          "id" : 944,
          "name" : null,
          "latitude" : 43.70371,
          "longitude" : 4.144624
        },
        "openings" : null,
        "preferredSlots" : null,
        "doAfter" : null,
        "nbEmpRequired" : 1,
        "deadline" : null,
        "skills" : [ ],
        "duration" : null,
        "pause" : true
      },
      "window" : {
        "start" : [ 9, 0 ],
        "end" : [ 9, 0 ]
      }
    }, {
      "job" : {
        "id" : 44,
        "desc" : "TILER",
        "location" : {
          "id" : 1476,
          "name" : null,
          "latitude" : 44.075615,
          "longitude" : 3.7516522
        },
        "openings" : {
          "start" : [ 10, 40 ],
          "end" : [ 16, 34 ]
        },
        "preferredSlots" : null,
        "doAfter" : null,
        "nbEmpRequired" : 1,
        "deadline" : [ 9, 36 ],
        "skills" : [ {
          "id" : 9,
          "name" : "TILER",
          "level" : 2
        } ],
        "duration" : 2700.000000000,
        "pause" : false
      },
      "window" : {
        "start" : [ 9, 52 ],
        "end" : [ 10, 37 ]
      }
    }, {
      "job" : {
        "id" : 318,
        "desc" : "PLUMBING",
        "location" : {
          "id" : 5390,
          "name" : null,
          "latitude" : 43.94386,
          "longitude" : 3.83666
        },
        "openings" : {
          "start" : [ 11, 50 ],
          "end" : [ 17, 54 ]
        },
        "preferredSlots" : null,
        "doAfter" : null,
        "nbEmpRequired" : 1,
        "deadline" : [ 10, 48 ],
        "skills" : [ {
          "id" : 3,
          "name" : "PLUMBING",
          "level" : 2
        } ],
        "duration" : 2700.000000000,
        "pause" : false
      },
      "window" : {
        "start" : [ 10, 54 ],
        "end" : [ 11, 39 ]
      }
    }, {
      "job" : {
        "id" : -1,
        "desc" : "Pause",
        "location" : {
          "id" : 5390,
          "name" : null,
          "latitude" : 43.94386,
          "longitude" : 3.83666
        },
        "openings" : {
          "start" : [ 11, 50 ],
          "end" : [ 17, 54 ]
        },
        "preferredSlots" : null,
        "doAfter" : null,
        "nbEmpRequired" : 1,
        "deadline" : [ 10, 48 ],
        "skills" : [ {
          "id" : 3,
          "name" : "PLUMBING",
          "level" : 2
        } ],
        "duration" : 2700.000000000,
        "pause" : true
      },
      "window" : {
        "start" : [ 11, 40 ],
        "end" : [ 13, 0 ]
      }
    }, {
      "job" : {
        "id" : 535,
        "desc" : "PLUMBING",
        "location" : {
          "id" : 8559,
          "name" : null,
          "latitude" : 43.589905,
          "longitude" : 3.7205284
        },
        "openings" : {
          "start" : [ 9, 41 ],
          "end" : [ 12, 14 ]
        },
        "preferredSlots" : null,
        "doAfter" : null,
        "nbEmpRequired" : 1,
        "deadline" : [ 17, 41 ],
        "skills" : [ {
          "id" : 3,
          "name" : "PLUMBING",
          "level" : 1
        } ],
        "duration" : 3600.000000000,
        "pause" : false
      },
      "window" : {
        "start" : [ 13, 41 ],
        "end" : [ 14, 41 ]
      }
    }, {
      "job" : {
        "id" : 892,
        "desc" : "TILER",
        "location" : {
          "id" : 8309,
          "name" : null,
          "latitude" : 43.80721,
          "longitude" : 4.0198965
        },
        "openings" : {
          "start" : [ 9, 55 ],
          "end" : [ 14, 6 ]
        },
        "preferredSlots" : null,
        "doAfter" : null,
        "nbEmpRequired" : 1,
        "deadline" : [ 16, 7 ],
        "skills" : [ {
          "id" : 9,
          "name" : "TILER",
          "level" : 5
        } ],
        "duration" : 5400.000000000,
        "pause" : false
      },
      "window" : {
        "start" : [ 15, 16 ],
        "end" : [ 16, 46 ]
      }
    } ],
    "driving" : 8700.000000000,
    "valid" : true
  } ],
  "unassigned" : [ {
    "id" : 465,
    "desc" : "PAINTING",
    "location" : {
      "id" : 6256,
      "name" : null,
      "latitude" : 43.666134,
      "longitude" : 4.066152
    },
    "openings" : {
      "start" : [ 11, 17 ],
      "end" : [ 16, 16 ]
    },
    "preferredSlots" : null,
    "doAfter" : null,
    "nbEmpRequired" : 1,
    "deadline" : [ 11, 27 ],
    "skills" : [ {
      "id" : 7,
      "name" : "PAINTING",
      "level" : 3
    } ],
    "duration" : 1800.000000000,
    "pause" : false
  }, {
    "id" : 67,
    "desc" : "CARPENTRY, MANAGEMENT",
    "location" : {
      "id" : 6442,
      "name" : null,
      "latitude" : 43.874123,
      "longitude" : 4.0300283
    },
    "openings" : {
      "start" : [ 11, 9 ],
      "end" : [ 17, 37 ]
    },
    "preferredSlots" : null,
    "doAfter" : null,
    "nbEmpRequired" : 1,
    "deadline" : [ 12, 55 ],
    "skills" : [ {
      "id" : 6,
      "name" : "CARPENTRY",
      "level" : 2
    }, {
      "id" : 0,
      "name" : "MANAGEMENT",
      "level" : 4
    } ],
    "duration" : 1800.000000000,
    "pause" : false
  }, {
    "id" : 862,
    "desc" : "MASONRY, MANAGEMENT",
    "location" : {
      "id" : 8324,
      "name" : null,
      "latitude" : 43.787743,
      "longitude" : 3.9220726
    },
    "openings" : {
      "start" : [ 9, 1 ],
      "end" : [ 12, 59 ]
    },
    "preferredSlots" : null,
    "doAfter" : null,
    "nbEmpRequired" : 1,
    "deadline" : [ 9, 36 ],
    "skills" : [ {
      "id" : 4,
      "name" : "MASONRY",
      "level" : 5
    }, {
      "id" : 0,
      "name" : "MANAGEMENT",
      "level" : 1
    } ],
    "duration" : 1800.000000000,
    "pause" : false
  }, {
    "id" : 706,
    "desc" : "IRONWORK",
    "location" : {
      "id" : 692,
      "name" : null,
      "latitude" : 43.95872,
      "longitude" : 3.7322688
    },
    "openings" : {
      "start" : [ 10, 38 ],
      "end" : [ 17, 26 ]
    },
    "preferredSlots" : null,
    "doAfter" : null,
    "nbEmpRequired" : 1,
    "deadline" : [ 16, 43 ],
    "skills" : [ {
      "id" : 8,
      "name" : "IRONWORK",
      "level" : 1
    } ],
    "duration" : 1800.000000000,
    "pause" : false
  }, {
    "id" : 606,
    "desc" : "CARPENTRY",
    "location" : {
      "id" : 3048,
      "name" : null,
      "latitude" : 43.503006,
      "longitude" : 3.8602872
    },
    "openings" : {
      "start" : [ 9, 44 ],
      "end" : [ 13, 10 ]
    },
    "preferredSlots" : null,
    "doAfter" : null,
    "nbEmpRequired" : 1,
    "deadline" : [ 11, 51 ],
    "skills" : [ {
      "id" : 6,
      "name" : "CARPENTRY",
      "level" : 1
    } ],
    "duration" : 1800.000000000,
    "pause" : false
  }, {
    "id" : 54,
    "desc" : "MANAGEMENT, IRONWORK",
    "location" : {
      "id" : 2162,
      "name" : null,
      "latitude" : 43.962418,
      "longitude" : 3.8711593
    },
    "openings" : {
      "start" : [ 10, 8 ],
      "end" : [ 14, 38 ]
    },
    "preferredSlots" : null,
    "doAfter" : null,
    "nbEmpRequired" : 1,
    "deadline" : [ 12, 32 ],
    "skills" : [ {
      "id" : 0,
      "name" : "MANAGEMENT",
      "level" : 1
    }, {
      "id" : 8,
      "name" : "IRONWORK",
      "level" : 2
    } ],
    "duration" : 1800.000000000,
    "pause" : false
  }, {
    "id" : 266,
    "desc" : "PLUMBING, MASONRY",
    "location" : {
      "id" : 2375,
      "name" : null,
      "latitude" : 43.685814,
      "longitude" : 3.8951278
    },
    "openings" : {
      "start" : [ 11, 42 ],
      "end" : [ 14, 38 ]
    },
    "preferredSlots" : null,
    "doAfter" : null,
    "nbEmpRequired" : 1,
    "deadline" : [ 9, 13 ],
    "skills" : [ {
      "id" : 3,
      "name" : "PLUMBING",
      "level" : 4
    }, {
      "id" : 4,
      "name" : "MASONRY",
      "level" : 4
    } ],
    "duration" : 1800.000000000,
    "pause" : false
  }, {
    "id" : 100,
    "desc" : "IRONWORK",
    "location" : {
      "id" : 1084,
      "name" : null,
      "latitude" : 43.71114,
      "longitude" : 4.000337
    },
    "openings" : {
      "start" : [ 14, 21 ],
      "end" : [ 15, 57 ]
    },
    "preferredSlots" : null,
    "doAfter" : null,
    "nbEmpRequired" : 1,
    "deadline" : [ 12, 13 ],
    "skills" : [ {
      "id" : 8,
      "name" : "IRONWORK",
      "level" : 5
    } ],
    "duration" : 2700.000000000,
    "pause" : false
  }, {
    "id" : 582,
    "desc" : "PAINTING, MASONRY",
    "location" : {
      "id" : 8640,
      "name" : null,
      "latitude" : 43.948036,
      "longitude" : 3.7343235
    },
    "openings" : {
      "start" : [ 9, 26 ],
      "end" : [ 15, 34 ]
    },
    "preferredSlots" : null,
    "doAfter" : null,
    "nbEmpRequired" : 1,
    "deadline" : [ 11, 7 ],
    "skills" : [ {
      "id" : 7,
      "name" : "PAINTING",
      "level" : 3
    }, {
      "id" : 4,
      "name" : "MASONRY",
      "level" : 1
    } ],
    "duration" : 2700.000000000,
    "pause" : false
  }, {
    "id" : 845,
    "desc" : "GLAZING, ENGINEER",
    "location" : {
      "id" : 7442,
      "name" : null,
      "latitude" : 43.496998,
      "longitude" : 4.1061277
    },
    "openings" : {
      "start" : [ 16, 20 ],
      "end" : [ 17, 42 ]
    },
    "preferredSlots" : null,
    "doAfter" : null,
    "nbEmpRequired" : 1,
    "deadline" : [ 17, 27 ],
    "skills" : [ {
      "id" : 5,
      "name" : "GLAZING",
      "level" : 3
    }, {
      "id" : 1,
      "name" : "ENGINEER",
      "level" : 5
    } ],
    "duration" : 2700.000000000,
    "pause" : false
  }, {
    "id" : 376,
    "desc" : "IRONWORK",
    "location" : {
      "id" : 70,
      "name" : null,
      "latitude" : 43.455532,
      "longitude" : 4.11382
    },
    "openings" : {
      "start" : [ 12, 46 ],
      "end" : [ 14, 16 ]
    },
    "preferredSlots" : null,
    "doAfter" : null,
    "nbEmpRequired" : 1,
    "deadline" : [ 11, 6 ],
    "skills" : [ {
      "id" : 8,
      "name" : "IRONWORK",
      "level" : 3
    } ],
    "duration" : 2700.000000000,
    "pause" : false
  }, {
    "id" : 75,
    "desc" : "PAINTING, GLAZING",
    "location" : {
      "id" : 5169,
      "name" : null,
      "latitude" : 43.45318,
      "longitude" : 3.8565269
    },
    "openings" : {
      "start" : [ 9, 13 ],
      "end" : [ 16, 51 ]
    },
    "preferredSlots" : null,
    "doAfter" : null,
    "nbEmpRequired" : 1,
    "deadline" : [ 14, 24 ],
    "skills" : [ {
      "id" : 7,
      "name" : "PAINTING",
      "level" : 3
    }, {
      "id" : 5,
      "name" : "GLAZING",
      "level" : 3
    } ],
    "duration" : 2700.000000000,
    "pause" : false
  }, {
    "id" : 471,
    "desc" : "PLUMBING",
    "location" : {
      "id" : 9144,
      "name" : null,
      "latitude" : 43.64369,
      "longitude" : 4.1153955
    },
    "openings" : {
      "start" : [ 9, 40 ],
      "end" : [ 12, 43 ]
    },
    "preferredSlots" : null,
    "doAfter" : null,
    "nbEmpRequired" : 1,
    "deadline" : [ 10, 22 ],
    "skills" : [ {
      "id" : 3,
      "name" : "PLUMBING",
      "level" : 4
    } ],
    "duration" : 2700.000000000,
    "pause" : false
  }, {
    "id" : 517,
    "desc" : "PAINTING, ENGINEER",
    "location" : {
      "id" : 1120,
      "name" : null,
      "latitude" : 44.05052,
      "longitude" : 4.0383205
    },
    "openings" : {
      "start" : [ 10, 48 ],
      "end" : [ 16, 43 ]
    },
    "preferredSlots" : null,
    "doAfter" : null,
    "nbEmpRequired" : 1,
    "deadline" : [ 12, 53 ],
    "skills" : [ {
      "id" : 7,
      "name" : "PAINTING",
      "level" : 2
    }, {
      "id" : 1,
      "name" : "ENGINEER",
      "level" : 2
    } ],
    "duration" : 2700.000000000,
    "pause" : false
  }, {
    "id" : 519,
    "desc" : "CARPENTRY, PLUMBING",
    "location" : {
      "id" : 5151,
      "name" : null,
      "latitude" : 43.805847,
      "longitude" : 3.7151532
    },
    "openings" : {
      "start" : [ 14, 31 ],
      "end" : [ 17, 3 ]
    },
    "preferredSlots" : null,
    "doAfter" : null,
    "nbEmpRequired" : 1,
    "deadline" : [ 13, 6 ],
    "skills" : [ {
      "id" : 6,
      "name" : "CARPENTRY",
      "level" : 5
    }, {
      "id" : 3,
      "name" : "PLUMBING",
      "level" : 5
    } ],
    "duration" : 2700.000000000,
    "pause" : false
  }, {
    "id" : 763,
    "desc" : "ELECTRICIAN, PAINTING",
    "location" : {
      "id" : 4752,
      "name" : null,
      "latitude" : 43.537407,
      "longitude" : 4.2356052
    },
    "openings" : {
      "start" : [ 13, 48 ],
      "end" : [ 14, 25 ]
    },
    "preferredSlots" : null,
    "doAfter" : null,
    "nbEmpRequired" : 1,
    "deadline" : [ 16, 42 ],
    "skills" : [ {
      "id" : 2,
      "name" : "ELECTRICIAN",
      "level" : 4
    }, {
      "id" : 7,
      "name" : "PAINTING",
      "level" : 4
    } ],
    "duration" : 2700.000000000,
    "pause" : false
  }, {
    "id" : 714,
    "desc" : "MASONRY",
    "location" : {
      "id" : 7396,
      "name" : null,
      "latitude" : 43.503586,
      "longitude" : 3.7590554
    },
    "openings" : {
      "start" : [ 11, 1 ],
      "end" : [ 14, 57 ]
    },
    "preferredSlots" : null,
    "doAfter" : null,
    "nbEmpRequired" : 1,
    "deadline" : [ 15, 51 ],
    "skills" : [ {
      "id" : 4,
      "name" : "MASONRY",
      "level" : 2
    } ],
    "duration" : 3600.000000000,
    "pause" : false
  }, {
    "id" : 879,
    "desc" : "ENGINEER",
    "location" : {
      "id" : 3060,
      "name" : null,
      "latitude" : 43.712334,
      "longitude" : 4.2864976
    },
    "openings" : {
      "start" : [ 10, 16 ],
      "end" : [ 12, 32 ]
    },
    "preferredSlots" : null,
    "doAfter" : null,
    "nbEmpRequired" : 1,
    "deadline" : [ 17, 54 ],
    "skills" : [ {
      "id" : 1,
      "name" : "ENGINEER",
      "level" : 2
    } ],
    "duration" : 3600.000000000,
    "pause" : false
  }, {
    "id" : 300,
    "desc" : "CARPENTRY, GLAZING",
    "location" : {
      "id" : 5621,
      "name" : null,
      "latitude" : 44.09354,
      "longitude" : 3.7277522
    },
    "openings" : {
      "start" : [ 10, 57 ],
      "end" : [ 13, 23 ]
    },
    "preferredSlots" : null,
    "doAfter" : null,
    "nbEmpRequired" : 1,
    "deadline" : [ 17, 1 ],
    "skills" : [ {
      "id" : 6,
      "name" : "CARPENTRY",
      "level" : 1
    }, {
      "id" : 5,
      "name" : "GLAZING",
      "level" : 1
    } ],
    "duration" : 3600.000000000,
    "pause" : false
  }, {
    "id" : 596,
    "desc" : "PAINTING, IRONWORK",
    "location" : {
      "id" : 4941,
      "name" : null,
      "latitude" : 43.785255,
      "longitude" : 3.8437817
    },
    "openings" : {
      "start" : [ 10, 47 ],
      "end" : [ 13, 3 ]
    },
    "preferredSlots" : null,
    "doAfter" : null,
    "nbEmpRequired" : 1,
    "deadline" : [ 13, 37 ],
    "skills" : [ {
      "id" : 7,
      "name" : "PAINTING",
      "level" : 2
    }, {
      "id" : 8,
      "name" : "IRONWORK",
      "level" : 2
    } ],
    "duration" : 3600.000000000,
    "pause" : false
  }, {
    "id" : 71,
    "desc" : "PLUMBING, GLAZING",
    "location" : {
      "id" : 9244,
      "name" : null,
      "latitude" : 43.68766,
      "longitude" : 3.744994
    },
    "openings" : {
      "start" : [ 16, 2 ],
      "end" : [ 16, 13 ]
    },
    "preferredSlots" : null,
    "doAfter" : null,
    "nbEmpRequired" : 1,
    "deadline" : [ 11, 13 ],
    "skills" : [ {
      "id" : 3,
      "name" : "PLUMBING",
      "level" : 3
    }, {
      "id" : 5,
      "name" : "GLAZING",
      "level" : 2
    } ],
    "duration" : 3600.000000000,
    "pause" : false
  }, {
    "id" : 66,
    "desc" : "ENGINEER",
    "location" : {
      "id" : 681,
      "name" : null,
      "latitude" : 43.839695,
      "longitude" : 4.0230184
    },
    "openings" : {
      "start" : [ 12, 35 ],
      "end" : [ 16, 17 ]
    },
    "preferredSlots" : null,
    "doAfter" : null,
    "nbEmpRequired" : 1,
    "deadline" : [ 15, 14 ],
    "skills" : [ {
      "id" : 1,
      "name" : "ENGINEER",
      "level" : 4
    } ],
    "duration" : 3600.000000000,
    "pause" : false
  }, {
    "id" : 71,
    "desc" : "MANAGEMENT, PAINTING",
    "location" : {
      "id" : 6669,
      "name" : null,
      "latitude" : 43.63018,
      "longitude" : 3.9262092
    },
    "openings" : {
      "start" : [ 9, 56 ],
      "end" : [ 12, 54 ]
    },
    "preferredSlots" : null,
    "doAfter" : null,
    "nbEmpRequired" : 1,
    "deadline" : [ 17, 4 ],
    "skills" : [ {
      "id" : 0,
      "name" : "MANAGEMENT",
      "level" : 4
    }, {
      "id" : 7,
      "name" : "PAINTING",
      "level" : 4
    } ],
    "duration" : 3600.000000000,
    "pause" : false
  }, {
    "id" : 11,
    "desc" : "CARPENTRY, GLAZING",
    "location" : {
      "id" : 8633,
      "name" : null,
      "latitude" : 43.588047,
      "longitude" : 3.8300736
    },
    "openings" : {
      "start" : [ 11, 48 ],
      "end" : [ 14, 25 ]
    },
    "preferredSlots" : null,
    "doAfter" : null,
    "nbEmpRequired" : 1,
    "deadline" : [ 11, 36 ],
    "skills" : [ {
      "id" : 6,
      "name" : "CARPENTRY",
      "level" : 5
    }, {
      "id" : 5,
      "name" : "GLAZING",
      "level" : 4
    } ],
    "duration" : 3600.000000000,
    "pause" : false
  }, {
    "id" : 233,
    "desc" : "CARPENTRY",
    "location" : {
      "id" : 8192,
      "name" : null,
      "latitude" : 44.03791,
      "longitude" : 3.8205566
    },
    "openings" : {
      "start" : [ 11, 21 ],
      "end" : [ 16, 1 ]
    },
    "preferredSlots" : null,
    "doAfter" : null,
    "nbEmpRequired" : 1,
    "deadline" : [ 9, 40 ],
    "skills" : [ {
      "id" : 6,
      "name" : "CARPENTRY",
      "level" : 5
    } ],
    "duration" : 3600.000000000,
    "pause" : false
  }, {
    "id" : 807,
    "desc" : "TILER, MANAGEMENT",
    "location" : {
      "id" : 1067,
      "name" : null,
      "latitude" : 43.518257,
      "longitude" : 3.974963
    },
    "openings" : {
      "start" : [ 12, 13 ],
      "end" : [ 13, 55 ]
    },
    "preferredSlots" : null,
    "doAfter" : null,
    "nbEmpRequired" : 1,
    "deadline" : [ 12, 28 ],
    "skills" : [ {
      "id" : 9,
      "name" : "TILER",
      "level" : 1
    }, {
      "id" : 0,
      "name" : "MANAGEMENT",
      "level" : 1
    } ],
    "duration" : 3600.000000000,
    "pause" : false
  }, {
    "id" : 828,
    "desc" : "MASONRY",
    "location" : {
      "id" : 8055,
      "name" : null,
      "latitude" : 43.595936,
      "longitude" : 4.0679407
    },
    "openings" : {
      "start" : [ 13, 22 ],
      "end" : [ 13, 47 ]
    },
    "preferredSlots" : null,
    "doAfter" : null,
    "nbEmpRequired" : 1,
    "deadline" : [ 13, 44 ],
    "skills" : [ {
      "id" : 4,
      "name" : "MASONRY",
      "level" : 3
    } ],
    "duration" : 3600.000000000,
    "pause" : false
  }, {
    "id" : 309,
    "desc" : "PLUMBING, TILER",
    "location" : {
      "id" : 2515,
      "name" : null,
      "latitude" : 43.99003,
      "longitude" : 4.255336
    },
    "openings" : {
      "start" : [ 9, 34 ],
      "end" : [ 15, 54 ]
    },
    "preferredSlots" : null,
    "doAfter" : null,
    "nbEmpRequired" : 1,
    "deadline" : [ 14, 24 ],
    "skills" : [ {
      "id" : 3,
      "name" : "PLUMBING",
      "level" : 5
    }, {
      "id" : 9,
      "name" : "TILER",
      "level" : 2
    } ],
    "duration" : 3600.000000000,
    "pause" : false
  }, {
    "id" : 249,
    "desc" : "GLAZING, ELECTRICIAN",
    "location" : {
      "id" : 6976,
      "name" : null,
      "latitude" : 43.93122,
      "longitude" : 3.888844
    },
    "openings" : {
      "start" : [ 14, 20 ],
      "end" : [ 14, 43 ]
    },
    "preferredSlots" : null,
    "doAfter" : null,
    "nbEmpRequired" : 1,
    "deadline" : [ 14, 12 ],
    "skills" : [ {
      "id" : 5,
      "name" : "GLAZING",
      "level" : 3
    }, {
      "id" : 2,
      "name" : "ELECTRICIAN",
      "level" : 3
    } ],
    "duration" : 3600.000000000,
    "pause" : false
  }, {
    "id" : 797,
    "desc" : "ENGINEER, MASONRY",
    "location" : {
      "id" : 757,
      "name" : null,
      "latitude" : 43.631786,
      "longitude" : 4.282594
    },
    "openings" : {
      "start" : [ 14, 28 ],
      "end" : [ 15, 10 ]
    },
    "preferredSlots" : null,
    "doAfter" : null,
    "nbEmpRequired" : 1,
    "deadline" : [ 9, 39 ],
    "skills" : [ {
      "id" : 1,
      "name" : "ENGINEER",
      "level" : 1
    }, {
      "id" : 4,
      "name" : "MASONRY",
      "level" : 1
    } ],
    "duration" : 3600.000000000,
    "pause" : false
  }, {
    "id" : 495,
    "desc" : "MANAGEMENT",
    "location" : {
      "id" : 8331,
      "name" : null,
      "latitude" : 43.67147,
      "longitude" : 4.2906976
    },
    "openings" : {
      "start" : [ 16, 13 ],
      "end" : [ 16, 59 ]
    },
    "preferredSlots" : null,
    "doAfter" : null,
    "nbEmpRequired" : 1,
    "deadline" : [ 16, 38 ],
    "skills" : [ {
      "id" : 0,
      "name" : "MANAGEMENT",
      "level" : 5
    } ],
    "duration" : 5400.000000000,
    "pause" : false
  }, {
    "id" : 969,
    "desc" : "TILER, MANAGEMENT",
    "location" : {
      "id" : 4961,
      "name" : null,
      "latitude" : 43.46723,
      "longitude" : 3.7259192
    },
    "openings" : {
      "start" : [ 12, 1 ],
      "end" : [ 12, 50 ]
    },
    "preferredSlots" : null,
    "doAfter" : null,
    "nbEmpRequired" : 1,
    "deadline" : [ 10, 58 ],
    "skills" : [ {
      "id" : 9,
      "name" : "TILER",
      "level" : 2
    }, {
      "id" : 0,
      "name" : "MANAGEMENT",
      "level" : 4
    } ],
    "duration" : 5400.000000000,
    "pause" : false
  }, {
    "id" : 166,
    "desc" : "TILER",
    "location" : {
      "id" : 805,
      "name" : null,
      "latitude" : 44.047714,
      "longitude" : 4.1132917
    },
    "openings" : {
      "start" : [ 10, 38 ],
      "end" : [ 15, 41 ]
    },
    "preferredSlots" : null,
    "doAfter" : null,
    "nbEmpRequired" : 1,
    "deadline" : [ 9, 10 ],
    "skills" : [ {
      "id" : 9,
      "name" : "TILER",
      "level" : 1
    } ],
    "duration" : 5400.000000000,
    "pause" : false
  }, {
    "id" : 390,
    "desc" : "IRONWORK",
    "location" : {
      "id" : 2279,
      "name" : null,
      "latitude" : 44.047974,
      "longitude" : 4.2463026
    },
    "openings" : {
      "start" : [ 12, 35 ],
      "end" : [ 16, 42 ]
    },
    "preferredSlots" : null,
    "doAfter" : null,
    "nbEmpRequired" : 1,
    "deadline" : [ 14, 58 ],
    "skills" : [ {
      "id" : 8,
      "name" : "IRONWORK",
      "level" : 1
    } ],
    "duration" : 5400.000000000,
    "pause" : false
  }, {
    "id" : 774,
    "desc" : "GLAZING",
    "location" : {
      "id" : 8476,
      "name" : null,
      "latitude" : 44.070576,
      "longitude" : 4.2705746
    },
    "openings" : {
      "start" : [ 9, 1 ],
      "end" : [ 10, 23 ]
    },
    "preferredSlots" : null,
    "doAfter" : null,
    "nbEmpRequired" : 1,
    "deadline" : [ 11, 15 ],
    "skills" : [ {
      "id" : 5,
      "name" : "GLAZING",
      "level" : 1
    } ],
    "duration" : 5400.000000000,
    "pause" : false
  }, {
    "id" : 908,
    "desc" : "CARPENTRY, MASONRY",
    "location" : {
      "id" : 2738,
      "name" : null,
      "latitude" : 44.024883,
      "longitude" : 3.9831767
    },
    "openings" : {
      "start" : [ 12, 50 ],
      "end" : [ 17, 30 ]
    },
    "preferredSlots" : null,
    "doAfter" : null,
    "nbEmpRequired" : 1,
    "deadline" : [ 15, 10 ],
    "skills" : [ {
      "id" : 6,
      "name" : "CARPENTRY",
      "level" : 2
    }, {
      "id" : 4,
      "name" : "MASONRY",
      "level" : 2
    } ],
    "duration" : 5400.000000000,
    "pause" : false
  }, {
    "id" : 746,
    "desc" : "PLUMBING, ELECTRICIAN",
    "location" : {
      "id" : 1820,
      "name" : null,
      "latitude" : 43.87944,
      "longitude" : 4.0223737
    },
    "openings" : {
      "start" : [ 11, 48 ],
      "end" : [ 15, 10 ]
    },
    "preferredSlots" : null,
    "doAfter" : null,
    "nbEmpRequired" : 1,
    "deadline" : [ 11, 22 ],
    "skills" : [ {
      "id" : 3,
      "name" : "PLUMBING",
      "level" : 2
    }, {
      "id" : 2,
      "name" : "ELECTRICIAN",
      "level" : 5
    } ],
    "duration" : 5400.000000000,
    "pause" : false
  }, {
    "id" : 314,
    "desc" : "PLUMBING",
    "location" : {
      "id" : 2327,
      "name" : null,
      "latitude" : 43.95224,
      "longitude" : 4.2226195
    },
    "openings" : {
      "start" : [ 14, 7 ],
      "end" : [ 16, 58 ]
    },
    "preferredSlots" : null,
    "doAfter" : null,
    "nbEmpRequired" : 1,
    "deadline" : [ 10, 29 ],
    "skills" : [ {
      "id" : 3,
      "name" : "PLUMBING",
      "level" : 5
    } ],
    "duration" : 5400.000000000,
    "pause" : false
  }, {
    "id" : 137,
    "desc" : "TILER",
    "location" : {
      "id" : 1535,
      "name" : null,
      "latitude" : 43.595104,
      "longitude" : 3.9111462
    },
    "openings" : {
      "start" : [ 10, 39 ],
      "end" : [ 14, 56 ]
    },
    "preferredSlots" : null,
    "doAfter" : null,
    "nbEmpRequired" : 1,
    "deadline" : [ 16, 42 ],
    "skills" : [ {
      "id" : 9,
      "name" : "TILER",
      "level" : 1
    } ],
    "duration" : 5400.000000000,
    "pause" : false
  }, {
    "id" : 319,
    "desc" : "PLUMBING, ENGINEER",
    "location" : {
      "id" : 4242,
      "name" : null,
      "latitude" : 43.494198,
      "longitude" : 3.9656856
    },
    "openings" : {
      "start" : [ 9, 53 ],
      "end" : [ 10, 54 ]
    },
    "preferredSlots" : null,
    "doAfter" : null,
    "nbEmpRequired" : 1,
    "deadline" : [ 10, 28 ],
    "skills" : [ {
      "id" : 3,
      "name" : "PLUMBING",
      "level" : 3
    }, {
      "id" : 1,
      "name" : "ENGINEER",
      "level" : 3
    } ],
    "duration" : 5400.000000000,
    "pause" : false
  }, {
    "id" : 243,
    "desc" : "CARPENTRY, ENGINEER",
    "location" : {
      "id" : 8130,
      "name" : null,
      "latitude" : 43.754494,
      "longitude" : 4.0947604
    },
    "openings" : {
      "start" : [ 11, 52 ],
      "end" : [ 12, 17 ]
    },
    "preferredSlots" : null,
    "doAfter" : null,
    "nbEmpRequired" : 1,
    "deadline" : [ 12, 58 ],
    "skills" : [ {
      "id" : 6,
      "name" : "CARPENTRY",
      "level" : 4
    }, {
      "id" : 1,
      "name" : "ENGINEER",
      "level" : 3
    } ],
    "duration" : 5400.000000000,
    "pause" : false
  }, {
    "id" : 115,
    "desc" : "CARPENTRY",
    "location" : {
      "id" : 2253,
      "name" : null,
      "latitude" : 43.459347,
      "longitude" : 4.1472487
    },
    "openings" : {
      "start" : [ 16, 18 ],
      "end" : [ 17, 16 ]
    },
    "preferredSlots" : null,
    "doAfter" : null,
    "nbEmpRequired" : 1,
    "deadline" : [ 12, 17 ],
    "skills" : [ {
      "id" : 6,
      "name" : "CARPENTRY",
      "level" : 1
    } ],
    "duration" : 7200.000000000,
    "pause" : false
  } ],
  "valid" : true
}