{
  "listEdt" : [ {
    "emp" : {
      "id" : 466,
      "name" : "466",
      "shifts" : [ {
        "start" : [ 9, 0 ],
        "end" : [ 12, 0 ]
      }, {
        "start" : [ 13, 0 ],
        "end" : [ 17, 0 ]
      } ],
      "prefSlots" : null,
      "startingLoc" : {
        "id" : 9102,
        "name" : null,
        "latitude" : 44.02668,
        "longitude" : 4.215402
      },
      "skills" : [ {
        "id" : 5,
        "name" : "GLAZING",
        "level" : 9
      }, {
        "id" : 8,
        "name" : "IRONWORK",
        "level" : 4
      }, {
        "id" : 5,
        "name" : "GLAZING",
        "level" : 6
      }, {
        "id" : 0,
        "name" : "MANAGEMENT",
        "level" : 1
      }, {
        "id" : 8,
        "name" : "IRONWORK",
        "level" : 10
      }, {
        "id" : 1,
        "name" : "ENGINEER",
        "level" : 10
      }, {
        "id" : 6,
        "name" : "CARPENTRY",
        "level" : 5
      }, {
        "id" : 3,
        "name" : "PLUMBING",
        "level" : 7
      }, {
        "id" : 5,
        "name" : "GLAZING",
        "level" : 3
      }, {
        "id" : 6,
        "name" : "CARPENTRY",
        "level" : 3
      } ]
    },
    "planning" : [ {
      "job" : {
        "id" : -1,
        "desc" : "Home",
        "location" : {
          "id" : 9102,
          "name" : null,
          "latitude" : 44.02668,
          "longitude" : 4.215402
        },
        "openings" : null,
        "preferredSlots" : null,
        "doAfter" : null,
        "nbEmpRequired" : 1,
        "deadline" : null,
        "skills" : [ ],
        "duration" : null,
        "pause" : true
      },
      "window" : {
        "start" : [ 9, 0 ],
        "end" : [ 9, 0 ]
      }
    }, {
      "job" : {
        "id" : 253,
        "desc" : "ENGINEER",
        "location" : {
          "id" : 7145,
          "name" : null,
          "latitude" : 43.951103,
          "longitude" : 3.81231
        },
        "openings" : {
          "start" : [ 10, 22 ],
          "end" : [ 13, 30 ]
        },
        "preferredSlots" : null,
        "doAfter" : null,
        "nbEmpRequired" : 1,
        "deadline" : [ 10, 5 ],
        "skills" : [ {
          "id" : 1,
          "name" : "ENGINEER",
          "level" : 3
        } ],
        "duration" : 1800.000000000,
        "pause" : false
      },
      "window" : {
        "start" : [ 9, 34 ],
        "end" : [ 10, 4 ]
      }
    }, {
      "job" : {
        "id" : 528,
        "desc" : "PLUMBING, CARPENTRY",
        "location" : {
          "id" : 7175,
          "name" : null,
          "latitude" : 43.461315,
          "longitude" : 4.087908
        },
        "openings" : {
          "start" : [ 14, 30 ],
          "end" : [ 17, 51 ]
        },
        "preferredSlots" : null,
        "doAfter" : null,
        "nbEmpRequired" : 1,
        "deadline" : [ 10, 2 ],
        "skills" : [ {
          "id" : 3,
          "name" : "PLUMBING",
          "level" : 3
        }, {
          "id" : 6,
          "name" : "CARPENTRY",
          "level" : 3
        } ],
        "duration" : 1800.000000000,
        "pause" : false
      },
      "window" : {
        "start" : [ 11, 3 ],
        "end" : [ 11, 33 ]
      }
    }, {
      "job" : {
        "id" : -1,
        "desc" : "Pause",
        "location" : {
          "id" : 7175,
          "name" : null,
          "latitude" : 43.461315,
          "longitude" : 4.087908
        },
        "openings" : {
          "start" : [ 14, 30 ],
          "end" : [ 17, 51 ]
        },
        "preferredSlots" : null,
        "doAfter" : null,
        "nbEmpRequired" : 1,
        "deadline" : [ 10, 2 ],
        "skills" : [ {
          "id" : 3,
          "name" : "PLUMBING",
          "level" : 3
        }, {
          "id" : 6,
          "name" : "CARPENTRY",
          "level" : 3
        } ],
        "duration" : 1800.000000000,
        "pause" : true
      },
      "window" : {
        "start" : [ 11, 34 ],
        "end" : [ 13, 0 ]
      }
    }, {
      "job" : {
        "id" : 573,
        "desc" : "GLAZING, ENGINEER",
        "location" : {
          "id" : 6980,
          "name" : null,
          "latitude" : 44.074883,
          "longitude" : 3.898603
        },
        "openings" : {
          "start" : [ 9, 10 ],
          "end" : [ 11, 0 ]
        },
        "preferredSlots" : null,
        "doAfter" : null,
        "nbEmpRequired" : 1,
        "deadline" : [ 17, 0 ],
        "skills" : [ {
          "id" : 5,
          "name" : "GLAZING",
          "level" : 2
        }, {
          "id" : 1,
          "name" : "ENGINEER",
          "level" : 3
        } ],
        "duration" : 3600.000000000,
        "pause" : false
      },
      "window" : {
        "start" : [ 14, 10 ],
        "end" : [ 15, 10 ]
      }
    }, {
      "job" : {
        "id" : 580,
        "desc" : "CARPENTRY",
        "location" : {
          "id" : 2446,
          "name" : null,
          "latitude" : 43.657608,
          "longitude" : 4.126134
        },
        "openings" : {
          "start" : [ 11, 59 ],
          "end" : [ 13, 32 ]
        },
        "preferredSlots" : null,
        "doAfter" : null,
        "nbEmpRequired" : 1,
        "deadline" : [ 14, 12 ],
        "skills" : [ {
          "id" : 6,
          "name" : "CARPENTRY",
          "level" : 2
        } ],
        "duration" : 3600.000000000,
        "pause" : false
      },
      "window" : {
        "start" : [ 16, 0 ],
        "end" : [ 17, 0 ]
      }
    } ],
    "driving" : 12780.000000000,
    "valid" : true
  }, {
    "emp" : {
      "id" : 418,
      "name" : "418",
      "shifts" : [ {
        "start" : [ 9, 0 ],
        "end" : [ 12, 0 ]
      }, {
        "start" : [ 13, 0 ],
        "end" : [ 17, 0 ]
      } ],
      "prefSlots" : null,
      "startingLoc" : {
        "id" : 941,
        "name" : null,
        "latitude" : 43.859764,
        "longitude" : 4.0927978
      },
      "skills" : [ {
        "id" : 0,
        "name" : "MANAGEMENT",
        "level" : 8
      } ]
    },
    "planning" : [ {
      "job" : {
        "id" : -1,
        "desc" : "Home",
        "location" : {
          "id" : 941,
          "name" : null,
          "latitude" : 43.859764,
          "longitude" : 4.0927978
        },
        "openings" : null,
        "preferredSlots" : null,
        "doAfter" : null,
        "nbEmpRequired" : 1,
        "deadline" : null,
        "skills" : [ ],
        "duration" : null,
        "pause" : true
      },
      "window" : {
        "start" : [ 9, 0 ],
        "end" : [ 9, 0 ]
      }
    }, {
      "job" : {
        "id" : -1,
        "desc" : "Pause",
        "location" : {
          "id" : 941,
          "name" : null,
          "latitude" : 43.859764,
          "longitude" : 4.0927978
        },
        "openings" : null,
        "preferredSlots" : null,
        "doAfter" : null,
        "nbEmpRequired" : 1,
        "deadline" : null,
        "skills" : [ ],
        "duration" : null,
        "pause" : true
      },
      "window" : {
        "start" : [ 9, 1 ],
        "end" : [ 13, 0 ]
      }
    } ],
    "driving" : 0.0,
    "valid" : true
  } ],
  "unassigned" : [ {
    "id" : 60,
    "desc" : "MANAGEMENT, MASONRY",
    "location" : {
      "id" : 2677,
      "name" : null,
      "latitude" : 43.611004,
      "longitude" : 3.8181622
    },
    "openings" : {
      "start" : [ 12, 32 ],
      "end" : [ 16, 13 ]
    },
    "preferredSlots" : null,
    "doAfter" : null,
    "nbEmpRequired" : 1,
    "deadline" : [ 11, 39 ],
    "skills" : [ {
      "id" : 0,
      "name" : "MANAGEMENT",
      "level" : 3
    }, {
      "id" : 4,
      "name" : "MASONRY",
      "level" : 3
    } ],
    "duration" : 1800.000000000,
    "pause" : false
  }, {
    "id" : 733,
    "desc" : "ELECTRICIAN",
    "location" : {
      "id" : 4687,
      "name" : null,
      "latitude" : 43.642616,
      "longitude" : 3.8232613
    },
    "openings" : {
      "start" : [ 13, 26 ],
      "end" : [ 13, 48 ]
    },
    "preferredSlots" : null,
    "doAfter" : null,
    "nbEmpRequired" : 1,
    "deadline" : [ 14, 55 ],
    "skills" : [ {
      "id" : 2,
      "name" : "ELECTRICIAN",
      "level" : 2
    } ],
    "duration" : 2700.000000000,
    "pause" : false
  }, {
    "id" : 675,
    "desc" : "PAINTING, IRONWORK",
    "location" : {
      "id" : 9353,
      "name" : null,
      "latitude" : 43.875626,
      "longitude" : 4.093084
    },
    "openings" : {
      "start" : [ 9, 33 ],
      "end" : [ 14, 3 ]
    },
    "preferredSlots" : null,
    "doAfter" : null,
    "nbEmpRequired" : 1,
    "deadline" : [ 9, 7 ],
    "skills" : [ {
      "id" : 7,
      "name" : "PAINTING",
      "level" : 3
    }, {
      "id" : 8,
      "name" : "IRONWORK",
      "level" : 5
    } ],
    "duration" : 2700.000000000,
    "pause" : false
  }, {
    "id" : 622,
    "desc" : "MASONRY",
    "location" : {
      "id" : 3924,
      "name" : null,
      "latitude" : 43.59687,
      "longitude" : 4.201448
    },
    "openings" : {
      "start" : [ 14, 1 ],
      "end" : [ 17, 57 ]
    },
    "preferredSlots" : null,
    "doAfter" : null,
    "nbEmpRequired" : 1,
    "deadline" : [ 17, 56 ],
    "skills" : [ {
      "id" : 4,
      "name" : "MASONRY",
      "level" : 3
    } ],
    "duration" : 2700.000000000,
    "pause" : false
  }, {
    "id" : 701,
    "desc" : "TILER, ELECTRICIAN",
    "location" : {
      "id" : 4359,
      "name" : null,
      "latitude" : 43.578056,
      "longitude" : 3.820128
    },
    "openings" : {
      "start" : [ 11, 55 ],
      "end" : [ 15, 6 ]
    },
    "preferredSlots" : null,
    "doAfter" : null,
    "nbEmpRequired" : 1,
    "deadline" : [ 16, 31 ],
    "skills" : [ {
      "id" : 9,
      "name" : "TILER",
      "level" : 5
    }, {
      "id" : 2,
      "name" : "ELECTRICIAN",
      "level" : 3
    } ],
    "duration" : 3600.000000000,
    "pause" : false
  }, {
    "id" : 665,
    "desc" : "CARPENTRY, GLAZING",
    "location" : {
      "id" : 1754,
      "name" : null,
      "latitude" : 43.91824,
      "longitude" : 4.2167897
    },
    "openings" : {
      "start" : [ 10, 17 ],
      "end" : [ 15, 50 ]
    },
    "preferredSlots" : null,
    "doAfter" : null,
    "nbEmpRequired" : 1,
    "deadline" : [ 11, 15 ],
    "skills" : [ {
      "id" : 6,
      "name" : "CARPENTRY",
      "level" : 3
    }, {
      "id" : 5,
      "name" : "GLAZING",
      "level" : 5
    } ],
    "duration" : 3600.000000000,
    "pause" : false
  } ],
  "valid" : true
}