{
  "listEdt" : [ {
    "emp" : {
      "id" : 302,
      "name" : "302",
      "shifts" : [ {
        "start" : [ 9, 0 ],
        "end" : [ 12, 0 ]
      }, {
        "start" : [ 13, 0 ],
        "end" : [ 17, 0 ]
      } ],
      "prefSlots" : null,
      "startingLoc" : {
        "id" : 5912,
        "name" : null,
        "latitude" : 43.691677,
        "longitude" : 3.8123498
      },
      "skills" : [ {
        "id" : 5,
        "name" : "GLAZING",
        "level" : 3
      }, {
        "id" : 2,
        "name" : "ELECTRICIAN",
        "level" : 1
      }, {
        "id" : 4,
        "name" : "MASONRY",
        "level" : 8
      }, {
        "id" : 6,
        "name" : "CARPENTRY",
        "level" : 1
      }, {
        "id" : 4,
        "name" : "MASONRY",
        "level" : 1
      }, {
        "id" : 9,
        "name" : "TILER",
        "level" : 1
      } ]
    },
    "planning" : [ {
      "job" : {
        "id" : -1,
        "desc" : "Home",
        "location" : {
          "id" : 5912,
          "name" : null,
          "latitude" : 43.691677,
          "longitude" : 3.8123498
        },
        "openings" : null,
        "preferredSlots" : null,
        "doAfter" : null,
        "nbEmpRequired" : 1,
        "deadline" : null,
        "skills" : [ ],
        "duration" : null,
        "pause" : true
      },
      "window" : {
        "start" : [ 9, 0 ],
        "end" : [ 9, 0 ]
      }
    }, {
      "job" : {
        "id" : 256,
        "desc" : "GLAZING",
        "location" : {
          "id" : 2128,
          "name" : null,
          "latitude" : 43.822914,
          "longitude" : 4.2514396
        },
        "openings" : {
          "start" : [ 11, 0 ],
          "end" : [ 16, 45 ]
        },
        "preferredSlots" : null,
        "doAfter" : null,
        "nbEmpRequired" : 1,
        "deadline" : [ 14, 39 ],
        "skills" : [ {
          "id" : 5,
          "name" : "GLAZING",
          "level" : 3
        } ],
        "duration" : 2700.000000000,
        "pause" : false
      },
      "window" : {
        "start" : [ 9, 39 ],
        "end" : [ 10, 24 ]
      }
    }, {
      "job" : {
        "id" : 183,
        "desc" : "MASONRY, CARPENTRY",
        "location" : {
          "id" : 1663,
          "name" : null,
          "latitude" : 44.046364,
          "longitude" : 4.149279
        },
        "openings" : {
          "start" : [ 13, 54 ],
          "end" : [ 14, 43 ]
        },
        "preferredSlots" : null,
        "doAfter" : null,
        "nbEmpRequired" : 1,
        "deadline" : [ 14, 4 ],
        "skills" : [ {
          "id" : 4,
          "name" : "MASONRY",
          "level" : 1
        }, {
          "id" : 6,
          "name" : "CARPENTRY",
          "level" : 1
        } ],
        "duration" : 2700.000000000,
        "pause" : false
      },
      "window" : {
        "start" : [ 10, 51 ],
        "end" : [ 11, 36 ]
      }
    }, {
      "job" : {
        "id" : -1,
        "desc" : "Pause",
        "location" : {
          "id" : 1663,
          "name" : null,
          "latitude" : 44.046364,
          "longitude" : 4.149279
        },
        "openings" : {
          "start" : [ 13, 54 ],
          "end" : [ 14, 43 ]
        },
        "preferredSlots" : null,
        "doAfter" : null,
        "nbEmpRequired" : 1,
        "deadline" : [ 14, 4 ],
        "skills" : [ {
          "id" : 4,
          "name" : "MASONRY",
          "level" : 1
        }, {
          "id" : 6,
          "name" : "CARPENTRY",
          "level" : 1
        } ],
        "duration" : 2700.000000000,
        "pause" : true
      },
      "window" : {
        "start" : [ 11, 37 ],
        "end" : [ 13, 0 ]
      }
    }, {
      "job" : {
        "id" : 155,
        "desc" : "GLAZING",
        "location" : {
          "id" : 1041,
          "name" : null,
          "latitude" : 44.04844,
          "longitude" : 4.146352
        },
        "openings" : {
          "start" : [ 15, 1 ],
          "end" : [ 16, 50 ]
        },
        "preferredSlots" : null,
        "doAfter" : null,
        "nbEmpRequired" : 1,
        "deadline" : [ 17, 9 ],
        "skills" : [ {
          "id" : 5,
          "name" : "GLAZING",
          "level" : 3
        } ],
        "duration" : 3600.000000000,
        "pause" : false
      },
      "window" : {
        "start" : [ 13, 1 ],
        "end" : [ 14, 1 ]
      }
    }, {
      "job" : {
        "id" : 468,
        "desc" : "ELECTRICIAN, MASONRY",
        "location" : {
          "id" : 9318,
          "name" : null,
          "latitude" : 43.403076,
          "longitude" : 3.7103944
        },
        "openings" : {
          "start" : [ 16, 43 ],
          "end" : [ 16, 45 ]
        },
        "preferredSlots" : null,
        "doAfter" : null,
        "nbEmpRequired" : 1,
        "deadline" : [ 9, 19 ],
        "skills" : [ {
          "id" : 2,
          "name" : "ELECTRICIAN",
          "level" : 1
        }, {
          "id" : 4,
          "name" : "MASONRY",
          "level" : 2
        } ],
        "duration" : 3600.000000000,
        "pause" : false
      },
      "window" : {
        "start" : [ 15, 21 ],
        "end" : [ 16, 21 ]
      }
    } ],
    "driving" : 8820.000000000,
    "valid" : true
  }, {
    "emp" : {
      "id" : 865,
      "name" : "865",
      "shifts" : [ {
        "start" : [ 9, 0 ],
        "end" : [ 12, 0 ]
      }, {
        "start" : [ 13, 0 ],
        "end" : [ 17, 0 ]
      } ],
      "prefSlots" : null,
      "startingLoc" : {
        "id" : 5605,
        "name" : null,
        "latitude" : 43.829014,
        "longitude" : 4.021407
      },
      "skills" : [ {
        "id" : 7,
        "name" : "PAINTING",
        "level" : 3
      }, {
        "id" : 9,
        "name" : "TILER",
        "level" : 1
      }, {
        "id" : 7,
        "name" : "PAINTING",
        "level" : 5
      } ]
    },
    "planning" : [ {
      "job" : {
        "id" : -1,
        "desc" : "Home",
        "location" : {
          "id" : 5605,
          "name" : null,
          "latitude" : 43.829014,
          "longitude" : 4.021407
        },
        "openings" : null,
        "preferredSlots" : null,
        "doAfter" : null,
        "nbEmpRequired" : 1,
        "deadline" : null,
        "skills" : [ ],
        "duration" : null,
        "pause" : true
      },
      "window" : {
        "start" : [ 9, 0 ],
        "end" : [ 9, 0 ]
      }
    }, {
      "job" : {
        "id" : 535,
        "desc" : "PAINTING",
        "location" : {
          "id" : 599,
          "name" : null,
          "latitude" : 43.939133,
          "longitude" : 4.188262
        },
        "openings" : {
          "start" : [ 14, 23 ],
          "end" : [ 14, 56 ]
        },
        "preferredSlots" : null,
        "doAfter" : null,
        "nbEmpRequired" : 1,
        "deadline" : [ 15, 15 ],
        "skills" : [ {
          "id" : 7,
          "name" : "PAINTING",
          "level" : 2
        } ],
        "duration" : 1800.000000000,
        "pause" : false
      },
      "window" : {
        "start" : [ 9, 19 ],
        "end" : [ 9, 49 ]
      }
    }, {
      "job" : {
        "id" : 84,
        "desc" : "PAINTING",
        "location" : {
          "id" : 8971,
          "name" : null,
          "latitude" : 44.020657,
          "longitude" : 4.215443
        },
        "openings" : {
          "start" : [ 11, 46 ],
          "end" : [ 15, 58 ]
        },
        "preferredSlots" : null,
        "doAfter" : null,
        "nbEmpRequired" : 1,
        "deadline" : [ 9, 1 ],
        "skills" : [ {
          "id" : 7,
          "name" : "PAINTING",
          "level" : 1
        } ],
        "duration" : 2700.000000000,
        "pause" : false
      },
      "window" : {
        "start" : [ 9, 59 ],
        "end" : [ 10, 44 ]
      }
    }, {
      "job" : {
        "id" : -1,
        "desc" : "Pause",
        "location" : {
          "id" : 8971,
          "name" : null,
          "latitude" : 44.020657,
          "longitude" : 4.215443
        },
        "openings" : {
          "start" : [ 11, 46 ],
          "end" : [ 15, 58 ]
        },
        "preferredSlots" : null,
        "doAfter" : null,
        "nbEmpRequired" : 1,
        "deadline" : [ 9, 1 ],
        "skills" : [ {
          "id" : 7,
          "name" : "PAINTING",
          "level" : 1
        } ],
        "duration" : 2700.000000000,
        "pause" : true
      },
      "window" : {
        "start" : [ 10, 45 ],
        "end" : [ 13, 0 ]
      }
    }, {
      "job" : {
        "id" : 818,
        "desc" : "PAINTING",
        "location" : {
          "id" : 6755,
          "name" : null,
          "latitude" : 43.764587,
          "longitude" : 3.9828935
        },
        "openings" : {
          "start" : [ 15, 28 ],
          "end" : [ 15, 29 ]
        },
        "preferredSlots" : null,
        "doAfter" : null,
        "nbEmpRequired" : 1,
        "deadline" : [ 17, 28 ],
        "skills" : [ {
          "id" : 7,
          "name" : "PAINTING",
          "level" : 4
        } ],
        "duration" : 5400.000000000,
        "pause" : false
      },
      "window" : {
        "start" : [ 13, 35 ],
        "end" : [ 15, 5 ]
      }
    }, {
      "job" : {
        "id" : 484,
        "desc" : "PAINTING",
        "location" : {
          "id" : 7609,
          "name" : null,
          "latitude" : 43.778038,
          "longitude" : 4.2812233
        },
        "openings" : {
          "start" : [ 9, 44 ],
          "end" : [ 13, 17 ]
        },
        "preferredSlots" : null,
        "doAfter" : null,
        "nbEmpRequired" : 1,
        "deadline" : [ 14, 1 ],
        "skills" : [ {
          "id" : 7,
          "name" : "PAINTING",
          "level" : 2
        } ],
        "duration" : 5400.000000000,
        "pause" : false
      },
      "window" : {
        "start" : [ 15, 30 ],
        "end" : [ 17, 0 ]
      }
    } ],
    "driving" : 5340.000000000,
    "valid" : true
  }, {
    "emp" : {
      "id" : 526,
      "name" : "526",
      "shifts" : [ {
        "start" : [ 9, 0 ],
        "end" : [ 12, 0 ]
      }, {
        "start" : [ 13, 0 ],
        "end" : [ 17, 0 ]
      } ],
      "prefSlots" : null,
      "startingLoc" : {
        "id" : 908,
        "name" : null,
        "latitude" : 43.503136,
        "longitude" : 4.068061
      },
      "skills" : [ {
        "id" : 7,
        "name" : "PAINTING",
        "level" : 5
      }, {
        "id" : 5,
        "name" : "GLAZING",
        "level" : 2
      }, {
        "id" : 4,
        "name" : "MASONRY",
        "level" : 1
      }, {
        "id" : 1,
        "name" : "ENGINEER",
        "level" : 7
      } ]
    },
    "planning" : [ {
      "job" : {
        "id" : -1,
        "desc" : "Home",
        "location" : {
          "id" : 908,
          "name" : null,
          "latitude" : 43.503136,
          "longitude" : 4.068061
        },
        "openings" : null,
        "preferredSlots" : null,
        "doAfter" : null,
        "nbEmpRequired" : 1,
        "deadline" : null,
        "skills" : [ ],
        "duration" : null,
        "pause" : true
      },
      "window" : {
        "start" : [ 9, 0 ],
        "end" : [ 9, 0 ]
      }
    }, {
      "job" : {
        "id" : 474,
        "desc" : "ENGINEER",
        "location" : {
          "id" : 1117,
          "name" : null,
          "latitude" : 43.43785,
          "longitude" : 3.9280663
        },
        "openings" : {
          "start" : [ 9, 39 ],
          "end" : [ 16, 22 ]
        },
        "preferredSlots" : null,
        "doAfter" : null,
        "nbEmpRequired" : 1,
        "deadline" : [ 17, 39 ],
        "skills" : [ {
          "id" : 1,
          "name" : "ENGINEER",
          "level" : 1
        } ],
        "duration" : 1800.000000000,
        "pause" : false
      },
      "window" : {
        "start" : [ 9, 14 ],
        "end" : [ 9, 44 ]
      }
    }, {
      "job" : {
        "id" : 26,
        "desc" : "PAINTING, MASONRY",
        "location" : {
          "id" : 5435,
          "name" : null,
          "latitude" : 44.088024,
          "longitude" : 4.0573287
        },
        "openings" : {
          "start" : [ 9, 28 ],
          "end" : [ 13, 16 ]
        },
        "preferredSlots" : null,
        "doAfter" : null,
        "nbEmpRequired" : 1,
        "deadline" : [ 15, 41 ],
        "skills" : [ {
          "id" : 7,
          "name" : "PAINTING",
          "level" : 2
        }, {
          "id" : 4,
          "name" : "MASONRY",
          "level" : 1
        } ],
        "duration" : 1800.000000000,
        "pause" : false
      },
      "window" : {
        "start" : [ 10, 58 ],
        "end" : [ 11, 28 ]
      }
    }, {
      "job" : {
        "id" : -1,
        "desc" : "Pause",
        "location" : {
          "id" : 5435,
          "name" : null,
          "latitude" : 44.088024,
          "longitude" : 4.0573287
        },
        "openings" : {
          "start" : [ 9, 28 ],
          "end" : [ 13, 16 ]
        },
        "preferredSlots" : null,
        "doAfter" : null,
        "nbEmpRequired" : 1,
        "deadline" : [ 15, 41 ],
        "skills" : [ {
          "id" : 7,
          "name" : "PAINTING",
          "level" : 2
        }, {
          "id" : 4,
          "name" : "MASONRY",
          "level" : 1
        } ],
        "duration" : 1800.000000000,
        "pause" : true
      },
      "window" : {
        "start" : [ 11, 29 ],
        "end" : [ 13, 0 ]
      }
    }, {
      "job" : {
        "id" : 960,
        "desc" : "ENGINEER, PAINTING",
        "location" : {
          "id" : 7748,
          "name" : null,
          "latitude" : 43.619404,
          "longitude" : 4.2247024
        },
        "openings" : {
          "start" : [ 12, 38 ],
          "end" : [ 12, 51 ]
        },
        "preferredSlots" : null,
        "doAfter" : null,
        "nbEmpRequired" : 1,
        "deadline" : [ 14, 42 ],
        "skills" : [ {
          "id" : 1,
          "name" : "ENGINEER",
          "level" : 4
        }, {
          "id" : 7,
          "name" : "PAINTING",
          "level" : 5
        } ],
        "duration" : 2700.000000000,
        "pause" : false
      },
      "window" : {
        "start" : [ 13, 54 ],
        "end" : [ 14, 39 ]
      }
    }, {
      "job" : {
        "id" : 298,
        "desc" : "ENGINEER",
        "location" : {
          "id" : 2633,
          "name" : null,
          "latitude" : 43.953373,
          "longitude" : 3.906112
        },
        "openings" : {
          "start" : [ 9, 31 ],
          "end" : [ 10, 4 ]
        },
        "preferredSlots" : null,
        "doAfter" : null,
        "nbEmpRequired" : 1,
        "deadline" : [ 13, 4 ],
        "skills" : [ {
          "id" : 1,
          "name" : "ENGINEER",
          "level" : 2
        } ],
        "duration" : 2700.000000000,
        "pause" : false
      },
      "window" : {
        "start" : [ 15, 25 ],
        "end" : [ 16, 10 ]
      }
    } ],
    "driving" : 11280.000000000,
    "valid" : true
  }, {
    "emp" : {
      "id" : 325,
      "name" : "325",
      "shifts" : [ {
        "start" : [ 9, 0 ],
        "end" : [ 12, 0 ]
      }, {
        "start" : [ 13, 0 ],
        "end" : [ 17, 0 ]
      } ],
      "prefSlots" : null,
      "startingLoc" : {
        "id" : 7904,
        "name" : null,
        "latitude" : 44.06506,
        "longitude" : 4.026275
      },
      "skills" : [ {
        "id" : 1,
        "name" : "ENGINEER",
        "level" : 4
      } ]
    },
    "planning" : [ {
      "job" : {
        "id" : -1,
        "desc" : "Home",
        "location" : {
          "id" : 7904,
          "name" : null,
          "latitude" : 44.06506,
          "longitude" : 4.026275
        },
        "openings" : null,
        "preferredSlots" : null,
        "doAfter" : null,
        "nbEmpRequired" : 1,
        "deadline" : null,
        "skills" : [ ],
        "duration" : null,
        "pause" : true
      },
      "window" : {
        "start" : [ 9, 0 ],
        "end" : [ 9, 0 ]
      }
    }, {
      "job" : {
        "id" : 159,
        "desc" : "ENGINEER",
        "location" : {
          "id" : 3014,
          "name" : null,
          "latitude" : 44.067997,
          "longitude" : 4.086347
        },
        "openings" : {
          "start" : [ 14, 7 ],
          "end" : [ 14, 32 ]
        },
        "preferredSlots" : null,
        "doAfter" : null,
        "nbEmpRequired" : 1,
        "deadline" : [ 12, 52 ],
        "skills" : [ {
          "id" : 1,
          "name" : "ENGINEER",
          "level" : 1
        } ],
        "duration" : 3600.000000000,
        "pause" : false
      },
      "window" : {
        "start" : [ 9, 5 ],
        "end" : [ 10, 5 ]
      }
    }, {
      "job" : {
        "id" : -1,
        "desc" : "Pause",
        "location" : {
          "id" : 3014,
          "name" : null,
          "latitude" : 44.067997,
          "longitude" : 4.086347
        },
        "openings" : {
          "start" : [ 14, 7 ],
          "end" : [ 14, 32 ]
        },
        "preferredSlots" : null,
        "doAfter" : null,
        "nbEmpRequired" : 1,
        "deadline" : [ 12, 52 ],
        "skills" : [ {
          "id" : 1,
          "name" : "ENGINEER",
          "level" : 1
        } ],
        "duration" : 3600.000000000,
        "pause" : true
      },
      "window" : {
        "start" : [ 10, 6 ],
        "end" : [ 13, 0 ]
      }
    } ],
    "driving" : 300.000000000,
    "valid" : true
  }, {
    "emp" : {
      "id" : 581,
      "name" : "581",
      "shifts" : [ {
        "start" : [ 9, 0 ],
        "end" : [ 12, 0 ]
      }, {
        "start" : [ 13, 0 ],
        "end" : [ 17, 0 ]
      } ],
      "prefSlots" : null,
      "startingLoc" : {
        "id" : 2116,
        "name" : null,
        "latitude" : 44.067753,
        "longitude" : 3.805944
      },
      "skills" : [ {
        "id" : 4,
        "name" : "MASONRY",
        "level" : 6
      }, {
        "id" : 0,
        "name" : "MANAGEMENT",
        "level" : 5
      }, {
        "id" : 6,
        "name" : "CARPENTRY",
        "level" : 8
      }, {
        "id" : 0,
        "name" : "MANAGEMENT",
        "level" : 4
      }, {
        "id" : 1,
        "name" : "ENGINEER",
        "level" : 7
      }, {
        "id" : 0,
        "name" : "MANAGEMENT",
        "level" : 10
      }, {
        "id" : 9,
        "name" : "TILER",
        "level" : 6
      }, {
        "id" : 7,
        "name" : "PAINTING",
        "level" : 2
      }, {
        "id" : 0,
        "name" : "MANAGEMENT",
        "level" : 10
      } ]
    },
    "planning" : [ {
      "job" : {
        "id" : -1,
        "desc" : "Home",
        "location" : {
          "id" : 2116,
          "name" : null,
          "latitude" : 44.067753,
          "longitude" : 3.805944
        },
        "openings" : null,
        "preferredSlots" : null,
        "doAfter" : null,
        "nbEmpRequired" : 1,
        "deadline" : null,
        "skills" : [ ],
        "duration" : null,
        "pause" : true
      },
      "window" : {
        "start" : [ 9, 0 ],
        "end" : [ 9, 0 ]
      }
    }, {
      "job" : {
        "id" : 583,
        "desc" : "PAINTING, TILER",
        "location" : {
          "id" : 8213,
          "name" : null,
          "latitude" : 43.56838,
          "longitude" : 4.2075663
        },
        "openings" : {
          "start" : [ 11, 5 ],
          "end" : [ 12, 14 ]
        },
        "preferredSlots" : null,
        "doAfter" : null,
        "nbEmpRequired" : 1,
        "deadline" : [ 17, 20 ],
        "skills" : [ {
          "id" : 7,
          "name" : "PAINTING",
          "level" : 1
        }, {
          "id" : 9,
          "name" : "TILER",
          "level" : 5
        } ],
        "duration" : 1800.000000000,
        "pause" : false
      },
      "window" : {
        "start" : [ 10, 5 ],
        "end" : [ 10, 35 ]
      }
    }, {
      "job" : {
        "id" : 354,
        "desc" : "MASONRY, MANAGEMENT",
        "location" : {
          "id" : 8130,
          "name" : null,
          "latitude" : 43.893913,
          "longitude" : 4.2065983
        },
        "openings" : {
          "start" : [ 10, 32 ],
          "end" : [ 16, 38 ]
        },
        "preferredSlots" : null,
        "doAfter" : null,
        "nbEmpRequired" : 1,
        "deadline" : [ 14, 57 ],
        "skills" : [ {
          "id" : 4,
          "name" : "MASONRY",
          "level" : 4
        }, {
          "id" : 0,
          "name" : "MANAGEMENT",
          "level" : 2
        } ],
        "duration" : 1800.000000000,
        "pause" : false
      },
      "window" : {
        "start" : [ 11, 12 ],
        "end" : [ 11, 42 ]
      }
    }, {
      "job" : {
        "id" : -1,
        "desc" : "Pause",
        "location" : {
          "id" : 8130,
          "name" : null,
          "latitude" : 43.893913,
          "longitude" : 4.2065983
        },
        "openings" : {
          "start" : [ 10, 32 ],
          "end" : [ 16, 38 ]
        },
        "preferredSlots" : null,
        "doAfter" : null,
        "nbEmpRequired" : 1,
        "deadline" : [ 14, 57 ],
        "skills" : [ {
          "id" : 4,
          "name" : "MASONRY",
          "level" : 4
        }, {
          "id" : 0,
          "name" : "MANAGEMENT",
          "level" : 2
        } ],
        "duration" : 1800.000000000,
        "pause" : true
      },
      "window" : {
        "start" : [ 11, 43 ],
        "end" : [ 13, 0 ]
      }
    }, {
      "job" : {
        "id" : 842,
        "desc" : "MANAGEMENT, MASONRY",
        "location" : {
          "id" : 8475,
          "name" : null,
          "latitude" : 43.973297,
          "longitude" : 3.8327994
        },
        "openings" : {
          "start" : [ 14, 9 ],
          "end" : [ 17, 29 ]
        },
        "preferredSlots" : null,
        "doAfter" : null,
        "nbEmpRequired" : 1,
        "deadline" : [ 15, 26 ],
        "skills" : [ {
          "id" : 0,
          "name" : "MANAGEMENT",
          "level" : 5
        }, {
          "id" : 4,
          "name" : "MASONRY",
          "level" : 3
        } ],
        "duration" : 1800.000000000,
        "pause" : false
      },
      "window" : {
        "start" : [ 13, 32 ],
        "end" : [ 14, 2 ]
      }
    }, {
      "job" : {
        "id" : 935,
        "desc" : "CARPENTRY, ENGINEER",
        "location" : {
          "id" : 514,
          "name" : null,
          "latitude" : 43.500443,
          "longitude" : 3.9377792
        },
        "openings" : {
          "start" : [ 12, 11 ],
          "end" : [ 17, 30 ]
        },
        "preferredSlots" : null,
        "doAfter" : null,
        "nbEmpRequired" : 1,
        "deadline" : [ 17, 29 ],
        "skills" : [ {
          "id" : 6,
          "name" : "CARPENTRY",
          "level" : 3
        }, {
          "id" : 1,
          "name" : "ENGINEER",
          "level" : 3
        } ],
        "duration" : 2700.000000000,
        "pause" : false
      },
      "window" : {
        "start" : [ 14, 56 ],
        "end" : [ 15, 41 ]
      }
    }, {
      "job" : {
        "id" : 857,
        "desc" : "ENGINEER, MASONRY",
        "location" : {
          "id" : 9529,
          "name" : null,
          "latitude" : 43.446228,
          "longitude" : 4.226767
        },
        "openings" : {
          "start" : [ 11, 14 ],
          "end" : [ 11, 39 ]
        },
        "preferredSlots" : null,
        "doAfter" : null,
        "nbEmpRequired" : 1,
        "deadline" : [ 16, 11 ],
        "skills" : [ {
          "id" : 1,
          "name" : "ENGINEER",
          "level" : 2
        }, {
          "id" : 4,
          "name" : "MASONRY",
          "level" : 3
        } ],
        "duration" : 2700.000000000,
        "pause" : false
      },
      "window" : {
        "start" : [ 16, 6 ],
        "end" : [ 16, 51 ]
      }
    } ],
    "driving" : 12780.000000000,
    "valid" : true
  } ],
  "unassigned" : [ {
    "id" : 321,
    "desc" : "MANAGEMENT, PAINTING",
    "location" : {
      "id" : 3947,
      "name" : null,
      "latitude" : 43.80726,
      "longitude" : 4.10155
    },
    "openings" : {
      "start" : [ 12, 16 ],
      "end" : [ 14, 34 ]
    },
    "preferredSlots" : null,
    "doAfter" : null,
    "nbEmpRequired" : 1,
    "deadline" : [ 13, 43 ],
    "skills" : [ {
      "id" : 0,
      "name" : "MANAGEMENT",
      "level" : 3
    }, {
      "id" : 7,
      "name" : "PAINTING",
      "level" : 3
    } ],
    "duration" : 1800.000000000,
    "pause" : false
  }, {
    "id" : 411,
    "desc" : "ELECTRICIAN, ENGINEER",
    "location" : {
      "id" : 4254,
      "name" : null,
      "latitude" : 43.996353,
      "longitude" : 3.8540828
    },
    "openings" : {
      "start" : [ 10, 6 ],
      "end" : [ 12, 58 ]
    },
    "preferredSlots" : null,
    "doAfter" : null,
    "nbEmpRequired" : 1,
    "deadline" : [ 14, 4 ],
    "skills" : [ {
      "id" : 2,
      "name" : "ELECTRICIAN",
      "level" : 5
    }, {
      "id" : 1,
      "name" : "ENGINEER",
      "level" : 5
    } ],
    "duration" : 1800.000000000,
    "pause" : false
  }, {
    "id" : 285,
    "desc" : "MANAGEMENT, IRONWORK",
    "location" : {
      "id" : 1389,
      "name" : null,
      "latitude" : 43.48485,
      "longitude" : 4.129678
    },
    "openings" : {
      "start" : [ 11, 16 ],
      "end" : [ 13, 50 ]
    },
    "preferredSlots" : null,
    "doAfter" : null,
    "nbEmpRequired" : 1,
    "deadline" : [ 10, 54 ],
    "skills" : [ {
      "id" : 0,
      "name" : "MANAGEMENT",
      "level" : 3
    }, {
      "id" : 8,
      "name" : "IRONWORK",
      "level" : 3
    } ],
    "duration" : 1800.000000000,
    "pause" : false
  }, {
    "id" : 889,
    "desc" : "PLUMBING, PAINTING",
    "location" : {
      "id" : 9087,
      "name" : null,
      "latitude" : 43.651833,
      "longitude" : 4.095914
    },
    "openings" : {
      "start" : [ 12, 12 ],
      "end" : [ 17, 29 ]
    },
    "preferredSlots" : null,
    "doAfter" : null,
    "nbEmpRequired" : 1,
    "deadline" : [ 13, 57 ],
    "skills" : [ {
      "id" : 3,
      "name" : "PLUMBING",
      "level" : 5
    }, {
      "id" : 7,
      "name" : "PAINTING",
      "level" : 4
    } ],
    "duration" : 1800.000000000,
    "pause" : false
  }, {
    "id" : 717,
    "desc" : "GLAZING, IRONWORK",
    "location" : {
      "id" : 6515,
      "name" : null,
      "latitude" : 43.811905,
      "longitude" : 3.8601787
    },
    "openings" : {
      "start" : [ 12, 42 ],
      "end" : [ 16, 42 ]
    },
    "preferredSlots" : null,
    "doAfter" : null,
    "nbEmpRequired" : 1,
    "deadline" : [ 14, 13 ],
    "skills" : [ {
      "id" : 5,
      "name" : "GLAZING",
      "level" : 4
    }, {
      "id" : 8,
      "name" : "IRONWORK",
      "level" : 3
    } ],
    "duration" : 1800.000000000,
    "pause" : false
  }, {
    "id" : 555,
    "desc" : "PLUMBING",
    "location" : {
      "id" : 2944,
      "name" : null,
      "latitude" : 44.069027,
      "longitude" : 3.8992257
    },
    "openings" : {
      "start" : [ 14, 27 ],
      "end" : [ 15, 41 ]
    },
    "preferredSlots" : null,
    "doAfter" : null,
    "nbEmpRequired" : 1,
    "deadline" : [ 17, 24 ],
    "skills" : [ {
      "id" : 3,
      "name" : "PLUMBING",
      "level" : 5
    } ],
    "duration" : 1800.000000000,
    "pause" : false
  }, {
    "id" : 29,
    "desc" : "PLUMBING",
    "location" : {
      "id" : 5494,
      "name" : null,
      "latitude" : 43.536415,
      "longitude" : 4.027354
    },
    "openings" : {
      "start" : [ 13, 13 ],
      "end" : [ 15, 40 ]
    },
    "preferredSlots" : null,
    "doAfter" : null,
    "nbEmpRequired" : 1,
    "deadline" : [ 11, 51 ],
    "skills" : [ {
      "id" : 3,
      "name" : "PLUMBING",
      "level" : 3
    } ],
    "duration" : 1800.000000000,
    "pause" : false
  }, {
    "id" : 764,
    "desc" : "ELECTRICIAN, PAINTING",
    "location" : {
      "id" : 4116,
      "name" : null,
      "latitude" : 43.655838,
      "longitude" : 3.760982
    },
    "openings" : {
      "start" : [ 14, 43 ],
      "end" : [ 16, 15 ]
    },
    "preferredSlots" : null,
    "doAfter" : null,
    "nbEmpRequired" : 1,
    "deadline" : [ 9, 52 ],
    "skills" : [ {
      "id" : 2,
      "name" : "ELECTRICIAN",
      "level" : 1
    }, {
      "id" : 7,
      "name" : "PAINTING",
      "level" : 3
    } ],
    "duration" : 1800.000000000,
    "pause" : false
  }, {
    "id" : 21,
    "desc" : "PAINTING, ELECTRICIAN",
    "location" : {
      "id" : 4420,
      "name" : null,
      "latitude" : 43.572777,
      "longitude" : 3.7969093
    },
    "openings" : {
      "start" : [ 15, 57 ],
      "end" : [ 16, 47 ]
    },
    "preferredSlots" : null,
    "doAfter" : null,
    "nbEmpRequired" : 1,
    "deadline" : [ 10, 35 ],
    "skills" : [ {
      "id" : 7,
      "name" : "PAINTING",
      "level" : 3
    }, {
      "id" : 2,
      "name" : "ELECTRICIAN",
      "level" : 1
    } ],
    "duration" : 1800.000000000,
    "pause" : false
  }, {
    "id" : 71,
    "desc" : "PLUMBING",
    "location" : {
      "id" : 1807,
      "name" : null,
      "latitude" : 44.01386,
      "longitude" : 3.8900695
    },
    "openings" : {
      "start" : [ 10, 28 ],
      "end" : [ 16, 50 ]
    },
    "preferredSlots" : null,
    "doAfter" : null,
    "nbEmpRequired" : 1,
    "deadline" : [ 15, 9 ],
    "skills" : [ {
      "id" : 3,
      "name" : "PLUMBING",
      "level" : 4
    } ],
    "duration" : 1800.000000000,
    "pause" : false
  }, {
    "id" : 451,
    "desc" : "ELECTRICIAN",
    "location" : {
      "id" : 2318,
      "name" : null,
      "latitude" : 43.43355,
      "longitude" : 3.7770543
    },
    "openings" : {
      "start" : [ 11, 5 ],
      "end" : [ 12, 53 ]
    },
    "preferredSlots" : null,
    "doAfter" : null,
    "nbEmpRequired" : 1,
    "deadline" : [ 10, 2 ],
    "skills" : [ {
      "id" : 2,
      "name" : "ELECTRICIAN",
      "level" : 2
    } ],
    "duration" : 1800.000000000,
    "pause" : false
  }, {
    "id" : 231,
    "desc" : "PLUMBING, ENGINEER",
    "location" : {
      "id" : 8188,
      "name" : null,
      "latitude" : 43.550915,
      "longitude" : 3.8653133
    },
    "openings" : {
      "start" : [ 12, 23 ],
      "end" : [ 13, 28 ]
    },
    "preferredSlots" : null,
    "doAfter" : null,
    "nbEmpRequired" : 1,
    "deadline" : [ 14, 53 ],
    "skills" : [ {
      "id" : 3,
      "name" : "PLUMBING",
      "level" : 4
    }, {
      "id" : 1,
      "name" : "ENGINEER",
      "level" : 5
    } ],
    "duration" : 1800.000000000,
    "pause" : false
  }, {
    "id" : 298,
    "desc" : "ELECTRICIAN, ENGINEER",
    "location" : {
      "id" : 9845,
      "name" : null,
      "latitude" : 43.590218,
      "longitude" : 3.776706
    },
    "openings" : {
      "start" : [ 11, 10 ],
      "end" : [ 14, 29 ]
    },
    "preferredSlots" : null,
    "doAfter" : null,
    "nbEmpRequired" : 1,
    "deadline" : [ 12, 19 ],
    "skills" : [ {
      "id" : 2,
      "name" : "ELECTRICIAN",
      "level" : 3
    }, {
      "id" : 1,
      "name" : "ENGINEER",
      "level" : 3
    } ],
    "duration" : 1800.000000000,
    "pause" : false
  }, {
    "id" : 275,
    "desc" : "GLAZING, ELECTRICIAN",
    "location" : {
      "id" : 9671,
      "name" : null,
      "latitude" : 44.041714,
      "longitude" : 3.9135761
    },
    "openings" : {
      "start" : [ 15, 44 ],
      "end" : [ 16, 34 ]
    },
    "preferredSlots" : null,
    "doAfter" : null,
    "nbEmpRequired" : 1,
    "deadline" : [ 15, 34 ],
    "skills" : [ {
      "id" : 5,
      "name" : "GLAZING",
      "level" : 2
    }, {
      "id" : 2,
      "name" : "ELECTRICIAN",
      "level" : 5
    } ],
    "duration" : 2700.000000000,
    "pause" : false
  }, {
    "id" : 784,
    "desc" : "ELECTRICIAN, MANAGEMENT",
    "location" : {
      "id" : 6151,
      "name" : null,
      "latitude" : 43.570705,
      "longitude" : 4.281234
    },
    "openings" : {
      "start" : [ 9, 27 ],
      "end" : [ 12, 11 ]
    },
    "preferredSlots" : null,
    "doAfter" : null,
    "nbEmpRequired" : 1,
    "deadline" : [ 11, 55 ],
    "skills" : [ {
      "id" : 2,
      "name" : "ELECTRICIAN",
      "level" : 2
    }, {
      "id" : 0,
      "name" : "MANAGEMENT",
      "level" : 2
    } ],
    "duration" : 2700.000000000,
    "pause" : false
  }, {
    "id" : 200,
    "desc" : "MASONRY, ELECTRICIAN",
    "location" : {
      "id" : 6754,
      "name" : null,
      "latitude" : 43.560204,
      "longitude" : 4.141536
    },
    "openings" : {
      "start" : [ 10, 50 ],
      "end" : [ 11, 27 ]
    },
    "preferredSlots" : null,
    "doAfter" : null,
    "nbEmpRequired" : 1,
    "deadline" : [ 16, 0 ],
    "skills" : [ {
      "id" : 4,
      "name" : "MASONRY",
      "level" : 5
    }, {
      "id" : 2,
      "name" : "ELECTRICIAN",
      "level" : 4
    } ],
    "duration" : 2700.000000000,
    "pause" : false
  }, {
    "id" : 779,
    "desc" : "MANAGEMENT, ENGINEER",
    "location" : {
      "id" : 360,
      "name" : null,
      "latitude" : 44.00528,
      "longitude" : 3.9963317
    },
    "openings" : {
      "start" : [ 10, 26 ],
      "end" : [ 13, 16 ]
    },
    "preferredSlots" : null,
    "doAfter" : null,
    "nbEmpRequired" : 1,
    "deadline" : [ 13, 4 ],
    "skills" : [ {
      "id" : 0,
      "name" : "MANAGEMENT",
      "level" : 2
    }, {
      "id" : 1,
      "name" : "ENGINEER",
      "level" : 2
    } ],
    "duration" : 2700.000000000,
    "pause" : false
  }, {
    "id" : 432,
    "desc" : "PLUMBING",
    "location" : {
      "id" : 1766,
      "name" : null,
      "latitude" : 43.816193,
      "longitude" : 3.7030952
    },
    "openings" : {
      "start" : [ 15, 50 ],
      "end" : [ 17, 2 ]
    },
    "preferredSlots" : null,
    "doAfter" : null,
    "nbEmpRequired" : 1,
    "deadline" : [ 14, 15 ],
    "skills" : [ {
      "id" : 3,
      "name" : "PLUMBING",
      "level" : 1
    } ],
    "duration" : 2700.000000000,
    "pause" : false
  }, {
    "id" : 355,
    "desc" : "ELECTRICIAN",
    "location" : {
      "id" : 1467,
      "name" : null,
      "latitude" : 43.757698,
      "longitude" : 4.0734572
    },
    "openings" : {
      "start" : [ 9, 53 ],
      "end" : [ 11, 0 ]
    },
    "preferredSlots" : null,
    "doAfter" : null,
    "nbEmpRequired" : 1,
    "deadline" : [ 10, 9 ],
    "skills" : [ {
      "id" : 2,
      "name" : "ELECTRICIAN",
      "level" : 5
    } ],
    "duration" : 2700.000000000,
    "pause" : false
  }, {
    "id" : 665,
    "desc" : "GLAZING",
    "location" : {
      "id" : 9785,
      "name" : null,
      "latitude" : 43.75515,
      "longitude" : 3.8502808
    },
    "openings" : {
      "start" : [ 9, 24 ],
      "end" : [ 9, 44 ]
    },
    "preferredSlots" : null,
    "doAfter" : null,
    "nbEmpRequired" : 1,
    "deadline" : [ 11, 14 ],
    "skills" : [ {
      "id" : 5,
      "name" : "GLAZING",
      "level" : 4
    } ],
    "duration" : 2700.000000000,
    "pause" : false
  }, {
    "id" : 768,
    "desc" : "MANAGEMENT, ENGINEER",
    "location" : {
      "id" : 9010,
      "name" : null,
      "latitude" : 43.450867,
      "longitude" : 4.2561684
    },
    "openings" : {
      "start" : [ 12, 8 ],
      "end" : [ 15, 37 ]
    },
    "preferredSlots" : null,
    "doAfter" : null,
    "nbEmpRequired" : 1,
    "deadline" : [ 13, 11 ],
    "skills" : [ {
      "id" : 0,
      "name" : "MANAGEMENT",
      "level" : 5
    }, {
      "id" : 1,
      "name" : "ENGINEER",
      "level" : 1
    } ],
    "duration" : 2700.000000000,
    "pause" : false
  }, {
    "id" : 85,
    "desc" : "IRONWORK, PAINTING",
    "location" : {
      "id" : 4007,
      "name" : null,
      "latitude" : 43.519066,
      "longitude" : 3.8221412
    },
    "openings" : {
      "start" : [ 12, 6 ],
      "end" : [ 17, 18 ]
    },
    "preferredSlots" : null,
    "doAfter" : null,
    "nbEmpRequired" : 1,
    "deadline" : [ 10, 16 ],
    "skills" : [ {
      "id" : 8,
      "name" : "IRONWORK",
      "level" : 1
    }, {
      "id" : 7,
      "name" : "PAINTING",
      "level" : 2
    } ],
    "duration" : 2700.000000000,
    "pause" : false
  }, {
    "id" : 406,
    "desc" : "TILER, MASONRY",
    "location" : {
      "id" : 6181,
      "name" : null,
      "latitude" : 43.941948,
      "longitude" : 3.9270236
    },
    "openings" : {
      "start" : [ 13, 14 ],
      "end" : [ 15, 45 ]
    },
    "preferredSlots" : null,
    "doAfter" : null,
    "nbEmpRequired" : 1,
    "deadline" : [ 12, 42 ],
    "skills" : [ {
      "id" : 9,
      "name" : "TILER",
      "level" : 5
    }, {
      "id" : 4,
      "name" : "MASONRY",
      "level" : 4
    } ],
    "duration" : 2700.000000000,
    "pause" : false
  }, {
    "id" : 491,
    "desc" : "TILER, MANAGEMENT",
    "location" : {
      "id" : 8909,
      "name" : null,
      "latitude" : 43.517654,
      "longitude" : 4.260525
    },
    "openings" : {
      "start" : [ 12, 7 ],
      "end" : [ 14, 31 ]
    },
    "preferredSlots" : null,
    "doAfter" : null,
    "nbEmpRequired" : 1,
    "deadline" : [ 15, 7 ],
    "skills" : [ {
      "id" : 9,
      "name" : "TILER",
      "level" : 4
    }, {
      "id" : 0,
      "name" : "MANAGEMENT",
      "level" : 2
    } ],
    "duration" : 2700.000000000,
    "pause" : false
  }, {
    "id" : 315,
    "desc" : "PLUMBING",
    "location" : {
      "id" : 564,
      "name" : null,
      "latitude" : 43.86925,
      "longitude" : 3.7651691
    },
    "openings" : {
      "start" : [ 10, 52 ],
      "end" : [ 16, 32 ]
    },
    "preferredSlots" : null,
    "doAfter" : null,
    "nbEmpRequired" : 1,
    "deadline" : [ 15, 12 ],
    "skills" : [ {
      "id" : 3,
      "name" : "PLUMBING",
      "level" : 4
    } ],
    "duration" : 2700.000000000,
    "pause" : false
  }, {
    "id" : 41,
    "desc" : "MANAGEMENT, MASONRY",
    "location" : {
      "id" : 2387,
      "name" : null,
      "latitude" : 43.58129,
      "longitude" : 3.753301
    },
    "openings" : {
      "start" : [ 14, 20 ],
      "end" : [ 17, 41 ]
    },
    "preferredSlots" : null,
    "doAfter" : null,
    "nbEmpRequired" : 1,
    "deadline" : [ 13, 50 ],
    "skills" : [ {
      "id" : 0,
      "name" : "MANAGEMENT",
      "level" : 1
    }, {
      "id" : 4,
      "name" : "MASONRY",
      "level" : 2
    } ],
    "duration" : 2700.000000000,
    "pause" : false
  }, {
    "id" : 362,
    "desc" : "ELECTRICIAN, MANAGEMENT",
    "location" : {
      "id" : 6781,
      "name" : null,
      "latitude" : 43.852158,
      "longitude" : 3.9503446
    },
    "openings" : {
      "start" : [ 13, 12 ],
      "end" : [ 17, 55 ]
    },
    "preferredSlots" : null,
    "doAfter" : null,
    "nbEmpRequired" : 1,
    "deadline" : [ 12, 12 ],
    "skills" : [ {
      "id" : 2,
      "name" : "ELECTRICIAN",
      "level" : 2
    }, {
      "id" : 0,
      "name" : "MANAGEMENT",
      "level" : 5
    } ],
    "duration" : 2700.000000000,
    "pause" : false
  }, {
    "id" : 45,
    "desc" : "ELECTRICIAN, ENGINEER",
    "location" : {
      "id" : 2557,
      "name" : null,
      "latitude" : 44.070858,
      "longitude" : 4.0073977
    },
    "openings" : {
      "start" : [ 13, 41 ],
      "end" : [ 16, 48 ]
    },
    "preferredSlots" : null,
    "doAfter" : null,
    "nbEmpRequired" : 1,
    "deadline" : [ 10, 27 ],
    "skills" : [ {
      "id" : 2,
      "name" : "ELECTRICIAN",
      "level" : 2
    }, {
      "id" : 1,
      "name" : "ENGINEER",
      "level" : 1
    } ],
    "duration" : 2700.000000000,
    "pause" : false
  }, {
    "id" : 845,
    "desc" : "PLUMBING",
    "location" : {
      "id" : 2681,
      "name" : null,
      "latitude" : 43.497917,
      "longitude" : 4.1404634
    },
    "openings" : {
      "start" : [ 9, 2 ],
      "end" : [ 14, 38 ]
    },
    "preferredSlots" : null,
    "doAfter" : null,
    "nbEmpRequired" : 1,
    "deadline" : [ 17, 2 ],
    "skills" : [ {
      "id" : 3,
      "name" : "PLUMBING",
      "level" : 3
    } ],
    "duration" : 2700.000000000,
    "pause" : false
  }, {
    "id" : 111,
    "desc" : "ELECTRICIAN, IRONWORK",
    "location" : {
      "id" : 1452,
      "name" : null,
      "latitude" : 43.77148,
      "longitude" : 3.9170845
    },
    "openings" : {
      "start" : [ 11, 14 ],
      "end" : [ 16, 43 ]
    },
    "preferredSlots" : null,
    "doAfter" : null,
    "nbEmpRequired" : 1,
    "deadline" : [ 9, 22 ],
    "skills" : [ {
      "id" : 2,
      "name" : "ELECTRICIAN",
      "level" : 1
    }, {
      "id" : 8,
      "name" : "IRONWORK",
      "level" : 2
    } ],
    "duration" : 2700.000000000,
    "pause" : false
  }, {
    "id" : 703,
    "desc" : "PAINTING, MANAGEMENT",
    "location" : {
      "id" : 7106,
      "name" : null,
      "latitude" : 43.68136,
      "longitude" : 4.204447
    },
    "openings" : {
      "start" : [ 10, 40 ],
      "end" : [ 16, 58 ]
    },
    "preferredSlots" : null,
    "doAfter" : null,
    "nbEmpRequired" : 1,
    "deadline" : [ 16, 56 ],
    "skills" : [ {
      "id" : 7,
      "name" : "PAINTING",
      "level" : 5
    }, {
      "id" : 0,
      "name" : "MANAGEMENT",
      "level" : 3
    } ],
    "duration" : 2700.000000000,
    "pause" : false
  }, {
    "id" : 253,
    "desc" : "PAINTING, ELECTRICIAN",
    "location" : {
      "id" : 148,
      "name" : null,
      "latitude" : 43.9365,
      "longitude" : 4.2490416
    },
    "openings" : {
      "start" : [ 12, 57 ],
      "end" : [ 15, 40 ]
    },
    "preferredSlots" : null,
    "doAfter" : null,
    "nbEmpRequired" : 1,
    "deadline" : [ 12, 13 ],
    "skills" : [ {
      "id" : 7,
      "name" : "PAINTING",
      "level" : 2
    }, {
      "id" : 2,
      "name" : "ELECTRICIAN",
      "level" : 2
    } ],
    "duration" : 2700.000000000,
    "pause" : false
  }, {
    "id" : 3,
    "desc" : "PLUMBING",
    "location" : {
      "id" : 3670,
      "name" : null,
      "latitude" : 43.694893,
      "longitude" : 4.129974
    },
    "openings" : {
      "start" : [ 11, 19 ],
      "end" : [ 11, 24 ]
    },
    "preferredSlots" : null,
    "doAfter" : null,
    "nbEmpRequired" : 1,
    "deadline" : [ 9, 4 ],
    "skills" : [ {
      "id" : 3,
      "name" : "PLUMBING",
      "level" : 1
    } ],
    "duration" : 2700.000000000,
    "pause" : false
  }, {
    "id" : 906,
    "desc" : "IRONWORK, ELECTRICIAN",
    "location" : {
      "id" : 6273,
      "name" : null,
      "latitude" : 43.91159,
      "longitude" : 4.0443935
    },
    "openings" : {
      "start" : [ 10, 20 ],
      "end" : [ 17, 56 ]
    },
    "preferredSlots" : null,
    "doAfter" : null,
    "nbEmpRequired" : 1,
    "deadline" : [ 16, 3 ],
    "skills" : [ {
      "id" : 8,
      "name" : "IRONWORK",
      "level" : 1
    }, {
      "id" : 2,
      "name" : "ELECTRICIAN",
      "level" : 1
    } ],
    "duration" : 2700.000000000,
    "pause" : false
  }, {
    "id" : 683,
    "desc" : "CARPENTRY, ELECTRICIAN",
    "location" : {
      "id" : 427,
      "name" : null,
      "latitude" : 43.44776,
      "longitude" : 3.945692
    },
    "openings" : {
      "start" : [ 9, 31 ],
      "end" : [ 17, 21 ]
    },
    "preferredSlots" : null,
    "doAfter" : null,
    "nbEmpRequired" : 1,
    "deadline" : [ 13, 2 ],
    "skills" : [ {
      "id" : 6,
      "name" : "CARPENTRY",
      "level" : 4
    }, {
      "id" : 2,
      "name" : "ELECTRICIAN",
      "level" : 5
    } ],
    "duration" : 2700.000000000,
    "pause" : false
  }, {
    "id" : 857,
    "desc" : "ELECTRICIAN, MANAGEMENT",
    "location" : {
      "id" : 4404,
      "name" : null,
      "latitude" : 43.84483,
      "longitude" : 4.064614
    },
    "openings" : {
      "start" : [ 10, 17 ],
      "end" : [ 15, 48 ]
    },
    "preferredSlots" : null,
    "doAfter" : null,
    "nbEmpRequired" : 1,
    "deadline" : [ 16, 45 ],
    "skills" : [ {
      "id" : 2,
      "name" : "ELECTRICIAN",
      "level" : 2
    }, {
      "id" : 0,
      "name" : "MANAGEMENT",
      "level" : 1
    } ],
    "duration" : 2700.000000000,
    "pause" : false
  }, {
    "id" : 328,
    "desc" : "ENGINEER",
    "location" : {
      "id" : 4285,
      "name" : null,
      "latitude" : 43.633842,
      "longitude" : 3.9460366
    },
    "openings" : {
      "start" : [ 12, 9 ],
      "end" : [ 16, 46 ]
    },
    "preferredSlots" : null,
    "doAfter" : null,
    "nbEmpRequired" : 1,
    "deadline" : [ 11, 30 ],
    "skills" : [ {
      "id" : 1,
      "name" : "ENGINEER",
      "level" : 5
    } ],
    "duration" : 2700.000000000,
    "pause" : false
  }, {
    "id" : 133,
    "desc" : "ELECTRICIAN, TILER",
    "location" : {
      "id" : 3204,
      "name" : null,
      "latitude" : 44.011497,
      "longitude" : 4.2980785
    },
    "openings" : {
      "start" : [ 10, 55 ],
      "end" : [ 14, 13 ]
    },
    "preferredSlots" : null,
    "doAfter" : null,
    "nbEmpRequired" : 1,
    "deadline" : [ 15, 26 ],
    "skills" : [ {
      "id" : 2,
      "name" : "ELECTRICIAN",
      "level" : 4
    }, {
      "id" : 9,
      "name" : "TILER",
      "level" : 5
    } ],
    "duration" : 2700.000000000,
    "pause" : false
  }, {
    "id" : 314,
    "desc" : "MASONRY, ELECTRICIAN",
    "location" : {
      "id" : 6720,
      "name" : null,
      "latitude" : 43.64959,
      "longitude" : 4.001953
    },
    "openings" : {
      "start" : [ 12, 4 ],
      "end" : [ 17, 41 ]
    },
    "preferredSlots" : null,
    "doAfter" : null,
    "nbEmpRequired" : 1,
    "deadline" : [ 9, 59 ],
    "skills" : [ {
      "id" : 4,
      "name" : "MASONRY",
      "level" : 2
    }, {
      "id" : 2,
      "name" : "ELECTRICIAN",
      "level" : 5
    } ],
    "duration" : 3600.000000000,
    "pause" : false
  }, {
    "id" : 204,
    "desc" : "IRONWORK, GLAZING",
    "location" : {
      "id" : 240,
      "name" : null,
      "latitude" : 43.985588,
      "longitude" : 3.8867562
    },
    "openings" : {
      "start" : [ 9, 58 ],
      "end" : [ 16, 11 ]
    },
    "preferredSlots" : null,
    "doAfter" : null,
    "nbEmpRequired" : 1,
    "deadline" : [ 12, 9 ],
    "skills" : [ {
      "id" : 8,
      "name" : "IRONWORK",
      "level" : 2
    }, {
      "id" : 5,
      "name" : "GLAZING",
      "level" : 2
    } ],
    "duration" : 3600.000000000,
    "pause" : false
  }, {
    "id" : 47,
    "desc" : "ELECTRICIAN",
    "location" : {
      "id" : 6417,
      "name" : null,
      "latitude" : 43.42919,
      "longitude" : 3.7358518
    },
    "openings" : {
      "start" : [ 14, 0 ],
      "end" : [ 14, 28 ]
    },
    "preferredSlots" : null,
    "doAfter" : null,
    "nbEmpRequired" : 1,
    "deadline" : [ 16, 49 ],
    "skills" : [ {
      "id" : 2,
      "name" : "ELECTRICIAN",
      "level" : 1
    } ],
    "duration" : 3600.000000000,
    "pause" : false
  }, {
    "id" : 548,
    "desc" : "MASONRY",
    "location" : {
      "id" : 7180,
      "name" : null,
      "latitude" : 43.43986,
      "longitude" : 4.040797
    },
    "openings" : {
      "start" : [ 9, 55 ],
      "end" : [ 13, 13 ]
    },
    "preferredSlots" : null,
    "doAfter" : null,
    "nbEmpRequired" : 1,
    "deadline" : [ 17, 52 ],
    "skills" : [ {
      "id" : 4,
      "name" : "MASONRY",
      "level" : 3
    } ],
    "duration" : 3600.000000000,
    "pause" : false
  }, {
    "id" : 620,
    "desc" : "IRONWORK",
    "location" : {
      "id" : 8950,
      "name" : null,
      "latitude" : 43.437874,
      "longitude" : 3.732167
    },
    "openings" : {
      "start" : [ 13, 23 ],
      "end" : [ 13, 54 ]
    },
    "preferredSlots" : null,
    "doAfter" : null,
    "nbEmpRequired" : 1,
    "deadline" : [ 10, 8 ],
    "skills" : [ {
      "id" : 8,
      "name" : "IRONWORK",
      "level" : 1
    } ],
    "duration" : 3600.000000000,
    "pause" : false
  }, {
    "id" : 342,
    "desc" : "ENGINEER, MASONRY",
    "location" : {
      "id" : 9292,
      "name" : null,
      "latitude" : 44.00083,
      "longitude" : 3.7068965
    },
    "openings" : {
      "start" : [ 13, 13 ],
      "end" : [ 16, 38 ]
    },
    "preferredSlots" : null,
    "doAfter" : null,
    "nbEmpRequired" : 1,
    "deadline" : [ 9, 50 ],
    "skills" : [ {
      "id" : 1,
      "name" : "ENGINEER",
      "level" : 5
    }, {
      "id" : 4,
      "name" : "MASONRY",
      "level" : 1
    } ],
    "duration" : 3600.000000000,
    "pause" : false
  }, {
    "id" : 604,
    "desc" : "CARPENTRY",
    "location" : {
      "id" : 3050,
      "name" : null,
      "latitude" : 44.051537,
      "longitude" : 4.1918573
    },
    "openings" : {
      "start" : [ 9, 30 ],
      "end" : [ 14, 9 ]
    },
    "preferredSlots" : null,
    "doAfter" : null,
    "nbEmpRequired" : 1,
    "deadline" : [ 13, 28 ],
    "skills" : [ {
      "id" : 6,
      "name" : "CARPENTRY",
      "level" : 1
    } ],
    "duration" : 3600.000000000,
    "pause" : false
  }, {
    "id" : 748,
    "desc" : "GLAZING, IRONWORK",
    "location" : {
      "id" : 9766,
      "name" : null,
      "latitude" : 44.018288,
      "longitude" : 4.124709
    },
    "openings" : {
      "start" : [ 10, 7 ],
      "end" : [ 10, 32 ]
    },
    "preferredSlots" : null,
    "doAfter" : null,
    "nbEmpRequired" : 1,
    "deadline" : [ 9, 24 ],
    "skills" : [ {
      "id" : 5,
      "name" : "GLAZING",
      "level" : 2
    }, {
      "id" : 8,
      "name" : "IRONWORK",
      "level" : 5
    } ],
    "duration" : 3600.000000000,
    "pause" : false
  }, {
    "id" : 301,
    "desc" : "CARPENTRY",
    "location" : {
      "id" : 5849,
      "name" : null,
      "latitude" : 43.50865,
      "longitude" : 4.081565
    },
    "openings" : {
      "start" : [ 9, 35 ],
      "end" : [ 15, 27 ]
    },
    "preferredSlots" : null,
    "doAfter" : null,
    "nbEmpRequired" : 1,
    "deadline" : [ 16, 9 ],
    "skills" : [ {
      "id" : 6,
      "name" : "CARPENTRY",
      "level" : 5
    } ],
    "duration" : 3600.000000000,
    "pause" : false
  }, {
    "id" : 13,
    "desc" : "TILER",
    "location" : {
      "id" : 5138,
      "name" : null,
      "latitude" : 43.90664,
      "longitude" : 3.822578
    },
    "openings" : {
      "start" : [ 13, 14 ],
      "end" : [ 13, 38 ]
    },
    "preferredSlots" : null,
    "doAfter" : null,
    "nbEmpRequired" : 1,
    "deadline" : [ 10, 40 ],
    "skills" : [ {
      "id" : 9,
      "name" : "TILER",
      "level" : 2
    } ],
    "duration" : 3600.000000000,
    "pause" : false
  }, {
    "id" : 415,
    "desc" : "MANAGEMENT",
    "location" : {
      "id" : 6590,
      "name" : null,
      "latitude" : 43.82981,
      "longitude" : 3.850436
    },
    "openings" : {
      "start" : [ 13, 7 ],
      "end" : [ 14, 44 ]
    },
    "preferredSlots" : null,
    "doAfter" : null,
    "nbEmpRequired" : 1,
    "deadline" : [ 11, 56 ],
    "skills" : [ {
      "id" : 0,
      "name" : "MANAGEMENT",
      "level" : 2
    } ],
    "duration" : 3600.000000000,
    "pause" : false
  }, {
    "id" : 226,
    "desc" : "IRONWORK, CARPENTRY",
    "location" : {
      "id" : 304,
      "name" : null,
      "latitude" : 43.453083,
      "longitude" : 3.7325885
    },
    "openings" : {
      "start" : [ 12, 48 ],
      "end" : [ 15, 32 ]
    },
    "preferredSlots" : null,
    "doAfter" : null,
    "nbEmpRequired" : 1,
    "deadline" : [ 13, 54 ],
    "skills" : [ {
      "id" : 8,
      "name" : "IRONWORK",
      "level" : 4
    }, {
      "id" : 6,
      "name" : "CARPENTRY",
      "level" : 1
    } ],
    "duration" : 3600.000000000,
    "pause" : false
  }, {
    "id" : 190,
    "desc" : "ENGINEER, MANAGEMENT",
    "location" : {
      "id" : 6106,
      "name" : null,
      "latitude" : 43.68127,
      "longitude" : 3.9992535
    },
    "openings" : {
      "start" : [ 13, 0 ],
      "end" : [ 13, 20 ]
    },
    "preferredSlots" : null,
    "doAfter" : null,
    "nbEmpRequired" : 1,
    "deadline" : [ 9, 53 ],
    "skills" : [ {
      "id" : 1,
      "name" : "ENGINEER",
      "level" : 5
    }, {
      "id" : 0,
      "name" : "MANAGEMENT",
      "level" : 4
    } ],
    "duration" : 3600.000000000,
    "pause" : false
  }, {
    "id" : 35,
    "desc" : "PLUMBING",
    "location" : {
      "id" : 9340,
      "name" : null,
      "latitude" : 43.83724,
      "longitude" : 3.932403
    },
    "openings" : {
      "start" : [ 10, 53 ],
      "end" : [ 16, 8 ]
    },
    "preferredSlots" : null,
    "doAfter" : null,
    "nbEmpRequired" : 1,
    "deadline" : [ 12, 51 ],
    "skills" : [ {
      "id" : 3,
      "name" : "PLUMBING",
      "level" : 5
    } ],
    "duration" : 3600.000000000,
    "pause" : false
  }, {
    "id" : 716,
    "desc" : "ENGINEER, PLUMBING",
    "location" : {
      "id" : 7580,
      "name" : null,
      "latitude" : 43.92335,
      "longitude" : 3.9115078
    },
    "openings" : {
      "start" : [ 9, 49 ],
      "end" : [ 15, 40 ]
    },
    "preferredSlots" : null,
    "doAfter" : null,
    "nbEmpRequired" : 1,
    "deadline" : [ 15, 5 ],
    "skills" : [ {
      "id" : 1,
      "name" : "ENGINEER",
      "level" : 5
    }, {
      "id" : 3,
      "name" : "PLUMBING",
      "level" : 4
    } ],
    "duration" : 3600.000000000,
    "pause" : false
  }, {
    "id" : 524,
    "desc" : "PAINTING, ELECTRICIAN",
    "location" : {
      "id" : 371,
      "name" : null,
      "latitude" : 44.031414,
      "longitude" : 4.0656176
    },
    "openings" : {
      "start" : [ 10, 3 ],
      "end" : [ 15, 26 ]
    },
    "preferredSlots" : null,
    "doAfter" : null,
    "nbEmpRequired" : 1,
    "deadline" : [ 17, 39 ],
    "skills" : [ {
      "id" : 7,
      "name" : "PAINTING",
      "level" : 5
    }, {
      "id" : 2,
      "name" : "ELECTRICIAN",
      "level" : 3
    } ],
    "duration" : 3600.000000000,
    "pause" : false
  }, {
    "id" : 153,
    "desc" : "PLUMBING, ENGINEER",
    "location" : {
      "id" : 502,
      "name" : null,
      "latitude" : 43.556835,
      "longitude" : 4.0241523
    },
    "openings" : {
      "start" : [ 9, 11 ],
      "end" : [ 11, 19 ]
    },
    "preferredSlots" : null,
    "doAfter" : null,
    "nbEmpRequired" : 1,
    "deadline" : [ 10, 24 ],
    "skills" : [ {
      "id" : 3,
      "name" : "PLUMBING",
      "level" : 2
    }, {
      "id" : 1,
      "name" : "ENGINEER",
      "level" : 3
    } ],
    "duration" : 3600.000000000,
    "pause" : false
  }, {
    "id" : 711,
    "desc" : "CARPENTRY",
    "location" : {
      "id" : 9782,
      "name" : null,
      "latitude" : 43.706745,
      "longitude" : 3.9148312
    },
    "openings" : {
      "start" : [ 12, 18 ],
      "end" : [ 16, 52 ]
    },
    "preferredSlots" : null,
    "doAfter" : null,
    "nbEmpRequired" : 1,
    "deadline" : [ 14, 6 ],
    "skills" : [ {
      "id" : 6,
      "name" : "CARPENTRY",
      "level" : 2
    } ],
    "duration" : 3600.000000000,
    "pause" : false
  }, {
    "id" : 815,
    "desc" : "MANAGEMENT, IRONWORK",
    "location" : {
      "id" : 299,
      "name" : null,
      "latitude" : 43.699303,
      "longitude" : 4.2097197
    },
    "openings" : {
      "start" : [ 10, 13 ],
      "end" : [ 10, 37 ]
    },
    "preferredSlots" : null,
    "doAfter" : null,
    "nbEmpRequired" : 1,
    "deadline" : [ 9, 19 ],
    "skills" : [ {
      "id" : 0,
      "name" : "MANAGEMENT",
      "level" : 2
    }, {
      "id" : 8,
      "name" : "IRONWORK",
      "level" : 2
    } ],
    "duration" : 3600.000000000,
    "pause" : false
  }, {
    "id" : 48,
    "desc" : "TILER",
    "location" : {
      "id" : 7370,
      "name" : null,
      "latitude" : 44.035007,
      "longitude" : 3.7154884
    },
    "openings" : {
      "start" : [ 12, 47 ],
      "end" : [ 16, 9 ]
    },
    "preferredSlots" : null,
    "doAfter" : null,
    "nbEmpRequired" : 1,
    "deadline" : [ 15, 18 ],
    "skills" : [ {
      "id" : 9,
      "name" : "TILER",
      "level" : 4
    } ],
    "duration" : 3600.000000000,
    "pause" : false
  }, {
    "id" : 743,
    "desc" : "ENGINEER",
    "location" : {
      "id" : 719,
      "name" : null,
      "latitude" : 43.41842,
      "longitude" : 4.2705293
    },
    "openings" : {
      "start" : [ 9, 41 ],
      "end" : [ 12, 53 ]
    },
    "preferredSlots" : null,
    "doAfter" : null,
    "nbEmpRequired" : 1,
    "deadline" : [ 16, 18 ],
    "skills" : [ {
      "id" : 1,
      "name" : "ENGINEER",
      "level" : 5
    } ],
    "duration" : 3600.000000000,
    "pause" : false
  }, {
    "id" : 274,
    "desc" : "GLAZING",
    "location" : {
      "id" : 5481,
      "name" : null,
      "latitude" : 43.6206,
      "longitude" : 3.769402
    },
    "openings" : {
      "start" : [ 15, 58 ],
      "end" : [ 17, 7 ]
    },
    "preferredSlots" : null,
    "doAfter" : null,
    "nbEmpRequired" : 1,
    "deadline" : [ 12, 10 ],
    "skills" : [ {
      "id" : 5,
      "name" : "GLAZING",
      "level" : 3
    } ],
    "duration" : 3600.000000000,
    "pause" : false
  }, {
    "id" : 534,
    "desc" : "GLAZING, TILER",
    "location" : {
      "id" : 6778,
      "name" : null,
      "latitude" : 43.647564,
      "longitude" : 3.9173064
    },
    "openings" : {
      "start" : [ 12, 47 ],
      "end" : [ 17, 45 ]
    },
    "preferredSlots" : null,
    "doAfter" : null,
    "nbEmpRequired" : 1,
    "deadline" : [ 16, 13 ],
    "skills" : [ {
      "id" : 5,
      "name" : "GLAZING",
      "level" : 5
    }, {
      "id" : 9,
      "name" : "TILER",
      "level" : 1
    } ],
    "duration" : 5400.000000000,
    "pause" : false
  }, {
    "id" : 919,
    "desc" : "PLUMBING, PAINTING",
    "location" : {
      "id" : 8874,
      "name" : null,
      "latitude" : 43.757828,
      "longitude" : 3.704991
    },
    "openings" : {
      "start" : [ 14, 54 ],
      "end" : [ 15, 27 ]
    },
    "preferredSlots" : null,
    "doAfter" : null,
    "nbEmpRequired" : 1,
    "deadline" : [ 13, 50 ],
    "skills" : [ {
      "id" : 3,
      "name" : "PLUMBING",
      "level" : 4
    }, {
      "id" : 7,
      "name" : "PAINTING",
      "level" : 3
    } ],
    "duration" : 5400.000000000,
    "pause" : false
  }, {
    "id" : 182,
    "desc" : "PAINTING, ENGINEER",
    "location" : {
      "id" : 4751,
      "name" : null,
      "latitude" : 43.49607,
      "longitude" : 4.0731683
    },
    "openings" : {
      "start" : [ 12, 7 ],
      "end" : [ 14, 53 ]
    },
    "preferredSlots" : null,
    "doAfter" : null,
    "nbEmpRequired" : 1,
    "deadline" : [ 12, 10 ],
    "skills" : [ {
      "id" : 7,
      "name" : "PAINTING",
      "level" : 3
    }, {
      "id" : 1,
      "name" : "ENGINEER",
      "level" : 3
    } ],
    "duration" : 5400.000000000,
    "pause" : false
  }, {
    "id" : 193,
    "desc" : "PLUMBING, ENGINEER",
    "location" : {
      "id" : 4524,
      "name" : null,
      "latitude" : 43.61181,
      "longitude" : 4.2104254
    },
    "openings" : {
      "start" : [ 11, 21 ],
      "end" : [ 12, 45 ]
    },
    "preferredSlots" : null,
    "doAfter" : null,
    "nbEmpRequired" : 1,
    "deadline" : [ 11, 52 ],
    "skills" : [ {
      "id" : 3,
      "name" : "PLUMBING",
      "level" : 5
    }, {
      "id" : 1,
      "name" : "ENGINEER",
      "level" : 3
    } ],
    "duration" : 5400.000000000,
    "pause" : false
  }, {
    "id" : 716,
    "desc" : "MANAGEMENT",
    "location" : {
      "id" : 8855,
      "name" : null,
      "latitude" : 43.782417,
      "longitude" : 3.9428496
    },
    "openings" : {
      "start" : [ 12, 10 ],
      "end" : [ 17, 10 ]
    },
    "preferredSlots" : null,
    "doAfter" : null,
    "nbEmpRequired" : 1,
    "deadline" : [ 15, 10 ],
    "skills" : [ {
      "id" : 0,
      "name" : "MANAGEMENT",
      "level" : 2
    } ],
    "duration" : 5400.000000000,
    "pause" : false
  }, {
    "id" : 299,
    "desc" : "ELECTRICIAN",
    "location" : {
      "id" : 4909,
      "name" : null,
      "latitude" : 43.643547,
      "longitude" : 4.1268225
    },
    "openings" : {
      "start" : [ 12, 25 ],
      "end" : [ 14, 19 ]
    },
    "preferredSlots" : null,
    "doAfter" : null,
    "nbEmpRequired" : 1,
    "deadline" : [ 12, 26 ],
    "skills" : [ {
      "id" : 2,
      "name" : "ELECTRICIAN",
      "level" : 4
    } ],
    "duration" : 5400.000000000,
    "pause" : false
  }, {
    "id" : 117,
    "desc" : "IRONWORK, TILER",
    "location" : {
      "id" : 2467,
      "name" : null,
      "latitude" : 44.083416,
      "longitude" : 4.228549
    },
    "openings" : {
      "start" : [ 15, 12 ],
      "end" : [ 15, 23 ]
    },
    "preferredSlots" : null,
    "doAfter" : null,
    "nbEmpRequired" : 1,
    "deadline" : [ 10, 36 ],
    "skills" : [ {
      "id" : 8,
      "name" : "IRONWORK",
      "level" : 4
    }, {
      "id" : 9,
      "name" : "TILER",
      "level" : 1
    } ],
    "duration" : 5400.000000000,
    "pause" : false
  }, {
    "id" : 488,
    "desc" : "CARPENTRY",
    "location" : {
      "id" : 2489,
      "name" : null,
      "latitude" : 43.854027,
      "longitude" : 4.248616
    },
    "openings" : {
      "start" : [ 14, 42 ],
      "end" : [ 17, 8 ]
    },
    "preferredSlots" : null,
    "doAfter" : null,
    "nbEmpRequired" : 1,
    "deadline" : [ 16, 7 ],
    "skills" : [ {
      "id" : 6,
      "name" : "CARPENTRY",
      "level" : 1
    } ],
    "duration" : 5400.000000000,
    "pause" : false
  }, {
    "id" : 361,
    "desc" : "GLAZING",
    "location" : {
      "id" : 6599,
      "name" : null,
      "latitude" : 44.03283,
      "longitude" : 4.075055
    },
    "openings" : {
      "start" : [ 14, 28 ],
      "end" : [ 15, 40 ]
    },
    "preferredSlots" : null,
    "doAfter" : null,
    "nbEmpRequired" : 1,
    "deadline" : [ 17, 27 ],
    "skills" : [ {
      "id" : 5,
      "name" : "GLAZING",
      "level" : 3
    } ],
    "duration" : 5400.000000000,
    "pause" : false
  }, {
    "id" : 490,
    "desc" : "PLUMBING",
    "location" : {
      "id" : 1061,
      "name" : null,
      "latitude" : 44.064102,
      "longitude" : 3.7138677
    },
    "openings" : {
      "start" : [ 11, 40 ],
      "end" : [ 15, 53 ]
    },
    "preferredSlots" : null,
    "doAfter" : null,
    "nbEmpRequired" : 1,
    "deadline" : [ 12, 59 ],
    "skills" : [ {
      "id" : 3,
      "name" : "PLUMBING",
      "level" : 3
    } ],
    "duration" : 5400.000000000,
    "pause" : false
  }, {
    "id" : 488,
    "desc" : "GLAZING, CARPENTRY",
    "location" : {
      "id" : 2889,
      "name" : null,
      "latitude" : 44.046703,
      "longitude" : 3.8810813
    },
    "openings" : {
      "start" : [ 9, 29 ],
      "end" : [ 12, 15 ]
    },
    "preferredSlots" : null,
    "doAfter" : null,
    "nbEmpRequired" : 1,
    "deadline" : [ 12, 43 ],
    "skills" : [ {
      "id" : 5,
      "name" : "GLAZING",
      "level" : 3
    }, {
      "id" : 6,
      "name" : "CARPENTRY",
      "level" : 4
    } ],
    "duration" : 5400.000000000,
    "pause" : false
  }, {
    "id" : 102,
    "desc" : "GLAZING",
    "location" : {
      "id" : 1202,
      "name" : null,
      "latitude" : 43.978413,
      "longitude" : 4.2568164
    },
    "openings" : {
      "start" : [ 12, 51 ],
      "end" : [ 16, 48 ]
    },
    "preferredSlots" : null,
    "doAfter" : null,
    "nbEmpRequired" : 1,
    "deadline" : [ 12, 55 ],
    "skills" : [ {
      "id" : 5,
      "name" : "GLAZING",
      "level" : 1
    } ],
    "duration" : 5400.000000000,
    "pause" : false
  }, {
    "id" : 342,
    "desc" : "MASONRY",
    "location" : {
      "id" : 3062,
      "name" : null,
      "latitude" : 43.697807,
      "longitude" : 4.107028
    },
    "openings" : {
      "start" : [ 11, 5 ],
      "end" : [ 14, 23 ]
    },
    "preferredSlots" : null,
    "doAfter" : null,
    "nbEmpRequired" : 1,
    "deadline" : [ 16, 36 ],
    "skills" : [ {
      "id" : 4,
      "name" : "MASONRY",
      "level" : 2
    } ],
    "duration" : 5400.000000000,
    "pause" : false
  }, {
    "id" : 854,
    "desc" : "PLUMBING",
    "location" : {
      "id" : 3909,
      "name" : null,
      "latitude" : 43.56301,
      "longitude" : 3.8136697
    },
    "openings" : {
      "start" : [ 9, 37 ],
      "end" : [ 17, 12 ]
    },
    "preferredSlots" : null,
    "doAfter" : null,
    "nbEmpRequired" : 1,
    "deadline" : [ 11, 8 ],
    "skills" : [ {
      "id" : 3,
      "name" : "PLUMBING",
      "level" : 2
    } ],
    "duration" : 5400.000000000,
    "pause" : false
  }, {
    "id" : 336,
    "desc" : "GLAZING",
    "location" : {
      "id" : 2634,
      "name" : null,
      "latitude" : 43.403053,
      "longitude" : 4.2643337
    },
    "openings" : {
      "start" : [ 10, 32 ],
      "end" : [ 13, 58 ]
    },
    "preferredSlots" : null,
    "doAfter" : null,
    "nbEmpRequired" : 1,
    "deadline" : [ 13, 48 ],
    "skills" : [ {
      "id" : 5,
      "name" : "GLAZING",
      "level" : 5
    } ],
    "duration" : 5400.000000000,
    "pause" : false
  }, {
    "id" : 306,
    "desc" : "CARPENTRY, ENGINEER",
    "location" : {
      "id" : 512,
      "name" : null,
      "latitude" : 43.782417,
      "longitude" : 3.9322808
    },
    "openings" : {
      "start" : [ 13, 34 ],
      "end" : [ 17, 56 ]
    },
    "preferredSlots" : null,
    "doAfter" : null,
    "nbEmpRequired" : 1,
    "deadline" : [ 11, 3 ],
    "skills" : [ {
      "id" : 6,
      "name" : "CARPENTRY",
      "level" : 5
    }, {
      "id" : 1,
      "name" : "ENGINEER",
      "level" : 2
    } ],
    "duration" : 5400.000000000,
    "pause" : false
  }, {
    "id" : 763,
    "desc" : "CARPENTRY, IRONWORK",
    "location" : {
      "id" : 8034,
      "name" : null,
      "latitude" : 43.811153,
      "longitude" : 4.013882
    },
    "openings" : {
      "start" : [ 10, 52 ],
      "end" : [ 16, 27 ]
    },
    "preferredSlots" : null,
    "doAfter" : null,
    "nbEmpRequired" : 1,
    "deadline" : [ 13, 52 ],
    "skills" : [ {
      "id" : 6,
      "name" : "CARPENTRY",
      "level" : 2
    }, {
      "id" : 8,
      "name" : "IRONWORK",
      "level" : 4
    } ],
    "duration" : 7200.000000000,
    "pause" : false
  }, {
    "id" : 168,
    "desc" : "IRONWORK, ENGINEER",
    "location" : {
      "id" : 1236,
      "name" : null,
      "latitude" : 43.917625,
      "longitude" : 3.9202106
    },
    "openings" : {
      "start" : [ 11, 21 ],
      "end" : [ 11, 42 ]
    },
    "preferredSlots" : null,
    "doAfter" : null,
    "nbEmpRequired" : 1,
    "deadline" : [ 14, 3 ],
    "skills" : [ {
      "id" : 8,
      "name" : "IRONWORK",
      "level" : 5
    }, {
      "id" : 1,
      "name" : "ENGINEER",
      "level" : 1
    } ],
    "duration" : 7200.000000000,
    "pause" : false
  }, {
    "id" : 14,
    "desc" : "CARPENTRY",
    "location" : {
      "id" : 2060,
      "name" : null,
      "latitude" : 44.082474,
      "longitude" : 4.217968
    },
    "openings" : {
      "start" : [ 15, 3 ],
      "end" : [ 17, 59 ]
    },
    "preferredSlots" : null,
    "doAfter" : null,
    "nbEmpRequired" : 1,
    "deadline" : [ 9, 12 ],
    "skills" : [ {
      "id" : 6,
      "name" : "CARPENTRY",
      "level" : 5
    } ],
    "duration" : 7200.000000000,
    "pause" : false
  }, {
    "id" : 799,
    "desc" : "MANAGEMENT",
    "location" : {
      "id" : 323,
      "name" : null,
      "latitude" : 43.870594,
      "longitude" : 3.9928508
    },
    "openings" : {
      "start" : [ 10, 11 ],
      "end" : [ 14, 11 ]
    },
    "preferredSlots" : null,
    "doAfter" : null,
    "nbEmpRequired" : 1,
    "deadline" : [ 15, 59 ],
    "skills" : [ {
      "id" : 0,
      "name" : "MANAGEMENT",
      "level" : 4
    } ],
    "duration" : 7200.000000000,
    "pause" : false
  }, {
    "id" : 862,
    "desc" : "MASONRY, PLUMBING",
    "location" : {
      "id" : 9148,
      "name" : null,
      "latitude" : 43.885323,
      "longitude" : 3.9474616
    },
    "openings" : {
      "start" : [ 10, 9 ],
      "end" : [ 13, 29 ]
    },
    "preferredSlots" : null,
    "doAfter" : null,
    "nbEmpRequired" : 1,
    "deadline" : [ 9, 9 ],
    "skills" : [ {
      "id" : 4,
      "name" : "MASONRY",
      "level" : 2
    }, {
      "id" : 3,
      "name" : "PLUMBING",
      "level" : 2
    } ],
    "duration" : 7200.000000000,
    "pause" : false
  }, {
    "id" : 699,
    "desc" : "PLUMBING, IRONWORK",
    "location" : {
      "id" : 7375,
      "name" : null,
      "latitude" : 43.617058,
      "longitude" : 4.089015
    },
    "openings" : {
      "start" : [ 11, 26 ],
      "end" : [ 14, 2 ]
    },
    "preferredSlots" : null,
    "doAfter" : null,
    "nbEmpRequired" : 1,
    "deadline" : [ 14, 49 ],
    "skills" : [ {
      "id" : 3,
      "name" : "PLUMBING",
      "level" : 2
    }, {
      "id" : 8,
      "name" : "IRONWORK",
      "level" : 1
    } ],
    "duration" : 7200.000000000,
    "pause" : false
  } ],
  "valid" : true
}