{
  "listEdt" : [ {
    "emp" : {
      "id" : 30,
      "name" : "30",
      "shifts" : [ {
        "start" : [ 9, 0 ],
        "end" : [ 12, 0 ]
      }, {
        "start" : [ 13, 0 ],
        "end" : [ 17, 0 ]
      } ],
      "prefSlots" : null,
      "startingLoc" : {
        "id" : 2431,
        "name" : null,
        "latitude" : 43.480045,
        "longitude" : 3.9367967
      },
      "skills" : [ {
        "id" : 2,
        "name" : "ELECTRICIAN",
        "level" : 4
      }, {
        "id" : 6,
        "name" : "CARPENTRY",
        "level" : 8
      }, {
        "id" : 8,
        "name" : "IRONWORK",
        "level" : 10
      }, {
        "id" : 0,
        "name" : "MANAGEMENT",
        "level" : 2
      }, {
        "id" : 0,
        "name" : "MANAGEMENT",
        "level" : 5
      }, {
        "id" : 5,
        "name" : "GLAZING",
        "level" : 2
      }, {
        "id" : 8,
        "name" : "IRONWORK",
        "level" : 7
      }, {
        "id" : 0,
        "name" : "MANAGEMENT",
        "level" : 6
      }, {
        "id" : 2,
        "name" : "ELECTRICIAN",
        "level" : 5
      }, {
        "id" : 8,
        "name" : "IRONWORK",
        "level" : 7
      } ]
    },
    "planning" : [ {
      "job" : {
        "id" : -1,
        "desc" : "Home",
        "location" : {
          "id" : 2431,
          "name" : null,
          "latitude" : 43.480045,
          "longitude" : 3.9367967
        },
        "openings" : null,
        "preferredSlots" : null,
        "doAfter" : null,
        "nbEmpRequired" : 1,
        "deadline" : null,
        "skills" : [ ],
        "duration" : null,
        "pause" : true
      },
      "window" : {
        "start" : [ 9, 0 ],
        "end" : [ 9, 0 ]
      }
    }, {
      "job" : {
        "id" : 199,
        "desc" : "MANAGEMENT",
        "location" : {
          "id" : 6844,
          "name" : null,
          "latitude" : 43.695843,
          "longitude" : 3.7457974
        },
        "openings" : {
          "start" : [ 12, 17 ],
          "end" : [ 15, 2 ]
        },
        "preferredSlots" : null,
        "doAfter" : null,
        "nbEmpRequired" : 1,
        "deadline" : [ 10, 47 ],
        "skills" : [ {
          "id" : 0,
          "name" : "MANAGEMENT",
          "level" : 3
        } ],
        "duration" : 1800.000000000,
        "pause" : false
      },
      "window" : {
        "start" : [ 9, 29 ],
        "end" : [ 9, 59 ]
      }
    }, {
      "job" : {
        "id" : 455,
        "desc" : "ELECTRICIAN",
        "location" : {
          "id" : 2931,
          "name" : null,
          "latitude" : 43.536217,
          "longitude" : 4.018485
        },
        "openings" : {
          "start" : [ 9, 32 ],
          "end" : [ 11, 26 ]
        },
        "preferredSlots" : null,
        "doAfter" : null,
        "nbEmpRequired" : 1,
        "deadline" : [ 10, 16 ],
        "skills" : [ {
          "id" : 2,
          "name" : "ELECTRICIAN",
          "level" : 3
        } ],
        "duration" : 1800.000000000,
        "pause" : false
      },
      "window" : {
        "start" : [ 10, 28 ],
        "end" : [ 10, 58 ]
      }
    }, {
      "job" : {
        "id" : 972,
        "desc" : "MANAGEMENT, GLAZING",
        "location" : {
          "id" : 9858,
          "name" : null,
          "latitude" : 43.456882,
          "longitude" : 4.288132
        },
        "openings" : {
          "start" : [ 16, 51 ],
          "end" : [ 17, 5 ]
        },
        "preferredSlots" : null,
        "doAfter" : null,
        "nbEmpRequired" : 1,
        "deadline" : [ 9, 14 ],
        "skills" : [ {
          "id" : 0,
          "name" : "MANAGEMENT",
          "level" : 5
        }, {
          "id" : 5,
          "name" : "GLAZING",
          "level" : 2
        } ],
        "duration" : 1800.000000000,
        "pause" : false
      },
      "window" : {
        "start" : [ 11, 22 ],
        "end" : [ 11, 52 ]
      }
    }, {
      "job" : {
        "id" : -1,
        "desc" : "Pause",
        "location" : {
          "id" : 9858,
          "name" : null,
          "latitude" : 43.456882,
          "longitude" : 4.288132
        },
        "openings" : {
          "start" : [ 16, 51 ],
          "end" : [ 17, 5 ]
        },
        "preferredSlots" : null,
        "doAfter" : null,
        "nbEmpRequired" : 1,
        "deadline" : [ 9, 14 ],
        "skills" : [ {
          "id" : 0,
          "name" : "MANAGEMENT",
          "level" : 5
        }, {
          "id" : 5,
          "name" : "GLAZING",
          "level" : 2
        } ],
        "duration" : 1800.000000000,
        "pause" : true
      },
      "window" : {
        "start" : [ 11, 53 ],
        "end" : [ 13, 0 ]
      }
    }, {
      "job" : {
        "id" : 812,
        "desc" : "MANAGEMENT",
        "location" : {
          "id" : 5192,
          "name" : null,
          "latitude" : 43.683994,
          "longitude" : 4.010044
        },
        "openings" : {
          "start" : [ 15, 3 ],
          "end" : [ 15, 52 ]
        },
        "preferredSlots" : null,
        "doAfter" : null,
        "nbEmpRequired" : 1,
        "deadline" : [ 14, 52 ],
        "skills" : [ {
          "id" : 0,
          "name" : "MANAGEMENT",
          "level" : 1
        } ],
        "duration" : 1800.000000000,
        "pause" : false
      },
      "window" : {
        "start" : [ 13, 34 ],
        "end" : [ 14, 4 ]
      }
    }, {
      "job" : {
        "id" : 433,
        "desc" : "IRONWORK",
        "location" : {
          "id" : 645,
          "name" : null,
          "latitude" : 44.08648,
          "longitude" : 4.111018
        },
        "openings" : {
          "start" : [ 11, 21 ],
          "end" : [ 16, 46 ]
        },
        "preferredSlots" : null,
        "doAfter" : null,
        "nbEmpRequired" : 1,
        "deadline" : [ 9, 17 ],
        "skills" : [ {
          "id" : 8,
          "name" : "IRONWORK",
          "level" : 5
        } ],
        "duration" : 1800.000000000,
        "pause" : false
      },
      "window" : {
        "start" : [ 14, 50 ],
        "end" : [ 15, 20 ]
      }
    }, {
      "job" : {
        "id" : 285,
        "desc" : "ELECTRICIAN",
        "location" : {
          "id" : 7436,
          "name" : null,
          "latitude" : 43.611847,
          "longitude" : 4.2789373
        },
        "openings" : {
          "start" : [ 9, 59 ],
          "end" : [ 13, 59 ]
        },
        "preferredSlots" : null,
        "doAfter" : null,
        "nbEmpRequired" : 1,
        "deadline" : [ 14, 43 ],
        "skills" : [ {
          "id" : 2,
          "name" : "ELECTRICIAN",
          "level" : 5
        } ],
        "duration" : 1800.000000000,
        "pause" : false
      },
      "window" : {
        "start" : [ 16, 15 ],
        "end" : [ 16, 45 ]
      }
    } ],
    "driving" : 13020.000000000,
    "valid" : true
  }, {
    "emp" : {
      "id" : 752,
      "name" : "752",
      "shifts" : [ {
        "start" : [ 9, 0 ],
        "end" : [ 12, 0 ]
      }, {
        "start" : [ 13, 0 ],
        "end" : [ 17, 0 ]
      } ],
      "prefSlots" : null,
      "startingLoc" : {
        "id" : 2006,
        "name" : null,
        "latitude" : 43.726048,
        "longitude" : 3.9307427
      },
      "skills" : [ {
        "id" : 7,
        "name" : "PAINTING",
        "level" : 6
      }, {
        "id" : 7,
        "name" : "PAINTING",
        "level" : 4
      }, {
        "id" : 4,
        "name" : "MASONRY",
        "level" : 9
      }, {
        "id" : 5,
        "name" : "GLAZING",
        "level" : 4
      }, {
        "id" : 5,
        "name" : "GLAZING",
        "level" : 7
      }, {
        "id" : 1,
        "name" : "ENGINEER",
        "level" : 9
      }, {
        "id" : 9,
        "name" : "TILER",
        "level" : 3
      } ]
    },
    "planning" : [ {
      "job" : {
        "id" : -1,
        "desc" : "Home",
        "location" : {
          "id" : 2006,
          "name" : null,
          "latitude" : 43.726048,
          "longitude" : 3.9307427
        },
        "openings" : null,
        "preferredSlots" : null,
        "doAfter" : null,
        "nbEmpRequired" : 1,
        "deadline" : null,
        "skills" : [ ],
        "duration" : null,
        "pause" : true
      },
      "window" : {
        "start" : [ 9, 0 ],
        "end" : [ 9, 0 ]
      }
    }, {
      "job" : {
        "id" : 773,
        "desc" : "MASONRY, GLAZING",
        "location" : {
          "id" : 7511,
          "name" : null,
          "latitude" : 43.889423,
          "longitude" : 3.7369447
        },
        "openings" : {
          "start" : [ 12, 50 ],
          "end" : [ 17, 22 ]
        },
        "preferredSlots" : null,
        "doAfter" : null,
        "nbEmpRequired" : 1,
        "deadline" : [ 15, 55 ],
        "skills" : [ {
          "id" : 4,
          "name" : "MASONRY",
          "level" : 4
        }, {
          "id" : 5,
          "name" : "GLAZING",
          "level" : 3
        } ],
        "duration" : 1800.000000000,
        "pause" : false
      },
      "window" : {
        "start" : [ 9, 24 ],
        "end" : [ 9, 54 ]
      }
    }, {
      "job" : {
        "id" : 888,
        "desc" : "PAINTING, MASONRY",
        "location" : {
          "id" : 4908,
          "name" : null,
          "latitude" : 43.652737,
          "longitude" : 4.061863
        },
        "openings" : {
          "start" : [ 9, 16 ],
          "end" : [ 11, 22 ]
        },
        "preferredSlots" : null,
        "doAfter" : null,
        "nbEmpRequired" : 1,
        "deadline" : [ 17, 20 ],
        "skills" : [ {
          "id" : 7,
          "name" : "PAINTING",
          "level" : 1
        }, {
          "id" : 4,
          "name" : "MASONRY",
          "level" : 3
        } ],
        "duration" : 1800.000000000,
        "pause" : false
      },
      "window" : {
        "start" : [ 10, 32 ],
        "end" : [ 11, 2 ]
      }
    }, {
      "job" : {
        "id" : 640,
        "desc" : "ENGINEER",
        "location" : {
          "id" : 2700,
          "name" : null,
          "latitude" : 43.694256,
          "longitude" : 4.153064
        },
        "openings" : {
          "start" : [ 9, 27 ],
          "end" : [ 11, 40 ]
        },
        "preferredSlots" : null,
        "doAfter" : null,
        "nbEmpRequired" : 1,
        "deadline" : [ 16, 37 ],
        "skills" : [ {
          "id" : 1,
          "name" : "ENGINEER",
          "level" : 4
        } ],
        "duration" : 1800.000000000,
        "pause" : false
      },
      "window" : {
        "start" : [ 11, 11 ],
        "end" : [ 11, 41 ]
      }
    }, {
      "job" : {
        "id" : -1,
        "desc" : "Pause",
        "location" : {
          "id" : 2700,
          "name" : null,
          "latitude" : 43.694256,
          "longitude" : 4.153064
        },
        "openings" : {
          "start" : [ 9, 27 ],
          "end" : [ 11, 40 ]
        },
        "preferredSlots" : null,
        "doAfter" : null,
        "nbEmpRequired" : 1,
        "deadline" : [ 16, 37 ],
        "skills" : [ {
          "id" : 1,
          "name" : "ENGINEER",
          "level" : 4
        } ],
        "duration" : 1800.000000000,
        "pause" : true
      },
      "window" : {
        "start" : [ 11, 42 ],
        "end" : [ 13, 0 ]
      }
    }, {
      "job" : {
        "id" : 748,
        "desc" : "PAINTING, ENGINEER",
        "location" : {
          "id" : 1473,
          "name" : null,
          "latitude" : 43.64998,
          "longitude" : 3.8544812
        },
        "openings" : {
          "start" : [ 12, 35 ],
          "end" : [ 15, 38 ]
        },
        "preferredSlots" : null,
        "doAfter" : null,
        "nbEmpRequired" : 1,
        "deadline" : [ 17, 4 ],
        "skills" : [ {
          "id" : 7,
          "name" : "PAINTING",
          "level" : 1
        }, {
          "id" : 1,
          "name" : "ENGINEER",
          "level" : 5
        } ],
        "duration" : 2700.000000000,
        "pause" : false
      },
      "window" : {
        "start" : [ 13, 25 ],
        "end" : [ 14, 10 ]
      }
    }, {
      "job" : {
        "id" : 400,
        "desc" : "TILER",
        "location" : {
          "id" : 2666,
          "name" : null,
          "latitude" : 43.92258,
          "longitude" : 3.7637672
        },
        "openings" : {
          "start" : [ 12, 0 ],
          "end" : [ 17, 42 ]
        },
        "preferredSlots" : null,
        "doAfter" : null,
        "nbEmpRequired" : 1,
        "deadline" : [ 15, 18 ],
        "skills" : [ {
          "id" : 9,
          "name" : "TILER",
          "level" : 1
        } ],
        "duration" : 2700.000000000,
        "pause" : false
      },
      "window" : {
        "start" : [ 14, 42 ],
        "end" : [ 15, 27 ]
      }
    }, {
      "job" : {
        "id" : 389,
        "desc" : "MASONRY, ENGINEER",
        "location" : {
          "id" : 2897,
          "name" : null,
          "latitude" : 43.80802,
          "longitude" : 3.881055
        },
        "openings" : {
          "start" : [ 9, 8 ],
          "end" : [ 13, 1 ]
        },
        "preferredSlots" : null,
        "doAfter" : null,
        "nbEmpRequired" : 1,
        "deadline" : [ 13, 2 ],
        "skills" : [ {
          "id" : 4,
          "name" : "MASONRY",
          "level" : 2
        }, {
          "id" : 1,
          "name" : "ENGINEER",
          "level" : 2
        } ],
        "duration" : 2700.000000000,
        "pause" : false
      },
      "window" : {
        "start" : [ 15, 43 ],
        "end" : [ 16, 28 ]
      }
    } ],
    "driving" : 8640.000000000,
    "valid" : true
  }, {
    "emp" : {
      "id" : 400,
      "name" : "400",
      "shifts" : [ {
        "start" : [ 9, 0 ],
        "end" : [ 12, 0 ]
      }, {
        "start" : [ 13, 0 ],
        "end" : [ 17, 0 ]
      } ],
      "prefSlots" : null,
      "startingLoc" : {
        "id" : 1680,
        "name" : null,
        "latitude" : 43.529922,
        "longitude" : 4.1917257
      },
      "skills" : [ {
        "id" : 4,
        "name" : "MASONRY",
        "level" : 5
      }, {
        "id" : 0,
        "name" : "MANAGEMENT",
        "level" : 4
      }, {
        "id" : 8,
        "name" : "IRONWORK",
        "level" : 6
      }, {
        "id" : 9,
        "name" : "TILER",
        "level" : 10
      }, {
        "id" : 7,
        "name" : "PAINTING",
        "level" : 10
      }, {
        "id" : 1,
        "name" : "ENGINEER",
        "level" : 1
      }, {
        "id" : 2,
        "name" : "ELECTRICIAN",
        "level" : 2
      }, {
        "id" : 6,
        "name" : "CARPENTRY",
        "level" : 5
      }, {
        "id" : 8,
        "name" : "IRONWORK",
        "level" : 10
      } ]
    },
    "planning" : [ {
      "job" : {
        "id" : -1,
        "desc" : "Home",
        "location" : {
          "id" : 1680,
          "name" : null,
          "latitude" : 43.529922,
          "longitude" : 4.1917257
        },
        "openings" : null,
        "preferredSlots" : null,
        "doAfter" : null,
        "nbEmpRequired" : 1,
        "deadline" : null,
        "skills" : [ ],
        "duration" : null,
        "pause" : true
      },
      "window" : {
        "start" : [ 9, 0 ],
        "end" : [ 9, 0 ]
      }
    }, {
      "job" : {
        "id" : 312,
        "desc" : "CARPENTRY, MASONRY",
        "location" : {
          "id" : 1173,
          "name" : null,
          "latitude" : 43.962353,
          "longitude" : 3.8563538
        },
        "openings" : {
          "start" : [ 11, 31 ],
          "end" : [ 13, 25 ]
        },
        "preferredSlots" : null,
        "doAfter" : null,
        "nbEmpRequired" : 1,
        "deadline" : [ 17, 26 ],
        "skills" : [ {
          "id" : 6,
          "name" : "CARPENTRY",
          "level" : 1
        }, {
          "id" : 4,
          "name" : "MASONRY",
          "level" : 3
        } ],
        "duration" : 1800.000000000,
        "pause" : false
      },
      "window" : {
        "start" : [ 9, 56 ],
        "end" : [ 10, 26 ]
      }
    }, {
      "job" : {
        "id" : 160,
        "desc" : "CARPENTRY",
        "location" : {
          "id" : 4712,
          "name" : null,
          "latitude" : 43.44793,
          "longitude" : 3.9662395
        },
        "openings" : {
          "start" : [ 10, 43 ],
          "end" : [ 17, 36 ]
        },
        "preferredSlots" : null,
        "doAfter" : null,
        "nbEmpRequired" : 1,
        "deadline" : [ 14, 58 ],
        "skills" : [ {
          "id" : 6,
          "name" : "CARPENTRY",
          "level" : 1
        } ],
        "duration" : 1800.000000000,
        "pause" : false
      },
      "window" : {
        "start" : [ 11, 24 ],
        "end" : [ 11, 54 ]
      }
    }, {
      "job" : {
        "id" : -1,
        "desc" : "Pause",
        "location" : {
          "id" : 4712,
          "name" : null,
          "latitude" : 43.44793,
          "longitude" : 3.9662395
        },
        "openings" : {
          "start" : [ 10, 43 ],
          "end" : [ 17, 36 ]
        },
        "preferredSlots" : null,
        "doAfter" : null,
        "nbEmpRequired" : 1,
        "deadline" : [ 14, 58 ],
        "skills" : [ {
          "id" : 6,
          "name" : "CARPENTRY",
          "level" : 1
        } ],
        "duration" : 1800.000000000,
        "pause" : true
      },
      "window" : {
        "start" : [ 11, 55 ],
        "end" : [ 13, 0 ]
      }
    }, {
      "job" : {
        "id" : 268,
        "desc" : "ELECTRICIAN, PAINTING",
        "location" : {
          "id" : 3589,
          "name" : null,
          "latitude" : 43.528378,
          "longitude" : 4.256553
        },
        "openings" : {
          "start" : [ 9, 28 ],
          "end" : [ 17, 27 ]
        },
        "preferredSlots" : null,
        "doAfter" : null,
        "nbEmpRequired" : 1,
        "deadline" : [ 15, 20 ],
        "skills" : [ {
          "id" : 2,
          "name" : "ELECTRICIAN",
          "level" : 1
        }, {
          "id" : 7,
          "name" : "PAINTING",
          "level" : 5
        } ],
        "duration" : 1800.000000000,
        "pause" : false
      },
      "window" : {
        "start" : [ 13, 26 ],
        "end" : [ 13, 56 ]
      }
    }, {
      "job" : {
        "id" : 661,
        "desc" : "MANAGEMENT, MASONRY",
        "location" : {
          "id" : 7636,
          "name" : null,
          "latitude" : 43.653664,
          "longitude" : 4.1761127
        },
        "openings" : {
          "start" : [ 11, 46 ],
          "end" : [ 13, 36 ]
        },
        "preferredSlots" : null,
        "doAfter" : null,
        "nbEmpRequired" : 1,
        "deadline" : [ 16, 59 ],
        "skills" : [ {
          "id" : 0,
          "name" : "MANAGEMENT",
          "level" : 4
        }, {
          "id" : 4,
          "name" : "MASONRY",
          "level" : 1
        } ],
        "duration" : 2700.000000000,
        "pause" : false
      },
      "window" : {
        "start" : [ 14, 12 ],
        "end" : [ 14, 57 ]
      }
    }, {
      "job" : {
        "id" : 433,
        "desc" : "CARPENTRY, ELECTRICIAN",
        "location" : {
          "id" : 3776,
          "name" : null,
          "latitude" : 43.464268,
          "longitude" : 4.0822
        },
        "openings" : {
          "start" : [ 14, 54 ],
          "end" : [ 16, 58 ]
        },
        "preferredSlots" : null,
        "doAfter" : null,
        "nbEmpRequired" : 1,
        "deadline" : [ 15, 3 ],
        "skills" : [ {
          "id" : 6,
          "name" : "CARPENTRY",
          "level" : 2
        }, {
          "id" : 2,
          "name" : "ELECTRICIAN",
          "level" : 2
        } ],
        "duration" : 2700.000000000,
        "pause" : false
      },
      "window" : {
        "start" : [ 15, 20 ],
        "end" : [ 16, 5 ]
      }
    }, {
      "job" : {
        "id" : 335,
        "desc" : "CARPENTRY, PAINTING",
        "location" : {
          "id" : 4963,
          "name" : null,
          "latitude" : 43.544956,
          "longitude" : 4.1235247
        },
        "openings" : {
          "start" : [ 9, 23 ],
          "end" : [ 17, 17 ]
        },
        "preferredSlots" : null,
        "doAfter" : null,
        "nbEmpRequired" : 1,
        "deadline" : [ 9, 28 ],
        "skills" : [ {
          "id" : 6,
          "name" : "CARPENTRY",
          "level" : 1
        }, {
          "id" : 7,
          "name" : "PAINTING",
          "level" : 3
        } ],
        "duration" : 2700.000000000,
        "pause" : false
      },
      "window" : {
        "start" : [ 16, 15 ],
        "end" : [ 17, 0 ]
      }
    } ],
    "driving" : 11340.000000000,
    "valid" : true
  }, {
    "emp" : {
      "id" : 287,
      "name" : "287",
      "shifts" : [ {
        "start" : [ 9, 0 ],
        "end" : [ 12, 0 ]
      }, {
        "start" : [ 13, 0 ],
        "end" : [ 17, 0 ]
      } ],
      "prefSlots" : null,
      "startingLoc" : {
        "id" : 8163,
        "name" : null,
        "latitude" : 43.735023,
        "longitude" : 3.8028805
      },
      "skills" : [ {
        "id" : 5,
        "name" : "GLAZING",
        "level" : 9
      }, {
        "id" : 5,
        "name" : "GLAZING",
        "level" : 10
      }, {
        "id" : 1,
        "name" : "ENGINEER",
        "level" : 4
      }, {
        "id" : 5,
        "name" : "GLAZING",
        "level" : 4
      }, {
        "id" : 2,
        "name" : "ELECTRICIAN",
        "level" : 1
      }, {
        "id" : 0,
        "name" : "MANAGEMENT",
        "level" : 6
      }, {
        "id" : 6,
        "name" : "CARPENTRY",
        "level" : 9
      }, {
        "id" : 4,
        "name" : "MASONRY",
        "level" : 4
      }, {
        "id" : 8,
        "name" : "IRONWORK",
        "level" : 10
      }, {
        "id" : 8,
        "name" : "IRONWORK",
        "level" : 4
      } ]
    },
    "planning" : [ {
      "job" : {
        "id" : -1,
        "desc" : "Home",
        "location" : {
          "id" : 8163,
          "name" : null,
          "latitude" : 43.735023,
          "longitude" : 3.8028805
        },
        "openings" : null,
        "preferredSlots" : null,
        "doAfter" : null,
        "nbEmpRequired" : 1,
        "deadline" : null,
        "skills" : [ ],
        "duration" : null,
        "pause" : true
      },
      "window" : {
        "start" : [ 9, 0 ],
        "end" : [ 9, 0 ]
      }
    }, {
      "job" : {
        "id" : 45,
        "desc" : "ENGINEER, MANAGEMENT",
        "location" : {
          "id" : 9241,
          "name" : null,
          "latitude" : 43.668873,
          "longitude" : 4.298978
        },
        "openings" : {
          "start" : [ 11, 34 ],
          "end" : [ 14, 29 ]
        },
        "preferredSlots" : null,
        "doAfter" : null,
        "nbEmpRequired" : 1,
        "deadline" : [ 12, 1 ],
        "skills" : [ {
          "id" : 1,
          "name" : "ENGINEER",
          "level" : 2
        }, {
          "id" : 0,
          "name" : "MANAGEMENT",
          "level" : 1
        } ],
        "duration" : 2700.000000000,
        "pause" : false
      },
      "window" : {
        "start" : [ 9, 41 ],
        "end" : [ 10, 26 ]
      }
    }, {
      "job" : {
        "id" : 887,
        "desc" : "CARPENTRY",
        "location" : {
          "id" : 3817,
          "name" : null,
          "latitude" : 43.966763,
          "longitude" : 3.973022
        },
        "openings" : {
          "start" : [ 16, 36 ],
          "end" : [ 17, 12 ]
        },
        "preferredSlots" : null,
        "doAfter" : null,
        "nbEmpRequired" : 1,
        "deadline" : [ 14, 45 ],
        "skills" : [ {
          "id" : 6,
          "name" : "CARPENTRY",
          "level" : 3
        } ],
        "duration" : 2700.000000000,
        "pause" : false
      },
      "window" : {
        "start" : [ 11, 9 ],
        "end" : [ 11, 54 ]
      }
    }, {
      "job" : {
        "id" : -1,
        "desc" : "Pause",
        "location" : {
          "id" : 3817,
          "name" : null,
          "latitude" : 43.966763,
          "longitude" : 3.973022
        },
        "openings" : {
          "start" : [ 16, 36 ],
          "end" : [ 17, 12 ]
        },
        "preferredSlots" : null,
        "doAfter" : null,
        "nbEmpRequired" : 1,
        "deadline" : [ 14, 45 ],
        "skills" : [ {
          "id" : 6,
          "name" : "CARPENTRY",
          "level" : 3
        } ],
        "duration" : 2700.000000000,
        "pause" : true
      },
      "window" : {
        "start" : [ 11, 55 ],
        "end" : [ 13, 0 ]
      }
    }, {
      "job" : {
        "id" : 446,
        "desc" : "IRONWORK",
        "location" : {
          "id" : 2756,
          "name" : null,
          "latitude" : 43.809914,
          "longitude" : 4.0784597
        },
        "openings" : {
          "start" : [ 10, 57 ],
          "end" : [ 14, 28 ]
        },
        "preferredSlots" : null,
        "doAfter" : null,
        "nbEmpRequired" : 1,
        "deadline" : [ 10, 24 ],
        "skills" : [ {
          "id" : 8,
          "name" : "IRONWORK",
          "level" : 5
        } ],
        "duration" : 2700.000000000,
        "pause" : false
      },
      "window" : {
        "start" : [ 13, 20 ],
        "end" : [ 14, 5 ]
      }
    }, {
      "job" : {
        "id" : 702,
        "desc" : "MANAGEMENT, ENGINEER",
        "location" : {
          "id" : 7277,
          "name" : null,
          "latitude" : 43.72576,
          "longitude" : 3.9658065
        },
        "openings" : {
          "start" : [ 9, 43 ],
          "end" : [ 16, 26 ]
        },
        "preferredSlots" : null,
        "doAfter" : null,
        "nbEmpRequired" : 1,
        "deadline" : [ 15, 35 ],
        "skills" : [ {
          "id" : 0,
          "name" : "MANAGEMENT",
          "level" : 1
        }, {
          "id" : 1,
          "name" : "ENGINEER",
          "level" : 2
        } ],
        "duration" : 2700.000000000,
        "pause" : false
      },
      "window" : {
        "start" : [ 14, 19 ],
        "end" : [ 15, 4 ]
      }
    }, {
      "job" : {
        "id" : 465,
        "desc" : "IRONWORK, MASONRY",
        "location" : {
          "id" : 9228,
          "name" : null,
          "latitude" : 44.062317,
          "longitude" : 4.074948
        },
        "openings" : {
          "start" : [ 10, 41 ],
          "end" : [ 15, 30 ]
        },
        "preferredSlots" : null,
        "doAfter" : null,
        "nbEmpRequired" : 1,
        "deadline" : [ 12, 26 ],
        "skills" : [ {
          "id" : 8,
          "name" : "IRONWORK",
          "level" : 1
        }, {
          "id" : 4,
          "name" : "MASONRY",
          "level" : 1
        } ],
        "duration" : 2700.000000000,
        "pause" : false
      },
      "window" : {
        "start" : [ 15, 43 ],
        "end" : [ 16, 28 ]
      }
    } ],
    "driving" : 9420.000000000,
    "valid" : true
  }, {
    "emp" : {
      "id" : 255,
      "name" : "255",
      "shifts" : [ {
        "start" : [ 9, 0 ],
        "end" : [ 12, 0 ]
      }, {
        "start" : [ 13, 0 ],
        "end" : [ 17, 0 ]
      } ],
      "prefSlots" : null,
      "startingLoc" : {
        "id" : 2208,
        "name" : null,
        "latitude" : 43.84291,
        "longitude" : 3.7443047
      },
      "skills" : [ {
        "id" : 7,
        "name" : "PAINTING",
        "level" : 5
      }, {
        "id" : 0,
        "name" : "MANAGEMENT",
        "level" : 2
      }, {
        "id" : 9,
        "name" : "TILER",
        "level" : 5
      }, {
        "id" : 5,
        "name" : "GLAZING",
        "level" : 7
      }, {
        "id" : 4,
        "name" : "MASONRY",
        "level" : 1
      }, {
        "id" : 4,
        "name" : "MASONRY",
        "level" : 2
      }, {
        "id" : 9,
        "name" : "TILER",
        "level" : 5
      } ]
    },
    "planning" : [ {
      "job" : {
        "id" : -1,
        "desc" : "Home",
        "location" : {
          "id" : 2208,
          "name" : null,
          "latitude" : 43.84291,
          "longitude" : 3.7443047
        },
        "openings" : null,
        "preferredSlots" : null,
        "doAfter" : null,
        "nbEmpRequired" : 1,
        "deadline" : null,
        "skills" : [ ],
        "duration" : null,
        "pause" : true
      },
      "window" : {
        "start" : [ 9, 0 ],
        "end" : [ 9, 0 ]
      }
    }, {
      "job" : {
        "id" : 306,
        "desc" : "MANAGEMENT, TILER",
        "location" : {
          "id" : 4802,
          "name" : null,
          "latitude" : 44.042873,
          "longitude" : 3.780703
        },
        "openings" : {
          "start" : [ 15, 44 ],
          "end" : [ 16, 56 ]
        },
        "preferredSlots" : null,
        "doAfter" : null,
        "nbEmpRequired" : 1,
        "deadline" : [ 16, 59 ],
        "skills" : [ {
          "id" : 0,
          "name" : "MANAGEMENT",
          "level" : 2
        }, {
          "id" : 9,
          "name" : "TILER",
          "level" : 5
        } ],
        "duration" : 2700.000000000,
        "pause" : false
      },
      "window" : {
        "start" : [ 9, 23 ],
        "end" : [ 10, 8 ]
      }
    }, {
      "job" : {
        "id" : 322,
        "desc" : "PAINTING",
        "location" : {
          "id" : 5421,
          "name" : null,
          "latitude" : 44.08483,
          "longitude" : 4.0069423
        },
        "openings" : {
          "start" : [ 15, 53 ],
          "end" : [ 16, 50 ]
        },
        "preferredSlots" : null,
        "doAfter" : null,
        "nbEmpRequired" : 1,
        "deadline" : [ 17, 42 ],
        "skills" : [ {
          "id" : 7,
          "name" : "PAINTING",
          "level" : 1
        } ],
        "duration" : 2700.000000000,
        "pause" : false
      },
      "window" : {
        "start" : [ 10, 27 ],
        "end" : [ 11, 12 ]
      }
    }, {
      "job" : {
        "id" : -1,
        "desc" : "Pause",
        "location" : {
          "id" : 5421,
          "name" : null,
          "latitude" : 44.08483,
          "longitude" : 4.0069423
        },
        "openings" : {
          "start" : [ 15, 53 ],
          "end" : [ 16, 50 ]
        },
        "preferredSlots" : null,
        "doAfter" : null,
        "nbEmpRequired" : 1,
        "deadline" : [ 17, 42 ],
        "skills" : [ {
          "id" : 7,
          "name" : "PAINTING",
          "level" : 1
        } ],
        "duration" : 2700.000000000,
        "pause" : true
      },
      "window" : {
        "start" : [ 11, 13 ],
        "end" : [ 13, 0 ]
      }
    }, {
      "job" : {
        "id" : 25,
        "desc" : "TILER, PAINTING",
        "location" : {
          "id" : 4060,
          "name" : null,
          "latitude" : 43.531883,
          "longitude" : 4.2918024
        },
        "openings" : {
          "start" : [ 12, 10 ],
          "end" : [ 13, 15 ]
        },
        "preferredSlots" : null,
        "doAfter" : null,
        "nbEmpRequired" : 1,
        "deadline" : [ 12, 31 ],
        "skills" : [ {
          "id" : 9,
          "name" : "TILER",
          "level" : 3
        }, {
          "id" : 7,
          "name" : "PAINTING",
          "level" : 5
        } ],
        "duration" : 2700.000000000,
        "pause" : false
      },
      "window" : {
        "start" : [ 14, 6 ],
        "end" : [ 14, 51 ]
      }
    }, {
      "job" : {
        "id" : 856,
        "desc" : "MASONRY, TILER",
        "location" : {
          "id" : 4329,
          "name" : null,
          "latitude" : 43.524086,
          "longitude" : 3.9310696
        },
        "openings" : {
          "start" : [ 11, 45 ],
          "end" : [ 15, 15 ]
        },
        "preferredSlots" : null,
        "doAfter" : null,
        "nbEmpRequired" : 1,
        "deadline" : [ 9, 37 ],
        "skills" : [ {
          "id" : 4,
          "name" : "MASONRY",
          "level" : 1
        }, {
          "id" : 9,
          "name" : "TILER",
          "level" : 1
        } ],
        "duration" : 3600.000000000,
        "pause" : false
      },
      "window" : {
        "start" : [ 15, 21 ],
        "end" : [ 16, 21 ]
      }
    } ],
    "driving" : 8280.000000000,
    "valid" : true
  }, {
    "emp" : {
      "id" : 387,
      "name" : "387",
      "shifts" : [ {
        "start" : [ 9, 0 ],
        "end" : [ 12, 0 ]
      }, {
        "start" : [ 13, 0 ],
        "end" : [ 17, 0 ]
      } ],
      "prefSlots" : null,
      "startingLoc" : {
        "id" : 1082,
        "name" : null,
        "latitude" : 43.536312,
        "longitude" : 3.9720116
      },
      "skills" : [ {
        "id" : 2,
        "name" : "ELECTRICIAN",
        "level" : 3
      }, {
        "id" : 2,
        "name" : "ELECTRICIAN",
        "level" : 5
      }, {
        "id" : 3,
        "name" : "PLUMBING",
        "level" : 7
      }, {
        "id" : 5,
        "name" : "GLAZING",
        "level" : 9
      }, {
        "id" : 4,
        "name" : "MASONRY",
        "level" : 5
      }, {
        "id" : 9,
        "name" : "TILER",
        "level" : 3
      }, {
        "id" : 4,
        "name" : "MASONRY",
        "level" : 8
      }, {
        "id" : 7,
        "name" : "PAINTING",
        "level" : 10
      } ]
    },
    "planning" : [ {
      "job" : {
        "id" : -1,
        "desc" : "Home",
        "location" : {
          "id" : 1082,
          "name" : null,
          "latitude" : 43.536312,
          "longitude" : 3.9720116
        },
        "openings" : null,
        "preferredSlots" : null,
        "doAfter" : null,
        "nbEmpRequired" : 1,
        "deadline" : null,
        "skills" : [ ],
        "duration" : null,
        "pause" : true
      },
      "window" : {
        "start" : [ 9, 0 ],
        "end" : [ 9, 0 ]
      }
    }, {
      "job" : {
        "id" : 676,
        "desc" : "ELECTRICIAN",
        "location" : {
          "id" : 5335,
          "name" : null,
          "latitude" : 43.788353,
          "longitude" : 3.707978
        },
        "openings" : {
          "start" : [ 15, 10 ],
          "end" : [ 16, 44 ]
        },
        "preferredSlots" : null,
        "doAfter" : null,
        "nbEmpRequired" : 1,
        "deadline" : [ 17, 18 ],
        "skills" : [ {
          "id" : 2,
          "name" : "ELECTRICIAN",
          "level" : 5
        } ],
        "duration" : 1800.000000000,
        "pause" : false
      },
      "window" : {
        "start" : [ 9, 36 ],
        "end" : [ 10, 6 ]
      }
    }, {
      "job" : {
        "id" : 746,
        "desc" : "TILER, PLUMBING",
        "location" : {
          "id" : 2633,
          "name" : null,
          "latitude" : 43.719475,
          "longitude" : 4.100255
        },
        "openings" : {
          "start" : [ 10, 49 ],
          "end" : [ 15, 24 ]
        },
        "preferredSlots" : null,
        "doAfter" : null,
        "nbEmpRequired" : 1,
        "deadline" : [ 13, 19 ],
        "skills" : [ {
          "id" : 9,
          "name" : "TILER",
          "level" : 3
        }, {
          "id" : 3,
          "name" : "PLUMBING",
          "level" : 3
        } ],
        "duration" : 2700.000000000,
        "pause" : false
      },
      "window" : {
        "start" : [ 10, 39 ],
        "end" : [ 11, 24 ]
      }
    }, {
      "job" : {
        "id" : -1,
        "desc" : "Pause",
        "location" : {
          "id" : 2633,
          "name" : null,
          "latitude" : 43.719475,
          "longitude" : 4.100255
        },
        "openings" : {
          "start" : [ 10, 49 ],
          "end" : [ 15, 24 ]
        },
        "preferredSlots" : null,
        "doAfter" : null,
        "nbEmpRequired" : 1,
        "deadline" : [ 13, 19 ],
        "skills" : [ {
          "id" : 9,
          "name" : "TILER",
          "level" : 3
        }, {
          "id" : 3,
          "name" : "PLUMBING",
          "level" : 3
        } ],
        "duration" : 2700.000000000,
        "pause" : true
      },
      "window" : {
        "start" : [ 11, 25 ],
        "end" : [ 13, 0 ]
      }
    }, {
      "job" : {
        "id" : 682,
        "desc" : "MASONRY, PAINTING",
        "location" : {
          "id" : 4212,
          "name" : null,
          "latitude" : 43.97569,
          "longitude" : 4.2165384
        },
        "openings" : {
          "start" : [ 11, 2 ],
          "end" : [ 12, 41 ]
        },
        "preferredSlots" : null,
        "doAfter" : null,
        "nbEmpRequired" : 1,
        "deadline" : [ 15, 13 ],
        "skills" : [ {
          "id" : 4,
          "name" : "MASONRY",
          "level" : 1
        }, {
          "id" : 7,
          "name" : "PAINTING",
          "level" : 4
        } ],
        "duration" : 3600.000000000,
        "pause" : false
      },
      "window" : {
        "start" : [ 13, 30 ],
        "end" : [ 14, 30 ]
      }
    }, {
      "job" : {
        "id" : 667,
        "desc" : "GLAZING, MASONRY",
        "location" : {
          "id" : 5130,
          "name" : null,
          "latitude" : 43.914608,
          "longitude" : 3.9921448
        },
        "openings" : {
          "start" : [ 14, 35 ],
          "end" : [ 16, 20 ]
        },
        "preferredSlots" : null,
        "doAfter" : null,
        "nbEmpRequired" : 1,
        "deadline" : [ 12, 39 ],
        "skills" : [ {
          "id" : 5,
          "name" : "GLAZING",
          "level" : 2
        }, {
          "id" : 4,
          "name" : "MASONRY",
          "level" : 2
        } ],
        "duration" : 3600.000000000,
        "pause" : false
      },
      "window" : {
        "start" : [ 14, 50 ],
        "end" : [ 15, 50 ]
      }
    }, {
      "job" : {
        "id" : 94,
        "desc" : "MASONRY, ELECTRICIAN",
        "location" : {
          "id" : 7345,
          "name" : null,
          "latitude" : 43.88368,
          "longitude" : 4.0942698
        },
        "openings" : {
          "start" : [ 12, 46 ],
          "end" : [ 16, 50 ]
        },
        "preferredSlots" : null,
        "doAfter" : null,
        "nbEmpRequired" : 1,
        "deadline" : [ 16, 16 ],
        "skills" : [ {
          "id" : 4,
          "name" : "MASONRY",
          "level" : 3
        }, {
          "id" : 2,
          "name" : "ELECTRICIAN",
          "level" : 1
        } ],
        "duration" : 3600.000000000,
        "pause" : false
      },
      "window" : {
        "start" : [ 15, 59 ],
        "end" : [ 16, 59 ]
      }
    } ],
    "driving" : 7680.000000000,
    "valid" : true
  }, {
    "emp" : {
      "id" : 210,
      "name" : "210",
      "shifts" : [ {
        "start" : [ 9, 0 ],
        "end" : [ 12, 0 ]
      }, {
        "start" : [ 13, 0 ],
        "end" : [ 17, 0 ]
      } ],
      "prefSlots" : null,
      "startingLoc" : {
        "id" : 4015,
        "name" : null,
        "latitude" : 43.467636,
        "longitude" : 4.246949
      },
      "skills" : [ {
        "id" : 7,
        "name" : "PAINTING",
        "level" : 3
      }, {
        "id" : 0,
        "name" : "MANAGEMENT",
        "level" : 6
      }, {
        "id" : 6,
        "name" : "CARPENTRY",
        "level" : 4
      }, {
        "id" : 3,
        "name" : "PLUMBING",
        "level" : 5
      }, {
        "id" : 1,
        "name" : "ENGINEER",
        "level" : 10
      }, {
        "id" : 1,
        "name" : "ENGINEER",
        "level" : 2
      }, {
        "id" : 9,
        "name" : "TILER",
        "level" : 1
      }, {
        "id" : 2,
        "name" : "ELECTRICIAN",
        "level" : 10
      } ]
    },
    "planning" : [ {
      "job" : {
        "id" : -1,
        "desc" : "Home",
        "location" : {
          "id" : 4015,
          "name" : null,
          "latitude" : 43.467636,
          "longitude" : 4.246949
        },
        "openings" : null,
        "preferredSlots" : null,
        "doAfter" : null,
        "nbEmpRequired" : 1,
        "deadline" : null,
        "skills" : [ ],
        "duration" : null,
        "pause" : true
      },
      "window" : {
        "start" : [ 9, 0 ],
        "end" : [ 9, 0 ]
      }
    }, {
      "job" : {
        "id" : 653,
        "desc" : "ENGINEER",
        "location" : {
          "id" : 8575,
          "name" : null,
          "latitude" : 43.767597,
          "longitude" : 4.211349
        },
        "openings" : {
          "start" : [ 16, 37 ],
          "end" : [ 17, 17 ]
        },
        "preferredSlots" : null,
        "doAfter" : null,
        "nbEmpRequired" : 1,
        "deadline" : [ 12, 6 ],
        "skills" : [ {
          "id" : 1,
          "name" : "ENGINEER",
          "level" : 5
        } ],
        "duration" : 3600.000000000,
        "pause" : false
      },
      "window" : {
        "start" : [ 9, 34 ],
        "end" : [ 10, 34 ]
      }
    }, {
      "job" : {
        "id" : -1,
        "desc" : "Pause",
        "location" : {
          "id" : 8575,
          "name" : null,
          "latitude" : 43.767597,
          "longitude" : 4.211349
        },
        "openings" : {
          "start" : [ 16, 37 ],
          "end" : [ 17, 17 ]
        },
        "preferredSlots" : null,
        "doAfter" : null,
        "nbEmpRequired" : 1,
        "deadline" : [ 12, 6 ],
        "skills" : [ {
          "id" : 1,
          "name" : "ENGINEER",
          "level" : 5
        } ],
        "duration" : 3600.000000000,
        "pause" : true
      },
      "window" : {
        "start" : [ 10, 35 ],
        "end" : [ 13, 0 ]
      }
    }, {
      "job" : {
        "id" : 171,
        "desc" : "PLUMBING, CARPENTRY",
        "location" : {
          "id" : 2651,
          "name" : null,
          "latitude" : 43.801064,
          "longitude" : 4.097839
        },
        "openings" : {
          "start" : [ 12, 41 ],
          "end" : [ 17, 42 ]
        },
        "preferredSlots" : null,
        "doAfter" : null,
        "nbEmpRequired" : 1,
        "deadline" : [ 11, 13 ],
        "skills" : [ {
          "id" : 3,
          "name" : "PLUMBING",
          "level" : 3
        }, {
          "id" : 6,
          "name" : "CARPENTRY",
          "level" : 1
        } ],
        "duration" : 5400.000000000,
        "pause" : false
      },
      "window" : {
        "start" : [ 13, 10 ],
        "end" : [ 14, 40 ]
      }
    }, {
      "job" : {
        "id" : 176,
        "desc" : "PLUMBING",
        "location" : {
          "id" : 8959,
          "name" : null,
          "latitude" : 43.48517,
          "longitude" : 4.0838947
        },
        "openings" : {
          "start" : [ 10, 2 ],
          "end" : [ 13, 38 ]
        },
        "preferredSlots" : null,
        "doAfter" : null,
        "nbEmpRequired" : 1,
        "deadline" : [ 13, 34 ],
        "skills" : [ {
          "id" : 3,
          "name" : "PLUMBING",
          "level" : 2
        } ],
        "duration" : 5400.000000000,
        "pause" : false
      },
      "window" : {
        "start" : [ 15, 16 ],
        "end" : [ 16, 46 ]
      }
    } ],
    "driving" : 4800.000000000,
    "valid" : true
  }, {
    "emp" : {
      "id" : 977,
      "name" : "977",
      "shifts" : [ {
        "start" : [ 9, 0 ],
        "end" : [ 12, 0 ]
      }, {
        "start" : [ 13, 0 ],
        "end" : [ 17, 0 ]
      } ],
      "prefSlots" : null,
      "startingLoc" : {
        "id" : 1262,
        "name" : null,
        "latitude" : 43.892906,
        "longitude" : 4.027816
      },
      "skills" : [ {
        "id" : 1,
        "name" : "ENGINEER",
        "level" : 8
      }, {
        "id" : 4,
        "name" : "MASONRY",
        "level" : 7
      }, {
        "id" : 5,
        "name" : "GLAZING",
        "level" : 2
      }, {
        "id" : 3,
        "name" : "PLUMBING",
        "level" : 7
      }, {
        "id" : 3,
        "name" : "PLUMBING",
        "level" : 1
      }, {
        "id" : 8,
        "name" : "IRONWORK",
        "level" : 10
      }, {
        "id" : 6,
        "name" : "CARPENTRY",
        "level" : 6
      }, {
        "id" : 8,
        "name" : "IRONWORK",
        "level" : 9
      } ]
    },
    "planning" : [ {
      "job" : {
        "id" : -1,
        "desc" : "Home",
        "location" : {
          "id" : 1262,
          "name" : null,
          "latitude" : 43.892906,
          "longitude" : 4.027816
        },
        "openings" : null,
        "preferredSlots" : null,
        "doAfter" : null,
        "nbEmpRequired" : 1,
        "deadline" : null,
        "skills" : [ ],
        "duration" : null,
        "pause" : true
      },
      "window" : {
        "start" : [ 9, 0 ],
        "end" : [ 9, 0 ]
      }
    }, {
      "job" : {
        "id" : 240,
        "desc" : "CARPENTRY, MASONRY",
        "location" : {
          "id" : 6263,
          "name" : null,
          "latitude" : 43.495598,
          "longitude" : 3.8783405
        },
        "openings" : {
          "start" : [ 12, 1 ],
          "end" : [ 12, 15 ]
        },
        "preferredSlots" : null,
        "doAfter" : null,
        "nbEmpRequired" : 1,
        "deadline" : [ 15, 28 ],
        "skills" : [ {
          "id" : 6,
          "name" : "CARPENTRY",
          "level" : 3
        }, {
          "id" : 4,
          "name" : "MASONRY",
          "level" : 5
        } ],
        "duration" : 2700.000000000,
        "pause" : false
      },
      "window" : {
        "start" : [ 9, 46 ],
        "end" : [ 10, 31 ]
      }
    }, {
      "job" : {
        "id" : -1,
        "desc" : "Pause",
        "location" : {
          "id" : 6263,
          "name" : null,
          "latitude" : 43.495598,
          "longitude" : 3.8783405
        },
        "openings" : {
          "start" : [ 12, 1 ],
          "end" : [ 12, 15 ]
        },
        "preferredSlots" : null,
        "doAfter" : null,
        "nbEmpRequired" : 1,
        "deadline" : [ 15, 28 ],
        "skills" : [ {
          "id" : 6,
          "name" : "CARPENTRY",
          "level" : 3
        }, {
          "id" : 4,
          "name" : "MASONRY",
          "level" : 5
        } ],
        "duration" : 2700.000000000,
        "pause" : true
      },
      "window" : {
        "start" : [ 10, 32 ],
        "end" : [ 13, 0 ]
      }
    }, {
      "job" : {
        "id" : 642,
        "desc" : "ENGINEER, IRONWORK",
        "location" : {
          "id" : 1058,
          "name" : null,
          "latitude" : 43.601448,
          "longitude" : 4.210878
        },
        "openings" : {
          "start" : [ 10, 37 ],
          "end" : [ 17, 38 ]
        },
        "preferredSlots" : null,
        "doAfter" : null,
        "nbEmpRequired" : 1,
        "deadline" : [ 9, 3 ],
        "skills" : [ {
          "id" : 1,
          "name" : "ENGINEER",
          "level" : 4
        }, {
          "id" : 8,
          "name" : "IRONWORK",
          "level" : 3
        } ],
        "duration" : 3600.000000000,
        "pause" : false
      },
      "window" : {
        "start" : [ 13, 30 ],
        "end" : [ 14, 30 ]
      }
    }, {
      "job" : {
        "id" : 46,
        "desc" : "GLAZING",
        "location" : {
          "id" : 8518,
          "name" : null,
          "latitude" : 43.846703,
          "longitude" : 3.7007396
        },
        "openings" : {
          "start" : [ 12, 52 ],
          "end" : [ 13, 38 ]
        },
        "preferredSlots" : null,
        "doAfter" : null,
        "nbEmpRequired" : 1,
        "deadline" : [ 16, 44 ],
        "skills" : [ {
          "id" : 5,
          "name" : "GLAZING",
          "level" : 1
        } ],
        "duration" : 5400.000000000,
        "pause" : false
      },
      "window" : {
        "start" : [ 15, 20 ],
        "end" : [ 16, 50 ]
      }
    } ],
    "driving" : 7560.000000000,
    "valid" : true
  }, {
    "emp" : {
      "id" : 695,
      "name" : "695",
      "shifts" : [ {
        "start" : [ 9, 0 ],
        "end" : [ 12, 0 ]
      }, {
        "start" : [ 13, 0 ],
        "end" : [ 17, 0 ]
      } ],
      "prefSlots" : null,
      "startingLoc" : {
        "id" : 9794,
        "name" : null,
        "latitude" : 43.982677,
        "longitude" : 4.2920556
      },
      "skills" : [ {
        "id" : 2,
        "name" : "ELECTRICIAN",
        "level" : 9
      }, {
        "id" : 0,
        "name" : "MANAGEMENT",
        "level" : 5
      }, {
        "id" : 7,
        "name" : "PAINTING",
        "level" : 4
      }, {
        "id" : 0,
        "name" : "MANAGEMENT",
        "level" : 1
      }, {
        "id" : 9,
        "name" : "TILER",
        "level" : 3
      }, {
        "id" : 4,
        "name" : "MASONRY",
        "level" : 10
      }, {
        "id" : 6,
        "name" : "CARPENTRY",
        "level" : 2
      }, {
        "id" : 4,
        "name" : "MASONRY",
        "level" : 9
      }, {
        "id" : 8,
        "name" : "IRONWORK",
        "level" : 7
      } ]
    },
    "planning" : [ {
      "job" : {
        "id" : -1,
        "desc" : "Home",
        "location" : {
          "id" : 9794,
          "name" : null,
          "latitude" : 43.982677,
          "longitude" : 4.2920556
        },
        "openings" : null,
        "preferredSlots" : null,
        "doAfter" : null,
        "nbEmpRequired" : 1,
        "deadline" : null,
        "skills" : [ ],
        "duration" : null,
        "pause" : true
      },
      "window" : {
        "start" : [ 9, 0 ],
        "end" : [ 9, 0 ]
      }
    }, {
      "job" : {
        "id" : 105,
        "desc" : "CARPENTRY, TILER",
        "location" : {
          "id" : 5771,
          "name" : null,
          "latitude" : 43.533913,
          "longitude" : 4.1766787
        },
        "openings" : {
          "start" : [ 13, 34 ],
          "end" : [ 17, 18 ]
        },
        "preferredSlots" : null,
        "doAfter" : null,
        "nbEmpRequired" : 1,
        "deadline" : [ 13, 8 ],
        "skills" : [ {
          "id" : 6,
          "name" : "CARPENTRY",
          "level" : 2
        }, {
          "id" : 9,
          "name" : "TILER",
          "level" : 3
        } ],
        "duration" : 2700.000000000,
        "pause" : false
      },
      "window" : {
        "start" : [ 9, 51 ],
        "end" : [ 10, 36 ]
      }
    }, {
      "job" : {
        "id" : -1,
        "desc" : "Pause",
        "location" : {
          "id" : 5771,
          "name" : null,
          "latitude" : 43.533913,
          "longitude" : 4.1766787
        },
        "openings" : {
          "start" : [ 13, 34 ],
          "end" : [ 17, 18 ]
        },
        "preferredSlots" : null,
        "doAfter" : null,
        "nbEmpRequired" : 1,
        "deadline" : [ 13, 8 ],
        "skills" : [ {
          "id" : 6,
          "name" : "CARPENTRY",
          "level" : 2
        }, {
          "id" : 9,
          "name" : "TILER",
          "level" : 3
        } ],
        "duration" : 2700.000000000,
        "pause" : true
      },
      "window" : {
        "start" : [ 10, 37 ],
        "end" : [ 13, 0 ]
      }
    }, {
      "job" : {
        "id" : 850,
        "desc" : "IRONWORK, ELECTRICIAN",
        "location" : {
          "id" : 3424,
          "name" : null,
          "latitude" : 43.53415,
          "longitude" : 3.7415779
        },
        "openings" : {
          "start" : [ 9, 57 ],
          "end" : [ 11, 47 ]
        },
        "preferredSlots" : null,
        "doAfter" : null,
        "nbEmpRequired" : 1,
        "deadline" : [ 13, 30 ],
        "skills" : [ {
          "id" : 8,
          "name" : "IRONWORK",
          "level" : 4
        }, {
          "id" : 2,
          "name" : "ELECTRICIAN",
          "level" : 5
        } ],
        "duration" : 3600.000000000,
        "pause" : false
      },
      "window" : {
        "start" : [ 13, 36 ],
        "end" : [ 14, 36 ]
      }
    }, {
      "job" : {
        "id" : 496,
        "desc" : "IRONWORK, PAINTING",
        "location" : {
          "id" : 470,
          "name" : null,
          "latitude" : 43.737514,
          "longitude" : 3.8086658
        },
        "openings" : {
          "start" : [ 10, 47 ],
          "end" : [ 11, 5 ]
        },
        "preferredSlots" : null,
        "doAfter" : null,
        "nbEmpRequired" : 1,
        "deadline" : [ 13, 15 ],
        "skills" : [ {
          "id" : 8,
          "name" : "IRONWORK",
          "level" : 1
        }, {
          "id" : 7,
          "name" : "PAINTING",
          "level" : 3
        } ],
        "duration" : 3600.000000000,
        "pause" : false
      },
      "window" : {
        "start" : [ 15, 0 ],
        "end" : [ 16, 0 ]
      }
    } ],
    "driving" : 6660.000000000,
    "valid" : true
  }, {
    "emp" : {
      "id" : 380,
      "name" : "380",
      "shifts" : [ {
        "start" : [ 9, 0 ],
        "end" : [ 12, 0 ]
      }, {
        "start" : [ 13, 0 ],
        "end" : [ 17, 0 ]
      } ],
      "prefSlots" : null,
      "startingLoc" : {
        "id" : 8493,
        "name" : null,
        "latitude" : 43.525368,
        "longitude" : 3.9811378
      },
      "skills" : [ {
        "id" : 0,
        "name" : "MANAGEMENT",
        "level" : 10
      }, {
        "id" : 3,
        "name" : "PLUMBING",
        "level" : 5
      }, {
        "id" : 9,
        "name" : "TILER",
        "level" : 6
      }, {
        "id" : 4,
        "name" : "MASONRY",
        "level" : 7
      }, {
        "id" : 1,
        "name" : "ENGINEER",
        "level" : 8
      }, {
        "id" : 0,
        "name" : "MANAGEMENT",
        "level" : 3
      }, {
        "id" : 6,
        "name" : "CARPENTRY",
        "level" : 4
      }, {
        "id" : 0,
        "name" : "MANAGEMENT",
        "level" : 10
      }, {
        "id" : 5,
        "name" : "GLAZING",
        "level" : 7
      } ]
    },
    "planning" : [ {
      "job" : {
        "id" : -1,
        "desc" : "Home",
        "location" : {
          "id" : 8493,
          "name" : null,
          "latitude" : 43.525368,
          "longitude" : 3.9811378
        },
        "openings" : null,
        "preferredSlots" : null,
        "doAfter" : null,
        "nbEmpRequired" : 1,
        "deadline" : null,
        "skills" : [ ],
        "duration" : null,
        "pause" : true
      },
      "window" : {
        "start" : [ 9, 0 ],
        "end" : [ 9, 0 ]
      }
    }, {
      "job" : {
        "id" : 312,
        "desc" : "TILER, MANAGEMENT",
        "location" : {
          "id" : 3098,
          "name" : null,
          "latitude" : 44.011765,
          "longitude" : 3.9624257
        },
        "openings" : {
          "start" : [ 13, 11 ],
          "end" : [ 15, 5 ]
        },
        "preferredSlots" : null,
        "doAfter" : null,
        "nbEmpRequired" : 1,
        "deadline" : [ 11, 23 ],
        "skills" : [ {
          "id" : 9,
          "name" : "TILER",
          "level" : 5
        }, {
          "id" : 0,
          "name" : "MANAGEMENT",
          "level" : 5
        } ],
        "duration" : 2700.000000000,
        "pause" : false
      },
      "window" : {
        "start" : [ 9, 55 ],
        "end" : [ 10, 40 ]
      }
    }, {
      "job" : {
        "id" : -1,
        "desc" : "Pause",
        "location" : {
          "id" : 3098,
          "name" : null,
          "latitude" : 44.011765,
          "longitude" : 3.9624257
        },
        "openings" : {
          "start" : [ 13, 11 ],
          "end" : [ 15, 5 ]
        },
        "preferredSlots" : null,
        "doAfter" : null,
        "nbEmpRequired" : 1,
        "deadline" : [ 11, 23 ],
        "skills" : [ {
          "id" : 9,
          "name" : "TILER",
          "level" : 5
        }, {
          "id" : 0,
          "name" : "MANAGEMENT",
          "level" : 5
        } ],
        "duration" : 2700.000000000,
        "pause" : true
      },
      "window" : {
        "start" : [ 10, 41 ],
        "end" : [ 13, 0 ]
      }
    }, {
      "job" : {
        "id" : 986,
        "desc" : "GLAZING, TILER",
        "location" : {
          "id" : 4902,
          "name" : null,
          "latitude" : 43.596344,
          "longitude" : 3.9452298
        },
        "openings" : {
          "start" : [ 10, 26 ],
          "end" : [ 17, 29 ]
        },
        "preferredSlots" : null,
        "doAfter" : null,
        "nbEmpRequired" : 1,
        "deadline" : [ 17, 1 ],
        "skills" : [ {
          "id" : 5,
          "name" : "GLAZING",
          "level" : 1
        }, {
          "id" : 9,
          "name" : "TILER",
          "level" : 2
        } ],
        "duration" : 3600.000000000,
        "pause" : false
      },
      "window" : {
        "start" : [ 13, 47 ],
        "end" : [ 14, 47 ]
      }
    }, {
      "job" : {
        "id" : 442,
        "desc" : "TILER",
        "location" : {
          "id" : 3662,
          "name" : null,
          "latitude" : 43.74434,
          "longitude" : 3.9129577
        },
        "openings" : {
          "start" : [ 12, 14 ],
          "end" : [ 16, 40 ]
        },
        "preferredSlots" : null,
        "doAfter" : null,
        "nbEmpRequired" : 1,
        "deadline" : [ 13, 29 ],
        "skills" : [ {
          "id" : 9,
          "name" : "TILER",
          "level" : 5
        } ],
        "duration" : 3600.000000000,
        "pause" : false
      },
      "window" : {
        "start" : [ 15, 4 ],
        "end" : [ 16, 4 ]
      }
    } ],
    "driving" : 7140.000000000,
    "valid" : true
  }, {
    "emp" : {
      "id" : 184,
      "name" : "184",
      "shifts" : [ {
        "start" : [ 9, 0 ],
        "end" : [ 12, 0 ]
      }, {
        "start" : [ 13, 0 ],
        "end" : [ 17, 0 ]
      } ],
      "prefSlots" : null,
      "startingLoc" : {
        "id" : 1392,
        "name" : null,
        "latitude" : 43.660843,
        "longitude" : 3.7212818
      },
      "skills" : [ {
        "id" : 0,
        "name" : "MANAGEMENT",
        "level" : 8
      }, {
        "id" : 2,
        "name" : "ELECTRICIAN",
        "level" : 4
      }, {
        "id" : 6,
        "name" : "CARPENTRY",
        "level" : 6
      }, {
        "id" : 2,
        "name" : "ELECTRICIAN",
        "level" : 4
      } ]
    },
    "planning" : [ {
      "job" : {
        "id" : -1,
        "desc" : "Home",
        "location" : {
          "id" : 1392,
          "name" : null,
          "latitude" : 43.660843,
          "longitude" : 3.7212818
        },
        "openings" : null,
        "preferredSlots" : null,
        "doAfter" : null,
        "nbEmpRequired" : 1,
        "deadline" : null,
        "skills" : [ ],
        "duration" : null,
        "pause" : true
      },
      "window" : {
        "start" : [ 9, 0 ],
        "end" : [ 9, 0 ]
      }
    }, {
      "job" : {
        "id" : 599,
        "desc" : "MANAGEMENT",
        "location" : {
          "id" : 819,
          "name" : null,
          "latitude" : 43.59683,
          "longitude" : 4.293354
        },
        "openings" : {
          "start" : [ 10, 14 ],
          "end" : [ 13, 12 ]
        },
        "preferredSlots" : null,
        "doAfter" : null,
        "nbEmpRequired" : 1,
        "deadline" : [ 11, 13 ],
        "skills" : [ {
          "id" : 0,
          "name" : "MANAGEMENT",
          "level" : 1
        } ],
        "duration" : 7200.000000000,
        "pause" : false
      },
      "window" : {
        "start" : [ 9, 47 ],
        "end" : [ 11, 47 ]
      }
    }, {
      "job" : {
        "id" : -1,
        "desc" : "Pause",
        "location" : {
          "id" : 819,
          "name" : null,
          "latitude" : 43.59683,
          "longitude" : 4.293354
        },
        "openings" : {
          "start" : [ 10, 14 ],
          "end" : [ 13, 12 ]
        },
        "preferredSlots" : null,
        "doAfter" : null,
        "nbEmpRequired" : 1,
        "deadline" : [ 11, 13 ],
        "skills" : [ {
          "id" : 0,
          "name" : "MANAGEMENT",
          "level" : 1
        } ],
        "duration" : 7200.000000000,
        "pause" : true
      },
      "window" : {
        "start" : [ 11, 48 ],
        "end" : [ 13, 0 ]
      }
    } ],
    "driving" : 2820.000000000,
    "valid" : true
  }, {
    "emp" : {
      "id" : 80,
      "name" : "80",
      "shifts" : [ {
        "start" : [ 9, 0 ],
        "end" : [ 12, 0 ]
      }, {
        "start" : [ 13, 0 ],
        "end" : [ 17, 0 ]
      } ],
      "prefSlots" : null,
      "startingLoc" : {
        "id" : 7882,
        "name" : null,
        "latitude" : 44.065224,
        "longitude" : 4.1335077
      },
      "skills" : [ {
        "id" : 2,
        "name" : "ELECTRICIAN",
        "level" : 4
      }, {
        "id" : 5,
        "name" : "GLAZING",
        "level" : 4
      }, {
        "id" : 6,
        "name" : "CARPENTRY",
        "level" : 10
      } ]
    },
    "planning" : [ {
      "job" : {
        "id" : -1,
        "desc" : "Home",
        "location" : {
          "id" : 7882,
          "name" : null,
          "latitude" : 44.065224,
          "longitude" : 4.1335077
        },
        "openings" : null,
        "preferredSlots" : null,
        "doAfter" : null,
        "nbEmpRequired" : 1,
        "deadline" : null,
        "skills" : [ ],
        "duration" : null,
        "pause" : true
      },
      "window" : {
        "start" : [ 9, 0 ],
        "end" : [ 9, 0 ]
      }
    }, {
      "job" : {
        "id" : -1,
        "desc" : "Pause",
        "location" : {
          "id" : 7882,
          "name" : null,
          "latitude" : 44.065224,
          "longitude" : 4.1335077
        },
        "openings" : null,
        "preferredSlots" : null,
        "doAfter" : null,
        "nbEmpRequired" : 1,
        "deadline" : null,
        "skills" : [ ],
        "duration" : null,
        "pause" : true
      },
      "window" : {
        "start" : [ 9, 1 ],
        "end" : [ 13, 0 ]
      }
    } ],
    "driving" : 0.0,
    "valid" : true
  }, {
    "emp" : {
      "id" : 28,
      "name" : "28",
      "shifts" : [ {
        "start" : [ 9, 0 ],
        "end" : [ 12, 0 ]
      }, {
        "start" : [ 13, 0 ],
        "end" : [ 17, 0 ]
      } ],
      "prefSlots" : null,
      "startingLoc" : {
        "id" : 6572,
        "name" : null,
        "latitude" : 43.956627,
        "longitude" : 4.138943
      },
      "skills" : [ {
        "id" : 9,
        "name" : "TILER",
        "level" : 8
      }, {
        "id" : 3,
        "name" : "PLUMBING",
        "level" : 9
      }, {
        "id" : 8,
        "name" : "IRONWORK",
        "level" : 8
      }, {
        "id" : 0,
        "name" : "MANAGEMENT",
        "level" : 3
      }, {
        "id" : 5,
        "name" : "GLAZING",
        "level" : 9
      }, {
        "id" : 0,
        "name" : "MANAGEMENT",
        "level" : 9
      }, {
        "id" : 6,
        "name" : "CARPENTRY",
        "level" : 2
      } ]
    },
    "planning" : [ {
      "job" : {
        "id" : -1,
        "desc" : "Home",
        "location" : {
          "id" : 6572,
          "name" : null,
          "latitude" : 43.956627,
          "longitude" : 4.138943
        },
        "openings" : null,
        "preferredSlots" : null,
        "doAfter" : null,
        "nbEmpRequired" : 1,
        "deadline" : null,
        "skills" : [ ],
        "duration" : null,
        "pause" : true
      },
      "window" : {
        "start" : [ 9, 0 ],
        "end" : [ 9, 0 ]
      }
    }, {
      "job" : {
        "id" : 0,
        "desc" : "IRONWORK",
        "location" : {
          "id" : 7928,
          "name" : null,
          "latitude" : 43.889805,
          "longitude" : 3.7696495
        },
        "openings" : {
          "start" : [ 15, 14 ],
          "end" : [ 15, 17 ]
        },
        "preferredSlots" : null,
        "doAfter" : null,
        "nbEmpRequired" : 1,
        "deadline" : [ 10, 48 ],
        "skills" : [ {
          "id" : 8,
          "name" : "IRONWORK",
          "level" : 5
        } ],
        "duration" : 5400.000000000,
        "pause" : false
      },
      "window" : {
        "start" : [ 9, 31 ],
        "end" : [ 11, 1 ]
      }
    }, {
      "job" : {
        "id" : -1,
        "desc" : "Pause",
        "location" : {
          "id" : 7928,
          "name" : null,
          "latitude" : 43.889805,
          "longitude" : 3.7696495
        },
        "openings" : {
          "start" : [ 15, 14 ],
          "end" : [ 15, 17 ]
        },
        "preferredSlots" : null,
        "doAfter" : null,
        "nbEmpRequired" : 1,
        "deadline" : [ 10, 48 ],
        "skills" : [ {
          "id" : 8,
          "name" : "IRONWORK",
          "level" : 5
        } ],
        "duration" : 5400.000000000,
        "pause" : true
      },
      "window" : {
        "start" : [ 11, 2 ],
        "end" : [ 13, 0 ]
      }
    } ],
    "driving" : 1860.000000000,
    "valid" : true
  }, {
    "emp" : {
      "id" : 693,
      "name" : "693",
      "shifts" : [ {
        "start" : [ 9, 0 ],
        "end" : [ 12, 0 ]
      }, {
        "start" : [ 13, 0 ],
        "end" : [ 17, 0 ]
      } ],
      "prefSlots" : null,
      "startingLoc" : {
        "id" : 3350,
        "name" : null,
        "latitude" : 43.57992,
        "longitude" : 4.078175
      },
      "skills" : [ {
        "id" : 7,
        "name" : "PAINTING",
        "level" : 9
      }, {
        "id" : 0,
        "name" : "MANAGEMENT",
        "level" : 9
      }, {
        "id" : 1,
        "name" : "ENGINEER",
        "level" : 1
      }, {
        "id" : 6,
        "name" : "CARPENTRY",
        "level" : 4
      }, {
        "id" : 7,
        "name" : "PAINTING",
        "level" : 5
      } ]
    },
    "planning" : [ {
      "job" : {
        "id" : -1,
        "desc" : "Home",
        "location" : {
          "id" : 3350,
          "name" : null,
          "latitude" : 43.57992,
          "longitude" : 4.078175
        },
        "openings" : null,
        "preferredSlots" : null,
        "doAfter" : null,
        "nbEmpRequired" : 1,
        "deadline" : null,
        "skills" : [ ],
        "duration" : null,
        "pause" : true
      },
      "window" : {
        "start" : [ 9, 0 ],
        "end" : [ 9, 0 ]
      }
    }, {
      "job" : {
        "id" : 778,
        "desc" : "PAINTING, ENGINEER",
        "location" : {
          "id" : 8750,
          "name" : null,
          "latitude" : 43.73226,
          "longitude" : 3.9905655
        },
        "openings" : {
          "start" : [ 12, 40 ],
          "end" : [ 15, 33 ]
        },
        "preferredSlots" : null,
        "doAfter" : null,
        "nbEmpRequired" : 1,
        "deadline" : [ 15, 48 ],
        "skills" : [ {
          "id" : 7,
          "name" : "PAINTING",
          "level" : 5
        }, {
          "id" : 1,
          "name" : "ENGINEER",
          "level" : 1
        } ],
        "duration" : 3600.000000000,
        "pause" : false
      },
      "window" : {
        "start" : [ 9, 19 ],
        "end" : [ 10, 19 ]
      }
    }, {
      "job" : {
        "id" : -1,
        "desc" : "Pause",
        "location" : {
          "id" : 8750,
          "name" : null,
          "latitude" : 43.73226,
          "longitude" : 3.9905655
        },
        "openings" : {
          "start" : [ 12, 40 ],
          "end" : [ 15, 33 ]
        },
        "preferredSlots" : null,
        "doAfter" : null,
        "nbEmpRequired" : 1,
        "deadline" : [ 15, 48 ],
        "skills" : [ {
          "id" : 7,
          "name" : "PAINTING",
          "level" : 5
        }, {
          "id" : 1,
          "name" : "ENGINEER",
          "level" : 1
        } ],
        "duration" : 3600.000000000,
        "pause" : true
      },
      "window" : {
        "start" : [ 10, 20 ],
        "end" : [ 13, 0 ]
      }
    } ],
    "driving" : 1140.000000000,
    "valid" : true
  }, {
    "emp" : {
      "id" : 249,
      "name" : "249",
      "shifts" : [ {
        "start" : [ 9, 0 ],
        "end" : [ 12, 0 ]
      }, {
        "start" : [ 13, 0 ],
        "end" : [ 17, 0 ]
      } ],
      "prefSlots" : null,
      "startingLoc" : {
        "id" : 9401,
        "name" : null,
        "latitude" : 43.856277,
        "longitude" : 4.1726866
      },
      "skills" : [ {
        "id" : 1,
        "name" : "ENGINEER",
        "level" : 10
      }, {
        "id" : 1,
        "name" : "ENGINEER",
        "level" : 6
      }, {
        "id" : 4,
        "name" : "MASONRY",
        "level" : 9
      }, {
        "id" : 5,
        "name" : "GLAZING",
        "level" : 9
      }, {
        "id" : 8,
        "name" : "IRONWORK",
        "level" : 9
      }, {
        "id" : 2,
        "name" : "ELECTRICIAN",
        "level" : 8
      }, {
        "id" : 3,
        "name" : "PLUMBING",
        "level" : 7
      }, {
        "id" : 4,
        "name" : "MASONRY",
        "level" : 9
      }, {
        "id" : 9,
        "name" : "TILER",
        "level" : 6
      } ]
    },
    "planning" : [ {
      "job" : {
        "id" : -1,
        "desc" : "Home",
        "location" : {
          "id" : 9401,
          "name" : null,
          "latitude" : 43.856277,
          "longitude" : 4.1726866
        },
        "openings" : null,
        "preferredSlots" : null,
        "doAfter" : null,
        "nbEmpRequired" : 1,
        "deadline" : null,
        "skills" : [ ],
        "duration" : null,
        "pause" : true
      },
      "window" : {
        "start" : [ 9, 0 ],
        "end" : [ 9, 0 ]
      }
    }, {
      "job" : {
        "id" : -1,
        "desc" : "Pause",
        "location" : {
          "id" : 9401,
          "name" : null,
          "latitude" : 43.856277,
          "longitude" : 4.1726866
        },
        "openings" : null,
        "preferredSlots" : null,
        "doAfter" : null,
        "nbEmpRequired" : 1,
        "deadline" : null,
        "skills" : [ ],
        "duration" : null,
        "pause" : true
      },
      "window" : {
        "start" : [ 9, 1 ],
        "end" : [ 13, 0 ]
      }
    } ],
    "driving" : 0.0,
    "valid" : true
  }, {
    "emp" : {
      "id" : 519,
      "name" : "519",
      "shifts" : [ {
        "start" : [ 9, 0 ],
        "end" : [ 12, 0 ]
      }, {
        "start" : [ 13, 0 ],
        "end" : [ 17, 0 ]
      } ],
      "prefSlots" : null,
      "startingLoc" : {
        "id" : 4360,
        "name" : null,
        "latitude" : 43.739273,
        "longitude" : 3.7457767
      },
      "skills" : [ {
        "id" : 7,
        "name" : "PAINTING",
        "level" : 9
      }, {
        "id" : 0,
        "name" : "MANAGEMENT",
        "level" : 8
      }, {
        "id" : 0,
        "name" : "MANAGEMENT",
        "level" : 5
      }, {
        "id" : 0,
        "name" : "MANAGEMENT",
        "level" : 6
      }, {
        "id" : 0,
        "name" : "MANAGEMENT",
        "level" : 5
      }, {
        "id" : 5,
        "name" : "GLAZING",
        "level" : 2
      } ]
    },
    "planning" : [ {
      "job" : {
        "id" : -1,
        "desc" : "Home",
        "location" : {
          "id" : 4360,
          "name" : null,
          "latitude" : 43.739273,
          "longitude" : 3.7457767
        },
        "openings" : null,
        "preferredSlots" : null,
        "doAfter" : null,
        "nbEmpRequired" : 1,
        "deadline" : null,
        "skills" : [ ],
        "duration" : null,
        "pause" : true
      },
      "window" : {
        "start" : [ 9, 0 ],
        "end" : [ 9, 0 ]
      }
    }, {
      "job" : {
        "id" : -1,
        "desc" : "Pause",
        "location" : {
          "id" : 4360,
          "name" : null,
          "latitude" : 43.739273,
          "longitude" : 3.7457767
        },
        "openings" : null,
        "preferredSlots" : null,
        "doAfter" : null,
        "nbEmpRequired" : 1,
        "deadline" : null,
        "skills" : [ ],
        "duration" : null,
        "pause" : true
      },
      "window" : {
        "start" : [ 9, 1 ],
        "end" : [ 13, 0 ]
      }
    } ],
    "driving" : 0.0,
    "valid" : true
  }, {
    "emp" : {
      "id" : 660,
      "name" : "660",
      "shifts" : [ {
        "start" : [ 9, 0 ],
        "end" : [ 12, 0 ]
      }, {
        "start" : [ 13, 0 ],
        "end" : [ 17, 0 ]
      } ],
      "prefSlots" : null,
      "startingLoc" : {
        "id" : 70,
        "name" : null,
        "latitude" : 43.671074,
        "longitude" : 3.7202866
      },
      "skills" : [ {
        "id" : 6,
        "name" : "CARPENTRY",
        "level" : 5
      }, {
        "id" : 9,
        "name" : "TILER",
        "level" : 3
      }, {
        "id" : 8,
        "name" : "IRONWORK",
        "level" : 4
      }, {
        "id" : 9,
        "name" : "TILER",
        "level" : 5
      }, {
        "id" : 4,
        "name" : "MASONRY",
        "level" : 1
      }, {
        "id" : 9,
        "name" : "TILER",
        "level" : 2
      }, {
        "id" : 6,
        "name" : "CARPENTRY",
        "level" : 10
      } ]
    },
    "planning" : [ {
      "job" : {
        "id" : -1,
        "desc" : "Home",
        "location" : {
          "id" : 70,
          "name" : null,
          "latitude" : 43.671074,
          "longitude" : 3.7202866
        },
        "openings" : null,
        "preferredSlots" : null,
        "doAfter" : null,
        "nbEmpRequired" : 1,
        "deadline" : null,
        "skills" : [ ],
        "duration" : null,
        "pause" : true
      },
      "window" : {
        "start" : [ 9, 0 ],
        "end" : [ 9, 0 ]
      }
    }, {
      "job" : {
        "id" : -1,
        "desc" : "Pause",
        "location" : {
          "id" : 70,
          "name" : null,
          "latitude" : 43.671074,
          "longitude" : 3.7202866
        },
        "openings" : null,
        "preferredSlots" : null,
        "doAfter" : null,
        "nbEmpRequired" : 1,
        "deadline" : null,
        "skills" : [ ],
        "duration" : null,
        "pause" : true
      },
      "window" : {
        "start" : [ 9, 1 ],
        "end" : [ 13, 0 ]
      }
    } ],
    "driving" : 0.0,
    "valid" : true
  }, {
    "emp" : {
      "id" : 703,
      "name" : "703",
      "shifts" : [ {
        "start" : [ 9, 0 ],
        "end" : [ 12, 0 ]
      }, {
        "start" : [ 13, 0 ],
        "end" : [ 17, 0 ]
      } ],
      "prefSlots" : null,
      "startingLoc" : {
        "id" : 3521,
        "name" : null,
        "latitude" : 44.045647,
        "longitude" : 4.293794
      },
      "skills" : [ {
        "id" : 3,
        "name" : "PLUMBING",
        "level" : 5
      } ]
    },
    "planning" : [ {
      "job" : {
        "id" : -1,
        "desc" : "Home",
        "location" : {
          "id" : 3521,
          "name" : null,
          "latitude" : 44.045647,
          "longitude" : 4.293794
        },
        "openings" : null,
        "preferredSlots" : null,
        "doAfter" : null,
        "nbEmpRequired" : 1,
        "deadline" : null,
        "skills" : [ ],
        "duration" : null,
        "pause" : true
      },
      "window" : {
        "start" : [ 9, 0 ],
        "end" : [ 9, 0 ]
      }
    }, {
      "job" : {
        "id" : -1,
        "desc" : "Pause",
        "location" : {
          "id" : 3521,
          "name" : null,
          "latitude" : 44.045647,
          "longitude" : 4.293794
        },
        "openings" : null,
        "preferredSlots" : null,
        "doAfter" : null,
        "nbEmpRequired" : 1,
        "deadline" : null,
        "skills" : [ ],
        "duration" : null,
        "pause" : true
      },
      "window" : {
        "start" : [ 9, 1 ],
        "end" : [ 13, 0 ]
      }
    } ],
    "driving" : 0.0,
    "valid" : true
  }, {
    "emp" : {
      "id" : 239,
      "name" : "239",
      "shifts" : [ {
        "start" : [ 9, 0 ],
        "end" : [ 12, 0 ]
      }, {
        "start" : [ 13, 0 ],
        "end" : [ 17, 0 ]
      } ],
      "prefSlots" : null,
      "startingLoc" : {
        "id" : 5992,
        "name" : null,
        "latitude" : 43.990986,
        "longitude" : 4.2526293
      },
      "skills" : [ {
        "id" : 0,
        "name" : "MANAGEMENT",
        "level" : 4
      }, {
        "id" : 9,
        "name" : "TILER",
        "level" : 5
      } ]
    },
    "planning" : [ {
      "job" : {
        "id" : -1,
        "desc" : "Home",
        "location" : {
          "id" : 5992,
          "name" : null,
          "latitude" : 43.990986,
          "longitude" : 4.2526293
        },
        "openings" : null,
        "preferredSlots" : null,
        "doAfter" : null,
        "nbEmpRequired" : 1,
        "deadline" : null,
        "skills" : [ ],
        "duration" : null,
        "pause" : true
      },
      "window" : {
        "start" : [ 9, 0 ],
        "end" : [ 9, 0 ]
      }
    }, {
      "job" : {
        "id" : -1,
        "desc" : "Pause",
        "location" : {
          "id" : 5992,
          "name" : null,
          "latitude" : 43.990986,
          "longitude" : 4.2526293
        },
        "openings" : null,
        "preferredSlots" : null,
        "doAfter" : null,
        "nbEmpRequired" : 1,
        "deadline" : null,
        "skills" : [ ],
        "duration" : null,
        "pause" : true
      },
      "window" : {
        "start" : [ 9, 1 ],
        "end" : [ 13, 0 ]
      }
    } ],
    "driving" : 0.0,
    "valid" : true
  }, {
    "emp" : {
      "id" : 223,
      "name" : "223",
      "shifts" : [ {
        "start" : [ 9, 0 ],
        "end" : [ 12, 0 ]
      }, {
        "start" : [ 13, 0 ],
        "end" : [ 17, 0 ]
      } ],
      "prefSlots" : null,
      "startingLoc" : {
        "id" : 6080,
        "name" : null,
        "latitude" : 43.72295,
        "longitude" : 3.841679
      },
      "skills" : [ {
        "id" : 0,
        "name" : "MANAGEMENT",
        "level" : 4
      }, {
        "id" : 4,
        "name" : "MASONRY",
        "level" : 9
      }, {
        "id" : 5,
        "name" : "GLAZING",
        "level" : 4
      }, {
        "id" : 7,
        "name" : "PAINTING",
        "level" : 6
      }, {
        "id" : 6,
        "name" : "CARPENTRY",
        "level" : 7
      }, {
        "id" : 2,
        "name" : "ELECTRICIAN",
        "level" : 9
      } ]
    },
    "planning" : [ {
      "job" : {
        "id" : -1,
        "desc" : "Home",
        "location" : {
          "id" : 6080,
          "name" : null,
          "latitude" : 43.72295,
          "longitude" : 3.841679
        },
        "openings" : null,
        "preferredSlots" : null,
        "doAfter" : null,
        "nbEmpRequired" : 1,
        "deadline" : null,
        "skills" : [ ],
        "duration" : null,
        "pause" : true
      },
      "window" : {
        "start" : [ 9, 0 ],
        "end" : [ 9, 0 ]
      }
    }, {
      "job" : {
        "id" : 966,
        "desc" : "MANAGEMENT, MASONRY",
        "location" : {
          "id" : 4850,
          "name" : null,
          "latitude" : 43.557182,
          "longitude" : 3.9982915
        },
        "openings" : {
          "start" : [ 14, 26 ],
          "end" : [ 16, 26 ]
        },
        "preferredSlots" : null,
        "doAfter" : null,
        "nbEmpRequired" : 1,
        "deadline" : [ 10, 40 ],
        "skills" : [ {
          "id" : 0,
          "name" : "MANAGEMENT",
          "level" : 2
        }, {
          "id" : 4,
          "name" : "MASONRY",
          "level" : 2
        } ],
        "duration" : 5400.000000000,
        "pause" : false
      },
      "window" : {
        "start" : [ 9, 23 ],
        "end" : [ 10, 53 ]
      }
    }, {
      "job" : {
        "id" : -1,
        "desc" : "Pause",
        "location" : {
          "id" : 4850,
          "name" : null,
          "latitude" : 43.557182,
          "longitude" : 3.9982915
        },
        "openings" : {
          "start" : [ 14, 26 ],
          "end" : [ 16, 26 ]
        },
        "preferredSlots" : null,
        "doAfter" : null,
        "nbEmpRequired" : 1,
        "deadline" : [ 10, 40 ],
        "skills" : [ {
          "id" : 0,
          "name" : "MANAGEMENT",
          "level" : 2
        }, {
          "id" : 4,
          "name" : "MASONRY",
          "level" : 2
        } ],
        "duration" : 5400.000000000,
        "pause" : true
      },
      "window" : {
        "start" : [ 10, 54 ],
        "end" : [ 13, 0 ]
      }
    }, {
      "job" : {
        "id" : 997,
        "desc" : "PAINTING, ELECTRICIAN",
        "location" : {
          "id" : 1398,
          "name" : null,
          "latitude" : 43.57005,
          "longitude" : 4.1611757
        },
        "openings" : {
          "start" : [ 9, 38 ],
          "end" : [ 11, 20 ]
        },
        "preferredSlots" : null,
        "doAfter" : null,
        "nbEmpRequired" : 1,
        "deadline" : [ 14, 4 ],
        "skills" : [ {
          "id" : 7,
          "name" : "PAINTING",
          "level" : 4
        }, {
          "id" : 2,
          "name" : "ELECTRICIAN",
          "level" : 3
        } ],
        "duration" : 7200.000000000,
        "pause" : false
      },
      "window" : {
        "start" : [ 13, 14 ],
        "end" : [ 15, 14 ]
      }
    } ],
    "driving" : 2220.000000000,
    "valid" : true
  } ],
  "unassigned" : [ {
    "id" : 204,
    "desc" : "IRONWORK, PAINTING",
    "location" : {
      "id" : 58,
      "name" : null,
      "latitude" : 43.852924,
      "longitude" : 3.9852586
    },
    "openings" : {
      "start" : [ 10, 50 ],
      "end" : [ 12, 41 ]
    },
    "preferredSlots" : null,
    "doAfter" : null,
    "nbEmpRequired" : 1,
    "deadline" : [ 16, 22 ],
    "skills" : [ {
      "id" : 8,
      "name" : "IRONWORK",
      "level" : 4
    }, {
      "id" : 7,
      "name" : "PAINTING",
      "level" : 3
    } ],
    "duration" : 5400.000000000,
    "pause" : false
  } ],
  "valid" : true
}