{
  "listEdt" : [ {
    "emp" : {
      "id" : 210,
      "name" : "210",
      "shifts" : [ {
        "start" : [ 9, 0 ],
        "end" : [ 12, 0 ]
      }, {
        "start" : [ 13, 0 ],
        "end" : [ 17, 0 ]
      } ],
      "prefSlots" : null,
      "startingLoc" : {
        "id" : 5706,
        "name" : null,
        "latitude" : 43.47446,
        "longitude" : 4.116349
      },
      "skills" : [ {
        "id" : 5,
        "name" : "GLAZING",
        "level" : 8
      }, {
        "id" : 0,
        "name" : "MANAGEMENT",
        "level" : 1
      }, {
        "id" : 5,
        "name" : "GLAZING",
        "level" : 4
      }, {
        "id" : 8,
        "name" : "IRONWORK",
        "level" : 4
      }, {
        "id" : 1,
        "name" : "ENGINEER",
        "level" : 2
      }, {
        "id" : 5,
        "name" : "GLAZING",
        "level" : 9
      }, {
        "id" : 9,
        "name" : "TILER",
        "level" : 7
      }, {
        "id" : 6,
        "name" : "CARPENTRY",
        "level" : 3
      }, {
        "id" : 7,
        "name" : "PAINTING",
        "level" : 6
      } ]
    },
    "planning" : [ {
      "job" : {
        "id" : -1,
        "desc" : "Home",
        "location" : {
          "id" : 5706,
          "name" : null,
          "latitude" : 43.47446,
          "longitude" : 4.116349
        },
        "openings" : null,
        "preferredSlots" : null,
        "doAfter" : null,
        "nbEmpRequired" : 1,
        "deadline" : null,
        "skills" : [ ],
        "duration" : null,
        "pause" : true
      },
      "window" : {
        "start" : [ 9, 0 ],
        "end" : [ 9, 0 ]
      }
    }, {
      "job" : {
        "id" : 332,
        "desc" : "GLAZING",
        "location" : {
          "id" : 7981,
          "name" : null,
          "latitude" : 43.78401,
          "longitude" : 4.2780943
        },
        "openings" : {
          "start" : [ 9, 7 ],
          "end" : [ 14, 13 ]
        },
        "preferredSlots" : null,
        "doAfter" : null,
        "nbEmpRequired" : 1,
        "deadline" : [ 13, 43 ],
        "skills" : [ {
          "id" : 5,
          "name" : "GLAZING",
          "level" : 2
        } ],
        "duration" : 1800.000000000,
        "pause" : false
      },
      "window" : {
        "start" : [ 9, 37 ],
        "end" : [ 10, 7 ]
      }
    }, {
      "job" : {
        "id" : 5,
        "desc" : "PAINTING",
        "location" : {
          "id" : 4475,
          "name" : null,
          "latitude" : 43.787952,
          "longitude" : 4.025745
        },
        "openings" : {
          "start" : [ 9, 57 ],
          "end" : [ 16, 11 ]
        },
        "preferredSlots" : null,
        "doAfter" : null,
        "nbEmpRequired" : 1,
        "deadline" : [ 9, 2 ],
        "skills" : [ {
          "id" : 7,
          "name" : "PAINTING",
          "level" : 1
        } ],
        "duration" : 2700.000000000,
        "pause" : false
      },
      "window" : {
        "start" : [ 10, 28 ],
        "end" : [ 11, 13 ]
      }
    }, {
      "job" : {
        "id" : -1,
        "desc" : "Pause",
        "location" : {
          "id" : 4475,
          "name" : null,
          "latitude" : 43.787952,
          "longitude" : 4.025745
        },
        "openings" : {
          "start" : [ 9, 57 ],
          "end" : [ 16, 11 ]
        },
        "preferredSlots" : null,
        "doAfter" : null,
        "nbEmpRequired" : 1,
        "deadline" : [ 9, 2 ],
        "skills" : [ {
          "id" : 7,
          "name" : "PAINTING",
          "level" : 1
        } ],
        "duration" : 2700.000000000,
        "pause" : true
      },
      "window" : {
        "start" : [ 11, 14 ],
        "end" : [ 13, 0 ]
      }
    }, {
      "job" : {
        "id" : 322,
        "desc" : "GLAZING",
        "location" : {
          "id" : 9698,
          "name" : null,
          "latitude" : 43.58068,
          "longitude" : 4.041599
        },
        "openings" : {
          "start" : [ 10, 34 ],
          "end" : [ 12, 30 ]
        },
        "preferredSlots" : null,
        "doAfter" : null,
        "nbEmpRequired" : 1,
        "deadline" : [ 11, 52 ],
        "skills" : [ {
          "id" : 5,
          "name" : "GLAZING",
          "level" : 3
        } ],
        "duration" : 3600.000000000,
        "pause" : false
      },
      "window" : {
        "start" : [ 13, 24 ],
        "end" : [ 14, 24 ]
      }
    }, {
      "job" : {
        "id" : 332,
        "desc" : "PAINTING",
        "location" : {
          "id" : 4638,
          "name" : null,
          "latitude" : 43.949272,
          "longitude" : 3.7989624
        },
        "openings" : {
          "start" : [ 13, 16 ],
          "end" : [ 16, 54 ]
        },
        "preferredSlots" : null,
        "doAfter" : null,
        "nbEmpRequired" : 1,
        "deadline" : [ 17, 13 ],
        "skills" : [ {
          "id" : 7,
          "name" : "PAINTING",
          "level" : 1
        } ],
        "duration" : 3600.000000000,
        "pause" : false
      },
      "window" : {
        "start" : [ 15, 10 ],
        "end" : [ 16, 10 ]
      }
    } ],
    "driving" : 7680.000000000,
    "valid" : true
  }, {
    "emp" : {
      "id" : 517,
      "name" : "517",
      "shifts" : [ {
        "start" : [ 9, 0 ],
        "end" : [ 12, 0 ]
      }, {
        "start" : [ 13, 0 ],
        "end" : [ 17, 0 ]
      } ],
      "prefSlots" : null,
      "startingLoc" : {
        "id" : 9950,
        "name" : null,
        "latitude" : 43.77964,
        "longitude" : 3.847114
      },
      "skills" : [ {
        "id" : 8,
        "name" : "IRONWORK",
        "level" : 4
      }, {
        "id" : 7,
        "name" : "PAINTING",
        "level" : 10
      } ]
    },
    "planning" : [ {
      "job" : {
        "id" : -1,
        "desc" : "Home",
        "location" : {
          "id" : 9950,
          "name" : null,
          "latitude" : 43.77964,
          "longitude" : 3.847114
        },
        "openings" : null,
        "preferredSlots" : null,
        "doAfter" : null,
        "nbEmpRequired" : 1,
        "deadline" : null,
        "skills" : [ ],
        "duration" : null,
        "pause" : true
      },
      "window" : {
        "start" : [ 9, 0 ],
        "end" : [ 9, 0 ]
      }
    }, {
      "job" : {
        "id" : -1,
        "desc" : "Pause",
        "location" : {
          "id" : 9950,
          "name" : null,
          "latitude" : 43.77964,
          "longitude" : 3.847114
        },
        "openings" : null,
        "preferredSlots" : null,
        "doAfter" : null,
        "nbEmpRequired" : 1,
        "deadline" : null,
        "skills" : [ ],
        "duration" : null,
        "pause" : true
      },
      "window" : {
        "start" : [ 9, 1 ],
        "end" : [ 13, 0 ]
      }
    } ],
    "driving" : 0.0,
    "valid" : true
  }, {
    "emp" : {
      "id" : 909,
      "name" : "909",
      "shifts" : [ {
        "start" : [ 9, 0 ],
        "end" : [ 12, 0 ]
      }, {
        "start" : [ 13, 0 ],
        "end" : [ 17, 0 ]
      } ],
      "prefSlots" : null,
      "startingLoc" : {
        "id" : 1625,
        "name" : null,
        "latitude" : 43.862373,
        "longitude" : 4.018852
      },
      "skills" : [ {
        "id" : 0,
        "name" : "MANAGEMENT",
        "level" : 3
      }, {
        "id" : 4,
        "name" : "MASONRY",
        "level" : 7
      } ]
    },
    "planning" : [ {
      "job" : {
        "id" : -1,
        "desc" : "Home",
        "location" : {
          "id" : 1625,
          "name" : null,
          "latitude" : 43.862373,
          "longitude" : 4.018852
        },
        "openings" : null,
        "preferredSlots" : null,
        "doAfter" : null,
        "nbEmpRequired" : 1,
        "deadline" : null,
        "skills" : [ ],
        "duration" : null,
        "pause" : true
      },
      "window" : {
        "start" : [ 9, 0 ],
        "end" : [ 9, 0 ]
      }
    }, {
      "job" : {
        "id" : 305,
        "desc" : "MASONRY",
        "location" : {
          "id" : 350,
          "name" : null,
          "latitude" : 43.795776,
          "longitude" : 4.2313356
        },
        "openings" : {
          "start" : [ 15, 10 ],
          "end" : [ 16, 6 ]
        },
        "preferredSlots" : null,
        "doAfter" : null,
        "nbEmpRequired" : 1,
        "deadline" : [ 12, 5 ],
        "skills" : [ {
          "id" : 4,
          "name" : "MASONRY",
          "level" : 3
        } ],
        "duration" : 1800.000000000,
        "pause" : false
      },
      "window" : {
        "start" : [ 9, 19 ],
        "end" : [ 9, 49 ]
      }
    }, {
      "job" : {
        "id" : -1,
        "desc" : "Pause",
        "location" : {
          "id" : 350,
          "name" : null,
          "latitude" : 43.795776,
          "longitude" : 4.2313356
        },
        "openings" : {
          "start" : [ 15, 10 ],
          "end" : [ 16, 6 ]
        },
        "preferredSlots" : null,
        "doAfter" : null,
        "nbEmpRequired" : 1,
        "deadline" : [ 12, 5 ],
        "skills" : [ {
          "id" : 4,
          "name" : "MASONRY",
          "level" : 3
        } ],
        "duration" : 1800.000000000,
        "pause" : true
      },
      "window" : {
        "start" : [ 9, 50 ],
        "end" : [ 13, 0 ]
      }
    } ],
    "driving" : 1140.000000000,
    "valid" : true
  }, {
    "emp" : {
      "id" : 440,
      "name" : "440",
      "shifts" : [ {
        "start" : [ 9, 0 ],
        "end" : [ 12, 0 ]
      }, {
        "start" : [ 13, 0 ],
        "end" : [ 17, 0 ]
      } ],
      "prefSlots" : null,
      "startingLoc" : {
        "id" : 2815,
        "name" : null,
        "latitude" : 43.526783,
        "longitude" : 3.7180939
      },
      "skills" : [ {
        "id" : 4,
        "name" : "MASONRY",
        "level" : 7
      }, {
        "id" : 8,
        "name" : "IRONWORK",
        "level" : 6
      }, {
        "id" : 2,
        "name" : "ELECTRICIAN",
        "level" : 10
      }, {
        "id" : 3,
        "name" : "PLUMBING",
        "level" : 7
      }, {
        "id" : 4,
        "name" : "MASONRY",
        "level" : 5
      }, {
        "id" : 8,
        "name" : "IRONWORK",
        "level" : 8
      }, {
        "id" : 5,
        "name" : "GLAZING",
        "level" : 5
      }, {
        "id" : 3,
        "name" : "PLUMBING",
        "level" : 8
      }, {
        "id" : 4,
        "name" : "MASONRY",
        "level" : 9
      }, {
        "id" : 9,
        "name" : "TILER",
        "level" : 2
      } ]
    },
    "planning" : [ {
      "job" : {
        "id" : -1,
        "desc" : "Home",
        "location" : {
          "id" : 2815,
          "name" : null,
          "latitude" : 43.526783,
          "longitude" : 3.7180939
        },
        "openings" : null,
        "preferredSlots" : null,
        "doAfter" : null,
        "nbEmpRequired" : 1,
        "deadline" : null,
        "skills" : [ ],
        "duration" : null,
        "pause" : true
      },
      "window" : {
        "start" : [ 9, 0 ],
        "end" : [ 9, 0 ]
      }
    }, {
      "job" : {
        "id" : 601,
        "desc" : "GLAZING, ELECTRICIAN",
        "location" : {
          "id" : 9735,
          "name" : null,
          "latitude" : 43.64692,
          "longitude" : 4.014565
        },
        "openings" : {
          "start" : [ 12, 4 ],
          "end" : [ 15, 32 ]
        },
        "preferredSlots" : null,
        "doAfter" : null,
        "nbEmpRequired" : 1,
        "deadline" : [ 15, 32 ],
        "skills" : [ {
          "id" : 5,
          "name" : "GLAZING",
          "level" : 3
        }, {
          "id" : 2,
          "name" : "ELECTRICIAN",
          "level" : 4
        } ],
        "duration" : 1800.000000000,
        "pause" : false
      },
      "window" : {
        "start" : [ 9, 28 ],
        "end" : [ 9, 58 ]
      }
    }, {
      "job" : {
        "id" : 522,
        "desc" : "PLUMBING, IRONWORK",
        "location" : {
          "id" : 621,
          "name" : null,
          "latitude" : 43.86021,
          "longitude" : 3.854269
        },
        "openings" : {
          "start" : [ 13, 12 ],
          "end" : [ 16, 6 ]
        },
        "preferredSlots" : null,
        "doAfter" : null,
        "nbEmpRequired" : 1,
        "deadline" : [ 17, 58 ],
        "skills" : [ {
          "id" : 3,
          "name" : "PLUMBING",
          "level" : 2
        }, {
          "id" : 8,
          "name" : "IRONWORK",
          "level" : 1
        } ],
        "duration" : 2700.000000000,
        "pause" : false
      },
      "window" : {
        "start" : [ 10, 25 ],
        "end" : [ 11, 10 ]
      }
    }, {
      "job" : {
        "id" : -1,
        "desc" : "Pause",
        "location" : {
          "id" : 621,
          "name" : null,
          "latitude" : 43.86021,
          "longitude" : 3.854269
        },
        "openings" : {
          "start" : [ 13, 12 ],
          "end" : [ 16, 6 ]
        },
        "preferredSlots" : null,
        "doAfter" : null,
        "nbEmpRequired" : 1,
        "deadline" : [ 17, 58 ],
        "skills" : [ {
          "id" : 3,
          "name" : "PLUMBING",
          "level" : 2
        }, {
          "id" : 8,
          "name" : "IRONWORK",
          "level" : 1
        } ],
        "duration" : 2700.000000000,
        "pause" : true
      },
      "window" : {
        "start" : [ 11, 11 ],
        "end" : [ 13, 0 ]
      }
    }, {
      "job" : {
        "id" : 255,
        "desc" : "ELECTRICIAN",
        "location" : {
          "id" : 6654,
          "name" : null,
          "latitude" : 43.771248,
          "longitude" : 4.032737
        },
        "openings" : {
          "start" : [ 10, 5 ],
          "end" : [ 15, 10 ]
        },
        "preferredSlots" : null,
        "doAfter" : null,
        "nbEmpRequired" : 1,
        "deadline" : [ 10, 1 ],
        "skills" : [ {
          "id" : 2,
          "name" : "ELECTRICIAN",
          "level" : 4
        } ],
        "duration" : 3600.000000000,
        "pause" : false
      },
      "window" : {
        "start" : [ 13, 18 ],
        "end" : [ 14, 18 ]
      }
    }, {
      "job" : {
        "id" : 691,
        "desc" : "ELECTRICIAN",
        "location" : {
          "id" : 5371,
          "name" : null,
          "latitude" : 43.912876,
          "longitude" : 4.076905
        },
        "openings" : {
          "start" : [ 12, 34 ],
          "end" : [ 14, 27 ]
        },
        "preferredSlots" : null,
        "doAfter" : null,
        "nbEmpRequired" : 1,
        "deadline" : [ 9, 46 ],
        "skills" : [ {
          "id" : 2,
          "name" : "ELECTRICIAN",
          "level" : 3
        } ],
        "duration" : 5400.000000000,
        "pause" : false
      },
      "window" : {
        "start" : [ 14, 35 ],
        "end" : [ 16, 5 ]
      }
    } ],
    "driving" : 5400.000000000,
    "valid" : true
  }, {
    "emp" : {
      "id" : 917,
      "name" : "917",
      "shifts" : [ {
        "start" : [ 9, 0 ],
        "end" : [ 12, 0 ]
      }, {
        "start" : [ 13, 0 ],
        "end" : [ 17, 0 ]
      } ],
      "prefSlots" : null,
      "startingLoc" : {
        "id" : 7319,
        "name" : null,
        "latitude" : 43.684353,
        "longitude" : 4.0050955
      },
      "skills" : [ {
        "id" : 4,
        "name" : "MASONRY",
        "level" : 6
      } ]
    },
    "planning" : [ {
      "job" : {
        "id" : -1,
        "desc" : "Home",
        "location" : {
          "id" : 7319,
          "name" : null,
          "latitude" : 43.684353,
          "longitude" : 4.0050955
        },
        "openings" : null,
        "preferredSlots" : null,
        "doAfter" : null,
        "nbEmpRequired" : 1,
        "deadline" : null,
        "skills" : [ ],
        "duration" : null,
        "pause" : true
      },
      "window" : {
        "start" : [ 9, 0 ],
        "end" : [ 9, 0 ]
      }
    }, {
      "job" : {
        "id" : -1,
        "desc" : "Pause",
        "location" : {
          "id" : 7319,
          "name" : null,
          "latitude" : 43.684353,
          "longitude" : 4.0050955
        },
        "openings" : null,
        "preferredSlots" : null,
        "doAfter" : null,
        "nbEmpRequired" : 1,
        "deadline" : null,
        "skills" : [ ],
        "duration" : null,
        "pause" : true
      },
      "window" : {
        "start" : [ 9, 1 ],
        "end" : [ 13, 0 ]
      }
    } ],
    "driving" : 0.0,
    "valid" : true
  } ],
  "unassigned" : [ {
    "id" : 876,
    "desc" : "MANAGEMENT, PLUMBING",
    "location" : {
      "id" : 3731,
      "name" : null,
      "latitude" : 43.5121,
      "longitude" : 4.160996
    },
    "openings" : {
      "start" : [ 10, 13 ],
      "end" : [ 17, 25 ]
    },
    "preferredSlots" : null,
    "doAfter" : null,
    "nbEmpRequired" : 1,
    "deadline" : [ 17, 38 ],
    "skills" : [ {
      "id" : 0,
      "name" : "MANAGEMENT",
      "level" : 4
    }, {
      "id" : 3,
      "name" : "PLUMBING",
      "level" : 4
    } ],
    "duration" : 1800.000000000,
    "pause" : false
  }, {
    "id" : 741,
    "desc" : "PLUMBING, PAINTING",
    "location" : {
      "id" : 5420,
      "name" : null,
      "latitude" : 43.903687,
      "longitude" : 4.2772384
    },
    "openings" : {
      "start" : [ 10, 19 ],
      "end" : [ 10, 21 ]
    },
    "preferredSlots" : null,
    "doAfter" : null,
    "nbEmpRequired" : 1,
    "deadline" : [ 15, 30 ],
    "skills" : [ {
      "id" : 3,
      "name" : "PLUMBING",
      "level" : 2
    }, {
      "id" : 7,
      "name" : "PAINTING",
      "level" : 4
    } ],
    "duration" : 2700.000000000,
    "pause" : false
  }, {
    "id" : 570,
    "desc" : "ELECTRICIAN, ENGINEER",
    "location" : {
      "id" : 2243,
      "name" : null,
      "latitude" : 43.691998,
      "longitude" : 4.256984
    },
    "openings" : {
      "start" : [ 9, 27 ],
      "end" : [ 10, 56 ]
    },
    "preferredSlots" : null,
    "doAfter" : null,
    "nbEmpRequired" : 1,
    "deadline" : [ 11, 30 ],
    "skills" : [ {
      "id" : 2,
      "name" : "ELECTRICIAN",
      "level" : 1
    }, {
      "id" : 1,
      "name" : "ENGINEER",
      "level" : 3
    } ],
    "duration" : 3600.000000000,
    "pause" : false
  }, {
    "id" : 873,
    "desc" : "MANAGEMENT, PLUMBING",
    "location" : {
      "id" : 8047,
      "name" : null,
      "latitude" : 43.84939,
      "longitude" : 4.0775213
    },
    "openings" : {
      "start" : [ 10, 20 ],
      "end" : [ 16, 1 ]
    },
    "preferredSlots" : null,
    "doAfter" : null,
    "nbEmpRequired" : 1,
    "deadline" : [ 16, 37 ],
    "skills" : [ {
      "id" : 0,
      "name" : "MANAGEMENT",
      "level" : 1
    }, {
      "id" : 3,
      "name" : "PLUMBING",
      "level" : 5
    } ],
    "duration" : 3600.000000000,
    "pause" : false
  }, {
    "id" : 733,
    "desc" : "TILER, ELECTRICIAN",
    "location" : {
      "id" : 5509,
      "name" : null,
      "latitude" : 43.976692,
      "longitude" : 3.9612012
    },
    "openings" : {
      "start" : [ 9, 14 ],
      "end" : [ 14, 56 ]
    },
    "preferredSlots" : null,
    "doAfter" : null,
    "nbEmpRequired" : 1,
    "deadline" : [ 14, 24 ],
    "skills" : [ {
      "id" : 9,
      "name" : "TILER",
      "level" : 4
    }, {
      "id" : 2,
      "name" : "ELECTRICIAN",
      "level" : 5
    } ],
    "duration" : 3600.000000000,
    "pause" : false
  }, {
    "id" : 607,
    "desc" : "MANAGEMENT, ENGINEER",
    "location" : {
      "id" : 4507,
      "name" : null,
      "latitude" : 43.4078,
      "longitude" : 3.92641
    },
    "openings" : {
      "start" : [ 9, 20 ],
      "end" : [ 10, 33 ]
    },
    "preferredSlots" : null,
    "doAfter" : null,
    "nbEmpRequired" : 1,
    "deadline" : [ 13, 22 ],
    "skills" : [ {
      "id" : 0,
      "name" : "MANAGEMENT",
      "level" : 4
    }, {
      "id" : 1,
      "name" : "ENGINEER",
      "level" : 4
    } ],
    "duration" : 3600.000000000,
    "pause" : false
  }, {
    "id" : 65,
    "desc" : "CARPENTRY, PAINTING",
    "location" : {
      "id" : 9123,
      "name" : null,
      "latitude" : 44.009537,
      "longitude" : 3.7459412
    },
    "openings" : {
      "start" : [ 9, 42 ],
      "end" : [ 17, 24 ]
    },
    "preferredSlots" : null,
    "doAfter" : null,
    "nbEmpRequired" : 1,
    "deadline" : [ 14, 37 ],
    "skills" : [ {
      "id" : 6,
      "name" : "CARPENTRY",
      "level" : 5
    }, {
      "id" : 7,
      "name" : "PAINTING",
      "level" : 5
    } ],
    "duration" : 3600.000000000,
    "pause" : false
  }, {
    "id" : 654,
    "desc" : "IRONWORK, ENGINEER",
    "location" : {
      "id" : 8685,
      "name" : null,
      "latitude" : 43.9347,
      "longitude" : 3.7971053
    },
    "openings" : {
      "start" : [ 13, 22 ],
      "end" : [ 17, 26 ]
    },
    "preferredSlots" : null,
    "doAfter" : null,
    "nbEmpRequired" : 1,
    "deadline" : [ 17, 10 ],
    "skills" : [ {
      "id" : 8,
      "name" : "IRONWORK",
      "level" : 3
    }, {
      "id" : 1,
      "name" : "ENGINEER",
      "level" : 1
    } ],
    "duration" : 5400.000000000,
    "pause" : false
  }, {
    "id" : 294,
    "desc" : "IRONWORK, GLAZING",
    "location" : {
      "id" : 104,
      "name" : null,
      "latitude" : 43.67069,
      "longitude" : 4.239426
    },
    "openings" : {
      "start" : [ 12, 54 ],
      "end" : [ 13, 32 ]
    },
    "preferredSlots" : null,
    "doAfter" : null,
    "nbEmpRequired" : 1,
    "deadline" : [ 12, 11 ],
    "skills" : [ {
      "id" : 8,
      "name" : "IRONWORK",
      "level" : 3
    }, {
      "id" : 5,
      "name" : "GLAZING",
      "level" : 2
    } ],
    "duration" : 5400.000000000,
    "pause" : false
  }, {
    "id" : 84,
    "desc" : "PAINTING, ENGINEER",
    "location" : {
      "id" : 4095,
      "name" : null,
      "latitude" : 43.54855,
      "longitude" : 4.056306
    },
    "openings" : {
      "start" : [ 10, 20 ],
      "end" : [ 13, 1 ]
    },
    "preferredSlots" : null,
    "doAfter" : null,
    "nbEmpRequired" : 1,
    "deadline" : [ 9, 56 ],
    "skills" : [ {
      "id" : 7,
      "name" : "PAINTING",
      "level" : 3
    }, {
      "id" : 1,
      "name" : "ENGINEER",
      "level" : 3
    } ],
    "duration" : 5400.000000000,
    "pause" : false
  }, {
    "id" : 122,
    "desc" : "TILER",
    "location" : {
      "id" : 5129,
      "name" : null,
      "latitude" : 43.64734,
      "longitude" : 4.1824346
    },
    "openings" : {
      "start" : [ 11, 11 ],
      "end" : [ 15, 26 ]
    },
    "preferredSlots" : null,
    "doAfter" : null,
    "nbEmpRequired" : 1,
    "deadline" : [ 17, 3 ],
    "skills" : [ {
      "id" : 9,
      "name" : "TILER",
      "level" : 2
    } ],
    "duration" : 7200.000000000,
    "pause" : false
  } ],
  "valid" : true
}