{
  "listEdt" : [ {
    "emp" : {
      "id" : 908,
      "name" : "908",
      "shifts" : [ {
        "start" : [ 9, 0 ],
        "end" : [ 12, 0 ]
      }, {
        "start" : [ 13, 0 ],
        "end" : [ 17, 0 ]
      } ],
      "prefSlots" : null,
      "startingLoc" : {
        "id" : 725,
        "name" : null,
        "latitude" : 43.82485,
        "longitude" : 4.101466
      },
      "skills" : [ {
        "id" : 4,
        "name" : "MASONRY",
        "level" : 6
      }, {
        "id" : 6,
        "name" : "CARPENTRY",
        "level" : 1
      }, {
        "id" : 9,
        "name" : "TILER",
        "level" : 4
      }, {
        "id" : 5,
        "name" : "GLAZING",
        "level" : 8
      }, {
        "id" : 9,
        "name" : "TILER",
        "level" : 1
      }, {
        "id" : 6,
        "name" : "CARPENTRY",
        "level" : 3
      }, {
        "id" : 5,
        "name" : "GLAZING",
        "level" : 4
      }, {
        "id" : 2,
        "name" : "ELECTRICIAN",
        "level" : 4
      }, {
        "id" : 1,
        "name" : "ENGINEER",
        "level" : 7
      }, {
        "id" : 8,
        "name" : "IRONWORK",
        "level" : 10
      } ]
    },
    "planning" : [ {
      "job" : {
        "id" : -1,
        "desc" : "Home",
        "location" : {
          "id" : 725,
          "name" : null,
          "latitude" : 43.82485,
          "longitude" : 4.101466
        },
        "openings" : null,
        "preferredSlots" : null,
        "doAfter" : null,
        "nbEmpRequired" : 1,
        "deadline" : null,
        "skills" : [ ],
        "duration" : null,
        "pause" : true
      },
      "window" : {
        "start" : [ 9, 0 ],
        "end" : [ 9, 0 ]
      }
    }, {
      "job" : {
        "id" : 978,
        "desc" : "IRONWORK, ENGINEER",
        "location" : {
          "id" : 648,
          "name" : null,
          "latitude" : 43.982166,
          "longitude" : 3.7015476
        },
        "openings" : {
          "start" : [ 11, 3 ],
          "end" : [ 17, 23 ]
        },
        "preferredSlots" : null,
        "doAfter" : null,
        "nbEmpRequired" : 1,
        "deadline" : [ 15, 16 ],
        "skills" : [ {
          "id" : 8,
          "name" : "IRONWORK",
          "level" : 1
        }, {
          "id" : 1,
          "name" : "ENGINEER",
          "level" : 3
        } ],
        "duration" : 1800.000000000,
        "pause" : false
      },
      "window" : {
        "start" : [ 9, 37 ],
        "end" : [ 10, 7 ]
      }
    }, {
      "job" : {
        "id" : 440,
        "desc" : "ENGINEER",
        "location" : {
          "id" : 7278,
          "name" : null,
          "latitude" : 43.530235,
          "longitude" : 4.261387
        },
        "openings" : {
          "start" : [ 12, 54 ],
          "end" : [ 14, 9 ]
        },
        "preferredSlots" : null,
        "doAfter" : null,
        "nbEmpRequired" : 1,
        "deadline" : [ 9, 50 ],
        "skills" : [ {
          "id" : 1,
          "name" : "ENGINEER",
          "level" : 3
        } ],
        "duration" : 2700.000000000,
        "pause" : false
      },
      "window" : {
        "start" : [ 11, 15 ],
        "end" : [ 12, 0 ]
      }
    }, {
      "job" : {
        "id" : -1,
        "desc" : "Pause",
        "location" : {
          "id" : 7278,
          "name" : null,
          "latitude" : 43.530235,
          "longitude" : 4.261387
        },
        "openings" : {
          "start" : [ 12, 54 ],
          "end" : [ 14, 9 ]
        },
        "preferredSlots" : null,
        "doAfter" : null,
        "nbEmpRequired" : 1,
        "deadline" : [ 9, 50 ],
        "skills" : [ {
          "id" : 1,
          "name" : "ENGINEER",
          "level" : 3
        } ],
        "duration" : 2700.000000000,
        "pause" : true
      },
      "window" : {
        "start" : [ 12, 1 ],
        "end" : [ 13, 0 ]
      }
    }, {
      "job" : {
        "id" : 567,
        "desc" : "CARPENTRY",
        "location" : {
          "id" : 4093,
          "name" : null,
          "latitude" : 43.516716,
          "longitude" : 4.2449527
        },
        "openings" : {
          "start" : [ 10, 29 ],
          "end" : [ 12, 38 ]
        },
        "preferredSlots" : null,
        "doAfter" : null,
        "nbEmpRequired" : 1,
        "deadline" : [ 16, 4 ],
        "skills" : [ {
          "id" : 6,
          "name" : "CARPENTRY",
          "level" : 2
        } ],
        "duration" : 2700.000000000,
        "pause" : false
      },
      "window" : {
        "start" : [ 13, 3 ],
        "end" : [ 13, 48 ]
      }
    }, {
      "job" : {
        "id" : 959,
        "desc" : "CARPENTRY",
        "location" : {
          "id" : 3813,
          "name" : null,
          "latitude" : 43.78276,
          "longitude" : 3.8526015
        },
        "openings" : {
          "start" : [ 10, 35 ],
          "end" : [ 13, 39 ]
        },
        "preferredSlots" : null,
        "doAfter" : null,
        "nbEmpRequired" : 1,
        "deadline" : [ 11, 9 ],
        "skills" : [ {
          "id" : 6,
          "name" : "CARPENTRY",
          "level" : 1
        } ],
        "duration" : 2700.000000000,
        "pause" : false
      },
      "window" : {
        "start" : [ 14, 32 ],
        "end" : [ 15, 17 ]
      }
    }, {
      "job" : {
        "id" : 239,
        "desc" : "IRONWORK, ELECTRICIAN",
        "location" : {
          "id" : 384,
          "name" : null,
          "latitude" : 43.945118,
          "longitude" : 3.7806327
        },
        "openings" : {
          "start" : [ 15, 9 ],
          "end" : [ 16, 54 ]
        },
        "preferredSlots" : null,
        "doAfter" : null,
        "nbEmpRequired" : 1,
        "deadline" : [ 15, 22 ],
        "skills" : [ {
          "id" : 8,
          "name" : "IRONWORK",
          "level" : 2
        }, {
          "id" : 2,
          "name" : "ELECTRICIAN",
          "level" : 4
        } ],
        "duration" : 2700.000000000,
        "pause" : false
      },
      "window" : {
        "start" : [ 15, 36 ],
        "end" : [ 16, 21 ]
      }
    } ],
    "driving" : 10260.000000000,
    "valid" : true
  }, {
    "emp" : {
      "id" : 488,
      "name" : "488",
      "shifts" : [ {
        "start" : [ 9, 0 ],
        "end" : [ 12, 0 ]
      }, {
        "start" : [ 13, 0 ],
        "end" : [ 17, 0 ]
      } ],
      "prefSlots" : null,
      "startingLoc" : {
        "id" : 8914,
        "name" : null,
        "latitude" : 43.772877,
        "longitude" : 3.7018738
      },
      "skills" : [ {
        "id" : 9,
        "name" : "TILER",
        "level" : 7
      }, {
        "id" : 3,
        "name" : "PLUMBING",
        "level" : 6
      }, {
        "id" : 4,
        "name" : "MASONRY",
        "level" : 4
      }, {
        "id" : 5,
        "name" : "GLAZING",
        "level" : 2
      }, {
        "id" : 9,
        "name" : "TILER",
        "level" : 4
      } ]
    },
    "planning" : [ {
      "job" : {
        "id" : -1,
        "desc" : "Home",
        "location" : {
          "id" : 8914,
          "name" : null,
          "latitude" : 43.772877,
          "longitude" : 3.7018738
        },
        "openings" : null,
        "preferredSlots" : null,
        "doAfter" : null,
        "nbEmpRequired" : 1,
        "deadline" : null,
        "skills" : [ ],
        "duration" : null,
        "pause" : true
      },
      "window" : {
        "start" : [ 9, 0 ],
        "end" : [ 9, 0 ]
      }
    }, {
      "job" : {
        "id" : 979,
        "desc" : "TILER",
        "location" : {
          "id" : 9412,
          "name" : null,
          "latitude" : 43.873814,
          "longitude" : 3.7403355
        },
        "openings" : {
          "start" : [ 9, 43 ],
          "end" : [ 11, 17 ]
        },
        "preferredSlots" : null,
        "doAfter" : null,
        "nbEmpRequired" : 1,
        "deadline" : [ 13, 1 ],
        "skills" : [ {
          "id" : 9,
          "name" : "TILER",
          "level" : 3
        } ],
        "duration" : 5400.000000000,
        "pause" : false
      },
      "window" : {
        "start" : [ 9, 12 ],
        "end" : [ 10, 42 ]
      }
    }, {
      "job" : {
        "id" : -1,
        "desc" : "Pause",
        "location" : {
          "id" : 9412,
          "name" : null,
          "latitude" : 43.873814,
          "longitude" : 3.7403355
        },
        "openings" : {
          "start" : [ 9, 43 ],
          "end" : [ 11, 17 ]
        },
        "preferredSlots" : null,
        "doAfter" : null,
        "nbEmpRequired" : 1,
        "deadline" : [ 13, 1 ],
        "skills" : [ {
          "id" : 9,
          "name" : "TILER",
          "level" : 3
        } ],
        "duration" : 5400.000000000,
        "pause" : true
      },
      "window" : {
        "start" : [ 10, 43 ],
        "end" : [ 13, 0 ]
      }
    } ],
    "driving" : 720.000000000,
    "valid" : true
  }, {
    "emp" : {
      "id" : 936,
      "name" : "936",
      "shifts" : [ {
        "start" : [ 9, 0 ],
        "end" : [ 12, 0 ]
      }, {
        "start" : [ 13, 0 ],
        "end" : [ 17, 0 ]
      } ],
      "prefSlots" : null,
      "startingLoc" : {
        "id" : 2702,
        "name" : null,
        "latitude" : 44.051807,
        "longitude" : 3.907617
      },
      "skills" : [ {
        "id" : 8,
        "name" : "IRONWORK",
        "level" : 2
      }, {
        "id" : 7,
        "name" : "PAINTING",
        "level" : 4
      } ]
    },
    "planning" : [ {
      "job" : {
        "id" : -1,
        "desc" : "Home",
        "location" : {
          "id" : 2702,
          "name" : null,
          "latitude" : 44.051807,
          "longitude" : 3.907617
        },
        "openings" : null,
        "preferredSlots" : null,
        "doAfter" : null,
        "nbEmpRequired" : 1,
        "deadline" : null,
        "skills" : [ ],
        "duration" : null,
        "pause" : true
      },
      "window" : {
        "start" : [ 9, 0 ],
        "end" : [ 9, 0 ]
      }
    }, {
      "job" : {
        "id" : -1,
        "desc" : "Pause",
        "location" : {
          "id" : 2702,
          "name" : null,
          "latitude" : 44.051807,
          "longitude" : 3.907617
        },
        "openings" : null,
        "preferredSlots" : null,
        "doAfter" : null,
        "nbEmpRequired" : 1,
        "deadline" : null,
        "skills" : [ ],
        "duration" : null,
        "pause" : true
      },
      "window" : {
        "start" : [ 9, 1 ],
        "end" : [ 13, 0 ]
      }
    } ],
    "driving" : 0.0,
    "valid" : true
  }, {
    "emp" : {
      "id" : 651,
      "name" : "651",
      "shifts" : [ {
        "start" : [ 9, 0 ],
        "end" : [ 12, 0 ]
      }, {
        "start" : [ 13, 0 ],
        "end" : [ 17, 0 ]
      } ],
      "prefSlots" : null,
      "startingLoc" : {
        "id" : 1581,
        "name" : null,
        "latitude" : 43.859566,
        "longitude" : 4.148317
      },
      "skills" : [ {
        "id" : 2,
        "name" : "ELECTRICIAN",
        "level" : 2
      }, {
        "id" : 8,
        "name" : "IRONWORK",
        "level" : 3
      }, {
        "id" : 6,
        "name" : "CARPENTRY",
        "level" : 9
      }, {
        "id" : 9,
        "name" : "TILER",
        "level" : 6
      }, {
        "id" : 6,
        "name" : "CARPENTRY",
        "level" : 8
      }, {
        "id" : 6,
        "name" : "CARPENTRY",
        "level" : 6
      }, {
        "id" : 2,
        "name" : "ELECTRICIAN",
        "level" : 4
      }, {
        "id" : 1,
        "name" : "ENGINEER",
        "level" : 5
      }, {
        "id" : 4,
        "name" : "MASONRY",
        "level" : 3
      }, {
        "id" : 3,
        "name" : "PLUMBING",
        "level" : 6
      } ]
    },
    "planning" : [ {
      "job" : {
        "id" : -1,
        "desc" : "Home",
        "location" : {
          "id" : 1581,
          "name" : null,
          "latitude" : 43.859566,
          "longitude" : 4.148317
        },
        "openings" : null,
        "preferredSlots" : null,
        "doAfter" : null,
        "nbEmpRequired" : 1,
        "deadline" : null,
        "skills" : [ ],
        "duration" : null,
        "pause" : true
      },
      "window" : {
        "start" : [ 9, 0 ],
        "end" : [ 9, 0 ]
      }
    }, {
      "job" : {
        "id" : 748,
        "desc" : "CARPENTRY, PLUMBING",
        "location" : {
          "id" : 3171,
          "name" : null,
          "latitude" : 43.562946,
          "longitude" : 4.2931237
        },
        "openings" : {
          "start" : [ 11, 47 ],
          "end" : [ 16, 4 ]
        },
        "preferredSlots" : null,
        "doAfter" : null,
        "nbEmpRequired" : 1,
        "deadline" : [ 17, 37 ],
        "skills" : [ {
          "id" : 6,
          "name" : "CARPENTRY",
          "level" : 3
        }, {
          "id" : 3,
          "name" : "PLUMBING",
          "level" : 2
        } ],
        "duration" : 1800.000000000,
        "pause" : false
      },
      "window" : {
        "start" : [ 9, 35 ],
        "end" : [ 10, 5 ]
      }
    }, {
      "job" : {
        "id" : 218,
        "desc" : "CARPENTRY",
        "location" : {
          "id" : 1253,
          "name" : null,
          "latitude" : 43.634426,
          "longitude" : 4.239721
        },
        "openings" : {
          "start" : [ 10, 27 ],
          "end" : [ 16, 34 ]
        },
        "preferredSlots" : null,
        "doAfter" : null,
        "nbEmpRequired" : 1,
        "deadline" : [ 17, 31 ],
        "skills" : [ {
          "id" : 6,
          "name" : "CARPENTRY",
          "level" : 2
        } ],
        "duration" : 3600.000000000,
        "pause" : false
      },
      "window" : {
        "start" : [ 10, 15 ],
        "end" : [ 11, 15 ]
      }
    }, {
      "job" : {
        "id" : -1,
        "desc" : "Pause",
        "location" : {
          "id" : 1253,
          "name" : null,
          "latitude" : 43.634426,
          "longitude" : 4.239721
        },
        "openings" : {
          "start" : [ 10, 27 ],
          "end" : [ 16, 34 ]
        },
        "preferredSlots" : null,
        "doAfter" : null,
        "nbEmpRequired" : 1,
        "deadline" : [ 17, 31 ],
        "skills" : [ {
          "id" : 6,
          "name" : "CARPENTRY",
          "level" : 2
        } ],
        "duration" : 3600.000000000,
        "pause" : true
      },
      "window" : {
        "start" : [ 11, 16 ],
        "end" : [ 13, 0 ]
      }
    }, {
      "job" : {
        "id" : 75,
        "desc" : "CARPENTRY",
        "location" : {
          "id" : 5736,
          "name" : null,
          "latitude" : 43.517918,
          "longitude" : 3.7175934
        },
        "openings" : {
          "start" : [ 12, 40 ],
          "end" : [ 15, 52 ]
        },
        "preferredSlots" : null,
        "doAfter" : null,
        "nbEmpRequired" : 1,
        "deadline" : [ 15, 20 ],
        "skills" : [ {
          "id" : 6,
          "name" : "CARPENTRY",
          "level" : 4
        } ],
        "duration" : 3600.000000000,
        "pause" : false
      },
      "window" : {
        "start" : [ 13, 45 ],
        "end" : [ 14, 45 ]
      }
    }, {
      "job" : {
        "id" : 609,
        "desc" : "CARPENTRY, MASONRY",
        "location" : {
          "id" : 6985,
          "name" : null,
          "latitude" : 43.558792,
          "longitude" : 3.865619
        },
        "openings" : {
          "start" : [ 13, 50 ],
          "end" : [ 16, 56 ]
        },
        "preferredSlots" : null,
        "doAfter" : null,
        "nbEmpRequired" : 1,
        "deadline" : [ 9, 39 ],
        "skills" : [ {
          "id" : 6,
          "name" : "CARPENTRY",
          "level" : 1
        }, {
          "id" : 4,
          "name" : "MASONRY",
          "level" : 3
        } ],
        "duration" : 3600.000000000,
        "pause" : false
      },
      "window" : {
        "start" : [ 14, 58 ],
        "end" : [ 15, 58 ]
      }
    } ],
    "driving" : 6180.000000000,
    "valid" : true
  }, {
    "emp" : {
      "id" : 649,
      "name" : "649",
      "shifts" : [ {
        "start" : [ 9, 0 ],
        "end" : [ 12, 0 ]
      }, {
        "start" : [ 13, 0 ],
        "end" : [ 17, 0 ]
      } ],
      "prefSlots" : null,
      "startingLoc" : {
        "id" : 4023,
        "name" : null,
        "latitude" : 43.6026,
        "longitude" : 3.8783774
      },
      "skills" : [ {
        "id" : 8,
        "name" : "IRONWORK",
        "level" : 7
      }, {
        "id" : 9,
        "name" : "TILER",
        "level" : 8
      }, {
        "id" : 5,
        "name" : "GLAZING",
        "level" : 3
      }, {
        "id" : 4,
        "name" : "MASONRY",
        "level" : 5
      }, {
        "id" : 9,
        "name" : "TILER",
        "level" : 3
      }, {
        "id" : 2,
        "name" : "ELECTRICIAN",
        "level" : 5
      }, {
        "id" : 0,
        "name" : "MANAGEMENT",
        "level" : 7
      }, {
        "id" : 5,
        "name" : "GLAZING",
        "level" : 9
      }, {
        "id" : 7,
        "name" : "PAINTING",
        "level" : 5
      }, {
        "id" : 8,
        "name" : "IRONWORK",
        "level" : 1
      } ]
    },
    "planning" : [ {
      "job" : {
        "id" : -1,
        "desc" : "Home",
        "location" : {
          "id" : 4023,
          "name" : null,
          "latitude" : 43.6026,
          "longitude" : 3.8783774
        },
        "openings" : null,
        "preferredSlots" : null,
        "doAfter" : null,
        "nbEmpRequired" : 1,
        "deadline" : null,
        "skills" : [ ],
        "duration" : null,
        "pause" : true
      },
      "window" : {
        "start" : [ 9, 0 ],
        "end" : [ 9, 0 ]
      }
    }, {
      "job" : {
        "id" : 457,
        "desc" : "PAINTING, TILER",
        "location" : {
          "id" : 1646,
          "name" : null,
          "latitude" : 43.978996,
          "longitude" : 4.1423535
        },
        "openings" : {
          "start" : [ 11, 33 ],
          "end" : [ 17, 48 ]
        },
        "preferredSlots" : null,
        "doAfter" : null,
        "nbEmpRequired" : 1,
        "deadline" : [ 16, 30 ],
        "skills" : [ {
          "id" : 7,
          "name" : "PAINTING",
          "level" : 5
        }, {
          "id" : 9,
          "name" : "TILER",
          "level" : 1
        } ],
        "duration" : 2700.000000000,
        "pause" : false
      },
      "window" : {
        "start" : [ 9, 47 ],
        "end" : [ 10, 32 ]
      }
    }, {
      "job" : {
        "id" : 798,
        "desc" : "MANAGEMENT",
        "location" : {
          "id" : 9365,
          "name" : null,
          "latitude" : 43.64115,
          "longitude" : 3.9636102
        },
        "openings" : {
          "start" : [ 10, 48 ],
          "end" : [ 14, 20 ]
        },
        "preferredSlots" : null,
        "doAfter" : null,
        "nbEmpRequired" : 1,
        "deadline" : [ 10, 57 ],
        "skills" : [ {
          "id" : 0,
          "name" : "MANAGEMENT",
          "level" : 3
        } ],
        "duration" : 2700.000000000,
        "pause" : false
      },
      "window" : {
        "start" : [ 11, 13 ],
        "end" : [ 11, 58 ]
      }
    }, {
      "job" : {
        "id" : -1,
        "desc" : "Pause",
        "location" : {
          "id" : 9365,
          "name" : null,
          "latitude" : 43.64115,
          "longitude" : 3.9636102
        },
        "openings" : {
          "start" : [ 10, 48 ],
          "end" : [ 14, 20 ]
        },
        "preferredSlots" : null,
        "doAfter" : null,
        "nbEmpRequired" : 1,
        "deadline" : [ 10, 57 ],
        "skills" : [ {
          "id" : 0,
          "name" : "MANAGEMENT",
          "level" : 3
        } ],
        "duration" : 2700.000000000,
        "pause" : true
      },
      "window" : {
        "start" : [ 11, 59 ],
        "end" : [ 13, 0 ]
      }
    }, {
      "job" : {
        "id" : 952,
        "desc" : "ELECTRICIAN, GLAZING",
        "location" : {
          "id" : 4545,
          "name" : null,
          "latitude" : 43.578957,
          "longitude" : 3.8100147
        },
        "openings" : {
          "start" : [ 14, 54 ],
          "end" : [ 15, 4 ]
        },
        "preferredSlots" : null,
        "doAfter" : null,
        "nbEmpRequired" : 1,
        "deadline" : [ 16, 42 ],
        "skills" : [ {
          "id" : 2,
          "name" : "ELECTRICIAN",
          "level" : 5
        }, {
          "id" : 5,
          "name" : "GLAZING",
          "level" : 1
        } ],
        "duration" : 3600.000000000,
        "pause" : false
      },
      "window" : {
        "start" : [ 13, 15 ],
        "end" : [ 14, 15 ]
      }
    }, {
      "job" : {
        "id" : 276,
        "desc" : "PAINTING, ELECTRICIAN",
        "location" : {
          "id" : 9918,
          "name" : null,
          "latitude" : 43.868893,
          "longitude" : 4.152138
        },
        "openings" : {
          "start" : [ 16, 36 ],
          "end" : [ 16, 46 ]
        },
        "preferredSlots" : null,
        "doAfter" : null,
        "nbEmpRequired" : 1,
        "deadline" : [ 9, 38 ],
        "skills" : [ {
          "id" : 7,
          "name" : "PAINTING",
          "level" : 3
        }, {
          "id" : 2,
          "name" : "ELECTRICIAN",
          "level" : 5
        } ],
        "duration" : 3600.000000000,
        "pause" : false
      },
      "window" : {
        "start" : [ 14, 58 ],
        "end" : [ 15, 58 ]
      }
    } ],
    "driving" : 8760.000000000,
    "valid" : true
  }, {
    "emp" : {
      "id" : 122,
      "name" : "122",
      "shifts" : [ {
        "start" : [ 9, 0 ],
        "end" : [ 12, 0 ]
      }, {
        "start" : [ 13, 0 ],
        "end" : [ 17, 0 ]
      } ],
      "prefSlots" : null,
      "startingLoc" : {
        "id" : 7330,
        "name" : null,
        "latitude" : 44.08491,
        "longitude" : 3.7844567
      },
      "skills" : [ {
        "id" : 3,
        "name" : "PLUMBING",
        "level" : 8
      }, {
        "id" : 2,
        "name" : "ELECTRICIAN",
        "level" : 9
      }, {
        "id" : 1,
        "name" : "ENGINEER",
        "level" : 1
      }, {
        "id" : 5,
        "name" : "GLAZING",
        "level" : 4
      }, {
        "id" : 4,
        "name" : "MASONRY",
        "level" : 6
      } ]
    },
    "planning" : [ {
      "job" : {
        "id" : -1,
        "desc" : "Home",
        "location" : {
          "id" : 7330,
          "name" : null,
          "latitude" : 44.08491,
          "longitude" : 3.7844567
        },
        "openings" : null,
        "preferredSlots" : null,
        "doAfter" : null,
        "nbEmpRequired" : 1,
        "deadline" : null,
        "skills" : [ ],
        "duration" : null,
        "pause" : true
      },
      "window" : {
        "start" : [ 9, 0 ],
        "end" : [ 9, 0 ]
      }
    }, {
      "job" : {
        "id" : 892,
        "desc" : "ENGINEER",
        "location" : {
          "id" : 1074,
          "name" : null,
          "latitude" : 43.62052,
          "longitude" : 4.0654545
        },
        "openings" : {
          "start" : [ 15, 9 ],
          "end" : [ 15, 56 ]
        },
        "preferredSlots" : null,
        "doAfter" : null,
        "nbEmpRequired" : 1,
        "deadline" : [ 9, 16 ],
        "skills" : [ {
          "id" : 1,
          "name" : "ENGINEER",
          "level" : 1
        } ],
        "duration" : 3600.000000000,
        "pause" : false
      },
      "window" : {
        "start" : [ 9, 57 ],
        "end" : [ 10, 57 ]
      }
    }, {
      "job" : {
        "id" : -1,
        "desc" : "Pause",
        "location" : {
          "id" : 1074,
          "name" : null,
          "latitude" : 43.62052,
          "longitude" : 4.0654545
        },
        "openings" : {
          "start" : [ 15, 9 ],
          "end" : [ 15, 56 ]
        },
        "preferredSlots" : null,
        "doAfter" : null,
        "nbEmpRequired" : 1,
        "deadline" : [ 9, 16 ],
        "skills" : [ {
          "id" : 1,
          "name" : "ENGINEER",
          "level" : 1
        } ],
        "duration" : 3600.000000000,
        "pause" : true
      },
      "window" : {
        "start" : [ 10, 58 ],
        "end" : [ 13, 0 ]
      }
    } ],
    "driving" : 3420.000000000,
    "valid" : true
  }, {
    "emp" : {
      "id" : 973,
      "name" : "973",
      "shifts" : [ {
        "start" : [ 9, 0 ],
        "end" : [ 12, 0 ]
      }, {
        "start" : [ 13, 0 ],
        "end" : [ 17, 0 ]
      } ],
      "prefSlots" : null,
      "startingLoc" : {
        "id" : 8058,
        "name" : null,
        "latitude" : 43.953674,
        "longitude" : 3.7976227
      },
      "skills" : [ {
        "id" : 0,
        "name" : "MANAGEMENT",
        "level" : 10
      }, {
        "id" : 2,
        "name" : "ELECTRICIAN",
        "level" : 3
      }, {
        "id" : 3,
        "name" : "PLUMBING",
        "level" : 8
      }, {
        "id" : 1,
        "name" : "ENGINEER",
        "level" : 2
      }, {
        "id" : 8,
        "name" : "IRONWORK",
        "level" : 8
      }, {
        "id" : 0,
        "name" : "MANAGEMENT",
        "level" : 5
      }, {
        "id" : 6,
        "name" : "CARPENTRY",
        "level" : 4
      }, {
        "id" : 2,
        "name" : "ELECTRICIAN",
        "level" : 2
      }, {
        "id" : 5,
        "name" : "GLAZING",
        "level" : 3
      } ]
    },
    "planning" : [ {
      "job" : {
        "id" : -1,
        "desc" : "Home",
        "location" : {
          "id" : 8058,
          "name" : null,
          "latitude" : 43.953674,
          "longitude" : 3.7976227
        },
        "openings" : null,
        "preferredSlots" : null,
        "doAfter" : null,
        "nbEmpRequired" : 1,
        "deadline" : null,
        "skills" : [ ],
        "duration" : null,
        "pause" : true
      },
      "window" : {
        "start" : [ 9, 0 ],
        "end" : [ 9, 0 ]
      }
    }, {
      "job" : {
        "id" : -1,
        "desc" : "Pause",
        "location" : {
          "id" : 8058,
          "name" : null,
          "latitude" : 43.953674,
          "longitude" : 3.7976227
        },
        "openings" : null,
        "preferredSlots" : null,
        "doAfter" : null,
        "nbEmpRequired" : 1,
        "deadline" : null,
        "skills" : [ ],
        "duration" : null,
        "pause" : true
      },
      "window" : {
        "start" : [ 9, 1 ],
        "end" : [ 13, 0 ]
      }
    } ],
    "driving" : 0.0,
    "valid" : true
  }, {
    "emp" : {
      "id" : 318,
      "name" : "318",
      "shifts" : [ {
        "start" : [ 9, 0 ],
        "end" : [ 12, 0 ]
      }, {
        "start" : [ 13, 0 ],
        "end" : [ 17, 0 ]
      } ],
      "prefSlots" : null,
      "startingLoc" : {
        "id" : 9518,
        "name" : null,
        "latitude" : 44.028393,
        "longitude" : 4.1028037
      },
      "skills" : [ {
        "id" : 2,
        "name" : "ELECTRICIAN",
        "level" : 5
      }, {
        "id" : 7,
        "name" : "PAINTING",
        "level" : 8
      }, {
        "id" : 0,
        "name" : "MANAGEMENT",
        "level" : 8
      }, {
        "id" : 3,
        "name" : "PLUMBING",
        "level" : 9
      } ]
    },
    "planning" : [ {
      "job" : {
        "id" : -1,
        "desc" : "Home",
        "location" : {
          "id" : 9518,
          "name" : null,
          "latitude" : 44.028393,
          "longitude" : 4.1028037
        },
        "openings" : null,
        "preferredSlots" : null,
        "doAfter" : null,
        "nbEmpRequired" : 1,
        "deadline" : null,
        "skills" : [ ],
        "duration" : null,
        "pause" : true
      },
      "window" : {
        "start" : [ 9, 0 ],
        "end" : [ 9, 0 ]
      }
    }, {
      "job" : {
        "id" : -1,
        "desc" : "Pause",
        "location" : {
          "id" : 9518,
          "name" : null,
          "latitude" : 44.028393,
          "longitude" : 4.1028037
        },
        "openings" : null,
        "preferredSlots" : null,
        "doAfter" : null,
        "nbEmpRequired" : 1,
        "deadline" : null,
        "skills" : [ ],
        "duration" : null,
        "pause" : true
      },
      "window" : {
        "start" : [ 9, 1 ],
        "end" : [ 13, 0 ]
      }
    } ],
    "driving" : 0.0,
    "valid" : true
  }, {
    "emp" : {
      "id" : 807,
      "name" : "807",
      "shifts" : [ {
        "start" : [ 9, 0 ],
        "end" : [ 12, 0 ]
      }, {
        "start" : [ 13, 0 ],
        "end" : [ 17, 0 ]
      } ],
      "prefSlots" : null,
      "startingLoc" : {
        "id" : 147,
        "name" : null,
        "latitude" : 43.902245,
        "longitude" : 3.91038
      },
      "skills" : [ {
        "id" : 7,
        "name" : "PAINTING",
        "level" : 5
      } ]
    },
    "planning" : [ {
      "job" : {
        "id" : -1,
        "desc" : "Home",
        "location" : {
          "id" : 147,
          "name" : null,
          "latitude" : 43.902245,
          "longitude" : 3.91038
        },
        "openings" : null,
        "preferredSlots" : null,
        "doAfter" : null,
        "nbEmpRequired" : 1,
        "deadline" : null,
        "skills" : [ ],
        "duration" : null,
        "pause" : true
      },
      "window" : {
        "start" : [ 9, 0 ],
        "end" : [ 9, 0 ]
      }
    }, {
      "job" : {
        "id" : -1,
        "desc" : "Pause",
        "location" : {
          "id" : 147,
          "name" : null,
          "latitude" : 43.902245,
          "longitude" : 3.91038
        },
        "openings" : null,
        "preferredSlots" : null,
        "doAfter" : null,
        "nbEmpRequired" : 1,
        "deadline" : null,
        "skills" : [ ],
        "duration" : null,
        "pause" : true
      },
      "window" : {
        "start" : [ 9, 1 ],
        "end" : [ 13, 0 ]
      }
    } ],
    "driving" : 0.0,
    "valid" : true
  }, {
    "emp" : {
      "id" : 730,
      "name" : "730",
      "shifts" : [ {
        "start" : [ 9, 0 ],
        "end" : [ 12, 0 ]
      }, {
        "start" : [ 13, 0 ],
        "end" : [ 17, 0 ]
      } ],
      "prefSlots" : null,
      "startingLoc" : {
        "id" : 2936,
        "name" : null,
        "latitude" : 43.92346,
        "longitude" : 3.7212665
      },
      "skills" : [ {
        "id" : 0,
        "name" : "MANAGEMENT",
        "level" : 4
      }, {
        "id" : 1,
        "name" : "ENGINEER",
        "level" : 3
      } ]
    },
    "planning" : [ {
      "job" : {
        "id" : -1,
        "desc" : "Home",
        "location" : {
          "id" : 2936,
          "name" : null,
          "latitude" : 43.92346,
          "longitude" : 3.7212665
        },
        "openings" : null,
        "preferredSlots" : null,
        "doAfter" : null,
        "nbEmpRequired" : 1,
        "deadline" : null,
        "skills" : [ ],
        "duration" : null,
        "pause" : true
      },
      "window" : {
        "start" : [ 9, 0 ],
        "end" : [ 9, 0 ]
      }
    }, {
      "job" : {
        "id" : 844,
        "desc" : "ENGINEER, MANAGEMENT",
        "location" : {
          "id" : 1466,
          "name" : null,
          "latitude" : 43.71862,
          "longitude" : 4.2718396
        },
        "openings" : {
          "start" : [ 13, 31 ],
          "end" : [ 15, 19 ]
        },
        "preferredSlots" : null,
        "doAfter" : null,
        "nbEmpRequired" : 1,
        "deadline" : [ 16, 37 ],
        "skills" : [ {
          "id" : 1,
          "name" : "ENGINEER",
          "level" : 3
        }, {
          "id" : 0,
          "name" : "MANAGEMENT",
          "level" : 3
        } ],
        "duration" : 1800.000000000,
        "pause" : false
      },
      "window" : {
        "start" : [ 9, 50 ],
        "end" : [ 10, 20 ]
      }
    }, {
      "job" : {
        "id" : -1,
        "desc" : "Pause",
        "location" : {
          "id" : 1466,
          "name" : null,
          "latitude" : 43.71862,
          "longitude" : 4.2718396
        },
        "openings" : {
          "start" : [ 13, 31 ],
          "end" : [ 15, 19 ]
        },
        "preferredSlots" : null,
        "doAfter" : null,
        "nbEmpRequired" : 1,
        "deadline" : [ 16, 37 ],
        "skills" : [ {
          "id" : 1,
          "name" : "ENGINEER",
          "level" : 3
        }, {
          "id" : 0,
          "name" : "MANAGEMENT",
          "level" : 3
        } ],
        "duration" : 1800.000000000,
        "pause" : true
      },
      "window" : {
        "start" : [ 10, 21 ],
        "end" : [ 13, 0 ]
      }
    } ],
    "driving" : 3000.000000000,
    "valid" : true
  } ],
  "unassigned" : [ {
    "id" : 561,
    "desc" : "ENGINEER, PAINTING",
    "location" : {
      "id" : 5944,
      "name" : null,
      "latitude" : 43.606865,
      "longitude" : 3.8591263
    },
    "openings" : {
      "start" : [ 10, 31 ],
      "end" : [ 14, 25 ]
    },
    "preferredSlots" : null,
    "doAfter" : null,
    "nbEmpRequired" : 1,
    "deadline" : [ 11, 23 ],
    "skills" : [ {
      "id" : 1,
      "name" : "ENGINEER",
      "level" : 4
    }, {
      "id" : 7,
      "name" : "PAINTING",
      "level" : 1
    } ],
    "duration" : 5400.000000000,
    "pause" : false
  }, {
    "id" : 418,
    "desc" : "CARPENTRY, TILER",
    "location" : {
      "id" : 8759,
      "name" : null,
      "latitude" : 43.83864,
      "longitude" : 3.8930047
    },
    "openings" : {
      "start" : [ 10, 45 ],
      "end" : [ 14, 50 ]
    },
    "preferredSlots" : null,
    "doAfter" : null,
    "nbEmpRequired" : 1,
    "deadline" : [ 14, 4 ],
    "skills" : [ {
      "id" : 6,
      "name" : "CARPENTRY",
      "level" : 2
    }, {
      "id" : 9,
      "name" : "TILER",
      "level" : 2
    } ],
    "duration" : 5400.000000000,
    "pause" : false
  }, {
    "id" : 677,
    "desc" : "ELECTRICIAN, TILER",
    "location" : {
      "id" : 1380,
      "name" : null,
      "latitude" : 43.66177,
      "longitude" : 4.116706
    },
    "openings" : {
      "start" : [ 9, 22 ],
      "end" : [ 11, 32 ]
    },
    "preferredSlots" : null,
    "doAfter" : null,
    "nbEmpRequired" : 1,
    "deadline" : [ 12, 21 ],
    "skills" : [ {
      "id" : 2,
      "name" : "ELECTRICIAN",
      "level" : 2
    }, {
      "id" : 9,
      "name" : "TILER",
      "level" : 5
    } ],
    "duration" : 5400.000000000,
    "pause" : false
  }, {
    "id" : 57,
    "desc" : "CARPENTRY, ENGINEER",
    "location" : {
      "id" : 8512,
      "name" : null,
      "latitude" : 43.404316,
      "longitude" : 3.7457306
    },
    "openings" : {
      "start" : [ 11, 43 ],
      "end" : [ 13, 43 ]
    },
    "preferredSlots" : null,
    "doAfter" : null,
    "nbEmpRequired" : 1,
    "deadline" : [ 16, 54 ],
    "skills" : [ {
      "id" : 6,
      "name" : "CARPENTRY",
      "level" : 3
    }, {
      "id" : 1,
      "name" : "ENGINEER",
      "level" : 3
    } ],
    "duration" : 5400.000000000,
    "pause" : false
  } ],
  "valid" : true
}