{
  "listEdt" : [ {
    "emp" : {
      "id" : 377,
      "name" : "377",
      "shifts" : [ {
        "start" : [ 9, 0 ],
        "end" : [ 12, 0 ]
      }, {
        "start" : [ 13, 0 ],
        "end" : [ 17, 0 ]
      } ],
      "prefSlots" : null,
      "startingLoc" : {
        "id" : 960,
        "name" : null,
        "latitude" : 43.969852,
        "longitude" : 3.917944
      },
      "skills" : [ {
        "id" : 3,
        "name" : "PLUMBING",
        "level" : 9
      }, {
        "id" : 3,
        "name" : "PLUMBING",
        "level" : 1
      }, {
        "id" : 7,
        "name" : "PAINTING",
        "level" : 10
      }, {
        "id" : 3,
        "name" : "PLUMBING",
        "level" : 10
      }, {
        "id" : 1,
        "name" : "ENGINEER",
        "level" : 1
      }, {
        "id" : 4,
        "name" : "MASONRY",
        "level" : 5
      }, {
        "id" : 8,
        "name" : "IRONWORK",
        "level" : 9
      } ]
    },
    "planning" : [ {
      "job" : {
        "id" : -1,
        "desc" : "Home",
        "location" : {
          "id" : 960,
          "name" : null,
          "latitude" : 43.969852,
          "longitude" : 3.917944
        },
        "openings" : null,
        "preferredSlots" : null,
        "doAfter" : null,
        "nbEmpRequired" : 1,
        "deadline" : null,
        "skills" : [ ],
        "duration" : null,
        "pause" : true
      },
      "window" : {
        "start" : [ 9, 0 ],
        "end" : [ 9, 0 ]
      }
    }, {
      "job" : {
        "id" : 846,
        "desc" : "PLUMBING",
        "location" : {
          "id" : 4011,
          "name" : null,
          "latitude" : 43.961884,
          "longitude" : 4.1969986
        },
        "openings" : {
          "start" : [ 10, 2 ],
          "end" : [ 16, 34 ]
        },
        "preferredSlots" : null,
        "doAfter" : null,
        "nbEmpRequired" : 1,
        "deadline" : [ 13, 53 ],
        "skills" : [ {
          "id" : 3,
          "name" : "PLUMBING",
          "level" : 2
        } ],
        "duration" : 1800.000000000,
        "pause" : false
      },
      "window" : {
        "start" : [ 9, 23 ],
        "end" : [ 9, 53 ]
      }
    }, {
      "job" : {
        "id" : 285,
        "desc" : "PLUMBING",
        "location" : {
          "id" : 9540,
          "name" : null,
          "latitude" : 44.00094,
          "longitude" : 3.902284
        },
        "openings" : {
          "start" : [ 10, 27 ],
          "end" : [ 13, 30 ]
        },
        "preferredSlots" : null,
        "doAfter" : null,
        "nbEmpRequired" : 1,
        "deadline" : [ 10, 21 ],
        "skills" : [ {
          "id" : 3,
          "name" : "PLUMBING",
          "level" : 4
        } ],
        "duration" : 1800.000000000,
        "pause" : false
      },
      "window" : {
        "start" : [ 10, 17 ],
        "end" : [ 10, 47 ]
      }
    }, {
      "job" : {
        "id" : 343,
        "desc" : "IRONWORK",
        "location" : {
          "id" : 4123,
          "name" : null,
          "latitude" : 44.012806,
          "longitude" : 3.9995427
        },
        "openings" : {
          "start" : [ 10, 19 ],
          "end" : [ 10, 23 ]
        },
        "preferredSlots" : null,
        "doAfter" : null,
        "nbEmpRequired" : 1,
        "deadline" : [ 17, 18 ],
        "skills" : [ {
          "id" : 8,
          "name" : "IRONWORK",
          "level" : 5
        } ],
        "duration" : 1800.000000000,
        "pause" : false
      },
      "window" : {
        "start" : [ 10, 55 ],
        "end" : [ 11, 25 ]
      }
    }, {
      "job" : {
        "id" : -1,
        "desc" : "Pause",
        "location" : {
          "id" : 4123,
          "name" : null,
          "latitude" : 44.012806,
          "longitude" : 3.9995427
        },
        "openings" : {
          "start" : [ 10, 19 ],
          "end" : [ 10, 23 ]
        },
        "preferredSlots" : null,
        "doAfter" : null,
        "nbEmpRequired" : 1,
        "deadline" : [ 17, 18 ],
        "skills" : [ {
          "id" : 8,
          "name" : "IRONWORK",
          "level" : 5
        } ],
        "duration" : 1800.000000000,
        "pause" : true
      },
      "window" : {
        "start" : [ 11, 26 ],
        "end" : [ 13, 0 ]
      }
    }, {
      "job" : {
        "id" : 307,
        "desc" : "PLUMBING",
        "location" : {
          "id" : 7565,
          "name" : null,
          "latitude" : 43.67519,
          "longitude" : 3.8429475
        },
        "openings" : {
          "start" : [ 11, 27 ],
          "end" : [ 12, 47 ]
        },
        "preferredSlots" : null,
        "doAfter" : null,
        "nbEmpRequired" : 1,
        "deadline" : [ 11, 22 ],
        "skills" : [ {
          "id" : 3,
          "name" : "PLUMBING",
          "level" : 1
        } ],
        "duration" : 1800.000000000,
        "pause" : false
      },
      "window" : {
        "start" : [ 13, 40 ],
        "end" : [ 14, 10 ]
      }
    }, {
      "job" : {
        "id" : 586,
        "desc" : "PAINTING, IRONWORK",
        "location" : {
          "id" : 9213,
          "name" : null,
          "latitude" : 43.61663,
          "longitude" : 3.7025547
        },
        "openings" : {
          "start" : [ 14, 8 ],
          "end" : [ 14, 27 ]
        },
        "preferredSlots" : null,
        "doAfter" : null,
        "nbEmpRequired" : 1,
        "deadline" : [ 12, 11 ],
        "skills" : [ {
          "id" : 7,
          "name" : "PAINTING",
          "level" : 2
        }, {
          "id" : 8,
          "name" : "IRONWORK",
          "level" : 5
        } ],
        "duration" : 2700.000000000,
        "pause" : false
      },
      "window" : {
        "start" : [ 14, 24 ],
        "end" : [ 15, 9 ]
      }
    }, {
      "job" : {
        "id" : 85,
        "desc" : "PLUMBING, IRONWORK",
        "location" : {
          "id" : 8095,
          "name" : null,
          "latitude" : 43.926266,
          "longitude" : 3.920836
        },
        "openings" : {
          "start" : [ 11, 11 ],
          "end" : [ 12, 31 ]
        },
        "preferredSlots" : null,
        "doAfter" : null,
        "nbEmpRequired" : 1,
        "deadline" : [ 10, 24 ],
        "skills" : [ {
          "id" : 3,
          "name" : "PLUMBING",
          "level" : 2
        }, {
          "id" : 8,
          "name" : "IRONWORK",
          "level" : 1
        } ],
        "duration" : 2700.000000000,
        "pause" : false
      },
      "window" : {
        "start" : [ 15, 48 ],
        "end" : [ 16, 33 ]
      }
    } ],
    "driving" : 8880.000000000,
    "valid" : true
  }, {
    "emp" : {
      "id" : 559,
      "name" : "559",
      "shifts" : [ {
        "start" : [ 9, 0 ],
        "end" : [ 12, 0 ]
      }, {
        "start" : [ 13, 0 ],
        "end" : [ 17, 0 ]
      } ],
      "prefSlots" : null,
      "startingLoc" : {
        "id" : 9061,
        "name" : null,
        "latitude" : 44.014977,
        "longitude" : 4.0597644
      },
      "skills" : [ {
        "id" : 4,
        "name" : "MASONRY",
        "level" : 7
      } ]
    },
    "planning" : [ {
      "job" : {
        "id" : -1,
        "desc" : "Home",
        "location" : {
          "id" : 9061,
          "name" : null,
          "latitude" : 44.014977,
          "longitude" : 4.0597644
        },
        "openings" : null,
        "preferredSlots" : null,
        "doAfter" : null,
        "nbEmpRequired" : 1,
        "deadline" : null,
        "skills" : [ ],
        "duration" : null,
        "pause" : true
      },
      "window" : {
        "start" : [ 9, 0 ],
        "end" : [ 9, 0 ]
      }
    }, {
      "job" : {
        "id" : 220,
        "desc" : "MASONRY",
        "location" : {
          "id" : 2937,
          "name" : null,
          "latitude" : 43.903805,
          "longitude" : 4.25475
        },
        "openings" : {
          "start" : [ 14, 25 ],
          "end" : [ 16, 28 ]
        },
        "preferredSlots" : null,
        "doAfter" : null,
        "nbEmpRequired" : 1,
        "deadline" : [ 12, 30 ],
        "skills" : [ {
          "id" : 4,
          "name" : "MASONRY",
          "level" : 3
        } ],
        "duration" : 2700.000000000,
        "pause" : false
      },
      "window" : {
        "start" : [ 9, 20 ],
        "end" : [ 10, 5 ]
      }
    }, {
      "job" : {
        "id" : 614,
        "desc" : "MASONRY",
        "location" : {
          "id" : 2776,
          "name" : null,
          "latitude" : 43.596714,
          "longitude" : 4.2178445
        },
        "openings" : {
          "start" : [ 9, 7 ],
          "end" : [ 13, 21 ]
        },
        "preferredSlots" : null,
        "doAfter" : null,
        "nbEmpRequired" : 1,
        "deadline" : [ 15, 20 ],
        "skills" : [ {
          "id" : 4,
          "name" : "MASONRY",
          "level" : 4
        } ],
        "duration" : 2700.000000000,
        "pause" : false
      },
      "window" : {
        "start" : [ 10, 40 ],
        "end" : [ 11, 25 ]
      }
    }, {
      "job" : {
        "id" : -1,
        "desc" : "Pause",
        "location" : {
          "id" : 2776,
          "name" : null,
          "latitude" : 43.596714,
          "longitude" : 4.2178445
        },
        "openings" : {
          "start" : [ 9, 7 ],
          "end" : [ 13, 21 ]
        },
        "preferredSlots" : null,
        "doAfter" : null,
        "nbEmpRequired" : 1,
        "deadline" : [ 15, 20 ],
        "skills" : [ {
          "id" : 4,
          "name" : "MASONRY",
          "level" : 4
        } ],
        "duration" : 2700.000000000,
        "pause" : true
      },
      "window" : {
        "start" : [ 11, 26 ],
        "end" : [ 13, 0 ]
      }
    }, {
      "job" : {
        "id" : 434,
        "desc" : "MASONRY",
        "location" : {
          "id" : 6268,
          "name" : null,
          "latitude" : 43.70817,
          "longitude" : 4.1785493
        },
        "openings" : {
          "start" : [ 16, 3 ],
          "end" : [ 17, 41 ]
        },
        "preferredSlots" : null,
        "doAfter" : null,
        "nbEmpRequired" : 1,
        "deadline" : [ 11, 19 ],
        "skills" : [ {
          "id" : 4,
          "name" : "MASONRY",
          "level" : 2
        } ],
        "duration" : 2700.000000000,
        "pause" : false
      },
      "window" : {
        "start" : [ 13, 13 ],
        "end" : [ 13, 58 ]
      }
    }, {
      "job" : {
        "id" : 460,
        "desc" : "MASONRY",
        "location" : {
          "id" : 5030,
          "name" : null,
          "latitude" : 44.057823,
          "longitude" : 3.925274
        },
        "openings" : {
          "start" : [ 11, 15 ],
          "end" : [ 12, 21 ]
        },
        "preferredSlots" : null,
        "doAfter" : null,
        "nbEmpRequired" : 1,
        "deadline" : [ 12, 52 ],
        "skills" : [ {
          "id" : 4,
          "name" : "MASONRY",
          "level" : 5
        } ],
        "duration" : 5400.000000000,
        "pause" : false
      },
      "window" : {
        "start" : [ 14, 42 ],
        "end" : [ 16, 12 ]
      }
    } ],
    "driving" : 6720.000000000,
    "valid" : true
  }, {
    "emp" : {
      "id" : 981,
      "name" : "981",
      "shifts" : [ {
        "start" : [ 9, 0 ],
        "end" : [ 12, 0 ]
      }, {
        "start" : [ 13, 0 ],
        "end" : [ 17, 0 ]
      } ],
      "prefSlots" : null,
      "startingLoc" : {
        "id" : 8806,
        "name" : null,
        "latitude" : 43.862457,
        "longitude" : 3.7028408
      },
      "skills" : [ {
        "id" : 7,
        "name" : "PAINTING",
        "level" : 4
      }, {
        "id" : 4,
        "name" : "MASONRY",
        "level" : 4
      }, {
        "id" : 7,
        "name" : "PAINTING",
        "level" : 1
      } ]
    },
    "planning" : [ {
      "job" : {
        "id" : -1,
        "desc" : "Home",
        "location" : {
          "id" : 8806,
          "name" : null,
          "latitude" : 43.862457,
          "longitude" : 3.7028408
        },
        "openings" : null,
        "preferredSlots" : null,
        "doAfter" : null,
        "nbEmpRequired" : 1,
        "deadline" : null,
        "skills" : [ ],
        "duration" : null,
        "pause" : true
      },
      "window" : {
        "start" : [ 9, 0 ],
        "end" : [ 9, 0 ]
      }
    }, {
      "job" : {
        "id" : 977,
        "desc" : "PAINTING",
        "location" : {
          "id" : 8786,
          "name" : null,
          "latitude" : 43.694683,
          "longitude" : 3.8709495
        },
        "openings" : {
          "start" : [ 14, 23 ],
          "end" : [ 15, 53 ]
        },
        "preferredSlots" : null,
        "doAfter" : null,
        "nbEmpRequired" : 1,
        "deadline" : [ 12, 25 ],
        "skills" : [ {
          "id" : 7,
          "name" : "PAINTING",
          "level" : 3
        } ],
        "duration" : 2700.000000000,
        "pause" : false
      },
      "window" : {
        "start" : [ 9, 24 ],
        "end" : [ 10, 9 ]
      }
    }, {
      "job" : {
        "id" : 82,
        "desc" : "PAINTING",
        "location" : {
          "id" : 4936,
          "name" : null,
          "latitude" : 43.69484,
          "longitude" : 4.007037
        },
        "openings" : {
          "start" : [ 16, 13 ],
          "end" : [ 16, 35 ]
        },
        "preferredSlots" : null,
        "doAfter" : null,
        "nbEmpRequired" : 1,
        "deadline" : [ 13, 0 ],
        "skills" : [ {
          "id" : 7,
          "name" : "PAINTING",
          "level" : 3
        } ],
        "duration" : 3600.000000000,
        "pause" : false
      },
      "window" : {
        "start" : [ 10, 20 ],
        "end" : [ 11, 20 ]
      }
    }, {
      "job" : {
        "id" : -1,
        "desc" : "Pause",
        "location" : {
          "id" : 4936,
          "name" : null,
          "latitude" : 43.69484,
          "longitude" : 4.007037
        },
        "openings" : {
          "start" : [ 16, 13 ],
          "end" : [ 16, 35 ]
        },
        "preferredSlots" : null,
        "doAfter" : null,
        "nbEmpRequired" : 1,
        "deadline" : [ 13, 0 ],
        "skills" : [ {
          "id" : 7,
          "name" : "PAINTING",
          "level" : 3
        } ],
        "duration" : 3600.000000000,
        "pause" : true
      },
      "window" : {
        "start" : [ 11, 21 ],
        "end" : [ 13, 0 ]
      }
    } ],
    "driving" : 2100.000000000,
    "valid" : true
  }, {
    "emp" : {
      "id" : 426,
      "name" : "426",
      "shifts" : [ {
        "start" : [ 9, 0 ],
        "end" : [ 12, 0 ]
      }, {
        "start" : [ 13, 0 ],
        "end" : [ 17, 0 ]
      } ],
      "prefSlots" : null,
      "startingLoc" : {
        "id" : 7191,
        "name" : null,
        "latitude" : 44.012817,
        "longitude" : 4.075895
      },
      "skills" : [ {
        "id" : 0,
        "name" : "MANAGEMENT",
        "level" : 3
      }, {
        "id" : 7,
        "name" : "PAINTING",
        "level" : 4
      }, {
        "id" : 2,
        "name" : "ELECTRICIAN",
        "level" : 8
      } ]
    },
    "planning" : [ {
      "job" : {
        "id" : -1,
        "desc" : "Home",
        "location" : {
          "id" : 7191,
          "name" : null,
          "latitude" : 44.012817,
          "longitude" : 4.075895
        },
        "openings" : null,
        "preferredSlots" : null,
        "doAfter" : null,
        "nbEmpRequired" : 1,
        "deadline" : null,
        "skills" : [ ],
        "duration" : null,
        "pause" : true
      },
      "window" : {
        "start" : [ 9, 0 ],
        "end" : [ 9, 0 ]
      }
    }, {
      "job" : {
        "id" : 641,
        "desc" : "ELECTRICIAN",
        "location" : {
          "id" : 7321,
          "name" : null,
          "latitude" : 43.74621,
          "longitude" : 3.9621315
        },
        "openings" : {
          "start" : [ 13, 20 ],
          "end" : [ 14, 41 ]
        },
        "preferredSlots" : null,
        "doAfter" : null,
        "nbEmpRequired" : 1,
        "deadline" : [ 15, 3 ],
        "skills" : [ {
          "id" : 2,
          "name" : "ELECTRICIAN",
          "level" : 2
        } ],
        "duration" : 1800.000000000,
        "pause" : false
      },
      "window" : {
        "start" : [ 9, 32 ],
        "end" : [ 10, 2 ]
      }
    }, {
      "job" : {
        "id" : 848,
        "desc" : "MANAGEMENT",
        "location" : {
          "id" : 790,
          "name" : null,
          "latitude" : 44.083195,
          "longitude" : 3.831185
        },
        "openings" : {
          "start" : [ 11, 48 ],
          "end" : [ 15, 14 ]
        },
        "preferredSlots" : null,
        "doAfter" : null,
        "nbEmpRequired" : 1,
        "deadline" : [ 9, 11 ],
        "skills" : [ {
          "id" : 0,
          "name" : "MANAGEMENT",
          "level" : 2
        } ],
        "duration" : 1800.000000000,
        "pause" : false
      },
      "window" : {
        "start" : [ 10, 41 ],
        "end" : [ 11, 11 ]
      }
    }, {
      "job" : {
        "id" : 680,
        "desc" : "MANAGEMENT",
        "location" : {
          "id" : 6481,
          "name" : null,
          "latitude" : 44.015976,
          "longitude" : 3.7643876
        },
        "openings" : {
          "start" : [ 10, 35 ],
          "end" : [ 13, 20 ]
        },
        "preferredSlots" : null,
        "doAfter" : null,
        "nbEmpRequired" : 1,
        "deadline" : [ 14, 27 ],
        "skills" : [ {
          "id" : 0,
          "name" : "MANAGEMENT",
          "level" : 2
        } ],
        "duration" : 1800.000000000,
        "pause" : false
      },
      "window" : {
        "start" : [ 11, 21 ],
        "end" : [ 11, 51 ]
      }
    }, {
      "job" : {
        "id" : -1,
        "desc" : "Pause",
        "location" : {
          "id" : 6481,
          "name" : null,
          "latitude" : 44.015976,
          "longitude" : 3.7643876
        },
        "openings" : {
          "start" : [ 10, 35 ],
          "end" : [ 13, 20 ]
        },
        "preferredSlots" : null,
        "doAfter" : null,
        "nbEmpRequired" : 1,
        "deadline" : [ 14, 27 ],
        "skills" : [ {
          "id" : 0,
          "name" : "MANAGEMENT",
          "level" : 2
        } ],
        "duration" : 1800.000000000,
        "pause" : true
      },
      "window" : {
        "start" : [ 11, 52 ],
        "end" : [ 13, 0 ]
      }
    }, {
      "job" : {
        "id" : 323,
        "desc" : "MANAGEMENT, ELECTRICIAN",
        "location" : {
          "id" : 9398,
          "name" : null,
          "latitude" : 43.60279,
          "longitude" : 3.9121654
        },
        "openings" : {
          "start" : [ 10, 19 ],
          "end" : [ 13, 55 ]
        },
        "preferredSlots" : null,
        "doAfter" : null,
        "nbEmpRequired" : 1,
        "deadline" : [ 11, 42 ],
        "skills" : [ {
          "id" : 0,
          "name" : "MANAGEMENT",
          "level" : 1
        }, {
          "id" : 2,
          "name" : "ELECTRICIAN",
          "level" : 5
        } ],
        "duration" : 2700.000000000,
        "pause" : false
      },
      "window" : {
        "start" : [ 13, 48 ],
        "end" : [ 14, 33 ]
      }
    }, {
      "job" : {
        "id" : 614,
        "desc" : "ELECTRICIAN",
        "location" : {
          "id" : 1345,
          "name" : null,
          "latitude" : 43.955242,
          "longitude" : 4.2265716
        },
        "openings" : {
          "start" : [ 12, 28 ],
          "end" : [ 14, 8 ]
        },
        "preferredSlots" : null,
        "doAfter" : null,
        "nbEmpRequired" : 1,
        "deadline" : [ 13, 46 ],
        "skills" : [ {
          "id" : 2,
          "name" : "ELECTRICIAN",
          "level" : 5
        } ],
        "duration" : 2700.000000000,
        "pause" : false
      },
      "window" : {
        "start" : [ 15, 20 ],
        "end" : [ 16, 5 ]
      }
    }, {
      "job" : {
        "id" : 256,
        "desc" : "ELECTRICIAN, PAINTING",
        "location" : {
          "id" : 2050,
          "name" : null,
          "latitude" : 43.969135,
          "longitude" : 4.244118
        },
        "openings" : {
          "start" : [ 13, 51 ],
          "end" : [ 16, 3 ]
        },
        "preferredSlots" : null,
        "doAfter" : null,
        "nbEmpRequired" : 1,
        "deadline" : [ 13, 15 ],
        "skills" : [ {
          "id" : 2,
          "name" : "ELECTRICIAN",
          "level" : 4
        }, {
          "id" : 7,
          "name" : "PAINTING",
          "level" : 4
        } ],
        "duration" : 2700.000000000,
        "pause" : false
      },
      "window" : {
        "start" : [ 16, 8 ],
        "end" : [ 16, 53 ]
      }
    } ],
    "driving" : 10740.000000000,
    "valid" : true
  }, {
    "emp" : {
      "id" : 165,
      "name" : "165",
      "shifts" : [ {
        "start" : [ 9, 0 ],
        "end" : [ 12, 0 ]
      }, {
        "start" : [ 13, 0 ],
        "end" : [ 17, 0 ]
      } ],
      "prefSlots" : null,
      "startingLoc" : {
        "id" : 8179,
        "name" : null,
        "latitude" : 43.950813,
        "longitude" : 3.7464528
      },
      "skills" : [ {
        "id" : 5,
        "name" : "GLAZING",
        "level" : 9
      }, {
        "id" : 8,
        "name" : "IRONWORK",
        "level" : 4
      }, {
        "id" : 5,
        "name" : "GLAZING",
        "level" : 3
      }, {
        "id" : 2,
        "name" : "ELECTRICIAN",
        "level" : 7
      }, {
        "id" : 6,
        "name" : "CARPENTRY",
        "level" : 3
      }, {
        "id" : 1,
        "name" : "ENGINEER",
        "level" : 2
      }, {
        "id" : 5,
        "name" : "GLAZING",
        "level" : 4
      } ]
    },
    "planning" : [ {
      "job" : {
        "id" : -1,
        "desc" : "Home",
        "location" : {
          "id" : 8179,
          "name" : null,
          "latitude" : 43.950813,
          "longitude" : 3.7464528
        },
        "openings" : null,
        "preferredSlots" : null,
        "doAfter" : null,
        "nbEmpRequired" : 1,
        "deadline" : null,
        "skills" : [ ],
        "duration" : null,
        "pause" : true
      },
      "window" : {
        "start" : [ 9, 0 ],
        "end" : [ 9, 0 ]
      }
    }, {
      "job" : {
        "id" : 45,
        "desc" : "CARPENTRY",
        "location" : {
          "id" : 8915,
          "name" : null,
          "latitude" : 44.095577,
          "longitude" : 4.081485
        },
        "openings" : {
          "start" : [ 14, 21 ],
          "end" : [ 16, 1 ]
        },
        "preferredSlots" : null,
        "doAfter" : null,
        "nbEmpRequired" : 1,
        "deadline" : [ 13, 50 ],
        "skills" : [ {
          "id" : 6,
          "name" : "CARPENTRY",
          "level" : 1
        } ],
        "duration" : 1800.000000000,
        "pause" : false
      },
      "window" : {
        "start" : [ 9, 32 ],
        "end" : [ 10, 2 ]
      }
    }, {
      "job" : {
        "id" : 516,
        "desc" : "ENGINEER, GLAZING",
        "location" : {
          "id" : 1461,
          "name" : null,
          "latitude" : 43.985214,
          "longitude" : 4.172765
        },
        "openings" : {
          "start" : [ 12, 31 ],
          "end" : [ 17, 12 ]
        },
        "preferredSlots" : null,
        "doAfter" : null,
        "nbEmpRequired" : 1,
        "deadline" : [ 13, 28 ],
        "skills" : [ {
          "id" : 1,
          "name" : "ENGINEER",
          "level" : 2
        }, {
          "id" : 5,
          "name" : "GLAZING",
          "level" : 2
        } ],
        "duration" : 1800.000000000,
        "pause" : false
      },
      "window" : {
        "start" : [ 10, 17 ],
        "end" : [ 10, 47 ]
      }
    }, {
      "job" : {
        "id" : 635,
        "desc" : "ENGINEER, GLAZING",
        "location" : {
          "id" : 6245,
          "name" : null,
          "latitude" : 43.872982,
          "longitude" : 3.9894664
        },
        "openings" : {
          "start" : [ 11, 1 ],
          "end" : [ 14, 59 ]
        },
        "preferredSlots" : null,
        "doAfter" : null,
        "nbEmpRequired" : 1,
        "deadline" : [ 12, 19 ],
        "skills" : [ {
          "id" : 1,
          "name" : "ENGINEER",
          "level" : 1
        }, {
          "id" : 5,
          "name" : "GLAZING",
          "level" : 1
        } ],
        "duration" : 1800.000000000,
        "pause" : false
      },
      "window" : {
        "start" : [ 11, 7 ],
        "end" : [ 11, 37 ]
      }
    }, {
      "job" : {
        "id" : -1,
        "desc" : "Pause",
        "location" : {
          "id" : 6245,
          "name" : null,
          "latitude" : 43.872982,
          "longitude" : 3.9894664
        },
        "openings" : {
          "start" : [ 11, 1 ],
          "end" : [ 14, 59 ]
        },
        "preferredSlots" : null,
        "doAfter" : null,
        "nbEmpRequired" : 1,
        "deadline" : [ 12, 19 ],
        "skills" : [ {
          "id" : 1,
          "name" : "ENGINEER",
          "level" : 1
        }, {
          "id" : 5,
          "name" : "GLAZING",
          "level" : 1
        } ],
        "duration" : 1800.000000000,
        "pause" : true
      },
      "window" : {
        "start" : [ 11, 38 ],
        "end" : [ 13, 0 ]
      }
    }, {
      "job" : {
        "id" : 337,
        "desc" : "CARPENTRY",
        "location" : {
          "id" : 7423,
          "name" : null,
          "latitude" : 44.09955,
          "longitude" : 3.8663723
        },
        "openings" : {
          "start" : [ 9, 37 ],
          "end" : [ 16, 27 ]
        },
        "preferredSlots" : null,
        "doAfter" : null,
        "nbEmpRequired" : 1,
        "deadline" : [ 9, 41 ],
        "skills" : [ {
          "id" : 6,
          "name" : "CARPENTRY",
          "level" : 2
        } ],
        "duration" : 2700.000000000,
        "pause" : false
      },
      "window" : {
        "start" : [ 13, 28 ],
        "end" : [ 14, 13 ]
      }
    }, {
      "job" : {
        "id" : 705,
        "desc" : "IRONWORK, CARPENTRY",
        "location" : {
          "id" : 2376,
          "name" : null,
          "latitude" : 43.540466,
          "longitude" : 3.750319
        },
        "openings" : {
          "start" : [ 12, 6 ],
          "end" : [ 13, 49 ]
        },
        "preferredSlots" : null,
        "doAfter" : null,
        "nbEmpRequired" : 1,
        "deadline" : [ 14, 41 ],
        "skills" : [ {
          "id" : 8,
          "name" : "IRONWORK",
          "level" : 4
        }, {
          "id" : 6,
          "name" : "CARPENTRY",
          "level" : 2
        } ],
        "duration" : 2700.000000000,
        "pause" : false
      },
      "window" : {
        "start" : [ 15, 16 ],
        "end" : [ 16, 1 ]
      }
    } ],
    "driving" : 9480.000000000,
    "valid" : true
  }, {
    "emp" : {
      "id" : 3,
      "name" : "3",
      "shifts" : [ {
        "start" : [ 9, 0 ],
        "end" : [ 12, 0 ]
      }, {
        "start" : [ 13, 0 ],
        "end" : [ 17, 0 ]
      } ],
      "prefSlots" : null,
      "startingLoc" : {
        "id" : 9448,
        "name" : null,
        "latitude" : 43.460117,
        "longitude" : 4.1188498
      },
      "skills" : [ {
        "id" : 4,
        "name" : "MASONRY",
        "level" : 10
      }, {
        "id" : 9,
        "name" : "TILER",
        "level" : 4
      }, {
        "id" : 4,
        "name" : "MASONRY",
        "level" : 9
      }, {
        "id" : 4,
        "name" : "MASONRY",
        "level" : 9
      } ]
    },
    "planning" : [ {
      "job" : {
        "id" : -1,
        "desc" : "Home",
        "location" : {
          "id" : 9448,
          "name" : null,
          "latitude" : 43.460117,
          "longitude" : 4.1188498
        },
        "openings" : null,
        "preferredSlots" : null,
        "doAfter" : null,
        "nbEmpRequired" : 1,
        "deadline" : null,
        "skills" : [ ],
        "duration" : null,
        "pause" : true
      },
      "window" : {
        "start" : [ 9, 0 ],
        "end" : [ 9, 0 ]
      }
    }, {
      "job" : {
        "id" : 776,
        "desc" : "TILER",
        "location" : {
          "id" : 6598,
          "name" : null,
          "latitude" : 43.519638,
          "longitude" : 4.0480285
        },
        "openings" : {
          "start" : [ 11, 14 ],
          "end" : [ 14, 10 ]
        },
        "preferredSlots" : null,
        "doAfter" : null,
        "nbEmpRequired" : 1,
        "deadline" : [ 9, 53 ],
        "skills" : [ {
          "id" : 9,
          "name" : "TILER",
          "level" : 4
        } ],
        "duration" : 1800.000000000,
        "pause" : false
      },
      "window" : {
        "start" : [ 9, 9 ],
        "end" : [ 9, 39 ]
      }
    }, {
      "job" : {
        "id" : 654,
        "desc" : "TILER",
        "location" : {
          "id" : 2184,
          "name" : null,
          "latitude" : 43.593773,
          "longitude" : 4.097809
        },
        "openings" : {
          "start" : [ 14, 58 ],
          "end" : [ 15, 24 ]
        },
        "preferredSlots" : null,
        "doAfter" : null,
        "nbEmpRequired" : 1,
        "deadline" : [ 10, 11 ],
        "skills" : [ {
          "id" : 9,
          "name" : "TILER",
          "level" : 4
        } ],
        "duration" : 2700.000000000,
        "pause" : false
      },
      "window" : {
        "start" : [ 9, 49 ],
        "end" : [ 10, 34 ]
      }
    }, {
      "job" : {
        "id" : -1,
        "desc" : "Pause",
        "location" : {
          "id" : 2184,
          "name" : null,
          "latitude" : 43.593773,
          "longitude" : 4.097809
        },
        "openings" : {
          "start" : [ 14, 58 ],
          "end" : [ 15, 24 ]
        },
        "preferredSlots" : null,
        "doAfter" : null,
        "nbEmpRequired" : 1,
        "deadline" : [ 10, 11 ],
        "skills" : [ {
          "id" : 9,
          "name" : "TILER",
          "level" : 4
        } ],
        "duration" : 2700.000000000,
        "pause" : true
      },
      "window" : {
        "start" : [ 10, 35 ],
        "end" : [ 13, 0 ]
      }
    }, {
      "job" : {
        "id" : 345,
        "desc" : "TILER",
        "location" : {
          "id" : 1331,
          "name" : null,
          "latitude" : 44.03855,
          "longitude" : 4.228179
        },
        "openings" : {
          "start" : [ 13, 7 ],
          "end" : [ 14, 59 ]
        },
        "preferredSlots" : null,
        "doAfter" : null,
        "nbEmpRequired" : 1,
        "deadline" : [ 14, 9 ],
        "skills" : [ {
          "id" : 9,
          "name" : "TILER",
          "level" : 4
        } ],
        "duration" : 2700.000000000,
        "pause" : false
      },
      "window" : {
        "start" : [ 13, 51 ],
        "end" : [ 14, 36 ]
      }
    }, {
      "job" : {
        "id" : 906,
        "desc" : "TILER",
        "location" : {
          "id" : 6223,
          "name" : null,
          "latitude" : 43.940273,
          "longitude" : 4.073029
        },
        "openings" : {
          "start" : [ 12, 44 ],
          "end" : [ 16, 0 ]
        },
        "preferredSlots" : null,
        "doAfter" : null,
        "nbEmpRequired" : 1,
        "deadline" : [ 10, 34 ],
        "skills" : [ {
          "id" : 9,
          "name" : "TILER",
          "level" : 2
        } ],
        "duration" : 5400.000000000,
        "pause" : false
      },
      "window" : {
        "start" : [ 14, 53 ],
        "end" : [ 16, 23 ]
      }
    } ],
    "driving" : 5220.000000000,
    "valid" : true
  }, {
    "emp" : {
      "id" : 135,
      "name" : "135",
      "shifts" : [ {
        "start" : [ 9, 0 ],
        "end" : [ 12, 0 ]
      }, {
        "start" : [ 13, 0 ],
        "end" : [ 17, 0 ]
      } ],
      "prefSlots" : null,
      "startingLoc" : {
        "id" : 7647,
        "name" : null,
        "latitude" : 43.47567,
        "longitude" : 4.036558
      },
      "skills" : [ {
        "id" : 8,
        "name" : "IRONWORK",
        "level" : 3
      }, {
        "id" : 1,
        "name" : "ENGINEER",
        "level" : 8
      }, {
        "id" : 3,
        "name" : "PLUMBING",
        "level" : 8
      }, {
        "id" : 6,
        "name" : "CARPENTRY",
        "level" : 6
      }, {
        "id" : 0,
        "name" : "MANAGEMENT",
        "level" : 1
      } ]
    },
    "planning" : [ {
      "job" : {
        "id" : -1,
        "desc" : "Home",
        "location" : {
          "id" : 7647,
          "name" : null,
          "latitude" : 43.47567,
          "longitude" : 4.036558
        },
        "openings" : null,
        "preferredSlots" : null,
        "doAfter" : null,
        "nbEmpRequired" : 1,
        "deadline" : null,
        "skills" : [ ],
        "duration" : null,
        "pause" : true
      },
      "window" : {
        "start" : [ 9, 0 ],
        "end" : [ 9, 0 ]
      }
    }, {
      "job" : {
        "id" : 818,
        "desc" : "ENGINEER",
        "location" : {
          "id" : 8577,
          "name" : null,
          "latitude" : 43.671227,
          "longitude" : 4.0051913
        },
        "openings" : {
          "start" : [ 9, 48 ],
          "end" : [ 14, 30 ]
        },
        "preferredSlots" : null,
        "doAfter" : null,
        "nbEmpRequired" : 1,
        "deadline" : [ 15, 11 ],
        "skills" : [ {
          "id" : 1,
          "name" : "ENGINEER",
          "level" : 5
        } ],
        "duration" : 1800.000000000,
        "pause" : false
      },
      "window" : {
        "start" : [ 9, 22 ],
        "end" : [ 9, 52 ]
      }
    }, {
      "job" : {
        "id" : 140,
        "desc" : "PLUMBING, ENGINEER",
        "location" : {
          "id" : 146,
          "name" : null,
          "latitude" : 43.687916,
          "longitude" : 4.101906
        },
        "openings" : {
          "start" : [ 10, 12 ],
          "end" : [ 12, 41 ]
        },
        "preferredSlots" : null,
        "doAfter" : null,
        "nbEmpRequired" : 1,
        "deadline" : [ 14, 6 ],
        "skills" : [ {
          "id" : 3,
          "name" : "PLUMBING",
          "level" : 5
        }, {
          "id" : 1,
          "name" : "ENGINEER",
          "level" : 4
        } ],
        "duration" : 1800.000000000,
        "pause" : false
      },
      "window" : {
        "start" : [ 10, 0 ],
        "end" : [ 10, 30 ]
      }
    }, {
      "job" : {
        "id" : 129,
        "desc" : "CARPENTRY, PLUMBING",
        "location" : {
          "id" : 5695,
          "name" : null,
          "latitude" : 43.869747,
          "longitude" : 4.100471
        },
        "openings" : {
          "start" : [ 12, 52 ],
          "end" : [ 16, 36 ]
        },
        "preferredSlots" : null,
        "doAfter" : null,
        "nbEmpRequired" : 1,
        "deadline" : [ 13, 42 ],
        "skills" : [ {
          "id" : 6,
          "name" : "CARPENTRY",
          "level" : 1
        }, {
          "id" : 3,
          "name" : "PLUMBING",
          "level" : 1
        } ],
        "duration" : 1800.000000000,
        "pause" : false
      },
      "window" : {
        "start" : [ 10, 51 ],
        "end" : [ 11, 21 ]
      }
    }, {
      "job" : {
        "id" : -1,
        "desc" : "Pause",
        "location" : {
          "id" : 5695,
          "name" : null,
          "latitude" : 43.869747,
          "longitude" : 4.100471
        },
        "openings" : {
          "start" : [ 12, 52 ],
          "end" : [ 16, 36 ]
        },
        "preferredSlots" : null,
        "doAfter" : null,
        "nbEmpRequired" : 1,
        "deadline" : [ 13, 42 ],
        "skills" : [ {
          "id" : 6,
          "name" : "CARPENTRY",
          "level" : 1
        }, {
          "id" : 3,
          "name" : "PLUMBING",
          "level" : 1
        } ],
        "duration" : 1800.000000000,
        "pause" : true
      },
      "window" : {
        "start" : [ 11, 22 ],
        "end" : [ 13, 0 ]
      }
    }, {
      "job" : {
        "id" : 188,
        "desc" : "PLUMBING, CARPENTRY",
        "location" : {
          "id" : 3125,
          "name" : null,
          "latitude" : 43.69541,
          "longitude" : 3.7939744
        },
        "openings" : {
          "start" : [ 9, 8 ],
          "end" : [ 10, 55 ]
        },
        "preferredSlots" : null,
        "doAfter" : null,
        "nbEmpRequired" : 1,
        "deadline" : [ 12, 31 ],
        "skills" : [ {
          "id" : 3,
          "name" : "PLUMBING",
          "level" : 1
        }, {
          "id" : 6,
          "name" : "CARPENTRY",
          "level" : 2
        } ],
        "duration" : 2700.000000000,
        "pause" : false
      },
      "window" : {
        "start" : [ 13, 32 ],
        "end" : [ 14, 17 ]
      }
    }, {
      "job" : {
        "id" : 215,
        "desc" : "CARPENTRY, PLUMBING",
        "location" : {
          "id" : 8062,
          "name" : null,
          "latitude" : 43.971798,
          "longitude" : 4.2833633
        },
        "openings" : {
          "start" : [ 9, 32 ],
          "end" : [ 11, 8 ]
        },
        "preferredSlots" : null,
        "doAfter" : null,
        "nbEmpRequired" : 1,
        "deadline" : [ 17, 35 ],
        "skills" : [ {
          "id" : 6,
          "name" : "CARPENTRY",
          "level" : 5
        }, {
          "id" : 3,
          "name" : "PLUMBING",
          "level" : 4
        } ],
        "duration" : 2700.000000000,
        "pause" : false
      },
      "window" : {
        "start" : [ 15, 7 ],
        "end" : [ 15, 52 ]
      }
    }, {
      "job" : {
        "id" : 798,
        "desc" : "PLUMBING",
        "location" : {
          "id" : 1565,
          "name" : null,
          "latitude" : 43.907837,
          "longitude" : 4.211324
        },
        "openings" : {
          "start" : [ 15, 40 ],
          "end" : [ 15, 51 ]
        },
        "preferredSlots" : null,
        "doAfter" : null,
        "nbEmpRequired" : 1,
        "deadline" : [ 9, 58 ],
        "skills" : [ {
          "id" : 3,
          "name" : "PLUMBING",
          "level" : 2
        } ],
        "duration" : 2700.000000000,
        "pause" : false
      },
      "window" : {
        "start" : [ 16, 2 ],
        "end" : [ 16, 47 ]
      }
    } ],
    "driving" : 8580.000000000,
    "valid" : true
  }, {
    "emp" : {
      "id" : 390,
      "name" : "390",
      "shifts" : [ {
        "start" : [ 9, 0 ],
        "end" : [ 12, 0 ]
      }, {
        "start" : [ 13, 0 ],
        "end" : [ 17, 0 ]
      } ],
      "prefSlots" : null,
      "startingLoc" : {
        "id" : 2344,
        "name" : null,
        "latitude" : 43.974346,
        "longitude" : 4.1044436
      },
      "skills" : [ {
        "id" : 4,
        "name" : "MASONRY",
        "level" : 6
      }, {
        "id" : 4,
        "name" : "MASONRY",
        "level" : 8
      }, {
        "id" : 9,
        "name" : "TILER",
        "level" : 8
      }, {
        "id" : 6,
        "name" : "CARPENTRY",
        "level" : 3
      }, {
        "id" : 6,
        "name" : "CARPENTRY",
        "level" : 1
      }, {
        "id" : 9,
        "name" : "TILER",
        "level" : 7
      }, {
        "id" : 7,
        "name" : "PAINTING",
        "level" : 6
      }, {
        "id" : 7,
        "name" : "PAINTING",
        "level" : 3
      }, {
        "id" : 4,
        "name" : "MASONRY",
        "level" : 6
      }, {
        "id" : 9,
        "name" : "TILER",
        "level" : 4
      } ]
    },
    "planning" : [ {
      "job" : {
        "id" : -1,
        "desc" : "Home",
        "location" : {
          "id" : 2344,
          "name" : null,
          "latitude" : 43.974346,
          "longitude" : 4.1044436
        },
        "openings" : null,
        "preferredSlots" : null,
        "doAfter" : null,
        "nbEmpRequired" : 1,
        "deadline" : null,
        "skills" : [ ],
        "duration" : null,
        "pause" : true
      },
      "window" : {
        "start" : [ 9, 0 ],
        "end" : [ 9, 0 ]
      }
    }, {
      "job" : {
        "id" : 138,
        "desc" : "CARPENTRY, PAINTING",
        "location" : {
          "id" : 9491,
          "name" : null,
          "latitude" : 43.619423,
          "longitude" : 4.057089
        },
        "openings" : {
          "start" : [ 9, 27 ],
          "end" : [ 17, 50 ]
        },
        "preferredSlots" : null,
        "doAfter" : null,
        "nbEmpRequired" : 1,
        "deadline" : [ 14, 53 ],
        "skills" : [ {
          "id" : 6,
          "name" : "CARPENTRY",
          "level" : 2
        }, {
          "id" : 7,
          "name" : "PAINTING",
          "level" : 2
        } ],
        "duration" : 2700.000000000,
        "pause" : false
      },
      "window" : {
        "start" : [ 9, 40 ],
        "end" : [ 10, 25 ]
      }
    }, {
      "job" : {
        "id" : 946,
        "desc" : "CARPENTRY",
        "location" : {
          "id" : 690,
          "name" : null,
          "latitude" : 44.00667,
          "longitude" : 3.9279373
        },
        "openings" : {
          "start" : [ 11, 24 ],
          "end" : [ 12, 59 ]
        },
        "preferredSlots" : null,
        "doAfter" : null,
        "nbEmpRequired" : 1,
        "deadline" : [ 9, 43 ],
        "skills" : [ {
          "id" : 6,
          "name" : "CARPENTRY",
          "level" : 1
        } ],
        "duration" : 2700.000000000,
        "pause" : false
      },
      "window" : {
        "start" : [ 11, 10 ],
        "end" : [ 11, 55 ]
      }
    }, {
      "job" : {
        "id" : -1,
        "desc" : "Pause",
        "location" : {
          "id" : 690,
          "name" : null,
          "latitude" : 44.00667,
          "longitude" : 3.9279373
        },
        "openings" : {
          "start" : [ 11, 24 ],
          "end" : [ 12, 59 ]
        },
        "preferredSlots" : null,
        "doAfter" : null,
        "nbEmpRequired" : 1,
        "deadline" : [ 9, 43 ],
        "skills" : [ {
          "id" : 6,
          "name" : "CARPENTRY",
          "level" : 1
        } ],
        "duration" : 2700.000000000,
        "pause" : true
      },
      "window" : {
        "start" : [ 11, 56 ],
        "end" : [ 13, 0 ]
      }
    }, {
      "job" : {
        "id" : 13,
        "desc" : "PAINTING",
        "location" : {
          "id" : 485,
          "name" : null,
          "latitude" : 43.404945,
          "longitude" : 3.7146473
        },
        "openings" : {
          "start" : [ 10, 27 ],
          "end" : [ 13, 26 ]
        },
        "preferredSlots" : null,
        "doAfter" : null,
        "nbEmpRequired" : 1,
        "deadline" : [ 17, 30 ],
        "skills" : [ {
          "id" : 7,
          "name" : "PAINTING",
          "level" : 5
        } ],
        "duration" : 2700.000000000,
        "pause" : false
      },
      "window" : {
        "start" : [ 14, 10 ],
        "end" : [ 14, 55 ]
      }
    }, {
      "job" : {
        "id" : 817,
        "desc" : "MASONRY, PAINTING",
        "location" : {
          "id" : 2809,
          "name" : null,
          "latitude" : 43.524208,
          "longitude" : 4.2456613
        },
        "openings" : {
          "start" : [ 15, 48 ],
          "end" : [ 16, 11 ]
        },
        "preferredSlots" : null,
        "doAfter" : null,
        "nbEmpRequired" : 1,
        "deadline" : [ 16, 5 ],
        "skills" : [ {
          "id" : 4,
          "name" : "MASONRY",
          "level" : 5
        }, {
          "id" : 7,
          "name" : "PAINTING",
          "level" : 3
        } ],
        "duration" : 3600.000000000,
        "pause" : false
      },
      "window" : {
        "start" : [ 15, 40 ],
        "end" : [ 16, 40 ]
      }
    } ],
    "driving" : 12000.000000000,
    "valid" : true
  }, {
    "emp" : {
      "id" : 111,
      "name" : "111",
      "shifts" : [ {
        "start" : [ 9, 0 ],
        "end" : [ 12, 0 ]
      }, {
        "start" : [ 13, 0 ],
        "end" : [ 17, 0 ]
      } ],
      "prefSlots" : null,
      "startingLoc" : {
        "id" : 8492,
        "name" : null,
        "latitude" : 43.48014,
        "longitude" : 4.06166
      },
      "skills" : [ {
        "id" : 4,
        "name" : "MASONRY",
        "level" : 3
      }, {
        "id" : 5,
        "name" : "GLAZING",
        "level" : 1
      } ]
    },
    "planning" : [ {
      "job" : {
        "id" : -1,
        "desc" : "Home",
        "location" : {
          "id" : 8492,
          "name" : null,
          "latitude" : 43.48014,
          "longitude" : 4.06166
        },
        "openings" : null,
        "preferredSlots" : null,
        "doAfter" : null,
        "nbEmpRequired" : 1,
        "deadline" : null,
        "skills" : [ ],
        "duration" : null,
        "pause" : true
      },
      "window" : {
        "start" : [ 9, 0 ],
        "end" : [ 9, 0 ]
      }
    }, {
      "job" : {
        "id" : -1,
        "desc" : "Pause",
        "location" : {
          "id" : 8492,
          "name" : null,
          "latitude" : 43.48014,
          "longitude" : 4.06166
        },
        "openings" : null,
        "preferredSlots" : null,
        "doAfter" : null,
        "nbEmpRequired" : 1,
        "deadline" : null,
        "skills" : [ ],
        "duration" : null,
        "pause" : true
      },
      "window" : {
        "start" : [ 9, 1 ],
        "end" : [ 13, 0 ]
      }
    } ],
    "driving" : 0.0,
    "valid" : true
  }, {
    "emp" : {
      "id" : 930,
      "name" : "930",
      "shifts" : [ {
        "start" : [ 9, 0 ],
        "end" : [ 12, 0 ]
      }, {
        "start" : [ 13, 0 ],
        "end" : [ 17, 0 ]
      } ],
      "prefSlots" : null,
      "startingLoc" : {
        "id" : 314,
        "name" : null,
        "latitude" : 43.66485,
        "longitude" : 4.02899
      },
      "skills" : [ {
        "id" : 7,
        "name" : "PAINTING",
        "level" : 6
      }, {
        "id" : 7,
        "name" : "PAINTING",
        "level" : 4
      } ]
    },
    "planning" : [ {
      "job" : {
        "id" : -1,
        "desc" : "Home",
        "location" : {
          "id" : 314,
          "name" : null,
          "latitude" : 43.66485,
          "longitude" : 4.02899
        },
        "openings" : null,
        "preferredSlots" : null,
        "doAfter" : null,
        "nbEmpRequired" : 1,
        "deadline" : null,
        "skills" : [ ],
        "duration" : null,
        "pause" : true
      },
      "window" : {
        "start" : [ 9, 0 ],
        "end" : [ 9, 0 ]
      }
    }, {
      "job" : {
        "id" : -1,
        "desc" : "Pause",
        "location" : {
          "id" : 314,
          "name" : null,
          "latitude" : 43.66485,
          "longitude" : 4.02899
        },
        "openings" : null,
        "preferredSlots" : null,
        "doAfter" : null,
        "nbEmpRequired" : 1,
        "deadline" : null,
        "skills" : [ ],
        "duration" : null,
        "pause" : true
      },
      "window" : {
        "start" : [ 9, 1 ],
        "end" : [ 13, 0 ]
      }
    } ],
    "driving" : 0.0,
    "valid" : true
  } ],
  "unassigned" : [ {
    "id" : 488,
    "desc" : "MANAGEMENT, IRONWORK",
    "location" : {
      "id" : 6418,
      "name" : null,
      "latitude" : 43.964607,
      "longitude" : 4.146558
    },
    "openings" : {
      "start" : [ 9, 28 ],
      "end" : [ 16, 27 ]
    },
    "preferredSlots" : null,
    "doAfter" : null,
    "nbEmpRequired" : 1,
    "deadline" : [ 10, 16 ],
    "skills" : [ {
      "id" : 0,
      "name" : "MANAGEMENT",
      "level" : 5
    }, {
      "id" : 8,
      "name" : "IRONWORK",
      "level" : 2
    } ],
    "duration" : 1800.000000000,
    "pause" : false
  }, {
    "id" : 42,
    "desc" : "TILER, GLAZING",
    "location" : {
      "id" : 8338,
      "name" : null,
      "latitude" : 43.453293,
      "longitude" : 3.9206848
    },
    "openings" : {
      "start" : [ 12, 38 ],
      "end" : [ 15, 45 ]
    },
    "preferredSlots" : null,
    "doAfter" : null,
    "nbEmpRequired" : 1,
    "deadline" : [ 12, 26 ],
    "skills" : [ {
      "id" : 9,
      "name" : "TILER",
      "level" : 5
    }, {
      "id" : 5,
      "name" : "GLAZING",
      "level" : 3
    } ],
    "duration" : 1800.000000000,
    "pause" : false
  }, {
    "id" : 942,
    "desc" : "CARPENTRY, ELECTRICIAN",
    "location" : {
      "id" : 5226,
      "name" : null,
      "latitude" : 44.047813,
      "longitude" : 4.015021
    },
    "openings" : {
      "start" : [ 16, 37 ],
      "end" : [ 16, 54 ]
    },
    "preferredSlots" : null,
    "doAfter" : null,
    "nbEmpRequired" : 1,
    "deadline" : [ 13, 26 ],
    "skills" : [ {
      "id" : 6,
      "name" : "CARPENTRY",
      "level" : 4
    }, {
      "id" : 2,
      "name" : "ELECTRICIAN",
      "level" : 1
    } ],
    "duration" : 1800.000000000,
    "pause" : false
  }, {
    "id" : 27,
    "desc" : "GLAZING, CARPENTRY",
    "location" : {
      "id" : 4563,
      "name" : null,
      "latitude" : 43.970497,
      "longitude" : 3.7282658
    },
    "openings" : {
      "start" : [ 13, 36 ],
      "end" : [ 15, 1 ]
    },
    "preferredSlots" : null,
    "doAfter" : null,
    "nbEmpRequired" : 1,
    "deadline" : [ 9, 21 ],
    "skills" : [ {
      "id" : 5,
      "name" : "GLAZING",
      "level" : 1
    }, {
      "id" : 6,
      "name" : "CARPENTRY",
      "level" : 4
    } ],
    "duration" : 1800.000000000,
    "pause" : false
  }, {
    "id" : 842,
    "desc" : "MANAGEMENT",
    "location" : {
      "id" : 2767,
      "name" : null,
      "latitude" : 44.0551,
      "longitude" : 3.9371223
    },
    "openings" : {
      "start" : [ 12, 34 ],
      "end" : [ 13, 4 ]
    },
    "preferredSlots" : null,
    "doAfter" : null,
    "nbEmpRequired" : 1,
    "deadline" : [ 11, 1 ],
    "skills" : [ {
      "id" : 0,
      "name" : "MANAGEMENT",
      "level" : 5
    } ],
    "duration" : 1800.000000000,
    "pause" : false
  }, {
    "id" : 704,
    "desc" : "GLAZING, PAINTING",
    "location" : {
      "id" : 7050,
      "name" : null,
      "latitude" : 44.095528,
      "longitude" : 4.0556717
    },
    "openings" : {
      "start" : [ 12, 6 ],
      "end" : [ 15, 30 ]
    },
    "preferredSlots" : null,
    "doAfter" : null,
    "nbEmpRequired" : 1,
    "deadline" : [ 17, 49 ],
    "skills" : [ {
      "id" : 5,
      "name" : "GLAZING",
      "level" : 5
    }, {
      "id" : 7,
      "name" : "PAINTING",
      "level" : 3
    } ],
    "duration" : 2700.000000000,
    "pause" : false
  }, {
    "id" : 874,
    "desc" : "CARPENTRY, MASONRY",
    "location" : {
      "id" : 8341,
      "name" : null,
      "latitude" : 43.61239,
      "longitude" : 3.7480342
    },
    "openings" : {
      "start" : [ 9, 25 ],
      "end" : [ 10, 18 ]
    },
    "preferredSlots" : null,
    "doAfter" : null,
    "nbEmpRequired" : 1,
    "deadline" : [ 17, 51 ],
    "skills" : [ {
      "id" : 6,
      "name" : "CARPENTRY",
      "level" : 4
    }, {
      "id" : 4,
      "name" : "MASONRY",
      "level" : 2
    } ],
    "duration" : 2700.000000000,
    "pause" : false
  }, {
    "id" : 607,
    "desc" : "TILER, CARPENTRY",
    "location" : {
      "id" : 394,
      "name" : null,
      "latitude" : 43.73528,
      "longitude" : 3.7721229
    },
    "openings" : {
      "start" : [ 13, 49 ],
      "end" : [ 16, 26 ]
    },
    "preferredSlots" : null,
    "doAfter" : null,
    "nbEmpRequired" : 1,
    "deadline" : [ 11, 19 ],
    "skills" : [ {
      "id" : 9,
      "name" : "TILER",
      "level" : 5
    }, {
      "id" : 6,
      "name" : "CARPENTRY",
      "level" : 4
    } ],
    "duration" : 2700.000000000,
    "pause" : false
  }, {
    "id" : 171,
    "desc" : "ENGINEER, ELECTRICIAN",
    "location" : {
      "id" : 9989,
      "name" : null,
      "latitude" : 43.596962,
      "longitude" : 4.15665
    },
    "openings" : {
      "start" : [ 12, 13 ],
      "end" : [ 14, 46 ]
    },
    "preferredSlots" : null,
    "doAfter" : null,
    "nbEmpRequired" : 1,
    "deadline" : [ 9, 47 ],
    "skills" : [ {
      "id" : 1,
      "name" : "ENGINEER",
      "level" : 4
    }, {
      "id" : 2,
      "name" : "ELECTRICIAN",
      "level" : 3
    } ],
    "duration" : 2700.000000000,
    "pause" : false
  }, {
    "id" : 137,
    "desc" : "MANAGEMENT",
    "location" : {
      "id" : 4256,
      "name" : null,
      "latitude" : 43.955,
      "longitude" : 3.7040496
    },
    "openings" : {
      "start" : [ 10, 55 ],
      "end" : [ 16, 53 ]
    },
    "preferredSlots" : null,
    "doAfter" : null,
    "nbEmpRequired" : 1,
    "deadline" : [ 12, 52 ],
    "skills" : [ {
      "id" : 0,
      "name" : "MANAGEMENT",
      "level" : 4
    } ],
    "duration" : 2700.000000000,
    "pause" : false
  }, {
    "id" : 867,
    "desc" : "MANAGEMENT",
    "location" : {
      "id" : 6393,
      "name" : null,
      "latitude" : 43.955376,
      "longitude" : 3.9288049
    },
    "openings" : {
      "start" : [ 14, 47 ],
      "end" : [ 15, 26 ]
    },
    "preferredSlots" : null,
    "doAfter" : null,
    "nbEmpRequired" : 1,
    "deadline" : [ 9, 9 ],
    "skills" : [ {
      "id" : 0,
      "name" : "MANAGEMENT",
      "level" : 3
    } ],
    "duration" : 2700.000000000,
    "pause" : false
  }, {
    "id" : 522,
    "desc" : "PLUMBING, MANAGEMENT",
    "location" : {
      "id" : 7460,
      "name" : null,
      "latitude" : 43.614845,
      "longitude" : 3.9634633
    },
    "openings" : {
      "start" : [ 13, 11 ],
      "end" : [ 14, 19 ]
    },
    "preferredSlots" : null,
    "doAfter" : null,
    "nbEmpRequired" : 1,
    "deadline" : [ 10, 20 ],
    "skills" : [ {
      "id" : 3,
      "name" : "PLUMBING",
      "level" : 1
    }, {
      "id" : 0,
      "name" : "MANAGEMENT",
      "level" : 1
    } ],
    "duration" : 2700.000000000,
    "pause" : false
  }, {
    "id" : 278,
    "desc" : "PLUMBING",
    "location" : {
      "id" : 5324,
      "name" : null,
      "latitude" : 43.585667,
      "longitude" : 3.9135277
    },
    "openings" : {
      "start" : [ 11, 51 ],
      "end" : [ 14, 48 ]
    },
    "preferredSlots" : null,
    "doAfter" : null,
    "nbEmpRequired" : 1,
    "deadline" : [ 9, 33 ],
    "skills" : [ {
      "id" : 3,
      "name" : "PLUMBING",
      "level" : 5
    } ],
    "duration" : 2700.000000000,
    "pause" : false
  }, {
    "id" : 993,
    "desc" : "TILER, IRONWORK",
    "location" : {
      "id" : 1167,
      "name" : null,
      "latitude" : 43.412388,
      "longitude" : 4.2046723
    },
    "openings" : {
      "start" : [ 15, 42 ],
      "end" : [ 16, 35 ]
    },
    "preferredSlots" : null,
    "doAfter" : null,
    "nbEmpRequired" : 1,
    "deadline" : [ 17, 41 ],
    "skills" : [ {
      "id" : 9,
      "name" : "TILER",
      "level" : 2
    }, {
      "id" : 8,
      "name" : "IRONWORK",
      "level" : 5
    } ],
    "duration" : 2700.000000000,
    "pause" : false
  }, {
    "id" : 945,
    "desc" : "ENGINEER",
    "location" : {
      "id" : 5760,
      "name" : null,
      "latitude" : 44.041973,
      "longitude" : 4.106305
    },
    "openings" : {
      "start" : [ 13, 39 ],
      "end" : [ 16, 2 ]
    },
    "preferredSlots" : null,
    "doAfter" : null,
    "nbEmpRequired" : 1,
    "deadline" : [ 15, 0 ],
    "skills" : [ {
      "id" : 1,
      "name" : "ENGINEER",
      "level" : 2
    } ],
    "duration" : 2700.000000000,
    "pause" : false
  }, {
    "id" : 876,
    "desc" : "IRONWORK, ELECTRICIAN",
    "location" : {
      "id" : 4833,
      "name" : null,
      "latitude" : 43.77285,
      "longitude" : 4.1076865
    },
    "openings" : {
      "start" : [ 12, 4 ],
      "end" : [ 17, 54 ]
    },
    "preferredSlots" : null,
    "doAfter" : null,
    "nbEmpRequired" : 1,
    "deadline" : [ 14, 33 ],
    "skills" : [ {
      "id" : 8,
      "name" : "IRONWORK",
      "level" : 4
    }, {
      "id" : 2,
      "name" : "ELECTRICIAN",
      "level" : 4
    } ],
    "duration" : 2700.000000000,
    "pause" : false
  }, {
    "id" : 500,
    "desc" : "GLAZING",
    "location" : {
      "id" : 9689,
      "name" : null,
      "latitude" : 43.866386,
      "longitude" : 4.0878077
    },
    "openings" : {
      "start" : [ 13, 27 ],
      "end" : [ 14, 16 ]
    },
    "preferredSlots" : null,
    "doAfter" : null,
    "nbEmpRequired" : 1,
    "deadline" : [ 13, 47 ],
    "skills" : [ {
      "id" : 5,
      "name" : "GLAZING",
      "level" : 4
    } ],
    "duration" : 2700.000000000,
    "pause" : false
  }, {
    "id" : 217,
    "desc" : "MASONRY, MANAGEMENT",
    "location" : {
      "id" : 6068,
      "name" : null,
      "latitude" : 43.5794,
      "longitude" : 4.114579
    },
    "openings" : {
      "start" : [ 11, 11 ],
      "end" : [ 16, 0 ]
    },
    "preferredSlots" : null,
    "doAfter" : null,
    "nbEmpRequired" : 1,
    "deadline" : [ 11, 27 ],
    "skills" : [ {
      "id" : 4,
      "name" : "MASONRY",
      "level" : 3
    }, {
      "id" : 0,
      "name" : "MANAGEMENT",
      "level" : 2
    } ],
    "duration" : 2700.000000000,
    "pause" : false
  }, {
    "id" : 828,
    "desc" : "ELECTRICIAN, MASONRY",
    "location" : {
      "id" : 4833,
      "name" : null,
      "latitude" : 43.57448,
      "longitude" : 3.9642816
    },
    "openings" : {
      "start" : [ 16, 2 ],
      "end" : [ 16, 52 ]
    },
    "preferredSlots" : null,
    "doAfter" : null,
    "nbEmpRequired" : 1,
    "deadline" : [ 16, 43 ],
    "skills" : [ {
      "id" : 2,
      "name" : "ELECTRICIAN",
      "level" : 2
    }, {
      "id" : 4,
      "name" : "MASONRY",
      "level" : 3
    } ],
    "duration" : 2700.000000000,
    "pause" : false
  }, {
    "id" : 565,
    "desc" : "ELECTRICIAN",
    "location" : {
      "id" : 9194,
      "name" : null,
      "latitude" : 43.98262,
      "longitude" : 4.0577364
    },
    "openings" : {
      "start" : [ 16, 4 ],
      "end" : [ 16, 41 ]
    },
    "preferredSlots" : null,
    "doAfter" : null,
    "nbEmpRequired" : 1,
    "deadline" : [ 13, 10 ],
    "skills" : [ {
      "id" : 2,
      "name" : "ELECTRICIAN",
      "level" : 3
    } ],
    "duration" : 2700.000000000,
    "pause" : false
  }, {
    "id" : 329,
    "desc" : "PAINTING, ENGINEER",
    "location" : {
      "id" : 8665,
      "name" : null,
      "latitude" : 43.47206,
      "longitude" : 3.896888
    },
    "openings" : {
      "start" : [ 10, 46 ],
      "end" : [ 14, 5 ]
    },
    "preferredSlots" : null,
    "doAfter" : null,
    "nbEmpRequired" : 1,
    "deadline" : [ 17, 44 ],
    "skills" : [ {
      "id" : 7,
      "name" : "PAINTING",
      "level" : 2
    }, {
      "id" : 1,
      "name" : "ENGINEER",
      "level" : 1
    } ],
    "duration" : 2700.000000000,
    "pause" : false
  }, {
    "id" : 533,
    "desc" : "PLUMBING",
    "location" : {
      "id" : 1735,
      "name" : null,
      "latitude" : 43.451794,
      "longitude" : 4.0693336
    },
    "openings" : {
      "start" : [ 14, 45 ],
      "end" : [ 16, 43 ]
    },
    "preferredSlots" : null,
    "doAfter" : null,
    "nbEmpRequired" : 1,
    "deadline" : [ 14, 3 ],
    "skills" : [ {
      "id" : 3,
      "name" : "PLUMBING",
      "level" : 2
    } ],
    "duration" : 2700.000000000,
    "pause" : false
  }, {
    "id" : 627,
    "desc" : "ELECTRICIAN",
    "location" : {
      "id" : 3687,
      "name" : null,
      "latitude" : 43.857517,
      "longitude" : 4.1912103
    },
    "openings" : {
      "start" : [ 9, 41 ],
      "end" : [ 14, 36 ]
    },
    "preferredSlots" : null,
    "doAfter" : null,
    "nbEmpRequired" : 1,
    "deadline" : [ 11, 5 ],
    "skills" : [ {
      "id" : 2,
      "name" : "ELECTRICIAN",
      "level" : 1
    } ],
    "duration" : 3600.000000000,
    "pause" : false
  }, {
    "id" : 888,
    "desc" : "GLAZING, IRONWORK",
    "location" : {
      "id" : 6054,
      "name" : null,
      "latitude" : 43.885784,
      "longitude" : 3.7639186
    },
    "openings" : {
      "start" : [ 9, 49 ],
      "end" : [ 15, 55 ]
    },
    "preferredSlots" : null,
    "doAfter" : null,
    "nbEmpRequired" : 1,
    "deadline" : [ 15, 17 ],
    "skills" : [ {
      "id" : 5,
      "name" : "GLAZING",
      "level" : 4
    }, {
      "id" : 8,
      "name" : "IRONWORK",
      "level" : 5
    } ],
    "duration" : 3600.000000000,
    "pause" : false
  }, {
    "id" : 798,
    "desc" : "ELECTRICIAN, GLAZING",
    "location" : {
      "id" : 1270,
      "name" : null,
      "latitude" : 43.727886,
      "longitude" : 3.9545918
    },
    "openings" : {
      "start" : [ 15, 9 ],
      "end" : [ 17, 54 ]
    },
    "preferredSlots" : null,
    "doAfter" : null,
    "nbEmpRequired" : 1,
    "deadline" : [ 16, 12 ],
    "skills" : [ {
      "id" : 2,
      "name" : "ELECTRICIAN",
      "level" : 5
    }, {
      "id" : 5,
      "name" : "GLAZING",
      "level" : 4
    } ],
    "duration" : 3600.000000000,
    "pause" : false
  }, {
    "id" : 667,
    "desc" : "ELECTRICIAN, PAINTING",
    "location" : {
      "id" : 9535,
      "name" : null,
      "latitude" : 43.521248,
      "longitude" : 4.2879295
    },
    "openings" : {
      "start" : [ 10, 11 ],
      "end" : [ 16, 55 ]
    },
    "preferredSlots" : null,
    "doAfter" : null,
    "nbEmpRequired" : 1,
    "deadline" : [ 11, 2 ],
    "skills" : [ {
      "id" : 2,
      "name" : "ELECTRICIAN",
      "level" : 4
    }, {
      "id" : 7,
      "name" : "PAINTING",
      "level" : 5
    } ],
    "duration" : 3600.000000000,
    "pause" : false
  }, {
    "id" : 219,
    "desc" : "ELECTRICIAN",
    "location" : {
      "id" : 7656,
      "name" : null,
      "latitude" : 43.578423,
      "longitude" : 3.7444103
    },
    "openings" : {
      "start" : [ 9, 19 ],
      "end" : [ 11, 26 ]
    },
    "preferredSlots" : null,
    "doAfter" : null,
    "nbEmpRequired" : 1,
    "deadline" : [ 15, 37 ],
    "skills" : [ {
      "id" : 2,
      "name" : "ELECTRICIAN",
      "level" : 3
    } ],
    "duration" : 3600.000000000,
    "pause" : false
  }, {
    "id" : 865,
    "desc" : "ELECTRICIAN, CARPENTRY",
    "location" : {
      "id" : 3735,
      "name" : null,
      "latitude" : 43.79602,
      "longitude" : 3.8763065
    },
    "openings" : {
      "start" : [ 13, 11 ],
      "end" : [ 16, 31 ]
    },
    "preferredSlots" : null,
    "doAfter" : null,
    "nbEmpRequired" : 1,
    "deadline" : [ 11, 43 ],
    "skills" : [ {
      "id" : 2,
      "name" : "ELECTRICIAN",
      "level" : 3
    }, {
      "id" : 6,
      "name" : "CARPENTRY",
      "level" : 4
    } ],
    "duration" : 3600.000000000,
    "pause" : false
  }, {
    "id" : 353,
    "desc" : "GLAZING, MASONRY",
    "location" : {
      "id" : 8151,
      "name" : null,
      "latitude" : 43.543205,
      "longitude" : 4.1921864
    },
    "openings" : {
      "start" : [ 15, 14 ],
      "end" : [ 15, 45 ]
    },
    "preferredSlots" : null,
    "doAfter" : null,
    "nbEmpRequired" : 1,
    "deadline" : [ 12, 35 ],
    "skills" : [ {
      "id" : 5,
      "name" : "GLAZING",
      "level" : 1
    }, {
      "id" : 4,
      "name" : "MASONRY",
      "level" : 4
    } ],
    "duration" : 3600.000000000,
    "pause" : false
  }, {
    "id" : 662,
    "desc" : "MANAGEMENT, ELECTRICIAN",
    "location" : {
      "id" : 8807,
      "name" : null,
      "latitude" : 43.58829,
      "longitude" : 4.1773577
    },
    "openings" : {
      "start" : [ 14, 38 ],
      "end" : [ 16, 25 ]
    },
    "preferredSlots" : null,
    "doAfter" : null,
    "nbEmpRequired" : 1,
    "deadline" : [ 9, 46 ],
    "skills" : [ {
      "id" : 0,
      "name" : "MANAGEMENT",
      "level" : 1
    }, {
      "id" : 2,
      "name" : "ELECTRICIAN",
      "level" : 2
    } ],
    "duration" : 3600.000000000,
    "pause" : false
  }, {
    "id" : 490,
    "desc" : "TILER, CARPENTRY",
    "location" : {
      "id" : 6980,
      "name" : null,
      "latitude" : 43.474983,
      "longitude" : 4.126101
    },
    "openings" : {
      "start" : [ 14, 58 ],
      "end" : [ 17, 17 ]
    },
    "preferredSlots" : null,
    "doAfter" : null,
    "nbEmpRequired" : 1,
    "deadline" : [ 15, 5 ],
    "skills" : [ {
      "id" : 9,
      "name" : "TILER",
      "level" : 3
    }, {
      "id" : 6,
      "name" : "CARPENTRY",
      "level" : 3
    } ],
    "duration" : 3600.000000000,
    "pause" : false
  }, {
    "id" : 799,
    "desc" : "IRONWORK",
    "location" : {
      "id" : 4235,
      "name" : null,
      "latitude" : 43.74076,
      "longitude" : 4.1312847
    },
    "openings" : {
      "start" : [ 11, 16 ],
      "end" : [ 17, 43 ]
    },
    "preferredSlots" : null,
    "doAfter" : null,
    "nbEmpRequired" : 1,
    "deadline" : [ 11, 10 ],
    "skills" : [ {
      "id" : 8,
      "name" : "IRONWORK",
      "level" : 3
    } ],
    "duration" : 3600.000000000,
    "pause" : false
  }, {
    "id" : 213,
    "desc" : "PLUMBING",
    "location" : {
      "id" : 9968,
      "name" : null,
      "latitude" : 43.808174,
      "longitude" : 3.913934
    },
    "openings" : {
      "start" : [ 9, 18 ],
      "end" : [ 11, 22 ]
    },
    "preferredSlots" : null,
    "doAfter" : null,
    "nbEmpRequired" : 1,
    "deadline" : [ 14, 40 ],
    "skills" : [ {
      "id" : 3,
      "name" : "PLUMBING",
      "level" : 3
    } ],
    "duration" : 3600.000000000,
    "pause" : false
  }, {
    "id" : 707,
    "desc" : "ELECTRICIAN, TILER",
    "location" : {
      "id" : 8984,
      "name" : null,
      "latitude" : 43.56265,
      "longitude" : 3.8689742
    },
    "openings" : {
      "start" : [ 14, 12 ],
      "end" : [ 14, 13 ]
    },
    "preferredSlots" : null,
    "doAfter" : null,
    "nbEmpRequired" : 1,
    "deadline" : [ 9, 27 ],
    "skills" : [ {
      "id" : 2,
      "name" : "ELECTRICIAN",
      "level" : 2
    }, {
      "id" : 9,
      "name" : "TILER",
      "level" : 1
    } ],
    "duration" : 3600.000000000,
    "pause" : false
  }, {
    "id" : 275,
    "desc" : "PLUMBING, IRONWORK",
    "location" : {
      "id" : 7719,
      "name" : null,
      "latitude" : 43.67925,
      "longitude" : 4.0785413
    },
    "openings" : {
      "start" : [ 10, 43 ],
      "end" : [ 11, 58 ]
    },
    "preferredSlots" : null,
    "doAfter" : null,
    "nbEmpRequired" : 1,
    "deadline" : [ 17, 36 ],
    "skills" : [ {
      "id" : 3,
      "name" : "PLUMBING",
      "level" : 2
    }, {
      "id" : 8,
      "name" : "IRONWORK",
      "level" : 1
    } ],
    "duration" : 3600.000000000,
    "pause" : false
  }, {
    "id" : 562,
    "desc" : "ELECTRICIAN, MASONRY",
    "location" : {
      "id" : 3145,
      "name" : null,
      "latitude" : 43.77272,
      "longitude" : 3.7917328
    },
    "openings" : {
      "start" : [ 14, 40 ],
      "end" : [ 15, 25 ]
    },
    "preferredSlots" : null,
    "doAfter" : null,
    "nbEmpRequired" : 1,
    "deadline" : [ 11, 23 ],
    "skills" : [ {
      "id" : 2,
      "name" : "ELECTRICIAN",
      "level" : 2
    }, {
      "id" : 4,
      "name" : "MASONRY",
      "level" : 1
    } ],
    "duration" : 3600.000000000,
    "pause" : false
  }, {
    "id" : 55,
    "desc" : "MANAGEMENT, ELECTRICIAN",
    "location" : {
      "id" : 7698,
      "name" : null,
      "latitude" : 44.03132,
      "longitude" : 3.8618903
    },
    "openings" : {
      "start" : [ 9, 49 ],
      "end" : [ 11, 22 ]
    },
    "preferredSlots" : null,
    "doAfter" : null,
    "nbEmpRequired" : 1,
    "deadline" : [ 9, 34 ],
    "skills" : [ {
      "id" : 0,
      "name" : "MANAGEMENT",
      "level" : 4
    }, {
      "id" : 2,
      "name" : "ELECTRICIAN",
      "level" : 1
    } ],
    "duration" : 3600.000000000,
    "pause" : false
  }, {
    "id" : 976,
    "desc" : "PLUMBING, MANAGEMENT",
    "location" : {
      "id" : 4419,
      "name" : null,
      "latitude" : 43.68975,
      "longitude" : 4.2248774
    },
    "openings" : {
      "start" : [ 10, 12 ],
      "end" : [ 11, 34 ]
    },
    "preferredSlots" : null,
    "doAfter" : null,
    "nbEmpRequired" : 1,
    "deadline" : [ 16, 23 ],
    "skills" : [ {
      "id" : 3,
      "name" : "PLUMBING",
      "level" : 4
    }, {
      "id" : 0,
      "name" : "MANAGEMENT",
      "level" : 4
    } ],
    "duration" : 3600.000000000,
    "pause" : false
  }, {
    "id" : 857,
    "desc" : "GLAZING, TILER",
    "location" : {
      "id" : 6726,
      "name" : null,
      "latitude" : 43.443935,
      "longitude" : 3.7601223
    },
    "openings" : {
      "start" : [ 15, 52 ],
      "end" : [ 17, 29 ]
    },
    "preferredSlots" : null,
    "doAfter" : null,
    "nbEmpRequired" : 1,
    "deadline" : [ 9, 6 ],
    "skills" : [ {
      "id" : 5,
      "name" : "GLAZING",
      "level" : 5
    }, {
      "id" : 9,
      "name" : "TILER",
      "level" : 3
    } ],
    "duration" : 3600.000000000,
    "pause" : false
  }, {
    "id" : 852,
    "desc" : "GLAZING",
    "location" : {
      "id" : 1406,
      "name" : null,
      "latitude" : 44.08612,
      "longitude" : 4.112238
    },
    "openings" : {
      "start" : [ 10, 41 ],
      "end" : [ 11, 56 ]
    },
    "preferredSlots" : null,
    "doAfter" : null,
    "nbEmpRequired" : 1,
    "deadline" : [ 13, 30 ],
    "skills" : [ {
      "id" : 5,
      "name" : "GLAZING",
      "level" : 2
    } ],
    "duration" : 3600.000000000,
    "pause" : false
  }, {
    "id" : 499,
    "desc" : "ENGINEER",
    "location" : {
      "id" : 2134,
      "name" : null,
      "latitude" : 43.97156,
      "longitude" : 3.769342
    },
    "openings" : {
      "start" : [ 11, 19 ],
      "end" : [ 12, 40 ]
    },
    "preferredSlots" : null,
    "doAfter" : null,
    "nbEmpRequired" : 1,
    "deadline" : [ 13, 17 ],
    "skills" : [ {
      "id" : 1,
      "name" : "ENGINEER",
      "level" : 3
    } ],
    "duration" : 3600.000000000,
    "pause" : false
  }, {
    "id" : 888,
    "desc" : "PLUMBING",
    "location" : {
      "id" : 9570,
      "name" : null,
      "latitude" : 43.843254,
      "longitude" : 4.0451384
    },
    "openings" : {
      "start" : [ 12, 59 ],
      "end" : [ 16, 40 ]
    },
    "preferredSlots" : null,
    "doAfter" : null,
    "nbEmpRequired" : 1,
    "deadline" : [ 14, 43 ],
    "skills" : [ {
      "id" : 3,
      "name" : "PLUMBING",
      "level" : 5
    } ],
    "duration" : 3600.000000000,
    "pause" : false
  }, {
    "id" : 129,
    "desc" : "IRONWORK, GLAZING",
    "location" : {
      "id" : 3856,
      "name" : null,
      "latitude" : 43.909378,
      "longitude" : 4.220565
    },
    "openings" : {
      "start" : [ 11, 19 ],
      "end" : [ 13, 23 ]
    },
    "preferredSlots" : null,
    "doAfter" : null,
    "nbEmpRequired" : 1,
    "deadline" : [ 16, 10 ],
    "skills" : [ {
      "id" : 8,
      "name" : "IRONWORK",
      "level" : 4
    }, {
      "id" : 5,
      "name" : "GLAZING",
      "level" : 3
    } ],
    "duration" : 3600.000000000,
    "pause" : false
  }, {
    "id" : 253,
    "desc" : "ENGINEER, MANAGEMENT",
    "location" : {
      "id" : 1764,
      "name" : null,
      "latitude" : 43.4378,
      "longitude" : 3.737479
    },
    "openings" : {
      "start" : [ 12, 20 ],
      "end" : [ 12, 21 ]
    },
    "preferredSlots" : null,
    "doAfter" : null,
    "nbEmpRequired" : 1,
    "deadline" : [ 15, 14 ],
    "skills" : [ {
      "id" : 1,
      "name" : "ENGINEER",
      "level" : 4
    }, {
      "id" : 0,
      "name" : "MANAGEMENT",
      "level" : 3
    } ],
    "duration" : 3600.000000000,
    "pause" : false
  }, {
    "id" : 863,
    "desc" : "PAINTING, PLUMBING",
    "location" : {
      "id" : 7585,
      "name" : null,
      "latitude" : 43.419716,
      "longitude" : 3.9408774
    },
    "openings" : {
      "start" : [ 9, 17 ],
      "end" : [ 12, 58 ]
    },
    "preferredSlots" : null,
    "doAfter" : null,
    "nbEmpRequired" : 1,
    "deadline" : [ 11, 41 ],
    "skills" : [ {
      "id" : 7,
      "name" : "PAINTING",
      "level" : 3
    }, {
      "id" : 3,
      "name" : "PLUMBING",
      "level" : 4
    } ],
    "duration" : 3600.000000000,
    "pause" : false
  }, {
    "id" : 212,
    "desc" : "PAINTING, ELECTRICIAN",
    "location" : {
      "id" : 7466,
      "name" : null,
      "latitude" : 43.799644,
      "longitude" : 4.006014
    },
    "openings" : {
      "start" : [ 15, 14 ],
      "end" : [ 16, 23 ]
    },
    "preferredSlots" : null,
    "doAfter" : null,
    "nbEmpRequired" : 1,
    "deadline" : [ 17, 50 ],
    "skills" : [ {
      "id" : 7,
      "name" : "PAINTING",
      "level" : 2
    }, {
      "id" : 2,
      "name" : "ELECTRICIAN",
      "level" : 4
    } ],
    "duration" : 3600.000000000,
    "pause" : false
  }, {
    "id" : 508,
    "desc" : "ENGINEER",
    "location" : {
      "id" : 4804,
      "name" : null,
      "latitude" : 43.807373,
      "longitude" : 4.122161
    },
    "openings" : {
      "start" : [ 10, 26 ],
      "end" : [ 16, 3 ]
    },
    "preferredSlots" : null,
    "doAfter" : null,
    "nbEmpRequired" : 1,
    "deadline" : [ 12, 52 ],
    "skills" : [ {
      "id" : 1,
      "name" : "ENGINEER",
      "level" : 4
    } ],
    "duration" : 3600.000000000,
    "pause" : false
  }, {
    "id" : 708,
    "desc" : "ELECTRICIAN, MASONRY",
    "location" : {
      "id" : 5241,
      "name" : null,
      "latitude" : 43.88064,
      "longitude" : 4.211979
    },
    "openings" : {
      "start" : [ 11, 45 ],
      "end" : [ 14, 40 ]
    },
    "preferredSlots" : null,
    "doAfter" : null,
    "nbEmpRequired" : 1,
    "deadline" : [ 12, 25 ],
    "skills" : [ {
      "id" : 2,
      "name" : "ELECTRICIAN",
      "level" : 5
    }, {
      "id" : 4,
      "name" : "MASONRY",
      "level" : 5
    } ],
    "duration" : 3600.000000000,
    "pause" : false
  }, {
    "id" : 88,
    "desc" : "PAINTING, GLAZING",
    "location" : {
      "id" : 5634,
      "name" : null,
      "latitude" : 44.081287,
      "longitude" : 3.8131442
    },
    "openings" : {
      "start" : [ 16, 26 ],
      "end" : [ 17, 22 ]
    },
    "preferredSlots" : null,
    "doAfter" : null,
    "nbEmpRequired" : 1,
    "deadline" : [ 14, 31 ],
    "skills" : [ {
      "id" : 7,
      "name" : "PAINTING",
      "level" : 1
    }, {
      "id" : 5,
      "name" : "GLAZING",
      "level" : 5
    } ],
    "duration" : 3600.000000000,
    "pause" : false
  }, {
    "id" : 882,
    "desc" : "PLUMBING, MANAGEMENT",
    "location" : {
      "id" : 9933,
      "name" : null,
      "latitude" : 43.984665,
      "longitude" : 3.726408
    },
    "openings" : {
      "start" : [ 11, 28 ],
      "end" : [ 17, 48 ]
    },
    "preferredSlots" : null,
    "doAfter" : null,
    "nbEmpRequired" : 1,
    "deadline" : [ 17, 27 ],
    "skills" : [ {
      "id" : 3,
      "name" : "PLUMBING",
      "level" : 3
    }, {
      "id" : 0,
      "name" : "MANAGEMENT",
      "level" : 4
    } ],
    "duration" : 3600.000000000,
    "pause" : false
  }, {
    "id" : 155,
    "desc" : "MANAGEMENT, GLAZING",
    "location" : {
      "id" : 4490,
      "name" : null,
      "latitude" : 43.420784,
      "longitude" : 4.2585473
    },
    "openings" : {
      "start" : [ 10, 12 ],
      "end" : [ 12, 55 ]
    },
    "preferredSlots" : null,
    "doAfter" : null,
    "nbEmpRequired" : 1,
    "deadline" : [ 12, 49 ],
    "skills" : [ {
      "id" : 0,
      "name" : "MANAGEMENT",
      "level" : 1
    }, {
      "id" : 5,
      "name" : "GLAZING",
      "level" : 5
    } ],
    "duration" : 3600.000000000,
    "pause" : false
  }, {
    "id" : 223,
    "desc" : "ELECTRICIAN, PAINTING",
    "location" : {
      "id" : 7831,
      "name" : null,
      "latitude" : 43.477478,
      "longitude" : 4.133563
    },
    "openings" : {
      "start" : [ 15, 0 ],
      "end" : [ 17, 13 ]
    },
    "preferredSlots" : null,
    "doAfter" : null,
    "nbEmpRequired" : 1,
    "deadline" : [ 10, 25 ],
    "skills" : [ {
      "id" : 2,
      "name" : "ELECTRICIAN",
      "level" : 2
    }, {
      "id" : 7,
      "name" : "PAINTING",
      "level" : 5
    } ],
    "duration" : 5400.000000000,
    "pause" : false
  }, {
    "id" : 135,
    "desc" : "CARPENTRY",
    "location" : {
      "id" : 3050,
      "name" : null,
      "latitude" : 43.62304,
      "longitude" : 3.8798537
    },
    "openings" : {
      "start" : [ 9, 22 ],
      "end" : [ 9, 27 ]
    },
    "preferredSlots" : null,
    "doAfter" : null,
    "nbEmpRequired" : 1,
    "deadline" : [ 11, 32 ],
    "skills" : [ {
      "id" : 6,
      "name" : "CARPENTRY",
      "level" : 4
    } ],
    "duration" : 5400.000000000,
    "pause" : false
  }, {
    "id" : 546,
    "desc" : "PLUMBING",
    "location" : {
      "id" : 2225,
      "name" : null,
      "latitude" : 43.784958,
      "longitude" : 4.2275553
    },
    "openings" : {
      "start" : [ 12, 47 ],
      "end" : [ 13, 36 ]
    },
    "preferredSlots" : null,
    "doAfter" : null,
    "nbEmpRequired" : 1,
    "deadline" : [ 17, 29 ],
    "skills" : [ {
      "id" : 3,
      "name" : "PLUMBING",
      "level" : 5
    } ],
    "duration" : 5400.000000000,
    "pause" : false
  }, {
    "id" : 304,
    "desc" : "CARPENTRY, GLAZING",
    "location" : {
      "id" : 7022,
      "name" : null,
      "latitude" : 43.8724,
      "longitude" : 3.7582316
    },
    "openings" : {
      "start" : [ 12, 34 ],
      "end" : [ 16, 18 ]
    },
    "preferredSlots" : null,
    "doAfter" : null,
    "nbEmpRequired" : 1,
    "deadline" : [ 12, 5 ],
    "skills" : [ {
      "id" : 6,
      "name" : "CARPENTRY",
      "level" : 5
    }, {
      "id" : 5,
      "name" : "GLAZING",
      "level" : 3
    } ],
    "duration" : 5400.000000000,
    "pause" : false
  }, {
    "id" : 15,
    "desc" : "CARPENTRY",
    "location" : {
      "id" : 6581,
      "name" : null,
      "latitude" : 43.702618,
      "longitude" : 3.9397361
    },
    "openings" : {
      "start" : [ 11, 27 ],
      "end" : [ 13, 13 ]
    },
    "preferredSlots" : null,
    "doAfter" : null,
    "nbEmpRequired" : 1,
    "deadline" : [ 12, 9 ],
    "skills" : [ {
      "id" : 6,
      "name" : "CARPENTRY",
      "level" : 1
    } ],
    "duration" : 5400.000000000,
    "pause" : false
  }, {
    "id" : 581,
    "desc" : "PLUMBING",
    "location" : {
      "id" : 7006,
      "name" : null,
      "latitude" : 43.998554,
      "longitude" : 3.986966
    },
    "openings" : {
      "start" : [ 9, 44 ],
      "end" : [ 14, 7 ]
    },
    "preferredSlots" : null,
    "doAfter" : null,
    "nbEmpRequired" : 1,
    "deadline" : [ 15, 39 ],
    "skills" : [ {
      "id" : 3,
      "name" : "PLUMBING",
      "level" : 1
    } ],
    "duration" : 5400.000000000,
    "pause" : false
  }, {
    "id" : 840,
    "desc" : "TILER, CARPENTRY",
    "location" : {
      "id" : 5267,
      "name" : null,
      "latitude" : 43.810204,
      "longitude" : 4.258783
    },
    "openings" : {
      "start" : [ 9, 16 ],
      "end" : [ 11, 3 ]
    },
    "preferredSlots" : null,
    "doAfter" : null,
    "nbEmpRequired" : 1,
    "deadline" : [ 15, 35 ],
    "skills" : [ {
      "id" : 9,
      "name" : "TILER",
      "level" : 5
    }, {
      "id" : 6,
      "name" : "CARPENTRY",
      "level" : 2
    } ],
    "duration" : 5400.000000000,
    "pause" : false
  }, {
    "id" : 351,
    "desc" : "ELECTRICIAN, TILER",
    "location" : {
      "id" : 7863,
      "name" : null,
      "latitude" : 43.611153,
      "longitude" : 3.8841145
    },
    "openings" : {
      "start" : [ 10, 33 ],
      "end" : [ 12, 55 ]
    },
    "preferredSlots" : null,
    "doAfter" : null,
    "nbEmpRequired" : 1,
    "deadline" : [ 11, 6 ],
    "skills" : [ {
      "id" : 2,
      "name" : "ELECTRICIAN",
      "level" : 3
    }, {
      "id" : 9,
      "name" : "TILER",
      "level" : 5
    } ],
    "duration" : 5400.000000000,
    "pause" : false
  }, {
    "id" : 985,
    "desc" : "ENGINEER",
    "location" : {
      "id" : 2884,
      "name" : null,
      "latitude" : 43.908707,
      "longitude" : 4.05686
    },
    "openings" : {
      "start" : [ 12, 12 ],
      "end" : [ 12, 53 ]
    },
    "preferredSlots" : null,
    "doAfter" : null,
    "nbEmpRequired" : 1,
    "deadline" : [ 15, 44 ],
    "skills" : [ {
      "id" : 1,
      "name" : "ENGINEER",
      "level" : 2
    } ],
    "duration" : 5400.000000000,
    "pause" : false
  }, {
    "id" : 298,
    "desc" : "ENGINEER, PAINTING",
    "location" : {
      "id" : 8785,
      "name" : null,
      "latitude" : 43.846123,
      "longitude" : 3.7786613
    },
    "openings" : {
      "start" : [ 15, 48 ],
      "end" : [ 16, 59 ]
    },
    "preferredSlots" : null,
    "doAfter" : null,
    "nbEmpRequired" : 1,
    "deadline" : [ 12, 34 ],
    "skills" : [ {
      "id" : 1,
      "name" : "ENGINEER",
      "level" : 3
    }, {
      "id" : 7,
      "name" : "PAINTING",
      "level" : 3
    } ],
    "duration" : 7200.000000000,
    "pause" : false
  }, {
    "id" : 283,
    "desc" : "ELECTRICIAN",
    "location" : {
      "id" : 4618,
      "name" : null,
      "latitude" : 44.018215,
      "longitude" : 4.002118
    },
    "openings" : {
      "start" : [ 11, 41 ],
      "end" : [ 12, 19 ]
    },
    "preferredSlots" : null,
    "doAfter" : null,
    "nbEmpRequired" : 1,
    "deadline" : [ 15, 13 ],
    "skills" : [ {
      "id" : 2,
      "name" : "ELECTRICIAN",
      "level" : 1
    } ],
    "duration" : 7200.000000000,
    "pause" : false
  }, {
    "id" : 51,
    "desc" : "ENGINEER, PAINTING",
    "location" : {
      "id" : 28,
      "name" : null,
      "latitude" : 43.458744,
      "longitude" : 4.042739
    },
    "openings" : {
      "start" : [ 10, 42 ],
      "end" : [ 12, 43 ]
    },
    "preferredSlots" : null,
    "doAfter" : null,
    "nbEmpRequired" : 1,
    "deadline" : [ 9, 9 ],
    "skills" : [ {
      "id" : 1,
      "name" : "ENGINEER",
      "level" : 3
    }, {
      "id" : 7,
      "name" : "PAINTING",
      "level" : 1
    } ],
    "duration" : 7200.000000000,
    "pause" : false
  } ],
  "valid" : true
}