{
  "jobs" : [ {
    "id" : 331,
    "desc" : "ENGINEER, MASONRY",
    "location" : {
      "id" : 5895,
      "name" : null,
      "latitude" : 43.75437,
      "longitude" : 4.0804763
    },
    "openings" : {
      "start" : [ 11, 53 ],
      "end" : [ 13, 10 ]
    },
    "preferredSlots" : null,
    "doAfter" : null,
    "nbEmpRequired" : 1,
    "deadline" : [ 14, 37 ],
    "skills" : [ {
      "id" : 1,
      "name" : "ENGINEER",
      "level" : 3
    }, {
      "id" : 4,
      "name" : "MASONRY",
      "level" : 2
    } ],
    "duration" : 7200.000000000,
    "pause" : false
  }, {
    "id" : 274,
    "desc" : "MASONRY, PLUMBING",
    "location" : {
      "id" : 4470,
      "name" : null,
      "latitude" : 43.752224,
      "longitude" : 4.223979
    },
    "openings" : {
      "start" : [ 10, 27 ],
      "end" : [ 12, 35 ]
    },
    "preferredSlots" : null,
    "doAfter" : null,
    "nbEmpRequired" : 1,
    "deadline" : [ 15, 16 ],
    "skills" : [ {
      "id" : 4,
      "name" : "MASONRY",
      "level" : 3
    }, {
      "id" : 3,
      "name" : "PLUMBING",
      "level" : 3
    } ],
    "duration" : 3600.000000000,
    "pause" : false
  }, {
    "id" : 517,
    "desc" : "GLAZING",
    "location" : {
      "id" : 7209,
      "name" : null,
      "latitude" : 43.60798,
      "longitude" : 3.7867093
    },
    "openings" : {
      "start" : [ 10, 54 ],
      "end" : [ 16, 25 ]
    },
    "preferredSlots" : null,
    "doAfter" : null,
    "nbEmpRequired" : 1,
    "deadline" : [ 9, 59 ],
    "skills" : [ {
      "id" : 5,
      "name" : "GLAZING",
      "level" : 4
    } ],
    "duration" : 1800.000000000,
    "pause" : false
  }, {
    "id" : 904,
    "desc" : "MASONRY",
    "location" : {
      "id" : 5100,
      "name" : null,
      "latitude" : 43.781803,
      "longitude" : 4.116008
    },
    "openings" : {
      "start" : [ 14, 44 ],
      "end" : [ 17, 46 ]
    },
    "preferredSlots" : null,
    "doAfter" : null,
    "nbEmpRequired" : 1,
    "deadline" : [ 16, 20 ],
    "skills" : [ {
      "id" : 4,
      "name" : "MASONRY",
      "level" : 1
    } ],
    "duration" : 5400.000000000,
    "pause" : false
  }, {
    "id" : 354,
    "desc" : "GLAZING, PLUMBING",
    "location" : {
      "id" : 4562,
      "name" : null,
      "latitude" : 43.964275,
      "longitude" : 4.0320177
    },
    "openings" : {
      "start" : [ 9, 28 ],
      "end" : [ 12, 55 ]
    },
    "preferredSlots" : null,
    "doAfter" : null,
    "nbEmpRequired" : 1,
    "deadline" : [ 13, 6 ],
    "skills" : [ {
      "id" : 5,
      "name" : "GLAZING",
      "level" : 1
    }, {
      "id" : 3,
      "name" : "PLUMBING",
      "level" : 3
    } ],
    "duration" : 2700.000000000,
    "pause" : false
  }, {
    "id" : 165,
    "desc" : "TILER, MANAGEMENT",
    "location" : {
      "id" : 9264,
      "name" : null,
      "latitude" : 43.70572,
      "longitude" : 3.9065194
    },
    "openings" : {
      "start" : [ 11, 56 ],
      "end" : [ 13, 49 ]
    },
    "preferredSlots" : null,
    "doAfter" : null,
    "nbEmpRequired" : 1,
    "deadline" : [ 9, 29 ],
    "skills" : [ {
      "id" : 9,
      "name" : "TILER",
      "level" : 1
    }, {
      "id" : 0,
      "name" : "MANAGEMENT",
      "level" : 5
    } ],
    "duration" : 2700.000000000,
    "pause" : false
  }, {
    "id" : 88,
    "desc" : "CARPENTRY, TILER",
    "location" : {
      "id" : 2761,
      "name" : null,
      "latitude" : 43.620323,
      "longitude" : 3.9272618
    },
    "openings" : {
      "start" : [ 10, 43 ],
      "end" : [ 15, 39 ]
    },
    "preferredSlots" : null,
    "doAfter" : null,
    "nbEmpRequired" : 1,
    "deadline" : [ 10, 1 ],
    "skills" : [ {
      "id" : 6,
      "name" : "CARPENTRY",
      "level" : 3
    }, {
      "id" : 9,
      "name" : "TILER",
      "level" : 4
    } ],
    "duration" : 5400.000000000,
    "pause" : false
  }, {
    "id" : 806,
    "desc" : "MANAGEMENT",
    "location" : {
      "id" : 8087,
      "name" : null,
      "latitude" : 44.097214,
      "longitude" : 3.7922902
    },
    "openings" : {
      "start" : [ 10, 42 ],
      "end" : [ 16, 41 ]
    },
    "preferredSlots" : null,
    "doAfter" : null,
    "nbEmpRequired" : 1,
    "deadline" : [ 13, 19 ],
    "skills" : [ {
      "id" : 0,
      "name" : "MANAGEMENT",
      "level" : 5
    } ],
    "duration" : 5400.000000000,
    "pause" : false
  }, {
    "id" : 238,
    "desc" : "ENGINEER, PAINTING",
    "location" : {
      "id" : 8992,
      "name" : null,
      "latitude" : 43.744854,
      "longitude" : 4.1073847
    },
    "openings" : {
      "start" : [ 10, 31 ],
      "end" : [ 14, 55 ]
    },
    "preferredSlots" : null,
    "doAfter" : null,
    "nbEmpRequired" : 1,
    "deadline" : [ 13, 6 ],
    "skills" : [ {
      "id" : 1,
      "name" : "ENGINEER",
      "level" : 2
    }, {
      "id" : 7,
      "name" : "PAINTING",
      "level" : 5
    } ],
    "duration" : 3600.000000000,
    "pause" : false
  }, {
    "id" : 696,
    "desc" : "ENGINEER",
    "location" : {
      "id" : 6025,
      "name" : null,
      "latitude" : 43.78345,
      "longitude" : 4.1293
    },
    "openings" : {
      "start" : [ 12, 56 ],
      "end" : [ 13, 44 ]
    },
    "preferredSlots" : null,
    "doAfter" : null,
    "nbEmpRequired" : 1,
    "deadline" : [ 14, 3 ],
    "skills" : [ {
      "id" : 1,
      "name" : "ENGINEER",
      "level" : 3
    } ],
    "duration" : 3600.000000000,
    "pause" : false
  }, {
    "id" : 697,
    "desc" : "PLUMBING, MANAGEMENT",
    "location" : {
      "id" : 4238,
      "name" : null,
      "latitude" : 43.926064,
      "longitude" : 4.0711727
    },
    "openings" : {
      "start" : [ 9, 40 ],
      "end" : [ 15, 59 ]
    },
    "preferredSlots" : null,
    "doAfter" : null,
    "nbEmpRequired" : 1,
    "deadline" : [ 9, 13 ],
    "skills" : [ {
      "id" : 3,
      "name" : "PLUMBING",
      "level" : 2
    }, {
      "id" : 0,
      "name" : "MANAGEMENT",
      "level" : 3
    } ],
    "duration" : 2700.000000000,
    "pause" : false
  }, {
    "id" : 141,
    "desc" : "TILER, MASONRY",
    "location" : {
      "id" : 3228,
      "name" : null,
      "latitude" : 43.831654,
      "longitude" : 3.9847217
    },
    "openings" : {
      "start" : [ 9, 41 ],
      "end" : [ 15, 37 ]
    },
    "preferredSlots" : null,
    "doAfter" : null,
    "nbEmpRequired" : 1,
    "deadline" : [ 11, 21 ],
    "skills" : [ {
      "id" : 9,
      "name" : "TILER",
      "level" : 4
    }, {
      "id" : 4,
      "name" : "MASONRY",
      "level" : 5
    } ],
    "duration" : 2700.000000000,
    "pause" : false
  }, {
    "id" : 28,
    "desc" : "MANAGEMENT, ENGINEER",
    "location" : {
      "id" : 1576,
      "name" : null,
      "latitude" : 43.407757,
      "longitude" : 3.832627
    },
    "openings" : {
      "start" : [ 9, 10 ],
      "end" : [ 9, 51 ]
    },
    "preferredSlots" : null,
    "doAfter" : null,
    "nbEmpRequired" : 1,
    "deadline" : [ 10, 44 ],
    "skills" : [ {
      "id" : 0,
      "name" : "MANAGEMENT",
      "level" : 1
    }, {
      "id" : 1,
      "name" : "ENGINEER",
      "level" : 2
    } ],
    "duration" : 7200.000000000,
    "pause" : false
  }, {
    "id" : 766,
    "desc" : "MANAGEMENT",
    "location" : {
      "id" : 4975,
      "name" : null,
      "latitude" : 43.86281,
      "longitude" : 3.9440932
    },
    "openings" : {
      "start" : [ 10, 28 ],
      "end" : [ 15, 57 ]
    },
    "preferredSlots" : null,
    "doAfter" : null,
    "nbEmpRequired" : 1,
    "deadline" : [ 11, 32 ],
    "skills" : [ {
      "id" : 0,
      "name" : "MANAGEMENT",
      "level" : 1
    } ],
    "duration" : 5400.000000000,
    "pause" : false
  }, {
    "id" : 454,
    "desc" : "TILER",
    "location" : {
      "id" : 1224,
      "name" : null,
      "latitude" : 43.40526,
      "longitude" : 4.104242
    },
    "openings" : {
      "start" : [ 12, 21 ],
      "end" : [ 13, 56 ]
    },
    "preferredSlots" : null,
    "doAfter" : null,
    "nbEmpRequired" : 1,
    "deadline" : [ 15, 39 ],
    "skills" : [ {
      "id" : 9,
      "name" : "TILER",
      "level" : 4
    } ],
    "duration" : 3600.000000000,
    "pause" : false
  }, {
    "id" : 368,
    "desc" : "PAINTING, MANAGEMENT",
    "location" : {
      "id" : 9790,
      "name" : null,
      "latitude" : 43.574413,
      "longitude" : 4.0005693
    },
    "openings" : {
      "start" : [ 9, 52 ],
      "end" : [ 11, 10 ]
    },
    "preferredSlots" : null,
    "doAfter" : null,
    "nbEmpRequired" : 1,
    "deadline" : [ 11, 7 ],
    "skills" : [ {
      "id" : 7,
      "name" : "PAINTING",
      "level" : 3
    }, {
      "id" : 0,
      "name" : "MANAGEMENT",
      "level" : 3
    } ],
    "duration" : 2700.000000000,
    "pause" : false
  }, {
    "id" : 912,
    "desc" : "TILER, GLAZING",
    "location" : {
      "id" : 2583,
      "name" : null,
      "latitude" : 43.90223,
      "longitude" : 4.1442413
    },
    "openings" : {
      "start" : [ 10, 48 ],
      "end" : [ 17, 56 ]
    },
    "preferredSlots" : null,
    "doAfter" : null,
    "nbEmpRequired" : 1,
    "deadline" : [ 10, 11 ],
    "skills" : [ {
      "id" : 9,
      "name" : "TILER",
      "level" : 3
    }, {
      "id" : 5,
      "name" : "GLAZING",
      "level" : 3
    } ],
    "duration" : 5400.000000000,
    "pause" : false
  }, {
    "id" : 74,
    "desc" : "IRONWORK",
    "location" : {
      "id" : 6103,
      "name" : null,
      "latitude" : 43.72317,
      "longitude" : 3.80477
    },
    "openings" : {
      "start" : [ 11, 32 ],
      "end" : [ 13, 28 ]
    },
    "preferredSlots" : null,
    "doAfter" : null,
    "nbEmpRequired" : 1,
    "deadline" : [ 16, 16 ],
    "skills" : [ {
      "id" : 8,
      "name" : "IRONWORK",
      "level" : 2
    } ],
    "duration" : 1800.000000000,
    "pause" : false
  }, {
    "id" : 312,
    "desc" : "PLUMBING, IRONWORK",
    "location" : {
      "id" : 6055,
      "name" : null,
      "latitude" : 43.543713,
      "longitude" : 3.9498687
    },
    "openings" : {
      "start" : [ 9, 37 ],
      "end" : [ 11, 59 ]
    },
    "preferredSlots" : null,
    "doAfter" : null,
    "nbEmpRequired" : 1,
    "deadline" : [ 11, 18 ],
    "skills" : [ {
      "id" : 3,
      "name" : "PLUMBING",
      "level" : 5
    }, {
      "id" : 8,
      "name" : "IRONWORK",
      "level" : 1
    } ],
    "duration" : 3600.000000000,
    "pause" : false
  }, {
    "id" : 330,
    "desc" : "PLUMBING, ELECTRICIAN",
    "location" : {
      "id" : 8738,
      "name" : null,
      "latitude" : 43.966545,
      "longitude" : 4.2268233
    },
    "openings" : {
      "start" : [ 9, 22 ],
      "end" : [ 16, 23 ]
    },
    "preferredSlots" : null,
    "doAfter" : null,
    "nbEmpRequired" : 1,
    "deadline" : [ 9, 57 ],
    "skills" : [ {
      "id" : 3,
      "name" : "PLUMBING",
      "level" : 1
    }, {
      "id" : 2,
      "name" : "ELECTRICIAN",
      "level" : 1
    } ],
    "duration" : 5400.000000000,
    "pause" : false
  }, {
    "id" : 697,
    "desc" : "PLUMBING, TILER",
    "location" : {
      "id" : 3459,
      "name" : null,
      "latitude" : 43.523376,
      "longitude" : 4.101818
    },
    "openings" : {
      "start" : [ 9, 18 ],
      "end" : [ 11, 52 ]
    },
    "preferredSlots" : null,
    "doAfter" : null,
    "nbEmpRequired" : 1,
    "deadline" : [ 16, 14 ],
    "skills" : [ {
      "id" : 3,
      "name" : "PLUMBING",
      "level" : 5
    }, {
      "id" : 9,
      "name" : "TILER",
      "level" : 1
    } ],
    "duration" : 1800.000000000,
    "pause" : false
  }, {
    "id" : 357,
    "desc" : "IRONWORK, TILER",
    "location" : {
      "id" : 4724,
      "name" : null,
      "latitude" : 44.031517,
      "longitude" : 4.229224
    },
    "openings" : {
      "start" : [ 10, 29 ],
      "end" : [ 17, 18 ]
    },
    "preferredSlots" : null,
    "doAfter" : null,
    "nbEmpRequired" : 1,
    "deadline" : [ 15, 25 ],
    "skills" : [ {
      "id" : 8,
      "name" : "IRONWORK",
      "level" : 1
    }, {
      "id" : 9,
      "name" : "TILER",
      "level" : 3
    } ],
    "duration" : 1800.000000000,
    "pause" : false
  }, {
    "id" : 497,
    "desc" : "PLUMBING",
    "location" : {
      "id" : 8142,
      "name" : null,
      "latitude" : 43.609123,
      "longitude" : 3.7802224
    },
    "openings" : {
      "start" : [ 12, 52 ],
      "end" : [ 15, 2 ]
    },
    "preferredSlots" : null,
    "doAfter" : null,
    "nbEmpRequired" : 1,
    "deadline" : [ 9, 14 ],
    "skills" : [ {
      "id" : 3,
      "name" : "PLUMBING",
      "level" : 5
    } ],
    "duration" : 1800.000000000,
    "pause" : false
  }, {
    "id" : 468,
    "desc" : "TILER, ELECTRICIAN",
    "location" : {
      "id" : 4815,
      "name" : null,
      "latitude" : 43.646416,
      "longitude" : 3.9994628
    },
    "openings" : {
      "start" : [ 12, 20 ],
      "end" : [ 15, 27 ]
    },
    "preferredSlots" : null,
    "doAfter" : null,
    "nbEmpRequired" : 1,
    "deadline" : [ 17, 19 ],
    "skills" : [ {
      "id" : 9,
      "name" : "TILER",
      "level" : 3
    }, {
      "id" : 2,
      "name" : "ELECTRICIAN",
      "level" : 4
    } ],
    "duration" : 5400.000000000,
    "pause" : false
  }, {
    "id" : 791,
    "desc" : "MASONRY",
    "location" : {
      "id" : 1450,
      "name" : null,
      "latitude" : 43.706715,
      "longitude" : 4.2548804
    },
    "openings" : {
      "start" : [ 10, 3 ],
      "end" : [ 11, 36 ]
    },
    "preferredSlots" : null,
    "doAfter" : null,
    "nbEmpRequired" : 1,
    "deadline" : [ 16, 41 ],
    "skills" : [ {
      "id" : 4,
      "name" : "MASONRY",
      "level" : 5
    } ],
    "duration" : 3600.000000000,
    "pause" : false
  }, {
    "id" : 903,
    "desc" : "IRONWORK",
    "location" : {
      "id" : 833,
      "name" : null,
      "latitude" : 43.601357,
      "longitude" : 3.8178372
    },
    "openings" : {
      "start" : [ 9, 31 ],
      "end" : [ 11, 49 ]
    },
    "preferredSlots" : null,
    "doAfter" : null,
    "nbEmpRequired" : 1,
    "deadline" : [ 16, 9 ],
    "skills" : [ {
      "id" : 8,
      "name" : "IRONWORK",
      "level" : 3
    } ],
    "duration" : 5400.000000000,
    "pause" : false
  }, {
    "id" : 526,
    "desc" : "MANAGEMENT, IRONWORK",
    "location" : {
      "id" : 4552,
      "name" : null,
      "latitude" : 43.768864,
      "longitude" : 4.1501465
    },
    "openings" : {
      "start" : [ 9, 51 ],
      "end" : [ 14, 49 ]
    },
    "preferredSlots" : null,
    "doAfter" : null,
    "nbEmpRequired" : 1,
    "deadline" : [ 12, 16 ],
    "skills" : [ {
      "id" : 0,
      "name" : "MANAGEMENT",
      "level" : 5
    }, {
      "id" : 8,
      "name" : "IRONWORK",
      "level" : 4
    } ],
    "duration" : 3600.000000000,
    "pause" : false
  }, {
    "id" : 217,
    "desc" : "PAINTING, ENGINEER",
    "location" : {
      "id" : 5754,
      "name" : null,
      "latitude" : 43.92272,
      "longitude" : 4.1671906
    },
    "openings" : {
      "start" : [ 11, 4 ],
      "end" : [ 11, 13 ]
    },
    "preferredSlots" : null,
    "doAfter" : null,
    "nbEmpRequired" : 1,
    "deadline" : [ 17, 56 ],
    "skills" : [ {
      "id" : 7,
      "name" : "PAINTING",
      "level" : 3
    }, {
      "id" : 1,
      "name" : "ENGINEER",
      "level" : 5
    } ],
    "duration" : 2700.000000000,
    "pause" : false
  }, {
    "id" : 209,
    "desc" : "CARPENTRY, TILER",
    "location" : {
      "id" : 9403,
      "name" : null,
      "latitude" : 43.740257,
      "longitude" : 3.7387452
    },
    "openings" : {
      "start" : [ 10, 21 ],
      "end" : [ 17, 10 ]
    },
    "preferredSlots" : null,
    "doAfter" : null,
    "nbEmpRequired" : 1,
    "deadline" : [ 9, 15 ],
    "skills" : [ {
      "id" : 6,
      "name" : "CARPENTRY",
      "level" : 1
    }, {
      "id" : 9,
      "name" : "TILER",
      "level" : 2
    } ],
    "duration" : 2700.000000000,
    "pause" : false
  }, {
    "id" : 622,
    "desc" : "IRONWORK, PLUMBING",
    "location" : {
      "id" : 829,
      "name" : null,
      "latitude" : 44.06445,
      "longitude" : 3.7133198
    },
    "openings" : {
      "start" : [ 9, 49 ],
      "end" : [ 10, 59 ]
    },
    "preferredSlots" : null,
    "doAfter" : null,
    "nbEmpRequired" : 1,
    "deadline" : [ 14, 16 ],
    "skills" : [ {
      "id" : 8,
      "name" : "IRONWORK",
      "level" : 4
    }, {
      "id" : 3,
      "name" : "PLUMBING",
      "level" : 5
    } ],
    "duration" : 1800.000000000,
    "pause" : false
  }, {
    "id" : 953,
    "desc" : "TILER, MANAGEMENT",
    "location" : {
      "id" : 2176,
      "name" : null,
      "latitude" : 43.597225,
      "longitude" : 3.9586937
    },
    "openings" : {
      "start" : [ 13, 50 ],
      "end" : [ 15, 26 ]
    },
    "preferredSlots" : null,
    "doAfter" : null,
    "nbEmpRequired" : 1,
    "deadline" : [ 17, 17 ],
    "skills" : [ {
      "id" : 9,
      "name" : "TILER",
      "level" : 5
    }, {
      "id" : 0,
      "name" : "MANAGEMENT",
      "level" : 1
    } ],
    "duration" : 2700.000000000,
    "pause" : false
  }, {
    "id" : 27,
    "desc" : "PLUMBING",
    "location" : {
      "id" : 1753,
      "name" : null,
      "latitude" : 43.669876,
      "longitude" : 4.257365
    },
    "openings" : {
      "start" : [ 15, 26 ],
      "end" : [ 16, 34 ]
    },
    "preferredSlots" : null,
    "doAfter" : null,
    "nbEmpRequired" : 1,
    "deadline" : [ 15, 14 ],
    "skills" : [ {
      "id" : 3,
      "name" : "PLUMBING",
      "level" : 1
    } ],
    "duration" : 7200.000000000,
    "pause" : false
  }, {
    "id" : 978,
    "desc" : "TILER, PAINTING",
    "location" : {
      "id" : 4551,
      "name" : null,
      "latitude" : 43.782627,
      "longitude" : 3.9370923
    },
    "openings" : {
      "start" : [ 10, 31 ],
      "end" : [ 10, 59 ]
    },
    "preferredSlots" : null,
    "doAfter" : null,
    "nbEmpRequired" : 1,
    "deadline" : [ 11, 41 ],
    "skills" : [ {
      "id" : 9,
      "name" : "TILER",
      "level" : 2
    }, {
      "id" : 7,
      "name" : "PAINTING",
      "level" : 5
    } ],
    "duration" : 2700.000000000,
    "pause" : false
  }, {
    "id" : 26,
    "desc" : "IRONWORK",
    "location" : {
      "id" : 126,
      "name" : null,
      "latitude" : 43.68742,
      "longitude" : 4.224757
    },
    "openings" : {
      "start" : [ 10, 43 ],
      "end" : [ 16, 2 ]
    },
    "preferredSlots" : null,
    "doAfter" : null,
    "nbEmpRequired" : 1,
    "deadline" : [ 13, 16 ],
    "skills" : [ {
      "id" : 8,
      "name" : "IRONWORK",
      "level" : 4
    } ],
    "duration" : 2700.000000000,
    "pause" : false
  }, {
    "id" : 489,
    "desc" : "CARPENTRY",
    "location" : {
      "id" : 7142,
      "name" : null,
      "latitude" : 44.01958,
      "longitude" : 4.022698
    },
    "openings" : {
      "start" : [ 14, 4 ],
      "end" : [ 17, 16 ]
    },
    "preferredSlots" : null,
    "doAfter" : null,
    "nbEmpRequired" : 1,
    "deadline" : [ 13, 34 ],
    "skills" : [ {
      "id" : 6,
      "name" : "CARPENTRY",
      "level" : 2
    } ],
    "duration" : 2700.000000000,
    "pause" : false
  }, {
    "id" : 140,
    "desc" : "PAINTING, ELECTRICIAN",
    "location" : {
      "id" : 3175,
      "name" : null,
      "latitude" : 43.44419,
      "longitude" : 4.2059865
    },
    "openings" : {
      "start" : [ 12, 6 ],
      "end" : [ 14, 54 ]
    },
    "preferredSlots" : null,
    "doAfter" : null,
    "nbEmpRequired" : 1,
    "deadline" : [ 17, 16 ],
    "skills" : [ {
      "id" : 7,
      "name" : "PAINTING",
      "level" : 2
    }, {
      "id" : 2,
      "name" : "ELECTRICIAN",
      "level" : 3
    } ],
    "duration" : 2700.000000000,
    "pause" : false
  }, {
    "id" : 159,
    "desc" : "CARPENTRY",
    "location" : {
      "id" : 7245,
      "name" : null,
      "latitude" : 43.6507,
      "longitude" : 3.950435
    },
    "openings" : {
      "start" : [ 15, 23 ],
      "end" : [ 17, 33 ]
    },
    "preferredSlots" : null,
    "doAfter" : null,
    "nbEmpRequired" : 1,
    "deadline" : [ 12, 5 ],
    "skills" : [ {
      "id" : 6,
      "name" : "CARPENTRY",
      "level" : 5
    } ],
    "duration" : 3600.000000000,
    "pause" : false
  }, {
    "id" : 298,
    "desc" : "ENGINEER",
    "location" : {
      "id" : 7261,
      "name" : null,
      "latitude" : 43.616478,
      "longitude" : 4.199896
    },
    "openings" : {
      "start" : [ 9, 46 ],
      "end" : [ 15, 36 ]
    },
    "preferredSlots" : null,
    "doAfter" : null,
    "nbEmpRequired" : 1,
    "deadline" : [ 9, 26 ],
    "skills" : [ {
      "id" : 1,
      "name" : "ENGINEER",
      "level" : 1
    } ],
    "duration" : 5400.000000000,
    "pause" : false
  }, {
    "id" : 759,
    "desc" : "MASONRY, PAINTING",
    "location" : {
      "id" : 8445,
      "name" : null,
      "latitude" : 43.674732,
      "longitude" : 3.9857278
    },
    "openings" : {
      "start" : [ 10, 19 ],
      "end" : [ 17, 57 ]
    },
    "preferredSlots" : null,
    "doAfter" : null,
    "nbEmpRequired" : 1,
    "deadline" : [ 12, 30 ],
    "skills" : [ {
      "id" : 4,
      "name" : "MASONRY",
      "level" : 5
    }, {
      "id" : 7,
      "name" : "PAINTING",
      "level" : 1
    } ],
    "duration" : 5400.000000000,
    "pause" : false
  }, {
    "id" : 64,
    "desc" : "TILER",
    "location" : {
      "id" : 550,
      "name" : null,
      "latitude" : 43.653492,
      "longitude" : 4.127681
    },
    "openings" : {
      "start" : [ 15, 29 ],
      "end" : [ 17, 17 ]
    },
    "preferredSlots" : null,
    "doAfter" : null,
    "nbEmpRequired" : 1,
    "deadline" : [ 11, 49 ],
    "skills" : [ {
      "id" : 9,
      "name" : "TILER",
      "level" : 4
    } ],
    "duration" : 2700.000000000,
    "pause" : false
  }, {
    "id" : 536,
    "desc" : "ENGINEER, PAINTING",
    "location" : {
      "id" : 8987,
      "name" : null,
      "latitude" : 43.94959,
      "longitude" : 3.992688
    },
    "openings" : {
      "start" : [ 9, 55 ],
      "end" : [ 13, 3 ]
    },
    "preferredSlots" : null,
    "doAfter" : null,
    "nbEmpRequired" : 1,
    "deadline" : [ 16, 17 ],
    "skills" : [ {
      "id" : 1,
      "name" : "ENGINEER",
      "level" : 2
    }, {
      "id" : 7,
      "name" : "PAINTING",
      "level" : 2
    } ],
    "duration" : 5400.000000000,
    "pause" : false
  }, {
    "id" : 224,
    "desc" : "PAINTING, GLAZING",
    "location" : {
      "id" : 4662,
      "name" : null,
      "latitude" : 43.8575,
      "longitude" : 3.8101666
    },
    "openings" : {
      "start" : [ 16, 30 ],
      "end" : [ 16, 59 ]
    },
    "preferredSlots" : null,
    "doAfter" : null,
    "nbEmpRequired" : 1,
    "deadline" : [ 10, 2 ],
    "skills" : [ {
      "id" : 7,
      "name" : "PAINTING",
      "level" : 5
    }, {
      "id" : 5,
      "name" : "GLAZING",
      "level" : 1
    } ],
    "duration" : 2700.000000000,
    "pause" : false
  }, {
    "id" : 711,
    "desc" : "MASONRY, MANAGEMENT",
    "location" : {
      "id" : 6091,
      "name" : null,
      "latitude" : 44.02352,
      "longitude" : 3.996038
    },
    "openings" : {
      "start" : [ 16, 9 ],
      "end" : [ 17, 59 ]
    },
    "preferredSlots" : null,
    "doAfter" : null,
    "nbEmpRequired" : 1,
    "deadline" : [ 12, 0 ],
    "skills" : [ {
      "id" : 4,
      "name" : "MASONRY",
      "level" : 4
    }, {
      "id" : 0,
      "name" : "MANAGEMENT",
      "level" : 1
    } ],
    "duration" : 2700.000000000,
    "pause" : false
  }, {
    "id" : 807,
    "desc" : "TILER",
    "location" : {
      "id" : 9052,
      "name" : null,
      "latitude" : 43.8369,
      "longitude" : 3.7843635
    },
    "openings" : {
      "start" : [ 14, 58 ],
      "end" : [ 17, 59 ]
    },
    "preferredSlots" : null,
    "doAfter" : null,
    "nbEmpRequired" : 1,
    "deadline" : [ 13, 2 ],
    "skills" : [ {
      "id" : 9,
      "name" : "TILER",
      "level" : 4
    } ],
    "duration" : 5400.000000000,
    "pause" : false
  }, {
    "id" : 82,
    "desc" : "ELECTRICIAN, PAINTING",
    "location" : {
      "id" : 3633,
      "name" : null,
      "latitude" : 43.767914,
      "longitude" : 4.0231686
    },
    "openings" : {
      "start" : [ 9, 38 ],
      "end" : [ 10, 15 ]
    },
    "preferredSlots" : null,
    "doAfter" : null,
    "nbEmpRequired" : 1,
    "deadline" : [ 11, 24 ],
    "skills" : [ {
      "id" : 2,
      "name" : "ELECTRICIAN",
      "level" : 2
    }, {
      "id" : 7,
      "name" : "PAINTING",
      "level" : 1
    } ],
    "duration" : 2700.000000000,
    "pause" : false
  }, {
    "id" : 344,
    "desc" : "TILER, ELECTRICIAN",
    "location" : {
      "id" : 4310,
      "name" : null,
      "latitude" : 44.068504,
      "longitude" : 4.065441
    },
    "openings" : {
      "start" : [ 11, 53 ],
      "end" : [ 12, 47 ]
    },
    "preferredSlots" : null,
    "doAfter" : null,
    "nbEmpRequired" : 1,
    "deadline" : [ 17, 54 ],
    "skills" : [ {
      "id" : 9,
      "name" : "TILER",
      "level" : 4
    }, {
      "id" : 2,
      "name" : "ELECTRICIAN",
      "level" : 5
    } ],
    "duration" : 7200.000000000,
    "pause" : false
  }, {
    "id" : 484,
    "desc" : "ENGINEER",
    "location" : {
      "id" : 2394,
      "name" : null,
      "latitude" : 43.647373,
      "longitude" : 3.722245
    },
    "openings" : {
      "start" : [ 10, 34 ],
      "end" : [ 17, 51 ]
    },
    "preferredSlots" : null,
    "doAfter" : null,
    "nbEmpRequired" : 1,
    "deadline" : [ 16, 46 ],
    "skills" : [ {
      "id" : 1,
      "name" : "ENGINEER",
      "level" : 5
    } ],
    "duration" : 1800.000000000,
    "pause" : false
  }, {
    "id" : 647,
    "desc" : "GLAZING",
    "location" : {
      "id" : 8773,
      "name" : null,
      "latitude" : 44.045498,
      "longitude" : 4.2388687
    },
    "openings" : {
      "start" : [ 10, 36 ],
      "end" : [ 14, 46 ]
    },
    "preferredSlots" : null,
    "doAfter" : null,
    "nbEmpRequired" : 1,
    "deadline" : [ 17, 9 ],
    "skills" : [ {
      "id" : 5,
      "name" : "GLAZING",
      "level" : 2
    } ],
    "duration" : 2700.000000000,
    "pause" : false
  }, {
    "id" : 780,
    "desc" : "ELECTRICIAN",
    "location" : {
      "id" : 9068,
      "name" : null,
      "latitude" : 43.49603,
      "longitude" : 3.8610885
    },
    "openings" : {
      "start" : [ 10, 47 ],
      "end" : [ 17, 34 ]
    },
    "preferredSlots" : null,
    "doAfter" : null,
    "nbEmpRequired" : 1,
    "deadline" : [ 12, 18 ],
    "skills" : [ {
      "id" : 2,
      "name" : "ELECTRICIAN",
      "level" : 3
    } ],
    "duration" : 3600.000000000,
    "pause" : false
  }, {
    "id" : 494,
    "desc" : "TILER",
    "location" : {
      "id" : 2870,
      "name" : null,
      "latitude" : 43.443993,
      "longitude" : 4.2413993
    },
    "openings" : {
      "start" : [ 12, 22 ],
      "end" : [ 14, 48 ]
    },
    "preferredSlots" : null,
    "doAfter" : null,
    "nbEmpRequired" : 1,
    "deadline" : [ 14, 28 ],
    "skills" : [ {
      "id" : 9,
      "name" : "TILER",
      "level" : 2
    } ],
    "duration" : 2700.000000000,
    "pause" : false
  }, {
    "id" : 725,
    "desc" : "IRONWORK",
    "location" : {
      "id" : 5683,
      "name" : null,
      "latitude" : 43.879295,
      "longitude" : 4.1649933
    },
    "openings" : {
      "start" : [ 10, 7 ],
      "end" : [ 15, 17 ]
    },
    "preferredSlots" : null,
    "doAfter" : null,
    "nbEmpRequired" : 1,
    "deadline" : [ 11, 42 ],
    "skills" : [ {
      "id" : 8,
      "name" : "IRONWORK",
      "level" : 4
    } ],
    "duration" : 2700.000000000,
    "pause" : false
  }, {
    "id" : 731,
    "desc" : "GLAZING",
    "location" : {
      "id" : 6166,
      "name" : null,
      "latitude" : 43.727943,
      "longitude" : 4.2064543
    },
    "openings" : {
      "start" : [ 13, 43 ],
      "end" : [ 15, 39 ]
    },
    "preferredSlots" : null,
    "doAfter" : null,
    "nbEmpRequired" : 1,
    "deadline" : [ 13, 0 ],
    "skills" : [ {
      "id" : 5,
      "name" : "GLAZING",
      "level" : 3
    } ],
    "duration" : 5400.000000000,
    "pause" : false
  }, {
    "id" : 301,
    "desc" : "ENGINEER, PAINTING",
    "location" : {
      "id" : 8024,
      "name" : null,
      "latitude" : 43.43862,
      "longitude" : 4.24282
    },
    "openings" : {
      "start" : [ 11, 17 ],
      "end" : [ 15, 19 ]
    },
    "preferredSlots" : null,
    "doAfter" : null,
    "nbEmpRequired" : 1,
    "deadline" : [ 9, 52 ],
    "skills" : [ {
      "id" : 1,
      "name" : "ENGINEER",
      "level" : 1
    }, {
      "id" : 7,
      "name" : "PAINTING",
      "level" : 3
    } ],
    "duration" : 1800.000000000,
    "pause" : false
  }, {
    "id" : 511,
    "desc" : "ENGINEER",
    "location" : {
      "id" : 6705,
      "name" : null,
      "latitude" : 43.950348,
      "longitude" : 3.9583442
    },
    "openings" : {
      "start" : [ 9, 47 ],
      "end" : [ 17, 46 ]
    },
    "preferredSlots" : null,
    "doAfter" : null,
    "nbEmpRequired" : 1,
    "deadline" : [ 16, 55 ],
    "skills" : [ {
      "id" : 1,
      "name" : "ENGINEER",
      "level" : 1
    } ],
    "duration" : 3600.000000000,
    "pause" : false
  }, {
    "id" : 601,
    "desc" : "ELECTRICIAN, PLUMBING",
    "location" : {
      "id" : 1572,
      "name" : null,
      "latitude" : 43.429893,
      "longitude" : 3.8658085
    },
    "openings" : {
      "start" : [ 10, 5 ],
      "end" : [ 17, 5 ]
    },
    "preferredSlots" : null,
    "doAfter" : null,
    "nbEmpRequired" : 1,
    "deadline" : [ 14, 29 ],
    "skills" : [ {
      "id" : 2,
      "name" : "ELECTRICIAN",
      "level" : 5
    }, {
      "id" : 3,
      "name" : "PLUMBING",
      "level" : 4
    } ],
    "duration" : 2700.000000000,
    "pause" : false
  }, {
    "id" : 701,
    "desc" : "IRONWORK, GLAZING",
    "location" : {
      "id" : 1400,
      "name" : null,
      "latitude" : 43.570618,
      "longitude" : 3.715791
    },
    "openings" : {
      "start" : [ 9, 30 ],
      "end" : [ 15, 36 ]
    },
    "preferredSlots" : null,
    "doAfter" : null,
    "nbEmpRequired" : 1,
    "deadline" : [ 10, 5 ],
    "skills" : [ {
      "id" : 8,
      "name" : "IRONWORK",
      "level" : 5
    }, {
      "id" : 5,
      "name" : "GLAZING",
      "level" : 4
    } ],
    "duration" : 1800.000000000,
    "pause" : false
  }, {
    "id" : 388,
    "desc" : "CARPENTRY",
    "location" : {
      "id" : 3084,
      "name" : null,
      "latitude" : 43.61978,
      "longitude" : 4.006279
    },
    "openings" : {
      "start" : [ 9, 52 ],
      "end" : [ 12, 20 ]
    },
    "preferredSlots" : null,
    "doAfter" : null,
    "nbEmpRequired" : 1,
    "deadline" : [ 13, 7 ],
    "skills" : [ {
      "id" : 6,
      "name" : "CARPENTRY",
      "level" : 4
    } ],
    "duration" : 2700.000000000,
    "pause" : false
  }, {
    "id" : 107,
    "desc" : "CARPENTRY, ENGINEER",
    "location" : {
      "id" : 723,
      "name" : null,
      "latitude" : 44.063824,
      "longitude" : 3.802543
    },
    "openings" : {
      "start" : [ 11, 57 ],
      "end" : [ 13, 0 ]
    },
    "preferredSlots" : null,
    "doAfter" : null,
    "nbEmpRequired" : 1,
    "deadline" : [ 9, 24 ],
    "skills" : [ {
      "id" : 6,
      "name" : "CARPENTRY",
      "level" : 4
    }, {
      "id" : 1,
      "name" : "ENGINEER",
      "level" : 5
    } ],
    "duration" : 7200.000000000,
    "pause" : false
  }, {
    "id" : 577,
    "desc" : "PAINTING, PLUMBING",
    "location" : {
      "id" : 7662,
      "name" : null,
      "latitude" : 43.769154,
      "longitude" : 3.7069488
    },
    "openings" : {
      "start" : [ 11, 6 ],
      "end" : [ 14, 47 ]
    },
    "preferredSlots" : null,
    "doAfter" : null,
    "nbEmpRequired" : 1,
    "deadline" : [ 14, 14 ],
    "skills" : [ {
      "id" : 7,
      "name" : "PAINTING",
      "level" : 4
    }, {
      "id" : 3,
      "name" : "PLUMBING",
      "level" : 5
    } ],
    "duration" : 1800.000000000,
    "pause" : false
  }, {
    "id" : 598,
    "desc" : "PLUMBING, IRONWORK",
    "location" : {
      "id" : 2816,
      "name" : null,
      "latitude" : 43.66406,
      "longitude" : 4.1943145
    },
    "openings" : {
      "start" : [ 12, 38 ],
      "end" : [ 13, 28 ]
    },
    "preferredSlots" : null,
    "doAfter" : null,
    "nbEmpRequired" : 1,
    "deadline" : [ 11, 29 ],
    "skills" : [ {
      "id" : 3,
      "name" : "PLUMBING",
      "level" : 3
    }, {
      "id" : 8,
      "name" : "IRONWORK",
      "level" : 2
    } ],
    "duration" : 1800.000000000,
    "pause" : false
  }, {
    "id" : 411,
    "desc" : "PLUMBING, GLAZING",
    "location" : {
      "id" : 9480,
      "name" : null,
      "latitude" : 43.850807,
      "longitude" : 3.7960274
    },
    "openings" : {
      "start" : [ 10, 26 ],
      "end" : [ 12, 46 ]
    },
    "preferredSlots" : null,
    "doAfter" : null,
    "nbEmpRequired" : 1,
    "deadline" : [ 12, 49 ],
    "skills" : [ {
      "id" : 3,
      "name" : "PLUMBING",
      "level" : 1
    }, {
      "id" : 5,
      "name" : "GLAZING",
      "level" : 5
    } ],
    "duration" : 3600.000000000,
    "pause" : false
  }, {
    "id" : 766,
    "desc" : "IRONWORK, TILER",
    "location" : {
      "id" : 6368,
      "name" : null,
      "latitude" : 43.90042,
      "longitude" : 4.0902977
    },
    "openings" : {
      "start" : [ 10, 15 ],
      "end" : [ 10, 23 ]
    },
    "preferredSlots" : null,
    "doAfter" : null,
    "nbEmpRequired" : 1,
    "deadline" : [ 12, 34 ],
    "skills" : [ {
      "id" : 8,
      "name" : "IRONWORK",
      "level" : 1
    }, {
      "id" : 9,
      "name" : "TILER",
      "level" : 4
    } ],
    "duration" : 2700.000000000,
    "pause" : false
  }, {
    "id" : 532,
    "desc" : "MANAGEMENT, TILER",
    "location" : {
      "id" : 42,
      "name" : null,
      "latitude" : 43.69343,
      "longitude" : 3.9043632
    },
    "openings" : {
      "start" : [ 13, 12 ],
      "end" : [ 16, 9 ]
    },
    "preferredSlots" : null,
    "doAfter" : null,
    "nbEmpRequired" : 1,
    "deadline" : [ 14, 39 ],
    "skills" : [ {
      "id" : 0,
      "name" : "MANAGEMENT",
      "level" : 4
    }, {
      "id" : 9,
      "name" : "TILER",
      "level" : 1
    } ],
    "duration" : 2700.000000000,
    "pause" : false
  }, {
    "id" : 33,
    "desc" : "GLAZING",
    "location" : {
      "id" : 9329,
      "name" : null,
      "latitude" : 43.94552,
      "longitude" : 4.042591
    },
    "openings" : {
      "start" : [ 10, 56 ],
      "end" : [ 12, 14 ]
    },
    "preferredSlots" : null,
    "doAfter" : null,
    "nbEmpRequired" : 1,
    "deadline" : [ 10, 45 ],
    "skills" : [ {
      "id" : 5,
      "name" : "GLAZING",
      "level" : 5
    } ],
    "duration" : 2700.000000000,
    "pause" : false
  }, {
    "id" : 299,
    "desc" : "PAINTING, IRONWORK",
    "location" : {
      "id" : 9803,
      "name" : null,
      "latitude" : 44.08175,
      "longitude" : 4.074789
    },
    "openings" : {
      "start" : [ 14, 47 ],
      "end" : [ 17, 57 ]
    },
    "preferredSlots" : null,
    "doAfter" : null,
    "nbEmpRequired" : 1,
    "deadline" : [ 17, 28 ],
    "skills" : [ {
      "id" : 7,
      "name" : "PAINTING",
      "level" : 2
    }, {
      "id" : 8,
      "name" : "IRONWORK",
      "level" : 1
    } ],
    "duration" : 2700.000000000,
    "pause" : false
  }, {
    "id" : 106,
    "desc" : "PLUMBING, MANAGEMENT",
    "location" : {
      "id" : 9037,
      "name" : null,
      "latitude" : 43.921516,
      "longitude" : 4.076519
    },
    "openings" : {
      "start" : [ 9, 57 ],
      "end" : [ 11, 38 ]
    },
    "preferredSlots" : null,
    "doAfter" : null,
    "nbEmpRequired" : 1,
    "deadline" : [ 12, 22 ],
    "skills" : [ {
      "id" : 3,
      "name" : "PLUMBING",
      "level" : 3
    }, {
      "id" : 0,
      "name" : "MANAGEMENT",
      "level" : 3
    } ],
    "duration" : 2700.000000000,
    "pause" : false
  }, {
    "id" : 908,
    "desc" : "TILER",
    "location" : {
      "id" : 938,
      "name" : null,
      "latitude" : 43.501316,
      "longitude" : 3.8784065
    },
    "openings" : {
      "start" : [ 13, 33 ],
      "end" : [ 13, 50 ]
    },
    "preferredSlots" : null,
    "doAfter" : null,
    "nbEmpRequired" : 1,
    "deadline" : [ 12, 36 ],
    "skills" : [ {
      "id" : 9,
      "name" : "TILER",
      "level" : 5
    } ],
    "duration" : 5400.000000000,
    "pause" : false
  }, {
    "id" : 751,
    "desc" : "MANAGEMENT, TILER",
    "location" : {
      "id" : 6726,
      "name" : null,
      "latitude" : 43.568855,
      "longitude" : 3.9053154
    },
    "openings" : {
      "start" : [ 10, 17 ],
      "end" : [ 12, 4 ]
    },
    "preferredSlots" : null,
    "doAfter" : null,
    "nbEmpRequired" : 1,
    "deadline" : [ 12, 10 ],
    "skills" : [ {
      "id" : 0,
      "name" : "MANAGEMENT",
      "level" : 3
    }, {
      "id" : 9,
      "name" : "TILER",
      "level" : 4
    } ],
    "duration" : 2700.000000000,
    "pause" : false
  }, {
    "id" : 496,
    "desc" : "CARPENTRY, IRONWORK",
    "location" : {
      "id" : 4517,
      "name" : null,
      "latitude" : 43.823658,
      "longitude" : 4.251724
    },
    "openings" : {
      "start" : [ 9, 6 ],
      "end" : [ 10, 8 ]
    },
    "preferredSlots" : null,
    "doAfter" : null,
    "nbEmpRequired" : 1,
    "deadline" : [ 16, 18 ],
    "skills" : [ {
      "id" : 6,
      "name" : "CARPENTRY",
      "level" : 2
    }, {
      "id" : 8,
      "name" : "IRONWORK",
      "level" : 2
    } ],
    "duration" : 5400.000000000,
    "pause" : false
  }, {
    "id" : 682,
    "desc" : "CARPENTRY, PAINTING",
    "location" : {
      "id" : 2616,
      "name" : null,
      "latitude" : 44.083984,
      "longitude" : 3.847797
    },
    "openings" : {
      "start" : [ 13, 49 ],
      "end" : [ 17, 19 ]
    },
    "preferredSlots" : null,
    "doAfter" : null,
    "nbEmpRequired" : 1,
    "deadline" : [ 15, 20 ],
    "skills" : [ {
      "id" : 6,
      "name" : "CARPENTRY",
      "level" : 5
    }, {
      "id" : 7,
      "name" : "PAINTING",
      "level" : 1
    } ],
    "duration" : 2700.000000000,
    "pause" : false
  }, {
    "id" : 332,
    "desc" : "MASONRY",
    "location" : {
      "id" : 4678,
      "name" : null,
      "latitude" : 43.949997,
      "longitude" : 3.7001004
    },
    "openings" : {
      "start" : [ 13, 51 ],
      "end" : [ 17, 37 ]
    },
    "preferredSlots" : null,
    "doAfter" : null,
    "nbEmpRequired" : 1,
    "deadline" : [ 17, 14 ],
    "skills" : [ {
      "id" : 4,
      "name" : "MASONRY",
      "level" : 4
    } ],
    "duration" : 3600.000000000,
    "pause" : false
  }, {
    "id" : 300,
    "desc" : "MANAGEMENT, PAINTING",
    "location" : {
      "id" : 9553,
      "name" : null,
      "latitude" : 43.941883,
      "longitude" : 3.866106
    },
    "openings" : {
      "start" : [ 14, 43 ],
      "end" : [ 14, 44 ]
    },
    "preferredSlots" : null,
    "doAfter" : null,
    "nbEmpRequired" : 1,
    "deadline" : [ 10, 36 ],
    "skills" : [ {
      "id" : 0,
      "name" : "MANAGEMENT",
      "level" : 2
    }, {
      "id" : 7,
      "name" : "PAINTING",
      "level" : 1
    } ],
    "duration" : 1800.000000000,
    "pause" : false
  }, {
    "id" : 762,
    "desc" : "MANAGEMENT",
    "location" : {
      "id" : 9513,
      "name" : null,
      "latitude" : 43.454216,
      "longitude" : 4.24325
    },
    "openings" : {
      "start" : [ 12, 30 ],
      "end" : [ 13, 19 ]
    },
    "preferredSlots" : null,
    "doAfter" : null,
    "nbEmpRequired" : 1,
    "deadline" : [ 9, 16 ],
    "skills" : [ {
      "id" : 0,
      "name" : "MANAGEMENT",
      "level" : 4
    } ],
    "duration" : 3600.000000000,
    "pause" : false
  }, {
    "id" : 586,
    "desc" : "MASONRY",
    "location" : {
      "id" : 3930,
      "name" : null,
      "latitude" : 43.53374,
      "longitude" : 4.0236907
    },
    "openings" : {
      "start" : [ 12, 8 ],
      "end" : [ 16, 56 ]
    },
    "preferredSlots" : null,
    "doAfter" : null,
    "nbEmpRequired" : 1,
    "deadline" : [ 16, 44 ],
    "skills" : [ {
      "id" : 4,
      "name" : "MASONRY",
      "level" : 4
    } ],
    "duration" : 2700.000000000,
    "pause" : false
  }, {
    "id" : 929,
    "desc" : "ENGINEER",
    "location" : {
      "id" : 7506,
      "name" : null,
      "latitude" : 43.91419,
      "longitude" : 3.7014732
    },
    "openings" : {
      "start" : [ 12, 22 ],
      "end" : [ 17, 7 ]
    },
    "preferredSlots" : null,
    "doAfter" : null,
    "nbEmpRequired" : 1,
    "deadline" : [ 15, 50 ],
    "skills" : [ {
      "id" : 1,
      "name" : "ENGINEER",
      "level" : 3
    } ],
    "duration" : 3600.000000000,
    "pause" : false
  }, {
    "id" : 196,
    "desc" : "PAINTING",
    "location" : {
      "id" : 7845,
      "name" : null,
      "latitude" : 44.037666,
      "longitude" : 3.908114
    },
    "openings" : {
      "start" : [ 10, 25 ],
      "end" : [ 14, 22 ]
    },
    "preferredSlots" : null,
    "doAfter" : null,
    "nbEmpRequired" : 1,
    "deadline" : [ 17, 49 ],
    "skills" : [ {
      "id" : 7,
      "name" : "PAINTING",
      "level" : 4
    } ],
    "duration" : 7200.000000000,
    "pause" : false
  }, {
    "id" : 807,
    "desc" : "MANAGEMENT, CARPENTRY",
    "location" : {
      "id" : 4829,
      "name" : null,
      "latitude" : 43.456654,
      "longitude" : 3.9249263
    },
    "openings" : {
      "start" : [ 10, 18 ],
      "end" : [ 12, 45 ]
    },
    "preferredSlots" : null,
    "doAfter" : null,
    "nbEmpRequired" : 1,
    "deadline" : [ 10, 58 ],
    "skills" : [ {
      "id" : 0,
      "name" : "MANAGEMENT",
      "level" : 2
    }, {
      "id" : 6,
      "name" : "CARPENTRY",
      "level" : 2
    } ],
    "duration" : 3600.000000000,
    "pause" : false
  }, {
    "id" : 955,
    "desc" : "IRONWORK",
    "location" : {
      "id" : 435,
      "name" : null,
      "latitude" : 43.660778,
      "longitude" : 3.8813756
    },
    "openings" : {
      "start" : [ 16, 9 ],
      "end" : [ 17, 25 ]
    },
    "preferredSlots" : null,
    "doAfter" : null,
    "nbEmpRequired" : 1,
    "deadline" : [ 12, 3 ],
    "skills" : [ {
      "id" : 8,
      "name" : "IRONWORK",
      "level" : 5
    } ],
    "duration" : 3600.000000000,
    "pause" : false
  }, {
    "id" : 132,
    "desc" : "MANAGEMENT, GLAZING",
    "location" : {
      "id" : 3637,
      "name" : null,
      "latitude" : 43.691322,
      "longitude" : 3.731385
    },
    "openings" : {
      "start" : [ 11, 51 ],
      "end" : [ 13, 49 ]
    },
    "preferredSlots" : null,
    "doAfter" : null,
    "nbEmpRequired" : 1,
    "deadline" : [ 9, 39 ],
    "skills" : [ {
      "id" : 0,
      "name" : "MANAGEMENT",
      "level" : 3
    }, {
      "id" : 5,
      "name" : "GLAZING",
      "level" : 2
    } ],
    "duration" : 2700.000000000,
    "pause" : false
  }, {
    "id" : 785,
    "desc" : "GLAZING",
    "location" : {
      "id" : 233,
      "name" : null,
      "latitude" : 43.910053,
      "longitude" : 3.9669278
    },
    "openings" : {
      "start" : [ 10, 37 ],
      "end" : [ 14, 4 ]
    },
    "preferredSlots" : null,
    "doAfter" : null,
    "nbEmpRequired" : 1,
    "deadline" : [ 11, 55 ],
    "skills" : [ {
      "id" : 5,
      "name" : "GLAZING",
      "level" : 5
    } ],
    "duration" : 5400.000000000,
    "pause" : false
  }, {
    "id" : 285,
    "desc" : "ENGINEER",
    "location" : {
      "id" : 3990,
      "name" : null,
      "latitude" : 44.020798,
      "longitude" : 3.7948375
    },
    "openings" : {
      "start" : [ 12, 56 ],
      "end" : [ 13, 51 ]
    },
    "preferredSlots" : null,
    "doAfter" : null,
    "nbEmpRequired" : 1,
    "deadline" : [ 10, 19 ],
    "skills" : [ {
      "id" : 1,
      "name" : "ENGINEER",
      "level" : 3
    } ],
    "duration" : 3600.000000000,
    "pause" : false
  }, {
    "id" : 91,
    "desc" : "ELECTRICIAN, PLUMBING",
    "location" : {
      "id" : 745,
      "name" : null,
      "latitude" : 43.58059,
      "longitude" : 4.259736
    },
    "openings" : {
      "start" : [ 15, 11 ],
      "end" : [ 16, 45 ]
    },
    "preferredSlots" : null,
    "doAfter" : null,
    "nbEmpRequired" : 1,
    "deadline" : [ 16, 42 ],
    "skills" : [ {
      "id" : 2,
      "name" : "ELECTRICIAN",
      "level" : 4
    }, {
      "id" : 3,
      "name" : "PLUMBING",
      "level" : 4
    } ],
    "duration" : 3600.000000000,
    "pause" : false
  }, {
    "id" : 978,
    "desc" : "ELECTRICIAN",
    "location" : {
      "id" : 1237,
      "name" : null,
      "latitude" : 43.83204,
      "longitude" : 3.941932
    },
    "openings" : {
      "start" : [ 12, 58 ],
      "end" : [ 17, 1 ]
    },
    "preferredSlots" : null,
    "doAfter" : null,
    "nbEmpRequired" : 1,
    "deadline" : [ 11, 1 ],
    "skills" : [ {
      "id" : 2,
      "name" : "ELECTRICIAN",
      "level" : 5
    } ],
    "duration" : 2700.000000000,
    "pause" : false
  }, {
    "id" : 657,
    "desc" : "PAINTING, CARPENTRY",
    "location" : {
      "id" : 8484,
      "name" : null,
      "latitude" : 43.63219,
      "longitude" : 3.7978425
    },
    "openings" : {
      "start" : [ 11, 55 ],
      "end" : [ 13, 18 ]
    },
    "preferredSlots" : null,
    "doAfter" : null,
    "nbEmpRequired" : 1,
    "deadline" : [ 12, 8 ],
    "skills" : [ {
      "id" : 7,
      "name" : "PAINTING",
      "level" : 1
    }, {
      "id" : 6,
      "name" : "CARPENTRY",
      "level" : 4
    } ],
    "duration" : 2700.000000000,
    "pause" : false
  }, {
    "id" : 168,
    "desc" : "IRONWORK",
    "location" : {
      "id" : 9862,
      "name" : null,
      "latitude" : 43.79007,
      "longitude" : 4.2028193
    },
    "openings" : {
      "start" : [ 15, 55 ],
      "end" : [ 17, 53 ]
    },
    "preferredSlots" : null,
    "doAfter" : null,
    "nbEmpRequired" : 1,
    "deadline" : [ 13, 17 ],
    "skills" : [ {
      "id" : 8,
      "name" : "IRONWORK",
      "level" : 5
    } ],
    "duration" : 3600.000000000,
    "pause" : false
  }, {
    "id" : 714,
    "desc" : "IRONWORK, CARPENTRY",
    "location" : {
      "id" : 5340,
      "name" : null,
      "latitude" : 44.09002,
      "longitude" : 4.2637644
    },
    "openings" : {
      "start" : [ 15, 32 ],
      "end" : [ 16, 53 ]
    },
    "preferredSlots" : null,
    "doAfter" : null,
    "nbEmpRequired" : 1,
    "deadline" : [ 11, 35 ],
    "skills" : [ {
      "id" : 8,
      "name" : "IRONWORK",
      "level" : 4
    }, {
      "id" : 6,
      "name" : "CARPENTRY",
      "level" : 5
    } ],
    "duration" : 2700.000000000,
    "pause" : false
  }, {
    "id" : 569,
    "desc" : "ELECTRICIAN",
    "location" : {
      "id" : 843,
      "name" : null,
      "latitude" : 43.528908,
      "longitude" : 4.0317225
    },
    "openings" : {
      "start" : [ 9, 51 ],
      "end" : [ 10, 10 ]
    },
    "preferredSlots" : null,
    "doAfter" : null,
    "nbEmpRequired" : 1,
    "deadline" : [ 10, 19 ],
    "skills" : [ {
      "id" : 2,
      "name" : "ELECTRICIAN",
      "level" : 1
    } ],
    "duration" : 2700.000000000,
    "pause" : false
  }, {
    "id" : 97,
    "desc" : "GLAZING",
    "location" : {
      "id" : 6592,
      "name" : null,
      "latitude" : 43.72567,
      "longitude" : 3.8220496
    },
    "openings" : {
      "start" : [ 12, 1 ],
      "end" : [ 14, 1 ]
    },
    "preferredSlots" : null,
    "doAfter" : null,
    "nbEmpRequired" : 1,
    "deadline" : [ 15, 42 ],
    "skills" : [ {
      "id" : 5,
      "name" : "GLAZING",
      "level" : 5
    } ],
    "duration" : 1800.000000000,
    "pause" : false
  }, {
    "id" : 460,
    "desc" : "ENGINEER, PLUMBING",
    "location" : {
      "id" : 255,
      "name" : null,
      "latitude" : 44.02913,
      "longitude" : 4.03988
    },
    "openings" : {
      "start" : [ 11, 38 ],
      "end" : [ 14, 27 ]
    },
    "preferredSlots" : null,
    "doAfter" : null,
    "nbEmpRequired" : 1,
    "deadline" : [ 11, 53 ],
    "skills" : [ {
      "id" : 1,
      "name" : "ENGINEER",
      "level" : 1
    }, {
      "id" : 3,
      "name" : "PLUMBING",
      "level" : 2
    } ],
    "duration" : 1800.000000000,
    "pause" : false
  }, {
    "id" : 960,
    "desc" : "ENGINEER",
    "location" : {
      "id" : 3009,
      "name" : null,
      "latitude" : 43.93668,
      "longitude" : 4.0819254
    },
    "openings" : {
      "start" : [ 12, 22 ],
      "end" : [ 17, 52 ]
    },
    "preferredSlots" : null,
    "doAfter" : null,
    "nbEmpRequired" : 1,
    "deadline" : [ 10, 5 ],
    "skills" : [ {
      "id" : 1,
      "name" : "ENGINEER",
      "level" : 3
    } ],
    "duration" : 2700.000000000,
    "pause" : false
  }, {
    "id" : 200,
    "desc" : "IRONWORK",
    "location" : {
      "id" : 6676,
      "name" : null,
      "latitude" : 43.717888,
      "longitude" : 4.2203608
    },
    "openings" : {
      "start" : [ 10, 31 ],
      "end" : [ 16, 47 ]
    },
    "preferredSlots" : null,
    "doAfter" : null,
    "nbEmpRequired" : 1,
    "deadline" : [ 11, 51 ],
    "skills" : [ {
      "id" : 8,
      "name" : "IRONWORK",
      "level" : 3
    } ],
    "duration" : 7200.000000000,
    "pause" : false
  }, {
    "id" : 211,
    "desc" : "GLAZING",
    "location" : {
      "id" : 9371,
      "name" : null,
      "latitude" : 44.013954,
      "longitude" : 3.9690022
    },
    "openings" : {
      "start" : [ 11, 22 ],
      "end" : [ 13, 40 ]
    },
    "preferredSlots" : null,
    "doAfter" : null,
    "nbEmpRequired" : 1,
    "deadline" : [ 11, 38 ],
    "skills" : [ {
      "id" : 5,
      "name" : "GLAZING",
      "level" : 1
    } ],
    "duration" : 3600.000000000,
    "pause" : false
  }, {
    "id" : 632,
    "desc" : "MANAGEMENT",
    "location" : {
      "id" : 3962,
      "name" : null,
      "latitude" : 43.444664,
      "longitude" : 3.7799156
    },
    "openings" : {
      "start" : [ 13, 52 ],
      "end" : [ 17, 46 ]
    },
    "preferredSlots" : null,
    "doAfter" : null,
    "nbEmpRequired" : 1,
    "deadline" : [ 14, 59 ],
    "skills" : [ {
      "id" : 0,
      "name" : "MANAGEMENT",
      "level" : 1
    } ],
    "duration" : 3600.000000000,
    "pause" : false
  }, {
    "id" : 221,
    "desc" : "MASONRY, MANAGEMENT",
    "location" : {
      "id" : 1059,
      "name" : null,
      "latitude" : 43.729473,
      "longitude" : 3.750932
    },
    "openings" : {
      "start" : [ 10, 28 ],
      "end" : [ 10, 57 ]
    },
    "preferredSlots" : null,
    "doAfter" : null,
    "nbEmpRequired" : 1,
    "deadline" : [ 15, 15 ],
    "skills" : [ {
      "id" : 4,
      "name" : "MASONRY",
      "level" : 4
    }, {
      "id" : 0,
      "name" : "MANAGEMENT",
      "level" : 3
    } ],
    "duration" : 3600.000000000,
    "pause" : false
  }, {
    "id" : 402,
    "desc" : "PLUMBING",
    "location" : {
      "id" : 528,
      "name" : null,
      "latitude" : 44.002884,
      "longitude" : 4.0214105
    },
    "openings" : {
      "start" : [ 13, 42 ],
      "end" : [ 13, 43 ]
    },
    "preferredSlots" : null,
    "doAfter" : null,
    "nbEmpRequired" : 1,
    "deadline" : [ 13, 15 ],
    "skills" : [ {
      "id" : 3,
      "name" : "PLUMBING",
      "level" : 2
    } ],
    "duration" : 2700.000000000,
    "pause" : false
  }, {
    "id" : 625,
    "desc" : "IRONWORK",
    "location" : {
      "id" : 2320,
      "name" : null,
      "latitude" : 43.459106,
      "longitude" : 4.2033463
    },
    "openings" : {
      "start" : [ 10, 57 ],
      "end" : [ 17, 38 ]
    },
    "preferredSlots" : null,
    "doAfter" : null,
    "nbEmpRequired" : 1,
    "deadline" : [ 16, 15 ],
    "skills" : [ {
      "id" : 8,
      "name" : "IRONWORK",
      "level" : 5
    } ],
    "duration" : 7200.000000000,
    "pause" : false
  }, {
    "id" : 32,
    "desc" : "MANAGEMENT, PAINTING",
    "location" : {
      "id" : 6987,
      "name" : null,
      "latitude" : 43.94723,
      "longitude" : 4.0115337
    },
    "openings" : {
      "start" : [ 14, 27 ],
      "end" : [ 17, 54 ]
    },
    "preferredSlots" : null,
    "doAfter" : null,
    "nbEmpRequired" : 1,
    "deadline" : [ 12, 3 ],
    "skills" : [ {
      "id" : 0,
      "name" : "MANAGEMENT",
      "level" : 4
    }, {
      "id" : 7,
      "name" : "PAINTING",
      "level" : 4
    } ],
    "duration" : 5400.000000000,
    "pause" : false
  }, {
    "id" : 54,
    "desc" : "MANAGEMENT",
    "location" : {
      "id" : 2040,
      "name" : null,
      "latitude" : 43.717625,
      "longitude" : 3.955059
    },
    "openings" : {
      "start" : [ 14, 51 ],
      "end" : [ 16, 45 ]
    },
    "preferredSlots" : null,
    "doAfter" : null,
    "nbEmpRequired" : 1,
    "deadline" : [ 9, 23 ],
    "skills" : [ {
      "id" : 0,
      "name" : "MANAGEMENT",
      "level" : 4
    } ],
    "duration" : 1800.000000000,
    "pause" : false
  }, {
    "id" : 506,
    "desc" : "MANAGEMENT, PLUMBING",
    "location" : {
      "id" : 9604,
      "name" : null,
      "latitude" : 43.845745,
      "longitude" : 3.7177424
    },
    "openings" : {
      "start" : [ 9, 41 ],
      "end" : [ 16, 10 ]
    },
    "preferredSlots" : null,
    "doAfter" : null,
    "nbEmpRequired" : 1,
    "deadline" : [ 17, 22 ],
    "skills" : [ {
      "id" : 0,
      "name" : "MANAGEMENT",
      "level" : 3
    }, {
      "id" : 3,
      "name" : "PLUMBING",
      "level" : 5
    } ],
    "duration" : 5400.000000000,
    "pause" : false
  }, {
    "id" : 679,
    "desc" : "CARPENTRY",
    "location" : {
      "id" : 6469,
      "name" : null,
      "latitude" : 43.68827,
      "longitude" : 4.000918
    },
    "openings" : {
      "start" : [ 14, 53 ],
      "end" : [ 17, 16 ]
    },
    "preferredSlots" : null,
    "doAfter" : null,
    "nbEmpRequired" : 1,
    "deadline" : [ 16, 4 ],
    "skills" : [ {
      "id" : 6,
      "name" : "CARPENTRY",
      "level" : 3
    } ],
    "duration" : 1800.000000000,
    "pause" : false
  } ],
  "employees" : [ {
    "id" : 338,
    "name" : "338",
    "shifts" : [ {
      "start" : [ 9, 0 ],
      "end" : [ 12, 0 ]
    }, {
      "start" : [ 13, 0 ],
      "end" : [ 17, 0 ]
    } ],
    "prefSlots" : null,
    "startingLoc" : {
      "id" : 4362,
      "name" : null,
      "latitude" : 43.419125,
      "longitude" : 4.2019873
    },
    "skills" : [ {
      "id" : 3,
      "name" : "PLUMBING",
      "level" : 8
    }, {
      "id" : 2,
      "name" : "ELECTRICIAN",
      "level" : 5
    }, {
      "id" : 8,
      "name" : "IRONWORK",
      "level" : 2
    } ]
  }, {
    "id" : 962,
    "name" : "962",
    "shifts" : [ {
      "start" : [ 9, 0 ],
      "end" : [ 12, 0 ]
    }, {
      "start" : [ 13, 0 ],
      "end" : [ 17, 0 ]
    } ],
    "prefSlots" : null,
    "startingLoc" : {
      "id" : 3559,
      "name" : null,
      "latitude" : 43.709797,
      "longitude" : 3.811586
    },
    "skills" : [ {
      "id" : 1,
      "name" : "ENGINEER",
      "level" : 7
    }, {
      "id" : 7,
      "name" : "PAINTING",
      "level" : 7
    }, {
      "id" : 0,
      "name" : "MANAGEMENT",
      "level" : 10
    }, {
      "id" : 9,
      "name" : "TILER",
      "level" : 9
    }, {
      "id" : 0,
      "name" : "MANAGEMENT",
      "level" : 9
    }, {
      "id" : 4,
      "name" : "MASONRY",
      "level" : 9
    }, {
      "id" : 6,
      "name" : "CARPENTRY",
      "level" : 2
    }, {
      "id" : 5,
      "name" : "GLAZING",
      "level" : 7
    }, {
      "id" : 0,
      "name" : "MANAGEMENT",
      "level" : 7
    }, {
      "id" : 5,
      "name" : "GLAZING",
      "level" : 1
    } ]
  } ],
  "appointments" : [ ]
}