{
  "jobs" : [ {
    "id" : 739,
    "desc" : "PLUMBING",
    "location" : {
      "id" : 2586,
      "name" : null,
      "latitude" : 43.599518,
      "longitude" : 4.2241282
    },
    "openings" : {
      "start" : [ 12, 28 ],
      "end" : [ 16, 20 ]
    },
    "preferredSlots" : null,
    "doAfter" : null,
    "nbEmpRequired" : 1,
    "deadline" : [ 14, 0 ],
    "skills" : [ {
      "id" : 3,
      "name" : "PLUMBING",
      "level" : 3
    } ],
    "duration" : 2700.000000000,
    "pause" : false
  }, {
    "id" : 330,
    "desc" : "ELECTRICIAN, PLUMBING",
    "location" : {
      "id" : 7857,
      "name" : null,
      "latitude" : 43.419704,
      "longitude" : 4.0818076
    },
    "openings" : {
      "start" : [ 15, 46 ],
      "end" : [ 17, 50 ]
    },
    "preferredSlots" : null,
    "doAfter" : null,
    "nbEmpRequired" : 1,
    "deadline" : [ 11, 9 ],
    "skills" : [ {
      "id" : 2,
      "name" : "ELECTRICIAN",
      "level" : 3
    }, {
      "id" : 3,
      "name" : "PLUMBING",
      "level" : 4
    } ],
    "duration" : 5400.000000000,
    "pause" : false
  }, {
    "id" : 4,
    "desc" : "MASONRY, MANAGEMENT",
    "location" : {
      "id" : 9557,
      "name" : null,
      "latitude" : 43.637764,
      "longitude" : 3.7421334
    },
    "openings" : {
      "start" : [ 11, 23 ],
      "end" : [ 16, 4 ]
    },
    "preferredSlots" : null,
    "doAfter" : null,
    "nbEmpRequired" : 1,
    "deadline" : [ 15, 20 ],
    "skills" : [ {
      "id" : 4,
      "name" : "MASONRY",
      "level" : 3
    }, {
      "id" : 0,
      "name" : "MANAGEMENT",
      "level" : 3
    } ],
    "duration" : 2700.000000000,
    "pause" : false
  }, {
    "id" : 596,
    "desc" : "TILER, PAINTING",
    "location" : {
      "id" : 2632,
      "name" : null,
      "latitude" : 43.601654,
      "longitude" : 3.748814
    },
    "openings" : {
      "start" : [ 11, 24 ],
      "end" : [ 13, 35 ]
    },
    "preferredSlots" : null,
    "doAfter" : null,
    "nbEmpRequired" : 1,
    "deadline" : [ 14, 9 ],
    "skills" : [ {
      "id" : 9,
      "name" : "TILER",
      "level" : 4
    }, {
      "id" : 7,
      "name" : "PAINTING",
      "level" : 4
    } ],
    "duration" : 7200.000000000,
    "pause" : false
  }, {
    "id" : 823,
    "desc" : "IRONWORK",
    "location" : {
      "id" : 5178,
      "name" : null,
      "latitude" : 43.908535,
      "longitude" : 3.712249
    },
    "openings" : {
      "start" : [ 10, 12 ],
      "end" : [ 15, 27 ]
    },
    "preferredSlots" : null,
    "doAfter" : null,
    "nbEmpRequired" : 1,
    "deadline" : [ 16, 19 ],
    "skills" : [ {
      "id" : 8,
      "name" : "IRONWORK",
      "level" : 2
    } ],
    "duration" : 2700.000000000,
    "pause" : false
  }, {
    "id" : 984,
    "desc" : "ENGINEER, GLAZING",
    "location" : {
      "id" : 6709,
      "name" : null,
      "latitude" : 43.838287,
      "longitude" : 4.257428
    },
    "openings" : {
      "start" : [ 9, 5 ],
      "end" : [ 17, 11 ]
    },
    "preferredSlots" : null,
    "doAfter" : null,
    "nbEmpRequired" : 1,
    "deadline" : [ 14, 19 ],
    "skills" : [ {
      "id" : 1,
      "name" : "ENGINEER",
      "level" : 2
    }, {
      "id" : 5,
      "name" : "GLAZING",
      "level" : 3
    } ],
    "duration" : 7200.000000000,
    "pause" : false
  }, {
    "id" : 751,
    "desc" : "GLAZING, MASONRY",
    "location" : {
      "id" : 9248,
      "name" : null,
      "latitude" : 43.695255,
      "longitude" : 4.246289
    },
    "openings" : {
      "start" : [ 14, 1 ],
      "end" : [ 14, 39 ]
    },
    "preferredSlots" : null,
    "doAfter" : null,
    "nbEmpRequired" : 1,
    "deadline" : [ 14, 59 ],
    "skills" : [ {
      "id" : 5,
      "name" : "GLAZING",
      "level" : 5
    }, {
      "id" : 4,
      "name" : "MASONRY",
      "level" : 5
    } ],
    "duration" : 7200.000000000,
    "pause" : false
  }, {
    "id" : 947,
    "desc" : "MANAGEMENT, PAINTING",
    "location" : {
      "id" : 5413,
      "name" : null,
      "latitude" : 43.574585,
      "longitude" : 3.9529824
    },
    "openings" : {
      "start" : [ 9, 3 ],
      "end" : [ 16, 20 ]
    },
    "preferredSlots" : null,
    "doAfter" : null,
    "nbEmpRequired" : 1,
    "deadline" : [ 16, 11 ],
    "skills" : [ {
      "id" : 0,
      "name" : "MANAGEMENT",
      "level" : 5
    }, {
      "id" : 7,
      "name" : "PAINTING",
      "level" : 5
    } ],
    "duration" : 1800.000000000,
    "pause" : false
  }, {
    "id" : 867,
    "desc" : "TILER, PLUMBING",
    "location" : {
      "id" : 1932,
      "name" : null,
      "latitude" : 43.42574,
      "longitude" : 3.9467883
    },
    "openings" : {
      "start" : [ 14, 33 ],
      "end" : [ 14, 42 ]
    },
    "preferredSlots" : null,
    "doAfter" : null,
    "nbEmpRequired" : 1,
    "deadline" : [ 17, 54 ],
    "skills" : [ {
      "id" : 9,
      "name" : "TILER",
      "level" : 3
    }, {
      "id" : 3,
      "name" : "PLUMBING",
      "level" : 2
    } ],
    "duration" : 1800.000000000,
    "pause" : false
  }, {
    "id" : 660,
    "desc" : "ENGINEER",
    "location" : {
      "id" : 2318,
      "name" : null,
      "latitude" : 43.495033,
      "longitude" : 4.073803
    },
    "openings" : {
      "start" : [ 16, 0 ],
      "end" : [ 17, 33 ]
    },
    "preferredSlots" : null,
    "doAfter" : null,
    "nbEmpRequired" : 1,
    "deadline" : [ 17, 58 ],
    "skills" : [ {
      "id" : 1,
      "name" : "ENGINEER",
      "level" : 2
    } ],
    "duration" : 2700.000000000,
    "pause" : false
  }, {
    "id" : 599,
    "desc" : "MASONRY, MANAGEMENT",
    "location" : {
      "id" : 1211,
      "name" : null,
      "latitude" : 43.47633,
      "longitude" : 3.952634
    },
    "openings" : {
      "start" : [ 14, 17 ],
      "end" : [ 14, 21 ]
    },
    "preferredSlots" : null,
    "doAfter" : null,
    "nbEmpRequired" : 1,
    "deadline" : [ 16, 18 ],
    "skills" : [ {
      "id" : 4,
      "name" : "MASONRY",
      "level" : 1
    }, {
      "id" : 0,
      "name" : "MANAGEMENT",
      "level" : 5
    } ],
    "duration" : 5400.000000000,
    "pause" : false
  }, {
    "id" : 153,
    "desc" : "GLAZING",
    "location" : {
      "id" : 3292,
      "name" : null,
      "latitude" : 43.95237,
      "longitude" : 4.166711
    },
    "openings" : {
      "start" : [ 10, 22 ],
      "end" : [ 14, 50 ]
    },
    "preferredSlots" : null,
    "doAfter" : null,
    "nbEmpRequired" : 1,
    "deadline" : [ 14, 23 ],
    "skills" : [ {
      "id" : 5,
      "name" : "GLAZING",
      "level" : 5
    } ],
    "duration" : 5400.000000000,
    "pause" : false
  }, {
    "id" : 191,
    "desc" : "ELECTRICIAN",
    "location" : {
      "id" : 8333,
      "name" : null,
      "latitude" : 43.778927,
      "longitude" : 4.0733857
    },
    "openings" : {
      "start" : [ 13, 11 ],
      "end" : [ 13, 22 ]
    },
    "preferredSlots" : null,
    "doAfter" : null,
    "nbEmpRequired" : 1,
    "deadline" : [ 9, 54 ],
    "skills" : [ {
      "id" : 2,
      "name" : "ELECTRICIAN",
      "level" : 2
    } ],
    "duration" : 2700.000000000,
    "pause" : false
  }, {
    "id" : 820,
    "desc" : "TILER",
    "location" : {
      "id" : 3850,
      "name" : null,
      "latitude" : 43.602303,
      "longitude" : 4.2348623
    },
    "openings" : {
      "start" : [ 10, 3 ],
      "end" : [ 12, 21 ]
    },
    "preferredSlots" : null,
    "doAfter" : null,
    "nbEmpRequired" : 1,
    "deadline" : [ 15, 25 ],
    "skills" : [ {
      "id" : 9,
      "name" : "TILER",
      "level" : 3
    } ],
    "duration" : 5400.000000000,
    "pause" : false
  }, {
    "id" : 207,
    "desc" : "CARPENTRY",
    "location" : {
      "id" : 1391,
      "name" : null,
      "latitude" : 43.433388,
      "longitude" : 4.087138
    },
    "openings" : {
      "start" : [ 11, 56 ],
      "end" : [ 13, 37 ]
    },
    "preferredSlots" : null,
    "doAfter" : null,
    "nbEmpRequired" : 1,
    "deadline" : [ 12, 1 ],
    "skills" : [ {
      "id" : 6,
      "name" : "CARPENTRY",
      "level" : 5
    } ],
    "duration" : 3600.000000000,
    "pause" : false
  }, {
    "id" : 579,
    "desc" : "TILER, MASONRY",
    "location" : {
      "id" : 309,
      "name" : null,
      "latitude" : 43.93817,
      "longitude" : 4.227075
    },
    "openings" : {
      "start" : [ 13, 45 ],
      "end" : [ 14, 5 ]
    },
    "preferredSlots" : null,
    "doAfter" : null,
    "nbEmpRequired" : 1,
    "deadline" : [ 15, 5 ],
    "skills" : [ {
      "id" : 9,
      "name" : "TILER",
      "level" : 5
    }, {
      "id" : 4,
      "name" : "MASONRY",
      "level" : 4
    } ],
    "duration" : 7200.000000000,
    "pause" : false
  }, {
    "id" : 85,
    "desc" : "ELECTRICIAN, MASONRY",
    "location" : {
      "id" : 4628,
      "name" : null,
      "latitude" : 43.926506,
      "longitude" : 4.180291
    },
    "openings" : {
      "start" : [ 10, 7 ],
      "end" : [ 17, 40 ]
    },
    "preferredSlots" : null,
    "doAfter" : null,
    "nbEmpRequired" : 1,
    "deadline" : [ 12, 56 ],
    "skills" : [ {
      "id" : 2,
      "name" : "ELECTRICIAN",
      "level" : 5
    }, {
      "id" : 4,
      "name" : "MASONRY",
      "level" : 3
    } ],
    "duration" : 2700.000000000,
    "pause" : false
  }, {
    "id" : 706,
    "desc" : "ENGINEER, PLUMBING",
    "location" : {
      "id" : 4214,
      "name" : null,
      "latitude" : 43.402428,
      "longitude" : 4.137789
    },
    "openings" : {
      "start" : [ 10, 24 ],
      "end" : [ 14, 4 ]
    },
    "preferredSlots" : null,
    "doAfter" : null,
    "nbEmpRequired" : 1,
    "deadline" : [ 13, 31 ],
    "skills" : [ {
      "id" : 1,
      "name" : "ENGINEER",
      "level" : 3
    }, {
      "id" : 3,
      "name" : "PLUMBING",
      "level" : 5
    } ],
    "duration" : 1800.000000000,
    "pause" : false
  }, {
    "id" : 187,
    "desc" : "MANAGEMENT",
    "location" : {
      "id" : 3344,
      "name" : null,
      "latitude" : 43.672592,
      "longitude" : 4.05968
    },
    "openings" : {
      "start" : [ 13, 10 ],
      "end" : [ 17, 6 ]
    },
    "preferredSlots" : null,
    "doAfter" : null,
    "nbEmpRequired" : 1,
    "deadline" : [ 9, 52 ],
    "skills" : [ {
      "id" : 0,
      "name" : "MANAGEMENT",
      "level" : 2
    } ],
    "duration" : 3600.000000000,
    "pause" : false
  }, {
    "id" : 609,
    "desc" : "ENGINEER",
    "location" : {
      "id" : 6345,
      "name" : null,
      "latitude" : 43.897114,
      "longitude" : 4.297699
    },
    "openings" : {
      "start" : [ 12, 46 ],
      "end" : [ 17, 22 ]
    },
    "preferredSlots" : null,
    "doAfter" : null,
    "nbEmpRequired" : 1,
    "deadline" : [ 15, 27 ],
    "skills" : [ {
      "id" : 1,
      "name" : "ENGINEER",
      "level" : 5
    } ],
    "duration" : 3600.000000000,
    "pause" : false
  }, {
    "id" : 458,
    "desc" : "CARPENTRY",
    "location" : {
      "id" : 6831,
      "name" : null,
      "latitude" : 43.846695,
      "longitude" : 4.1927824
    },
    "openings" : {
      "start" : [ 11, 14 ],
      "end" : [ 16, 37 ]
    },
    "preferredSlots" : null,
    "doAfter" : null,
    "nbEmpRequired" : 1,
    "deadline" : [ 16, 9 ],
    "skills" : [ {
      "id" : 6,
      "name" : "CARPENTRY",
      "level" : 3
    } ],
    "duration" : 3600.000000000,
    "pause" : false
  }, {
    "id" : 888,
    "desc" : "TILER",
    "location" : {
      "id" : 5406,
      "name" : null,
      "latitude" : 43.438286,
      "longitude" : 3.8135433
    },
    "openings" : {
      "start" : [ 12, 30 ],
      "end" : [ 13, 53 ]
    },
    "preferredSlots" : null,
    "doAfter" : null,
    "nbEmpRequired" : 1,
    "deadline" : [ 10, 32 ],
    "skills" : [ {
      "id" : 9,
      "name" : "TILER",
      "level" : 3
    } ],
    "duration" : 7200.000000000,
    "pause" : false
  }, {
    "id" : 472,
    "desc" : "IRONWORK",
    "location" : {
      "id" : 8336,
      "name" : null,
      "latitude" : 44.027153,
      "longitude" : 4.0378523
    },
    "openings" : {
      "start" : [ 10, 17 ],
      "end" : [ 13, 11 ]
    },
    "preferredSlots" : null,
    "doAfter" : null,
    "nbEmpRequired" : 1,
    "deadline" : [ 13, 2 ],
    "skills" : [ {
      "id" : 8,
      "name" : "IRONWORK",
      "level" : 3
    } ],
    "duration" : 1800.000000000,
    "pause" : false
  }, {
    "id" : 153,
    "desc" : "MANAGEMENT, IRONWORK",
    "location" : {
      "id" : 6447,
      "name" : null,
      "latitude" : 43.991993,
      "longitude" : 4.193757
    },
    "openings" : {
      "start" : [ 9, 21 ],
      "end" : [ 11, 16 ]
    },
    "preferredSlots" : null,
    "doAfter" : null,
    "nbEmpRequired" : 1,
    "deadline" : [ 17, 11 ],
    "skills" : [ {
      "id" : 0,
      "name" : "MANAGEMENT",
      "level" : 5
    }, {
      "id" : 8,
      "name" : "IRONWORK",
      "level" : 4
    } ],
    "duration" : 5400.000000000,
    "pause" : false
  }, {
    "id" : 124,
    "desc" : "MASONRY, ENGINEER",
    "location" : {
      "id" : 7033,
      "name" : null,
      "latitude" : 43.934933,
      "longitude" : 4.075187
    },
    "openings" : {
      "start" : [ 16, 0 ],
      "end" : [ 16, 22 ]
    },
    "preferredSlots" : null,
    "doAfter" : null,
    "nbEmpRequired" : 1,
    "deadline" : [ 14, 50 ],
    "skills" : [ {
      "id" : 4,
      "name" : "MASONRY",
      "level" : 4
    }, {
      "id" : 1,
      "name" : "ENGINEER",
      "level" : 1
    } ],
    "duration" : 5400.000000000,
    "pause" : false
  }, {
    "id" : 782,
    "desc" : "PLUMBING, TILER",
    "location" : {
      "id" : 547,
      "name" : null,
      "latitude" : 43.48051,
      "longitude" : 3.8492382
    },
    "openings" : {
      "start" : [ 10, 45 ],
      "end" : [ 12, 25 ]
    },
    "preferredSlots" : null,
    "doAfter" : null,
    "nbEmpRequired" : 1,
    "deadline" : [ 11, 14 ],
    "skills" : [ {
      "id" : 3,
      "name" : "PLUMBING",
      "level" : 5
    }, {
      "id" : 9,
      "name" : "TILER",
      "level" : 5
    } ],
    "duration" : 3600.000000000,
    "pause" : false
  }, {
    "id" : 71,
    "desc" : "PLUMBING",
    "location" : {
      "id" : 4129,
      "name" : null,
      "latitude" : 43.59579,
      "longitude" : 3.9308846
    },
    "openings" : {
      "start" : [ 10, 40 ],
      "end" : [ 14, 36 ]
    },
    "preferredSlots" : null,
    "doAfter" : null,
    "nbEmpRequired" : 1,
    "deadline" : [ 16, 10 ],
    "skills" : [ {
      "id" : 3,
      "name" : "PLUMBING",
      "level" : 4
    } ],
    "duration" : 7200.000000000,
    "pause" : false
  }, {
    "id" : 417,
    "desc" : "PLUMBING, MASONRY",
    "location" : {
      "id" : 6964,
      "name" : null,
      "latitude" : 43.83,
      "longitude" : 3.7005894
    },
    "openings" : {
      "start" : [ 9, 6 ],
      "end" : [ 14, 40 ]
    },
    "preferredSlots" : null,
    "doAfter" : null,
    "nbEmpRequired" : 1,
    "deadline" : [ 15, 18 ],
    "skills" : [ {
      "id" : 3,
      "name" : "PLUMBING",
      "level" : 4
    }, {
      "id" : 4,
      "name" : "MASONRY",
      "level" : 4
    } ],
    "duration" : 2700.000000000,
    "pause" : false
  }, {
    "id" : 529,
    "desc" : "TILER",
    "location" : {
      "id" : 3835,
      "name" : null,
      "latitude" : 43.75521,
      "longitude" : 3.8571708
    },
    "openings" : {
      "start" : [ 12, 5 ],
      "end" : [ 12, 27 ]
    },
    "preferredSlots" : null,
    "doAfter" : null,
    "nbEmpRequired" : 1,
    "deadline" : [ 9, 29 ],
    "skills" : [ {
      "id" : 9,
      "name" : "TILER",
      "level" : 1
    } ],
    "duration" : 2700.000000000,
    "pause" : false
  }, {
    "id" : 786,
    "desc" : "MANAGEMENT",
    "location" : {
      "id" : 9732,
      "name" : null,
      "latitude" : 43.725426,
      "longitude" : 4.168571
    },
    "openings" : {
      "start" : [ 9, 20 ],
      "end" : [ 14, 27 ]
    },
    "preferredSlots" : null,
    "doAfter" : null,
    "nbEmpRequired" : 1,
    "deadline" : [ 16, 38 ],
    "skills" : [ {
      "id" : 0,
      "name" : "MANAGEMENT",
      "level" : 1
    } ],
    "duration" : 1800.000000000,
    "pause" : false
  }, {
    "id" : 408,
    "desc" : "ENGINEER, GLAZING",
    "location" : {
      "id" : 9531,
      "name" : null,
      "latitude" : 43.942024,
      "longitude" : 3.9264991
    },
    "openings" : {
      "start" : [ 13, 16 ],
      "end" : [ 17, 49 ]
    },
    "preferredSlots" : null,
    "doAfter" : null,
    "nbEmpRequired" : 1,
    "deadline" : [ 16, 11 ],
    "skills" : [ {
      "id" : 1,
      "name" : "ENGINEER",
      "level" : 4
    }, {
      "id" : 5,
      "name" : "GLAZING",
      "level" : 4
    } ],
    "duration" : 3600.000000000,
    "pause" : false
  }, {
    "id" : 577,
    "desc" : "PLUMBING",
    "location" : {
      "id" : 8247,
      "name" : null,
      "latitude" : 43.547153,
      "longitude" : 4.1405044
    },
    "openings" : {
      "start" : [ 13, 2 ],
      "end" : [ 17, 53 ]
    },
    "preferredSlots" : null,
    "doAfter" : null,
    "nbEmpRequired" : 1,
    "deadline" : [ 13, 26 ],
    "skills" : [ {
      "id" : 3,
      "name" : "PLUMBING",
      "level" : 2
    } ],
    "duration" : 7200.000000000,
    "pause" : false
  }, {
    "id" : 241,
    "desc" : "CARPENTRY",
    "location" : {
      "id" : 2512,
      "name" : null,
      "latitude" : 43.775948,
      "longitude" : 3.9860454
    },
    "openings" : {
      "start" : [ 10, 58 ],
      "end" : [ 17, 30 ]
    },
    "preferredSlots" : null,
    "doAfter" : null,
    "nbEmpRequired" : 1,
    "deadline" : [ 10, 14 ],
    "skills" : [ {
      "id" : 6,
      "name" : "CARPENTRY",
      "level" : 5
    } ],
    "duration" : 7200.000000000,
    "pause" : false
  }, {
    "id" : 572,
    "desc" : "GLAZING, PAINTING",
    "location" : {
      "id" : 9581,
      "name" : null,
      "latitude" : 43.770916,
      "longitude" : 3.7897408
    },
    "openings" : {
      "start" : [ 11, 35 ],
      "end" : [ 14, 33 ]
    },
    "preferredSlots" : null,
    "doAfter" : null,
    "nbEmpRequired" : 1,
    "deadline" : [ 9, 38 ],
    "skills" : [ {
      "id" : 5,
      "name" : "GLAZING",
      "level" : 2
    }, {
      "id" : 7,
      "name" : "PAINTING",
      "level" : 4
    } ],
    "duration" : 2700.000000000,
    "pause" : false
  }, {
    "id" : 856,
    "desc" : "ENGINEER",
    "location" : {
      "id" : 1768,
      "name" : null,
      "latitude" : 43.643333,
      "longitude" : 3.784478
    },
    "openings" : {
      "start" : [ 15, 21 ],
      "end" : [ 15, 42 ]
    },
    "preferredSlots" : null,
    "doAfter" : null,
    "nbEmpRequired" : 1,
    "deadline" : [ 9, 29 ],
    "skills" : [ {
      "id" : 1,
      "name" : "ENGINEER",
      "level" : 3
    } ],
    "duration" : 3600.000000000,
    "pause" : false
  }, {
    "id" : 436,
    "desc" : "PLUMBING, TILER",
    "location" : {
      "id" : 7600,
      "name" : null,
      "latitude" : 44.04218,
      "longitude" : 3.8970006
    },
    "openings" : {
      "start" : [ 12, 43 ],
      "end" : [ 15, 35 ]
    },
    "preferredSlots" : null,
    "doAfter" : null,
    "nbEmpRequired" : 1,
    "deadline" : [ 9, 57 ],
    "skills" : [ {
      "id" : 3,
      "name" : "PLUMBING",
      "level" : 2
    }, {
      "id" : 9,
      "name" : "TILER",
      "level" : 1
    } ],
    "duration" : 5400.000000000,
    "pause" : false
  }, {
    "id" : 131,
    "desc" : "CARPENTRY, PLUMBING",
    "location" : {
      "id" : 7657,
      "name" : null,
      "latitude" : 44.027542,
      "longitude" : 4.295163
    },
    "openings" : {
      "start" : [ 9, 23 ],
      "end" : [ 14, 30 ]
    },
    "preferredSlots" : null,
    "doAfter" : null,
    "nbEmpRequired" : 1,
    "deadline" : [ 13, 0 ],
    "skills" : [ {
      "id" : 6,
      "name" : "CARPENTRY",
      "level" : 3
    }, {
      "id" : 3,
      "name" : "PLUMBING",
      "level" : 1
    } ],
    "duration" : 1800.000000000,
    "pause" : false
  }, {
    "id" : 786,
    "desc" : "ELECTRICIAN, PAINTING",
    "location" : {
      "id" : 4511,
      "name" : null,
      "latitude" : 43.64028,
      "longitude" : 4.144867
    },
    "openings" : {
      "start" : [ 12, 14 ],
      "end" : [ 17, 15 ]
    },
    "preferredSlots" : null,
    "doAfter" : null,
    "nbEmpRequired" : 1,
    "deadline" : [ 13, 15 ],
    "skills" : [ {
      "id" : 2,
      "name" : "ELECTRICIAN",
      "level" : 4
    }, {
      "id" : 7,
      "name" : "PAINTING",
      "level" : 1
    } ],
    "duration" : 5400.000000000,
    "pause" : false
  }, {
    "id" : 706,
    "desc" : "IRONWORK",
    "location" : {
      "id" : 3236,
      "name" : null,
      "latitude" : 43.946083,
      "longitude" : 4.024772
    },
    "openings" : {
      "start" : [ 10, 25 ],
      "end" : [ 12, 1 ]
    },
    "preferredSlots" : null,
    "doAfter" : null,
    "nbEmpRequired" : 1,
    "deadline" : [ 9, 56 ],
    "skills" : [ {
      "id" : 8,
      "name" : "IRONWORK",
      "level" : 5
    } ],
    "duration" : 1800.000000000,
    "pause" : false
  }, {
    "id" : 27,
    "desc" : "ENGINEER",
    "location" : {
      "id" : 9814,
      "name" : null,
      "latitude" : 44.027245,
      "longitude" : 4.0546656
    },
    "openings" : {
      "start" : [ 15, 47 ],
      "end" : [ 17, 4 ]
    },
    "preferredSlots" : null,
    "doAfter" : null,
    "nbEmpRequired" : 1,
    "deadline" : [ 11, 37 ],
    "skills" : [ {
      "id" : 1,
      "name" : "ENGINEER",
      "level" : 2
    } ],
    "duration" : 3600.000000000,
    "pause" : false
  }, {
    "id" : 146,
    "desc" : "MANAGEMENT",
    "location" : {
      "id" : 1284,
      "name" : null,
      "latitude" : 43.896034,
      "longitude" : 3.9585266
    },
    "openings" : {
      "start" : [ 12, 28 ],
      "end" : [ 17, 11 ]
    },
    "preferredSlots" : null,
    "doAfter" : null,
    "nbEmpRequired" : 1,
    "deadline" : [ 14, 8 ],
    "skills" : [ {
      "id" : 0,
      "name" : "MANAGEMENT",
      "level" : 4
    } ],
    "duration" : 2700.000000000,
    "pause" : false
  }, {
    "id" : 131,
    "desc" : "MANAGEMENT, PLUMBING",
    "location" : {
      "id" : 8047,
      "name" : null,
      "latitude" : 43.930843,
      "longitude" : 3.9581623
    },
    "openings" : {
      "start" : [ 16, 7 ],
      "end" : [ 16, 12 ]
    },
    "preferredSlots" : null,
    "doAfter" : null,
    "nbEmpRequired" : 1,
    "deadline" : [ 10, 50 ],
    "skills" : [ {
      "id" : 0,
      "name" : "MANAGEMENT",
      "level" : 3
    }, {
      "id" : 3,
      "name" : "PLUMBING",
      "level" : 5
    } ],
    "duration" : 2700.000000000,
    "pause" : false
  }, {
    "id" : 680,
    "desc" : "ELECTRICIAN",
    "location" : {
      "id" : 9477,
      "name" : null,
      "latitude" : 43.823418,
      "longitude" : 3.761074
    },
    "openings" : {
      "start" : [ 12, 16 ],
      "end" : [ 16, 47 ]
    },
    "preferredSlots" : null,
    "doAfter" : null,
    "nbEmpRequired" : 1,
    "deadline" : [ 16, 31 ],
    "skills" : [ {
      "id" : 2,
      "name" : "ELECTRICIAN",
      "level" : 3
    } ],
    "duration" : 1800.000000000,
    "pause" : false
  }, {
    "id" : 505,
    "desc" : "TILER",
    "location" : {
      "id" : 3719,
      "name" : null,
      "latitude" : 43.62615,
      "longitude" : 4.108532
    },
    "openings" : {
      "start" : [ 13, 29 ],
      "end" : [ 14, 52 ]
    },
    "preferredSlots" : null,
    "doAfter" : null,
    "nbEmpRequired" : 1,
    "deadline" : [ 14, 4 ],
    "skills" : [ {
      "id" : 9,
      "name" : "TILER",
      "level" : 5
    } ],
    "duration" : 2700.000000000,
    "pause" : false
  }, {
    "id" : 70,
    "desc" : "CARPENTRY",
    "location" : {
      "id" : 2238,
      "name" : null,
      "latitude" : 43.610123,
      "longitude" : 3.7081027
    },
    "openings" : {
      "start" : [ 9, 28 ],
      "end" : [ 16, 55 ]
    },
    "preferredSlots" : null,
    "doAfter" : null,
    "nbEmpRequired" : 1,
    "deadline" : [ 9, 27 ],
    "skills" : [ {
      "id" : 6,
      "name" : "CARPENTRY",
      "level" : 2
    } ],
    "duration" : 1800.000000000,
    "pause" : false
  }, {
    "id" : 199,
    "desc" : "GLAZING, TILER",
    "location" : {
      "id" : 552,
      "name" : null,
      "latitude" : 43.796898,
      "longitude" : 3.8190014
    },
    "openings" : {
      "start" : [ 15, 3 ],
      "end" : [ 17, 36 ]
    },
    "preferredSlots" : null,
    "doAfter" : null,
    "nbEmpRequired" : 1,
    "deadline" : [ 13, 15 ],
    "skills" : [ {
      "id" : 5,
      "name" : "GLAZING",
      "level" : 1
    }, {
      "id" : 9,
      "name" : "TILER",
      "level" : 5
    } ],
    "duration" : 5400.000000000,
    "pause" : false
  }, {
    "id" : 732,
    "desc" : "ELECTRICIAN",
    "location" : {
      "id" : 3034,
      "name" : null,
      "latitude" : 43.828423,
      "longitude" : 4.298167
    },
    "openings" : {
      "start" : [ 11, 33 ],
      "end" : [ 15, 35 ]
    },
    "preferredSlots" : null,
    "doAfter" : null,
    "nbEmpRequired" : 1,
    "deadline" : [ 14, 27 ],
    "skills" : [ {
      "id" : 2,
      "name" : "ELECTRICIAN",
      "level" : 4
    } ],
    "duration" : 2700.000000000,
    "pause" : false
  }, {
    "id" : 999,
    "desc" : "IRONWORK, MASONRY",
    "location" : {
      "id" : 1741,
      "name" : null,
      "latitude" : 43.491783,
      "longitude" : 3.8216884
    },
    "openings" : {
      "start" : [ 13, 3 ],
      "end" : [ 14, 36 ]
    },
    "preferredSlots" : null,
    "doAfter" : null,
    "nbEmpRequired" : 1,
    "deadline" : [ 15, 57 ],
    "skills" : [ {
      "id" : 8,
      "name" : "IRONWORK",
      "level" : 3
    }, {
      "id" : 4,
      "name" : "MASONRY",
      "level" : 3
    } ],
    "duration" : 3600.000000000,
    "pause" : false
  }, {
    "id" : 633,
    "desc" : "IRONWORK, CARPENTRY",
    "location" : {
      "id" : 8748,
      "name" : null,
      "latitude" : 43.763348,
      "longitude" : 4.23512
    },
    "openings" : {
      "start" : [ 11, 44 ],
      "end" : [ 15, 30 ]
    },
    "preferredSlots" : null,
    "doAfter" : null,
    "nbEmpRequired" : 1,
    "deadline" : [ 9, 25 ],
    "skills" : [ {
      "id" : 8,
      "name" : "IRONWORK",
      "level" : 2
    }, {
      "id" : 6,
      "name" : "CARPENTRY",
      "level" : 5
    } ],
    "duration" : 7200.000000000,
    "pause" : false
  }, {
    "id" : 338,
    "desc" : "CARPENTRY",
    "location" : {
      "id" : 8291,
      "name" : null,
      "latitude" : 43.810204,
      "longitude" : 3.7719936
    },
    "openings" : {
      "start" : [ 10, 1 ],
      "end" : [ 14, 12 ]
    },
    "preferredSlots" : null,
    "doAfter" : null,
    "nbEmpRequired" : 1,
    "deadline" : [ 9, 3 ],
    "skills" : [ {
      "id" : 6,
      "name" : "CARPENTRY",
      "level" : 2
    } ],
    "duration" : 1800.000000000,
    "pause" : false
  }, {
    "id" : 150,
    "desc" : "ELECTRICIAN, PAINTING",
    "location" : {
      "id" : 516,
      "name" : null,
      "latitude" : 43.74067,
      "longitude" : 3.816857
    },
    "openings" : {
      "start" : [ 12, 34 ],
      "end" : [ 12, 48 ]
    },
    "preferredSlots" : null,
    "doAfter" : null,
    "nbEmpRequired" : 1,
    "deadline" : [ 10, 25 ],
    "skills" : [ {
      "id" : 2,
      "name" : "ELECTRICIAN",
      "level" : 5
    }, {
      "id" : 7,
      "name" : "PAINTING",
      "level" : 1
    } ],
    "duration" : 2700.000000000,
    "pause" : false
  }, {
    "id" : 487,
    "desc" : "PAINTING, MASONRY",
    "location" : {
      "id" : 9894,
      "name" : null,
      "latitude" : 43.914345,
      "longitude" : 4.2192483
    },
    "openings" : {
      "start" : [ 9, 2 ],
      "end" : [ 15, 20 ]
    },
    "preferredSlots" : null,
    "doAfter" : null,
    "nbEmpRequired" : 1,
    "deadline" : [ 10, 37 ],
    "skills" : [ {
      "id" : 7,
      "name" : "PAINTING",
      "level" : 2
    }, {
      "id" : 4,
      "name" : "MASONRY",
      "level" : 5
    } ],
    "duration" : 2700.000000000,
    "pause" : false
  }, {
    "id" : 443,
    "desc" : "IRONWORK",
    "location" : {
      "id" : 6012,
      "name" : null,
      "latitude" : 43.52868,
      "longitude" : 4.1804624
    },
    "openings" : {
      "start" : [ 11, 20 ],
      "end" : [ 11, 24 ]
    },
    "preferredSlots" : null,
    "doAfter" : null,
    "nbEmpRequired" : 1,
    "deadline" : [ 12, 7 ],
    "skills" : [ {
      "id" : 8,
      "name" : "IRONWORK",
      "level" : 2
    } ],
    "duration" : 1800.000000000,
    "pause" : false
  }, {
    "id" : 642,
    "desc" : "MANAGEMENT",
    "location" : {
      "id" : 2510,
      "name" : null,
      "latitude" : 43.99398,
      "longitude" : 4.1959453
    },
    "openings" : {
      "start" : [ 10, 38 ],
      "end" : [ 17, 56 ]
    },
    "preferredSlots" : null,
    "doAfter" : null,
    "nbEmpRequired" : 1,
    "deadline" : [ 12, 12 ],
    "skills" : [ {
      "id" : 0,
      "name" : "MANAGEMENT",
      "level" : 5
    } ],
    "duration" : 5400.000000000,
    "pause" : false
  }, {
    "id" : 176,
    "desc" : "PLUMBING",
    "location" : {
      "id" : 4743,
      "name" : null,
      "latitude" : 43.8358,
      "longitude" : 3.808968
    },
    "openings" : {
      "start" : [ 11, 41 ],
      "end" : [ 16, 54 ]
    },
    "preferredSlots" : null,
    "doAfter" : null,
    "nbEmpRequired" : 1,
    "deadline" : [ 13, 22 ],
    "skills" : [ {
      "id" : 3,
      "name" : "PLUMBING",
      "level" : 3
    } ],
    "duration" : 3600.000000000,
    "pause" : false
  }, {
    "id" : 284,
    "desc" : "PLUMBING",
    "location" : {
      "id" : 2049,
      "name" : null,
      "latitude" : 43.434486,
      "longitude" : 4.295427
    },
    "openings" : {
      "start" : [ 9, 2 ],
      "end" : [ 14, 51 ]
    },
    "preferredSlots" : null,
    "doAfter" : null,
    "nbEmpRequired" : 1,
    "deadline" : [ 16, 47 ],
    "skills" : [ {
      "id" : 3,
      "name" : "PLUMBING",
      "level" : 1
    } ],
    "duration" : 3600.000000000,
    "pause" : false
  }, {
    "id" : 788,
    "desc" : "CARPENTRY, PLUMBING",
    "location" : {
      "id" : 8532,
      "name" : null,
      "latitude" : 43.885765,
      "longitude" : 4.0698557
    },
    "openings" : {
      "start" : [ 9, 32 ],
      "end" : [ 9, 33 ]
    },
    "preferredSlots" : null,
    "doAfter" : null,
    "nbEmpRequired" : 1,
    "deadline" : [ 10, 13 ],
    "skills" : [ {
      "id" : 6,
      "name" : "CARPENTRY",
      "level" : 2
    }, {
      "id" : 3,
      "name" : "PLUMBING",
      "level" : 3
    } ],
    "duration" : 3600.000000000,
    "pause" : false
  }, {
    "id" : 897,
    "desc" : "PAINTING, ENGINEER",
    "location" : {
      "id" : 4274,
      "name" : null,
      "latitude" : 43.54198,
      "longitude" : 3.9469495
    },
    "openings" : {
      "start" : [ 15, 42 ],
      "end" : [ 16, 12 ]
    },
    "preferredSlots" : null,
    "doAfter" : null,
    "nbEmpRequired" : 1,
    "deadline" : [ 16, 3 ],
    "skills" : [ {
      "id" : 7,
      "name" : "PAINTING",
      "level" : 1
    }, {
      "id" : 1,
      "name" : "ENGINEER",
      "level" : 4
    } ],
    "duration" : 7200.000000000,
    "pause" : false
  }, {
    "id" : 598,
    "desc" : "PLUMBING, ELECTRICIAN",
    "location" : {
      "id" : 3388,
      "name" : null,
      "latitude" : 43.756584,
      "longitude" : 3.911044
    },
    "openings" : {
      "start" : [ 9, 14 ],
      "end" : [ 12, 22 ]
    },
    "preferredSlots" : null,
    "doAfter" : null,
    "nbEmpRequired" : 1,
    "deadline" : [ 12, 0 ],
    "skills" : [ {
      "id" : 3,
      "name" : "PLUMBING",
      "level" : 4
    }, {
      "id" : 2,
      "name" : "ELECTRICIAN",
      "level" : 4
    } ],
    "duration" : 3600.000000000,
    "pause" : false
  }, {
    "id" : 446,
    "desc" : "CARPENTRY, ENGINEER",
    "location" : {
      "id" : 2926,
      "name" : null,
      "latitude" : 43.433853,
      "longitude" : 4.02997
    },
    "openings" : {
      "start" : [ 13, 59 ],
      "end" : [ 14, 31 ]
    },
    "preferredSlots" : null,
    "doAfter" : null,
    "nbEmpRequired" : 1,
    "deadline" : [ 12, 8 ],
    "skills" : [ {
      "id" : 6,
      "name" : "CARPENTRY",
      "level" : 1
    }, {
      "id" : 1,
      "name" : "ENGINEER",
      "level" : 4
    } ],
    "duration" : 1800.000000000,
    "pause" : false
  }, {
    "id" : 434,
    "desc" : "ELECTRICIAN",
    "location" : {
      "id" : 2024,
      "name" : null,
      "latitude" : 44.090794,
      "longitude" : 3.886341
    },
    "openings" : {
      "start" : [ 10, 7 ],
      "end" : [ 10, 27 ]
    },
    "preferredSlots" : null,
    "doAfter" : null,
    "nbEmpRequired" : 1,
    "deadline" : [ 12, 16 ],
    "skills" : [ {
      "id" : 2,
      "name" : "ELECTRICIAN",
      "level" : 2
    } ],
    "duration" : 2700.000000000,
    "pause" : false
  }, {
    "id" : 3,
    "desc" : "MASONRY",
    "location" : {
      "id" : 4435,
      "name" : null,
      "latitude" : 44.06865,
      "longitude" : 4.150121
    },
    "openings" : {
      "start" : [ 10, 32 ],
      "end" : [ 11, 26 ]
    },
    "preferredSlots" : null,
    "doAfter" : null,
    "nbEmpRequired" : 1,
    "deadline" : [ 13, 29 ],
    "skills" : [ {
      "id" : 4,
      "name" : "MASONRY",
      "level" : 2
    } ],
    "duration" : 7200.000000000,
    "pause" : false
  }, {
    "id" : 366,
    "desc" : "GLAZING",
    "location" : {
      "id" : 9232,
      "name" : null,
      "latitude" : 43.674664,
      "longitude" : 4.0039673
    },
    "openings" : {
      "start" : [ 11, 56 ],
      "end" : [ 15, 40 ]
    },
    "preferredSlots" : null,
    "doAfter" : null,
    "nbEmpRequired" : 1,
    "deadline" : [ 10, 31 ],
    "skills" : [ {
      "id" : 5,
      "name" : "GLAZING",
      "level" : 3
    } ],
    "duration" : 3600.000000000,
    "pause" : false
  }, {
    "id" : 492,
    "desc" : "PAINTING",
    "location" : {
      "id" : 286,
      "name" : null,
      "latitude" : 43.47035,
      "longitude" : 4.1941876
    },
    "openings" : {
      "start" : [ 12, 56 ],
      "end" : [ 17, 23 ]
    },
    "preferredSlots" : null,
    "doAfter" : null,
    "nbEmpRequired" : 1,
    "deadline" : [ 12, 17 ],
    "skills" : [ {
      "id" : 7,
      "name" : "PAINTING",
      "level" : 4
    } ],
    "duration" : 3600.000000000,
    "pause" : false
  }, {
    "id" : 13,
    "desc" : "MASONRY, ENGINEER",
    "location" : {
      "id" : 4454,
      "name" : null,
      "latitude" : 43.936954,
      "longitude" : 4.030518
    },
    "openings" : {
      "start" : [ 9, 40 ],
      "end" : [ 14, 46 ]
    },
    "preferredSlots" : null,
    "doAfter" : null,
    "nbEmpRequired" : 1,
    "deadline" : [ 11, 24 ],
    "skills" : [ {
      "id" : 4,
      "name" : "MASONRY",
      "level" : 5
    }, {
      "id" : 1,
      "name" : "ENGINEER",
      "level" : 2
    } ],
    "duration" : 1800.000000000,
    "pause" : false
  }, {
    "id" : 914,
    "desc" : "ELECTRICIAN, CARPENTRY",
    "location" : {
      "id" : 8912,
      "name" : null,
      "latitude" : 43.89657,
      "longitude" : 3.9913723
    },
    "openings" : {
      "start" : [ 10, 39 ],
      "end" : [ 12, 59 ]
    },
    "preferredSlots" : null,
    "doAfter" : null,
    "nbEmpRequired" : 1,
    "deadline" : [ 13, 46 ],
    "skills" : [ {
      "id" : 2,
      "name" : "ELECTRICIAN",
      "level" : 2
    }, {
      "id" : 6,
      "name" : "CARPENTRY",
      "level" : 2
    } ],
    "duration" : 2700.000000000,
    "pause" : false
  }, {
    "id" : 166,
    "desc" : "GLAZING",
    "location" : {
      "id" : 3431,
      "name" : null,
      "latitude" : 44.058617,
      "longitude" : 4.132366
    },
    "openings" : {
      "start" : [ 12, 24 ],
      "end" : [ 17, 28 ]
    },
    "preferredSlots" : null,
    "doAfter" : null,
    "nbEmpRequired" : 1,
    "deadline" : [ 12, 11 ],
    "skills" : [ {
      "id" : 5,
      "name" : "GLAZING",
      "level" : 4
    } ],
    "duration" : 2700.000000000,
    "pause" : false
  }, {
    "id" : 750,
    "desc" : "ELECTRICIAN, IRONWORK",
    "location" : {
      "id" : 9790,
      "name" : null,
      "latitude" : 43.64852,
      "longitude" : 4.2262564
    },
    "openings" : {
      "start" : [ 10, 27 ],
      "end" : [ 16, 59 ]
    },
    "preferredSlots" : null,
    "doAfter" : null,
    "nbEmpRequired" : 1,
    "deadline" : [ 14, 13 ],
    "skills" : [ {
      "id" : 2,
      "name" : "ELECTRICIAN",
      "level" : 4
    }, {
      "id" : 8,
      "name" : "IRONWORK",
      "level" : 5
    } ],
    "duration" : 3600.000000000,
    "pause" : false
  }, {
    "id" : 49,
    "desc" : "GLAZING, ENGINEER",
    "location" : {
      "id" : 8724,
      "name" : null,
      "latitude" : 43.431732,
      "longitude" : 4.131715
    },
    "openings" : {
      "start" : [ 11, 42 ],
      "end" : [ 16, 9 ]
    },
    "preferredSlots" : null,
    "doAfter" : null,
    "nbEmpRequired" : 1,
    "deadline" : [ 15, 31 ],
    "skills" : [ {
      "id" : 5,
      "name" : "GLAZING",
      "level" : 2
    }, {
      "id" : 1,
      "name" : "ENGINEER",
      "level" : 2
    } ],
    "duration" : 3600.000000000,
    "pause" : false
  }, {
    "id" : 505,
    "desc" : "GLAZING",
    "location" : {
      "id" : 4797,
      "name" : null,
      "latitude" : 43.99082,
      "longitude" : 3.8873463
    },
    "openings" : {
      "start" : [ 10, 40 ],
      "end" : [ 14, 56 ]
    },
    "preferredSlots" : null,
    "doAfter" : null,
    "nbEmpRequired" : 1,
    "deadline" : [ 17, 46 ],
    "skills" : [ {
      "id" : 5,
      "name" : "GLAZING",
      "level" : 4
    } ],
    "duration" : 1800.000000000,
    "pause" : false
  }, {
    "id" : 586,
    "desc" : "PLUMBING",
    "location" : {
      "id" : 8532,
      "name" : null,
      "latitude" : 44.089455,
      "longitude" : 4.144023
    },
    "openings" : {
      "start" : [ 10, 58 ],
      "end" : [ 17, 21 ]
    },
    "preferredSlots" : null,
    "doAfter" : null,
    "nbEmpRequired" : 1,
    "deadline" : [ 11, 27 ],
    "skills" : [ {
      "id" : 3,
      "name" : "PLUMBING",
      "level" : 1
    } ],
    "duration" : 2700.000000000,
    "pause" : false
  }, {
    "id" : 604,
    "desc" : "MANAGEMENT",
    "location" : {
      "id" : 537,
      "name" : null,
      "latitude" : 43.454403,
      "longitude" : 4.282324
    },
    "openings" : {
      "start" : [ 13, 27 ],
      "end" : [ 14, 41 ]
    },
    "preferredSlots" : null,
    "doAfter" : null,
    "nbEmpRequired" : 1,
    "deadline" : [ 11, 44 ],
    "skills" : [ {
      "id" : 0,
      "name" : "MANAGEMENT",
      "level" : 3
    } ],
    "duration" : 1800.000000000,
    "pause" : false
  }, {
    "id" : 301,
    "desc" : "PAINTING, CARPENTRY",
    "location" : {
      "id" : 6867,
      "name" : null,
      "latitude" : 43.779312,
      "longitude" : 4.1890154
    },
    "openings" : {
      "start" : [ 11, 56 ],
      "end" : [ 15, 20 ]
    },
    "preferredSlots" : null,
    "doAfter" : null,
    "nbEmpRequired" : 1,
    "deadline" : [ 9, 2 ],
    "skills" : [ {
      "id" : 7,
      "name" : "PAINTING",
      "level" : 2
    }, {
      "id" : 6,
      "name" : "CARPENTRY",
      "level" : 1
    } ],
    "duration" : 2700.000000000,
    "pause" : false
  }, {
    "id" : 379,
    "desc" : "GLAZING, PAINTING",
    "location" : {
      "id" : 4798,
      "name" : null,
      "latitude" : 43.91136,
      "longitude" : 3.7393792
    },
    "openings" : {
      "start" : [ 13, 27 ],
      "end" : [ 16, 29 ]
    },
    "preferredSlots" : null,
    "doAfter" : null,
    "nbEmpRequired" : 1,
    "deadline" : [ 10, 19 ],
    "skills" : [ {
      "id" : 5,
      "name" : "GLAZING",
      "level" : 3
    }, {
      "id" : 7,
      "name" : "PAINTING",
      "level" : 5
    } ],
    "duration" : 3600.000000000,
    "pause" : false
  }, {
    "id" : 920,
    "desc" : "ELECTRICIAN",
    "location" : {
      "id" : 8773,
      "name" : null,
      "latitude" : 43.650856,
      "longitude" : 4.083337
    },
    "openings" : {
      "start" : [ 15, 6 ],
      "end" : [ 15, 28 ]
    },
    "preferredSlots" : null,
    "doAfter" : null,
    "nbEmpRequired" : 1,
    "deadline" : [ 9, 8 ],
    "skills" : [ {
      "id" : 2,
      "name" : "ELECTRICIAN",
      "level" : 3
    } ],
    "duration" : 2700.000000000,
    "pause" : false
  }, {
    "id" : 761,
    "desc" : "IRONWORK",
    "location" : {
      "id" : 384,
      "name" : null,
      "latitude" : 43.931072,
      "longitude" : 3.9663682
    },
    "openings" : {
      "start" : [ 10, 1 ],
      "end" : [ 17, 31 ]
    },
    "preferredSlots" : null,
    "doAfter" : null,
    "nbEmpRequired" : 1,
    "deadline" : [ 16, 23 ],
    "skills" : [ {
      "id" : 8,
      "name" : "IRONWORK",
      "level" : 5
    } ],
    "duration" : 3600.000000000,
    "pause" : false
  }, {
    "id" : 402,
    "desc" : "TILER",
    "location" : {
      "id" : 9886,
      "name" : null,
      "latitude" : 43.957825,
      "longitude" : 3.8345006
    },
    "openings" : {
      "start" : [ 9, 30 ],
      "end" : [ 17, 56 ]
    },
    "preferredSlots" : null,
    "doAfter" : null,
    "nbEmpRequired" : 1,
    "deadline" : [ 10, 54 ],
    "skills" : [ {
      "id" : 9,
      "name" : "TILER",
      "level" : 1
    } ],
    "duration" : 1800.000000000,
    "pause" : false
  }, {
    "id" : 677,
    "desc" : "IRONWORK",
    "location" : {
      "id" : 3481,
      "name" : null,
      "latitude" : 43.80766,
      "longitude" : 3.8782601
    },
    "openings" : {
      "start" : [ 15, 53 ],
      "end" : [ 16, 48 ]
    },
    "preferredSlots" : null,
    "doAfter" : null,
    "nbEmpRequired" : 1,
    "deadline" : [ 11, 14 ],
    "skills" : [ {
      "id" : 8,
      "name" : "IRONWORK",
      "level" : 3
    } ],
    "duration" : 2700.000000000,
    "pause" : false
  }, {
    "id" : 156,
    "desc" : "IRONWORK, CARPENTRY",
    "location" : {
      "id" : 2604,
      "name" : null,
      "latitude" : 43.725647,
      "longitude" : 4.1040707
    },
    "openings" : {
      "start" : [ 13, 38 ],
      "end" : [ 16, 56 ]
    },
    "preferredSlots" : null,
    "doAfter" : null,
    "nbEmpRequired" : 1,
    "deadline" : [ 13, 20 ],
    "skills" : [ {
      "id" : 8,
      "name" : "IRONWORK",
      "level" : 2
    }, {
      "id" : 6,
      "name" : "CARPENTRY",
      "level" : 1
    } ],
    "duration" : 1800.000000000,
    "pause" : false
  }, {
    "id" : 346,
    "desc" : "GLAZING, MANAGEMENT",
    "location" : {
      "id" : 6868,
      "name" : null,
      "latitude" : 43.635612,
      "longitude" : 4.1756377
    },
    "openings" : {
      "start" : [ 12, 22 ],
      "end" : [ 16, 9 ]
    },
    "preferredSlots" : null,
    "doAfter" : null,
    "nbEmpRequired" : 1,
    "deadline" : [ 11, 55 ],
    "skills" : [ {
      "id" : 5,
      "name" : "GLAZING",
      "level" : 3
    }, {
      "id" : 0,
      "name" : "MANAGEMENT",
      "level" : 4
    } ],
    "duration" : 2700.000000000,
    "pause" : false
  }, {
    "id" : 184,
    "desc" : "ELECTRICIAN, CARPENTRY",
    "location" : {
      "id" : 1060,
      "name" : null,
      "latitude" : 43.767693,
      "longitude" : 3.9611583
    },
    "openings" : {
      "start" : [ 9, 13 ],
      "end" : [ 16, 45 ]
    },
    "preferredSlots" : null,
    "doAfter" : null,
    "nbEmpRequired" : 1,
    "deadline" : [ 15, 11 ],
    "skills" : [ {
      "id" : 2,
      "name" : "ELECTRICIAN",
      "level" : 2
    }, {
      "id" : 6,
      "name" : "CARPENTRY",
      "level" : 1
    } ],
    "duration" : 1800.000000000,
    "pause" : false
  }, {
    "id" : 463,
    "desc" : "IRONWORK, MASONRY",
    "location" : {
      "id" : 1967,
      "name" : null,
      "latitude" : 43.441055,
      "longitude" : 3.9770436
    },
    "openings" : {
      "start" : [ 12, 1 ],
      "end" : [ 15, 7 ]
    },
    "preferredSlots" : null,
    "doAfter" : null,
    "nbEmpRequired" : 1,
    "deadline" : [ 10, 52 ],
    "skills" : [ {
      "id" : 8,
      "name" : "IRONWORK",
      "level" : 3
    }, {
      "id" : 4,
      "name" : "MASONRY",
      "level" : 4
    } ],
    "duration" : 3600.000000000,
    "pause" : false
  }, {
    "id" : 302,
    "desc" : "MASONRY, PLUMBING",
    "location" : {
      "id" : 3626,
      "name" : null,
      "latitude" : 44.079964,
      "longitude" : 4.099126
    },
    "openings" : {
      "start" : [ 11, 11 ],
      "end" : [ 12, 34 ]
    },
    "preferredSlots" : null,
    "doAfter" : null,
    "nbEmpRequired" : 1,
    "deadline" : [ 11, 22 ],
    "skills" : [ {
      "id" : 4,
      "name" : "MASONRY",
      "level" : 3
    }, {
      "id" : 3,
      "name" : "PLUMBING",
      "level" : 1
    } ],
    "duration" : 1800.000000000,
    "pause" : false
  }, {
    "id" : 433,
    "desc" : "TILER, GLAZING",
    "location" : {
      "id" : 7496,
      "name" : null,
      "latitude" : 43.73249,
      "longitude" : 3.8605418
    },
    "openings" : {
      "start" : [ 11, 55 ],
      "end" : [ 14, 53 ]
    },
    "preferredSlots" : null,
    "doAfter" : null,
    "nbEmpRequired" : 1,
    "deadline" : [ 13, 30 ],
    "skills" : [ {
      "id" : 9,
      "name" : "TILER",
      "level" : 1
    }, {
      "id" : 5,
      "name" : "GLAZING",
      "level" : 4
    } ],
    "duration" : 3600.000000000,
    "pause" : false
  }, {
    "id" : 965,
    "desc" : "TILER",
    "location" : {
      "id" : 616,
      "name" : null,
      "latitude" : 44.060875,
      "longitude" : 4.2612567
    },
    "openings" : {
      "start" : [ 11, 23 ],
      "end" : [ 17, 53 ]
    },
    "preferredSlots" : null,
    "doAfter" : null,
    "nbEmpRequired" : 1,
    "deadline" : [ 11, 26 ],
    "skills" : [ {
      "id" : 9,
      "name" : "TILER",
      "level" : 3
    } ],
    "duration" : 5400.000000000,
    "pause" : false
  }, {
    "id" : 670,
    "desc" : "PAINTING, TILER",
    "location" : {
      "id" : 4559,
      "name" : null,
      "latitude" : 43.880035,
      "longitude" : 3.9059842
    },
    "openings" : {
      "start" : [ 9, 1 ],
      "end" : [ 16, 28 ]
    },
    "preferredSlots" : null,
    "doAfter" : null,
    "nbEmpRequired" : 1,
    "deadline" : [ 10, 46 ],
    "skills" : [ {
      "id" : 7,
      "name" : "PAINTING",
      "level" : 5
    }, {
      "id" : 9,
      "name" : "TILER",
      "level" : 5
    } ],
    "duration" : 2700.000000000,
    "pause" : false
  }, {
    "id" : 327,
    "desc" : "TILER, CARPENTRY",
    "location" : {
      "id" : 3136,
      "name" : null,
      "latitude" : 44.030663,
      "longitude" : 3.9995408
    },
    "openings" : {
      "start" : [ 10, 38 ],
      "end" : [ 15, 54 ]
    },
    "preferredSlots" : null,
    "doAfter" : null,
    "nbEmpRequired" : 1,
    "deadline" : [ 13, 0 ],
    "skills" : [ {
      "id" : 9,
      "name" : "TILER",
      "level" : 4
    }, {
      "id" : 6,
      "name" : "CARPENTRY",
      "level" : 4
    } ],
    "duration" : 2700.000000000,
    "pause" : false
  }, {
    "id" : 203,
    "desc" : "MANAGEMENT, IRONWORK",
    "location" : {
      "id" : 2427,
      "name" : null,
      "latitude" : 44.00659,
      "longitude" : 4.2504153
    },
    "openings" : {
      "start" : [ 9, 20 ],
      "end" : [ 9, 46 ]
    },
    "preferredSlots" : null,
    "doAfter" : null,
    "nbEmpRequired" : 1,
    "deadline" : [ 12, 24 ],
    "skills" : [ {
      "id" : 0,
      "name" : "MANAGEMENT",
      "level" : 4
    }, {
      "id" : 8,
      "name" : "IRONWORK",
      "level" : 4
    } ],
    "duration" : 3600.000000000,
    "pause" : false
  }, {
    "id" : 561,
    "desc" : "ENGINEER, ELECTRICIAN",
    "location" : {
      "id" : 6860,
      "name" : null,
      "latitude" : 43.60653,
      "longitude" : 4.092031
    },
    "openings" : {
      "start" : [ 16, 50 ],
      "end" : [ 16, 54 ]
    },
    "preferredSlots" : null,
    "doAfter" : null,
    "nbEmpRequired" : 1,
    "deadline" : [ 17, 16 ],
    "skills" : [ {
      "id" : 1,
      "name" : "ENGINEER",
      "level" : 5
    }, {
      "id" : 2,
      "name" : "ELECTRICIAN",
      "level" : 5
    } ],
    "duration" : 1800.000000000,
    "pause" : false
  }, {
    "id" : 365,
    "desc" : "IRONWORK, PLUMBING",
    "location" : {
      "id" : 7780,
      "name" : null,
      "latitude" : 44.00567,
      "longitude" : 4.2815256
    },
    "openings" : {
      "start" : [ 14, 58 ],
      "end" : [ 15, 43 ]
    },
    "preferredSlots" : null,
    "doAfter" : null,
    "nbEmpRequired" : 1,
    "deadline" : [ 14, 6 ],
    "skills" : [ {
      "id" : 8,
      "name" : "IRONWORK",
      "level" : 5
    }, {
      "id" : 3,
      "name" : "PLUMBING",
      "level" : 4
    } ],
    "duration" : 5400.000000000,
    "pause" : false
  }, {
    "id" : 975,
    "desc" : "TILER",
    "location" : {
      "id" : 6103,
      "name" : null,
      "latitude" : 43.464508,
      "longitude" : 4.2079916
    },
    "openings" : {
      "start" : [ 14, 8 ],
      "end" : [ 15, 20 ]
    },
    "preferredSlots" : null,
    "doAfter" : null,
    "nbEmpRequired" : 1,
    "deadline" : [ 13, 25 ],
    "skills" : [ {
      "id" : 9,
      "name" : "TILER",
      "level" : 2
    } ],
    "duration" : 2700.000000000,
    "pause" : false
  }, {
    "id" : 144,
    "desc" : "PLUMBING, MANAGEMENT",
    "location" : {
      "id" : 2638,
      "name" : null,
      "latitude" : 43.73562,
      "longitude" : 3.7937424
    },
    "openings" : {
      "start" : [ 11, 19 ],
      "end" : [ 17, 42 ]
    },
    "preferredSlots" : null,
    "doAfter" : null,
    "nbEmpRequired" : 1,
    "deadline" : [ 16, 36 ],
    "skills" : [ {
      "id" : 3,
      "name" : "PLUMBING",
      "level" : 1
    }, {
      "id" : 0,
      "name" : "MANAGEMENT",
      "level" : 5
    } ],
    "duration" : 2700.000000000,
    "pause" : false
  }, {
    "id" : 837,
    "desc" : "CARPENTRY",
    "location" : {
      "id" : 2394,
      "name" : null,
      "latitude" : 43.600044,
      "longitude" : 4.1005864
    },
    "openings" : {
      "start" : [ 12, 57 ],
      "end" : [ 17, 37 ]
    },
    "preferredSlots" : null,
    "doAfter" : null,
    "nbEmpRequired" : 1,
    "deadline" : [ 9, 8 ],
    "skills" : [ {
      "id" : 6,
      "name" : "CARPENTRY",
      "level" : 4
    } ],
    "duration" : 1800.000000000,
    "pause" : false
  }, {
    "id" : 529,
    "desc" : "MASONRY",
    "location" : {
      "id" : 493,
      "name" : null,
      "latitude" : 43.565712,
      "longitude" : 4.15463
    },
    "openings" : {
      "start" : [ 11, 25 ],
      "end" : [ 15, 47 ]
    },
    "preferredSlots" : null,
    "doAfter" : null,
    "nbEmpRequired" : 1,
    "deadline" : [ 17, 1 ],
    "skills" : [ {
      "id" : 4,
      "name" : "MASONRY",
      "level" : 3
    } ],
    "duration" : 5400.000000000,
    "pause" : false
  }, {
    "id" : 702,
    "desc" : "MANAGEMENT",
    "location" : {
      "id" : 6682,
      "name" : null,
      "latitude" : 43.840458,
      "longitude" : 3.9235454
    },
    "openings" : {
      "start" : [ 12, 35 ],
      "end" : [ 17, 10 ]
    },
    "preferredSlots" : null,
    "doAfter" : null,
    "nbEmpRequired" : 1,
    "deadline" : [ 12, 33 ],
    "skills" : [ {
      "id" : 0,
      "name" : "MANAGEMENT",
      "level" : 4
    } ],
    "duration" : 3600.000000000,
    "pause" : false
  }, {
    "id" : 461,
    "desc" : "TILER, ELECTRICIAN",
    "location" : {
      "id" : 7190,
      "name" : null,
      "latitude" : 43.439754,
      "longitude" : 4.2303047
    },
    "openings" : {
      "start" : [ 11, 39 ],
      "end" : [ 13, 17 ]
    },
    "preferredSlots" : null,
    "doAfter" : null,
    "nbEmpRequired" : 1,
    "deadline" : [ 9, 34 ],
    "skills" : [ {
      "id" : 9,
      "name" : "TILER",
      "level" : 2
    }, {
      "id" : 2,
      "name" : "ELECTRICIAN",
      "level" : 4
    } ],
    "duration" : 2700.000000000,
    "pause" : false
  }, {
    "id" : 896,
    "desc" : "PAINTING, TILER",
    "location" : {
      "id" : 9739,
      "name" : null,
      "latitude" : 44.024982,
      "longitude" : 3.8211563
    },
    "openings" : {
      "start" : [ 9, 35 ],
      "end" : [ 11, 0 ]
    },
    "preferredSlots" : null,
    "doAfter" : null,
    "nbEmpRequired" : 1,
    "deadline" : [ 13, 59 ],
    "skills" : [ {
      "id" : 7,
      "name" : "PAINTING",
      "level" : 4
    }, {
      "id" : 9,
      "name" : "TILER",
      "level" : 5
    } ],
    "duration" : 1800.000000000,
    "pause" : false
  }, {
    "id" : 599,
    "desc" : "MASONRY, CARPENTRY",
    "location" : {
      "id" : 1718,
      "name" : null,
      "latitude" : 43.45981,
      "longitude" : 4.0655146
    },
    "openings" : {
      "start" : [ 11, 11 ],
      "end" : [ 17, 34 ]
    },
    "preferredSlots" : null,
    "doAfter" : null,
    "nbEmpRequired" : 1,
    "deadline" : [ 13, 17 ],
    "skills" : [ {
      "id" : 4,
      "name" : "MASONRY",
      "level" : 2
    }, {
      "id" : 6,
      "name" : "CARPENTRY",
      "level" : 3
    } ],
    "duration" : 2700.000000000,
    "pause" : false
  }, {
    "id" : 663,
    "desc" : "PAINTING",
    "location" : {
      "id" : 6859,
      "name" : null,
      "latitude" : 43.778175,
      "longitude" : 3.9721684
    },
    "openings" : {
      "start" : [ 9, 45 ],
      "end" : [ 14, 56 ]
    },
    "preferredSlots" : null,
    "doAfter" : null,
    "nbEmpRequired" : 1,
    "deadline" : [ 11, 56 ],
    "skills" : [ {
      "id" : 7,
      "name" : "PAINTING",
      "level" : 2
    } ],
    "duration" : 1800.000000000,
    "pause" : false
  }, {
    "id" : 586,
    "desc" : "ELECTRICIAN",
    "location" : {
      "id" : 4272,
      "name" : null,
      "latitude" : 43.804268,
      "longitude" : 3.9762688
    },
    "openings" : {
      "start" : [ 14, 27 ],
      "end" : [ 17, 19 ]
    },
    "preferredSlots" : null,
    "doAfter" : null,
    "nbEmpRequired" : 1,
    "deadline" : [ 17, 40 ],
    "skills" : [ {
      "id" : 2,
      "name" : "ELECTRICIAN",
      "level" : 2
    } ],
    "duration" : 2700.000000000,
    "pause" : false
  } ],
  "employees" : [ {
    "id" : 820,
    "name" : "820",
    "shifts" : [ {
      "start" : [ 9, 0 ],
      "end" : [ 12, 0 ]
    }, {
      "start" : [ 13, 0 ],
      "end" : [ 17, 0 ]
    } ],
    "prefSlots" : null,
    "startingLoc" : {
      "id" : 3000,
      "name" : null,
      "latitude" : 44.005535,
      "longitude" : 4.0587597
    },
    "skills" : [ {
      "id" : 3,
      "name" : "PLUMBING",
      "level" : 6
    }, {
      "id" : 4,
      "name" : "MASONRY",
      "level" : 4
    }, {
      "id" : 5,
      "name" : "GLAZING",
      "level" : 6
    }, {
      "id" : 2,
      "name" : "ELECTRICIAN",
      "level" : 1
    }, {
      "id" : 1,
      "name" : "ENGINEER",
      "level" : 8
    }, {
      "id" : 6,
      "name" : "CARPENTRY",
      "level" : 9
    }, {
      "id" : 3,
      "name" : "PLUMBING",
      "level" : 8
    } ]
  }, {
    "id" : 186,
    "name" : "186",
    "shifts" : [ {
      "start" : [ 9, 0 ],
      "end" : [ 12, 0 ]
    }, {
      "start" : [ 13, 0 ],
      "end" : [ 17, 0 ]
    } ],
    "prefSlots" : null,
    "startingLoc" : {
      "id" : 7589,
      "name" : null,
      "latitude" : 44.079315,
      "longitude" : 3.760453
    },
    "skills" : [ {
      "id" : 2,
      "name" : "ELECTRICIAN",
      "level" : 10
    }, {
      "id" : 9,
      "name" : "TILER",
      "level" : 6
    }, {
      "id" : 3,
      "name" : "PLUMBING",
      "level" : 2
    } ]
  } ],
  "appointments" : [ {
    "job" : {
      "id" : 505,
      "desc" : "TILER",
      "location" : {
        "id" : 3719,
        "name" : null,
        "latitude" : 43.62615,
        "longitude" : 4.108532
      },
      "openings" : {
        "start" : [ 13, 29 ],
        "end" : [ 14, 52 ]
      },
      "preferredSlots" : null,
      "doAfter" : null,
      "nbEmpRequired" : 1,
      "deadline" : [ 14, 4 ],
      "skills" : [ {
        "id" : 9,
        "name" : "TILER",
        "level" : 5
      } ],
      "duration" : 2700.000000000,
      "pause" : false
    },
    "needed" : [ {
      "id" : 186,
      "name" : "186",
      "shifts" : [ {
        "start" : [ 9, 0 ],
        "end" : [ 12, 0 ]
      }, {
        "start" : [ 13, 0 ],
        "end" : [ 17, 0 ]
      } ],
      "prefSlots" : null,
      "startingLoc" : {
        "id" : 7589,
        "name" : null,
        "latitude" : 44.079315,
        "longitude" : 3.760453
      },
      "skills" : [ {
        "id" : 2,
        "name" : "ELECTRICIAN",
        "level" : 10
      }, {
        "id" : 9,
        "name" : "TILER",
        "level" : 6
      }, {
        "id" : 3,
        "name" : "PLUMBING",
        "level" : 2
      } ]
    } ]
  }, {
    "job" : {
      "id" : 984,
      "desc" : "ENGINEER, GLAZING",
      "location" : {
        "id" : 6709,
        "name" : null,
        "latitude" : 43.838287,
        "longitude" : 4.257428
      },
      "openings" : {
        "start" : [ 9, 5 ],
        "end" : [ 17, 11 ]
      },
      "preferredSlots" : null,
      "doAfter" : null,
      "nbEmpRequired" : 1,
      "deadline" : [ 14, 19 ],
      "skills" : [ {
        "id" : 1,
        "name" : "ENGINEER",
        "level" : 2
      }, {
        "id" : 5,
        "name" : "GLAZING",
        "level" : 3
      } ],
      "duration" : 7200.000000000,
      "pause" : false
    },
    "needed" : [ {
      "id" : 186,
      "name" : "186",
      "shifts" : [ {
        "start" : [ 9, 0 ],
        "end" : [ 12, 0 ]
      }, {
        "start" : [ 13, 0 ],
        "end" : [ 17, 0 ]
      } ],
      "prefSlots" : null,
      "startingLoc" : {
        "id" : 7589,
        "name" : null,
        "latitude" : 44.079315,
        "longitude" : 3.760453
      },
      "skills" : [ {
        "id" : 2,
        "name" : "ELECTRICIAN",
        "level" : 10
      }, {
        "id" : 9,
        "name" : "TILER",
        "level" : 6
      }, {
        "id" : 3,
        "name" : "PLUMBING",
        "level" : 2
      } ]
    } ]
  }, {
    "job" : {
      "id" : 702,
      "desc" : "MANAGEMENT",
      "location" : {
        "id" : 6682,
        "name" : null,
        "latitude" : 43.840458,
        "longitude" : 3.9235454
      },
      "openings" : {
        "start" : [ 12, 35 ],
        "end" : [ 17, 10 ]
      },
      "preferredSlots" : null,
      "doAfter" : null,
      "nbEmpRequired" : 1,
      "deadline" : [ 12, 33 ],
      "skills" : [ {
        "id" : 0,
        "name" : "MANAGEMENT",
        "level" : 4
      } ],
      "duration" : 3600.000000000,
      "pause" : false
    },
    "needed" : [ {
      "id" : 186,
      "name" : "186",
      "shifts" : [ {
        "start" : [ 9, 0 ],
        "end" : [ 12, 0 ]
      }, {
        "start" : [ 13, 0 ],
        "end" : [ 17, 0 ]
      } ],
      "prefSlots" : null,
      "startingLoc" : {
        "id" : 7589,
        "name" : null,
        "latitude" : 44.079315,
        "longitude" : 3.760453
      },
      "skills" : [ {
        "id" : 2,
        "name" : "ELECTRICIAN",
        "level" : 10
      }, {
        "id" : 9,
        "name" : "TILER",
        "level" : 6
      }, {
        "id" : 3,
        "name" : "PLUMBING",
        "level" : 2
      } ]
    }, {
      "id" : 820,
      "name" : "820",
      "shifts" : [ {
        "start" : [ 9, 0 ],
        "end" : [ 12, 0 ]
      }, {
        "start" : [ 13, 0 ],
        "end" : [ 17, 0 ]
      } ],
      "prefSlots" : null,
      "startingLoc" : {
        "id" : 3000,
        "name" : null,
        "latitude" : 44.005535,
        "longitude" : 4.0587597
      },
      "skills" : [ {
        "id" : 3,
        "name" : "PLUMBING",
        "level" : 6
      }, {
        "id" : 4,
        "name" : "MASONRY",
        "level" : 4
      }, {
        "id" : 5,
        "name" : "GLAZING",
        "level" : 6
      }, {
        "id" : 2,
        "name" : "ELECTRICIAN",
        "level" : 1
      }, {
        "id" : 1,
        "name" : "ENGINEER",
        "level" : 8
      }, {
        "id" : 6,
        "name" : "CARPENTRY",
        "level" : 9
      }, {
        "id" : 3,
        "name" : "PLUMBING",
        "level" : 8
      } ]
    } ]
  }, {
    "job" : {
      "id" : 85,
      "desc" : "ELECTRICIAN, MASONRY",
      "location" : {
        "id" : 4628,
        "name" : null,
        "latitude" : 43.926506,
        "longitude" : 4.180291
      },
      "openings" : {
        "start" : [ 10, 7 ],
        "end" : [ 17, 40 ]
      },
      "preferredSlots" : null,
      "doAfter" : null,
      "nbEmpRequired" : 1,
      "deadline" : [ 12, 56 ],
      "skills" : [ {
        "id" : 2,
        "name" : "ELECTRICIAN",
        "level" : 5
      }, {
        "id" : 4,
        "name" : "MASONRY",
        "level" : 3
      } ],
      "duration" : 2700.000000000,
      "pause" : false
    },
    "needed" : [ {
      "id" : 820,
      "name" : "820",
      "shifts" : [ {
        "start" : [ 9, 0 ],
        "end" : [ 12, 0 ]
      }, {
        "start" : [ 13, 0 ],
        "end" : [ 17, 0 ]
      } ],
      "prefSlots" : null,
      "startingLoc" : {
        "id" : 3000,
        "name" : null,
        "latitude" : 44.005535,
        "longitude" : 4.0587597
      },
      "skills" : [ {
        "id" : 3,
        "name" : "PLUMBING",
        "level" : 6
      }, {
        "id" : 4,
        "name" : "MASONRY",
        "level" : 4
      }, {
        "id" : 5,
        "name" : "GLAZING",
        "level" : 6
      }, {
        "id" : 2,
        "name" : "ELECTRICIAN",
        "level" : 1
      }, {
        "id" : 1,
        "name" : "ENGINEER",
        "level" : 8
      }, {
        "id" : 6,
        "name" : "CARPENTRY",
        "level" : 9
      }, {
        "id" : 3,
        "name" : "PLUMBING",
        "level" : 8
      } ]
    }, {
      "id" : 186,
      "name" : "186",
      "shifts" : [ {
        "start" : [ 9, 0 ],
        "end" : [ 12, 0 ]
      }, {
        "start" : [ 13, 0 ],
        "end" : [ 17, 0 ]
      } ],
      "prefSlots" : null,
      "startingLoc" : {
        "id" : 7589,
        "name" : null,
        "latitude" : 44.079315,
        "longitude" : 3.760453
      },
      "skills" : [ {
        "id" : 2,
        "name" : "ELECTRICIAN",
        "level" : 10
      }, {
        "id" : 9,
        "name" : "TILER",
        "level" : 6
      }, {
        "id" : 3,
        "name" : "PLUMBING",
        "level" : 2
      } ]
    } ]
  }, {
    "job" : {
      "id" : 176,
      "desc" : "PLUMBING",
      "location" : {
        "id" : 4743,
        "name" : null,
        "latitude" : 43.8358,
        "longitude" : 3.808968
      },
      "openings" : {
        "start" : [ 11, 41 ],
        "end" : [ 16, 54 ]
      },
      "preferredSlots" : null,
      "doAfter" : null,
      "nbEmpRequired" : 1,
      "deadline" : [ 13, 22 ],
      "skills" : [ {
        "id" : 3,
        "name" : "PLUMBING",
        "level" : 3
      } ],
      "duration" : 3600.000000000,
      "pause" : false
    },
    "needed" : [ {
      "id" : 186,
      "name" : "186",
      "shifts" : [ {
        "start" : [ 9, 0 ],
        "end" : [ 12, 0 ]
      }, {
        "start" : [ 13, 0 ],
        "end" : [ 17, 0 ]
      } ],
      "prefSlots" : null,
      "startingLoc" : {
        "id" : 7589,
        "name" : null,
        "latitude" : 44.079315,
        "longitude" : 3.760453
      },
      "skills" : [ {
        "id" : 2,
        "name" : "ELECTRICIAN",
        "level" : 10
      }, {
        "id" : 9,
        "name" : "TILER",
        "level" : 6
      }, {
        "id" : 3,
        "name" : "PLUMBING",
        "level" : 2
      } ]
    } ]
  }, {
    "job" : {
      "id" : 670,
      "desc" : "PAINTING, TILER",
      "location" : {
        "id" : 4559,
        "name" : null,
        "latitude" : 43.880035,
        "longitude" : 3.9059842
      },
      "openings" : {
        "start" : [ 9, 1 ],
        "end" : [ 16, 28 ]
      },
      "preferredSlots" : null,
      "doAfter" : null,
      "nbEmpRequired" : 1,
      "deadline" : [ 10, 46 ],
      "skills" : [ {
        "id" : 7,
        "name" : "PAINTING",
        "level" : 5
      }, {
        "id" : 9,
        "name" : "TILER",
        "level" : 5
      } ],
      "duration" : 2700.000000000,
      "pause" : false
    },
    "needed" : [ {
      "id" : 186,
      "name" : "186",
      "shifts" : [ {
        "start" : [ 9, 0 ],
        "end" : [ 12, 0 ]
      }, {
        "start" : [ 13, 0 ],
        "end" : [ 17, 0 ]
      } ],
      "prefSlots" : null,
      "startingLoc" : {
        "id" : 7589,
        "name" : null,
        "latitude" : 44.079315,
        "longitude" : 3.760453
      },
      "skills" : [ {
        "id" : 2,
        "name" : "ELECTRICIAN",
        "level" : 10
      }, {
        "id" : 9,
        "name" : "TILER",
        "level" : 6
      }, {
        "id" : 3,
        "name" : "PLUMBING",
        "level" : 2
      } ]
    } ]
  }, {
    "job" : {
      "id" : 782,
      "desc" : "PLUMBING, TILER",
      "location" : {
        "id" : 547,
        "name" : null,
        "latitude" : 43.48051,
        "longitude" : 3.8492382
      },
      "openings" : {
        "start" : [ 10, 45 ],
        "end" : [ 12, 25 ]
      },
      "preferredSlots" : null,
      "doAfter" : null,
      "nbEmpRequired" : 1,
      "deadline" : [ 11, 14 ],
      "skills" : [ {
        "id" : 3,
        "name" : "PLUMBING",
        "level" : 5
      }, {
        "id" : 9,
        "name" : "TILER",
        "level" : 5
      } ],
      "duration" : 3600.000000000,
      "pause" : false
    },
    "needed" : [ {
      "id" : 186,
      "name" : "186",
      "shifts" : [ {
        "start" : [ 9, 0 ],
        "end" : [ 12, 0 ]
      }, {
        "start" : [ 13, 0 ],
        "end" : [ 17, 0 ]
      } ],
      "prefSlots" : null,
      "startingLoc" : {
        "id" : 7589,
        "name" : null,
        "latitude" : 44.079315,
        "longitude" : 3.760453
      },
      "skills" : [ {
        "id" : 2,
        "name" : "ELECTRICIAN",
        "level" : 10
      }, {
        "id" : 9,
        "name" : "TILER",
        "level" : 6
      }, {
        "id" : 3,
        "name" : "PLUMBING",
        "level" : 2
      } ]
    }, {
      "id" : 820,
      "name" : "820",
      "shifts" : [ {
        "start" : [ 9, 0 ],
        "end" : [ 12, 0 ]
      }, {
        "start" : [ 13, 0 ],
        "end" : [ 17, 0 ]
      } ],
      "prefSlots" : null,
      "startingLoc" : {
        "id" : 3000,
        "name" : null,
        "latitude" : 44.005535,
        "longitude" : 4.0587597
      },
      "skills" : [ {
        "id" : 3,
        "name" : "PLUMBING",
        "level" : 6
      }, {
        "id" : 4,
        "name" : "MASONRY",
        "level" : 4
      }, {
        "id" : 5,
        "name" : "GLAZING",
        "level" : 6
      }, {
        "id" : 2,
        "name" : "ELECTRICIAN",
        "level" : 1
      }, {
        "id" : 1,
        "name" : "ENGINEER",
        "level" : 8
      }, {
        "id" : 6,
        "name" : "CARPENTRY",
        "level" : 9
      }, {
        "id" : 3,
        "name" : "PLUMBING",
        "level" : 8
      } ]
    } ]
  }, {
    "job" : {
      "id" : 642,
      "desc" : "MANAGEMENT",
      "location" : {
        "id" : 2510,
        "name" : null,
        "latitude" : 43.99398,
        "longitude" : 4.1959453
      },
      "openings" : {
        "start" : [ 10, 38 ],
        "end" : [ 17, 56 ]
      },
      "preferredSlots" : null,
      "doAfter" : null,
      "nbEmpRequired" : 1,
      "deadline" : [ 12, 12 ],
      "skills" : [ {
        "id" : 0,
        "name" : "MANAGEMENT",
        "level" : 5
      } ],
      "duration" : 5400.000000000,
      "pause" : false
    },
    "needed" : [ {
      "id" : 186,
      "name" : "186",
      "shifts" : [ {
        "start" : [ 9, 0 ],
        "end" : [ 12, 0 ]
      }, {
        "start" : [ 13, 0 ],
        "end" : [ 17, 0 ]
      } ],
      "prefSlots" : null,
      "startingLoc" : {
        "id" : 7589,
        "name" : null,
        "latitude" : 44.079315,
        "longitude" : 3.760453
      },
      "skills" : [ {
        "id" : 2,
        "name" : "ELECTRICIAN",
        "level" : 10
      }, {
        "id" : 9,
        "name" : "TILER",
        "level" : 6
      }, {
        "id" : 3,
        "name" : "PLUMBING",
        "level" : 2
      } ]
    } ]
  }, {
    "job" : {
      "id" : 761,
      "desc" : "IRONWORK",
      "location" : {
        "id" : 384,
        "name" : null,
        "latitude" : 43.931072,
        "longitude" : 3.9663682
      },
      "openings" : {
        "start" : [ 10, 1 ],
        "end" : [ 17, 31 ]
      },
      "preferredSlots" : null,
      "doAfter" : null,
      "nbEmpRequired" : 1,
      "deadline" : [ 16, 23 ],
      "skills" : [ {
        "id" : 8,
        "name" : "IRONWORK",
        "level" : 5
      } ],
      "duration" : 3600.000000000,
      "pause" : false
    },
    "needed" : [ {
      "id" : 186,
      "name" : "186",
      "shifts" : [ {
        "start" : [ 9, 0 ],
        "end" : [ 12, 0 ]
      }, {
        "start" : [ 13, 0 ],
        "end" : [ 17, 0 ]
      } ],
      "prefSlots" : null,
      "startingLoc" : {
        "id" : 7589,
        "name" : null,
        "latitude" : 44.079315,
        "longitude" : 3.760453
      },
      "skills" : [ {
        "id" : 2,
        "name" : "ELECTRICIAN",
        "level" : 10
      }, {
        "id" : 9,
        "name" : "TILER",
        "level" : 6
      }, {
        "id" : 3,
        "name" : "PLUMBING",
        "level" : 2
      } ]
    }, {
      "id" : 820,
      "name" : "820",
      "shifts" : [ {
        "start" : [ 9, 0 ],
        "end" : [ 12, 0 ]
      }, {
        "start" : [ 13, 0 ],
        "end" : [ 17, 0 ]
      } ],
      "prefSlots" : null,
      "startingLoc" : {
        "id" : 3000,
        "name" : null,
        "latitude" : 44.005535,
        "longitude" : 4.0587597
      },
      "skills" : [ {
        "id" : 3,
        "name" : "PLUMBING",
        "level" : 6
      }, {
        "id" : 4,
        "name" : "MASONRY",
        "level" : 4
      }, {
        "id" : 5,
        "name" : "GLAZING",
        "level" : 6
      }, {
        "id" : 2,
        "name" : "ELECTRICIAN",
        "level" : 1
      }, {
        "id" : 1,
        "name" : "ENGINEER",
        "level" : 8
      }, {
        "id" : 6,
        "name" : "CARPENTRY",
        "level" : 9
      }, {
        "id" : 3,
        "name" : "PLUMBING",
        "level" : 8
      } ]
    } ]
  }, {
    "job" : {
      "id" : 750,
      "desc" : "ELECTRICIAN, IRONWORK",
      "location" : {
        "id" : 9790,
        "name" : null,
        "latitude" : 43.64852,
        "longitude" : 4.2262564
      },
      "openings" : {
        "start" : [ 10, 27 ],
        "end" : [ 16, 59 ]
      },
      "preferredSlots" : null,
      "doAfter" : null,
      "nbEmpRequired" : 1,
      "deadline" : [ 14, 13 ],
      "skills" : [ {
        "id" : 2,
        "name" : "ELECTRICIAN",
        "level" : 4
      }, {
        "id" : 8,
        "name" : "IRONWORK",
        "level" : 5
      } ],
      "duration" : 3600.000000000,
      "pause" : false
    },
    "needed" : [ {
      "id" : 820,
      "name" : "820",
      "shifts" : [ {
        "start" : [ 9, 0 ],
        "end" : [ 12, 0 ]
      }, {
        "start" : [ 13, 0 ],
        "end" : [ 17, 0 ]
      } ],
      "prefSlots" : null,
      "startingLoc" : {
        "id" : 3000,
        "name" : null,
        "latitude" : 44.005535,
        "longitude" : 4.0587597
      },
      "skills" : [ {
        "id" : 3,
        "name" : "PLUMBING",
        "level" : 6
      }, {
        "id" : 4,
        "name" : "MASONRY",
        "level" : 4
      }, {
        "id" : 5,
        "name" : "GLAZING",
        "level" : 6
      }, {
        "id" : 2,
        "name" : "ELECTRICIAN",
        "level" : 1
      }, {
        "id" : 1,
        "name" : "ENGINEER",
        "level" : 8
      }, {
        "id" : 6,
        "name" : "CARPENTRY",
        "level" : 9
      }, {
        "id" : 3,
        "name" : "PLUMBING",
        "level" : 8
      } ]
    } ]
  } ]
}