{
  "jobs" : [ {
    "id" : 301,
    "desc" : "PAINTING",
    "location" : {
      "id" : 6600,
      "name" : null,
      "latitude" : 43.632427,
      "longitude" : 4.0538507
    },
    "openings" : {
      "start" : [ 15, 4 ],
      "end" : [ 17, 51 ]
    },
    "preferredSlots" : null,
    "doAfter" : null,
    "nbEmpRequired" : 1,
    "deadline" : [ 10, 41 ],
    "skills" : [ {
      "id" : 7,
      "name" : "PAINTING",
      "level" : 3
    } ],
    "duration" : 3600.000000000,
    "pause" : false
  }, {
    "id" : 109,
    "desc" : "MASONRY",
    "location" : {
      "id" : 5869,
      "name" : null,
      "latitude" : 43.852467,
      "longitude" : 3.7728298
    },
    "openings" : {
      "start" : [ 10, 6 ],
      "end" : [ 10, 48 ]
    },
    "preferredSlots" : null,
    "doAfter" : null,
    "nbEmpRequired" : 1,
    "deadline" : [ 15, 6 ],
    "skills" : [ {
      "id" : 4,
      "name" : "MASONRY",
      "level" : 5
    } ],
    "duration" : 3600.000000000,
    "pause" : false
  }, {
    "id" : 580,
    "desc" : "CARPENTRY",
    "location" : {
      "id" : 4383,
      "name" : null,
      "latitude" : 43.74139,
      "longitude" : 4.2296605
    },
    "openings" : {
      "start" : [ 10, 10 ],
      "end" : [ 14, 45 ]
    },
    "preferredSlots" : null,
    "doAfter" : null,
    "nbEmpRequired" : 1,
    "deadline" : [ 16, 6 ],
    "skills" : [ {
      "id" : 6,
      "name" : "CARPENTRY",
      "level" : 4
    } ],
    "duration" : 5400.000000000,
    "pause" : false
  }, {
    "id" : 622,
    "desc" : "PAINTING",
    "location" : {
      "id" : 3402,
      "name" : null,
      "latitude" : 44.031292,
      "longitude" : 4.2606435
    },
    "openings" : {
      "start" : [ 9, 39 ],
      "end" : [ 10, 22 ]
    },
    "preferredSlots" : null,
    "doAfter" : null,
    "nbEmpRequired" : 1,
    "deadline" : [ 17, 50 ],
    "skills" : [ {
      "id" : 7,
      "name" : "PAINTING",
      "level" : 3
    } ],
    "duration" : 1800.000000000,
    "pause" : false
  }, {
    "id" : 600,
    "desc" : "ELECTRICIAN",
    "location" : {
      "id" : 8220,
      "name" : null,
      "latitude" : 43.920372,
      "longitude" : 4.0868382
    },
    "openings" : {
      "start" : [ 12, 11 ],
      "end" : [ 14, 37 ]
    },
    "preferredSlots" : null,
    "doAfter" : null,
    "nbEmpRequired" : 1,
    "deadline" : [ 11, 30 ],
    "skills" : [ {
      "id" : 2,
      "name" : "ELECTRICIAN",
      "level" : 1
    } ],
    "duration" : 2700.000000000,
    "pause" : false
  }, {
    "id" : 306,
    "desc" : "CARPENTRY, MANAGEMENT",
    "location" : {
      "id" : 1089,
      "name" : null,
      "latitude" : 43.943596,
      "longitude" : 3.7925694
    },
    "openings" : {
      "start" : [ 10, 17 ],
      "end" : [ 15, 51 ]
    },
    "preferredSlots" : null,
    "doAfter" : null,
    "nbEmpRequired" : 1,
    "deadline" : [ 9, 3 ],
    "skills" : [ {
      "id" : 6,
      "name" : "CARPENTRY",
      "level" : 5
    }, {
      "id" : 0,
      "name" : "MANAGEMENT",
      "level" : 2
    } ],
    "duration" : 3600.000000000,
    "pause" : false
  }, {
    "id" : 573,
    "desc" : "MASONRY, PAINTING",
    "location" : {
      "id" : 1426,
      "name" : null,
      "latitude" : 43.54046,
      "longitude" : 3.8815334
    },
    "openings" : {
      "start" : [ 14, 26 ],
      "end" : [ 16, 7 ]
    },
    "preferredSlots" : null,
    "doAfter" : null,
    "nbEmpRequired" : 1,
    "deadline" : [ 16, 56 ],
    "skills" : [ {
      "id" : 4,
      "name" : "MASONRY",
      "level" : 2
    }, {
      "id" : 7,
      "name" : "PAINTING",
      "level" : 2
    } ],
    "duration" : 7200.000000000,
    "pause" : false
  }, {
    "id" : 380,
    "desc" : "IRONWORK, TILER",
    "location" : {
      "id" : 8384,
      "name" : null,
      "latitude" : 43.526604,
      "longitude" : 4.296237
    },
    "openings" : {
      "start" : [ 12, 52 ],
      "end" : [ 13, 59 ]
    },
    "preferredSlots" : null,
    "doAfter" : null,
    "nbEmpRequired" : 1,
    "deadline" : [ 14, 20 ],
    "skills" : [ {
      "id" : 8,
      "name" : "IRONWORK",
      "level" : 5
    }, {
      "id" : 9,
      "name" : "TILER",
      "level" : 4
    } ],
    "duration" : 2700.000000000,
    "pause" : false
  }, {
    "id" : 54,
    "desc" : "PLUMBING, MANAGEMENT",
    "location" : {
      "id" : 258,
      "name" : null,
      "latitude" : 43.686028,
      "longitude" : 4.1351156
    },
    "openings" : {
      "start" : [ 10, 29 ],
      "end" : [ 13, 40 ]
    },
    "preferredSlots" : null,
    "doAfter" : null,
    "nbEmpRequired" : 1,
    "deadline" : [ 9, 16 ],
    "skills" : [ {
      "id" : 3,
      "name" : "PLUMBING",
      "level" : 4
    }, {
      "id" : 0,
      "name" : "MANAGEMENT",
      "level" : 2
    } ],
    "duration" : 5400.000000000,
    "pause" : false
  }, {
    "id" : 624,
    "desc" : "TILER",
    "location" : {
      "id" : 6070,
      "name" : null,
      "latitude" : 43.4073,
      "longitude" : 3.767669
    },
    "openings" : {
      "start" : [ 9, 58 ],
      "end" : [ 10, 10 ]
    },
    "preferredSlots" : null,
    "doAfter" : null,
    "nbEmpRequired" : 1,
    "deadline" : [ 13, 12 ],
    "skills" : [ {
      "id" : 9,
      "name" : "TILER",
      "level" : 1
    } ],
    "duration" : 7200.000000000,
    "pause" : false
  }, {
    "id" : 945,
    "desc" : "MANAGEMENT, ELECTRICIAN",
    "location" : {
      "id" : 2231,
      "name" : null,
      "latitude" : 43.796577,
      "longitude" : 4.2137227
    },
    "openings" : {
      "start" : [ 13, 45 ],
      "end" : [ 14, 56 ]
    },
    "preferredSlots" : null,
    "doAfter" : null,
    "nbEmpRequired" : 1,
    "deadline" : [ 13, 58 ],
    "skills" : [ {
      "id" : 0,
      "name" : "MANAGEMENT",
      "level" : 1
    }, {
      "id" : 2,
      "name" : "ELECTRICIAN",
      "level" : 2
    } ],
    "duration" : 3600.000000000,
    "pause" : false
  }, {
    "id" : 284,
    "desc" : "ENGINEER",
    "location" : {
      "id" : 4710,
      "name" : null,
      "latitude" : 43.40856,
      "longitude" : 3.7948024
    },
    "openings" : {
      "start" : [ 14, 23 ],
      "end" : [ 15, 39 ]
    },
    "preferredSlots" : null,
    "doAfter" : null,
    "nbEmpRequired" : 1,
    "deadline" : [ 10, 24 ],
    "skills" : [ {
      "id" : 1,
      "name" : "ENGINEER",
      "level" : 3
    } ],
    "duration" : 2700.000000000,
    "pause" : false
  }, {
    "id" : 595,
    "desc" : "ELECTRICIAN",
    "location" : {
      "id" : 9454,
      "name" : null,
      "latitude" : 44.09926,
      "longitude" : 4.2593193
    },
    "openings" : {
      "start" : [ 12, 39 ],
      "end" : [ 16, 9 ]
    },
    "preferredSlots" : null,
    "doAfter" : null,
    "nbEmpRequired" : 1,
    "deadline" : [ 10, 0 ],
    "skills" : [ {
      "id" : 2,
      "name" : "ELECTRICIAN",
      "level" : 1
    } ],
    "duration" : 7200.000000000,
    "pause" : false
  }, {
    "id" : 781,
    "desc" : "PAINTING, IRONWORK",
    "location" : {
      "id" : 6974,
      "name" : null,
      "latitude" : 43.81449,
      "longitude" : 4.292522
    },
    "openings" : {
      "start" : [ 10, 54 ],
      "end" : [ 13, 43 ]
    },
    "preferredSlots" : null,
    "doAfter" : null,
    "nbEmpRequired" : 1,
    "deadline" : [ 14, 20 ],
    "skills" : [ {
      "id" : 7,
      "name" : "PAINTING",
      "level" : 3
    }, {
      "id" : 8,
      "name" : "IRONWORK",
      "level" : 2
    } ],
    "duration" : 3600.000000000,
    "pause" : false
  }, {
    "id" : 899,
    "desc" : "MANAGEMENT",
    "location" : {
      "id" : 1517,
      "name" : null,
      "latitude" : 43.855785,
      "longitude" : 4.2621517
    },
    "openings" : {
      "start" : [ 11, 38 ],
      "end" : [ 16, 11 ]
    },
    "preferredSlots" : null,
    "doAfter" : null,
    "nbEmpRequired" : 1,
    "deadline" : [ 11, 2 ],
    "skills" : [ {
      "id" : 0,
      "name" : "MANAGEMENT",
      "level" : 3
    } ],
    "duration" : 1800.000000000,
    "pause" : false
  }, {
    "id" : 679,
    "desc" : "ELECTRICIAN",
    "location" : {
      "id" : 2160,
      "name" : null,
      "latitude" : 43.89483,
      "longitude" : 3.8769164
    },
    "openings" : {
      "start" : [ 13, 6 ],
      "end" : [ 13, 13 ]
    },
    "preferredSlots" : null,
    "doAfter" : null,
    "nbEmpRequired" : 1,
    "deadline" : [ 9, 37 ],
    "skills" : [ {
      "id" : 2,
      "name" : "ELECTRICIAN",
      "level" : 5
    } ],
    "duration" : 1800.000000000,
    "pause" : false
  }, {
    "id" : 195,
    "desc" : "MASONRY, IRONWORK",
    "location" : {
      "id" : 8314,
      "name" : null,
      "latitude" : 43.538246,
      "longitude" : 3.7998059
    },
    "openings" : {
      "start" : [ 14, 19 ],
      "end" : [ 14, 59 ]
    },
    "preferredSlots" : null,
    "doAfter" : null,
    "nbEmpRequired" : 1,
    "deadline" : [ 15, 51 ],
    "skills" : [ {
      "id" : 4,
      "name" : "MASONRY",
      "level" : 2
    }, {
      "id" : 8,
      "name" : "IRONWORK",
      "level" : 1
    } ],
    "duration" : 1800.000000000,
    "pause" : false
  }, {
    "id" : 85,
    "desc" : "CARPENTRY, IRONWORK",
    "location" : {
      "id" : 5193,
      "name" : null,
      "latitude" : 43.765556,
      "longitude" : 3.7484937
    },
    "openings" : {
      "start" : [ 11, 39 ],
      "end" : [ 14, 17 ]
    },
    "preferredSlots" : null,
    "doAfter" : null,
    "nbEmpRequired" : 1,
    "deadline" : [ 11, 12 ],
    "skills" : [ {
      "id" : 6,
      "name" : "CARPENTRY",
      "level" : 5
    }, {
      "id" : 8,
      "name" : "IRONWORK",
      "level" : 5
    } ],
    "duration" : 1800.000000000,
    "pause" : false
  }, {
    "id" : 318,
    "desc" : "GLAZING, PAINTING",
    "location" : {
      "id" : 8579,
      "name" : null,
      "latitude" : 43.71223,
      "longitude" : 4.0050287
    },
    "openings" : {
      "start" : [ 10, 47 ],
      "end" : [ 17, 7 ]
    },
    "preferredSlots" : null,
    "doAfter" : null,
    "nbEmpRequired" : 1,
    "deadline" : [ 16, 6 ],
    "skills" : [ {
      "id" : 5,
      "name" : "GLAZING",
      "level" : 4
    }, {
      "id" : 7,
      "name" : "PAINTING",
      "level" : 2
    } ],
    "duration" : 1800.000000000,
    "pause" : false
  }, {
    "id" : 905,
    "desc" : "MANAGEMENT, TILER",
    "location" : {
      "id" : 5035,
      "name" : null,
      "latitude" : 43.97987,
      "longitude" : 4.0554795
    },
    "openings" : {
      "start" : [ 9, 2 ],
      "end" : [ 12, 16 ]
    },
    "preferredSlots" : null,
    "doAfter" : null,
    "nbEmpRequired" : 1,
    "deadline" : [ 9, 4 ],
    "skills" : [ {
      "id" : 0,
      "name" : "MANAGEMENT",
      "level" : 3
    }, {
      "id" : 9,
      "name" : "TILER",
      "level" : 2
    } ],
    "duration" : 1800.000000000,
    "pause" : false
  }, {
    "id" : 313,
    "desc" : "IRONWORK, MASONRY",
    "location" : {
      "id" : 8963,
      "name" : null,
      "latitude" : 44.088448,
      "longitude" : 4.101038
    },
    "openings" : {
      "start" : [ 14, 22 ],
      "end" : [ 14, 50 ]
    },
    "preferredSlots" : null,
    "doAfter" : null,
    "nbEmpRequired" : 1,
    "deadline" : [ 14, 34 ],
    "skills" : [ {
      "id" : 8,
      "name" : "IRONWORK",
      "level" : 1
    }, {
      "id" : 4,
      "name" : "MASONRY",
      "level" : 1
    } ],
    "duration" : 3600.000000000,
    "pause" : false
  }, {
    "id" : 244,
    "desc" : "GLAZING",
    "location" : {
      "id" : 6986,
      "name" : null,
      "latitude" : 43.820778,
      "longitude" : 3.7131648
    },
    "openings" : {
      "start" : [ 9, 19 ],
      "end" : [ 16, 33 ]
    },
    "preferredSlots" : null,
    "doAfter" : null,
    "nbEmpRequired" : 1,
    "deadline" : [ 16, 53 ],
    "skills" : [ {
      "id" : 5,
      "name" : "GLAZING",
      "level" : 4
    } ],
    "duration" : 3600.000000000,
    "pause" : false
  }, {
    "id" : 41,
    "desc" : "ELECTRICIAN",
    "location" : {
      "id" : 2704,
      "name" : null,
      "latitude" : 43.512043,
      "longitude" : 4.2094398
    },
    "openings" : {
      "start" : [ 9, 55 ],
      "end" : [ 16, 31 ]
    },
    "preferredSlots" : null,
    "doAfter" : null,
    "nbEmpRequired" : 1,
    "deadline" : [ 11, 42 ],
    "skills" : [ {
      "id" : 2,
      "name" : "ELECTRICIAN",
      "level" : 2
    } ],
    "duration" : 2700.000000000,
    "pause" : false
  }, {
    "id" : 476,
    "desc" : "PLUMBING, ELECTRICIAN",
    "location" : {
      "id" : 5046,
      "name" : null,
      "latitude" : 43.519802,
      "longitude" : 4.299732
    },
    "openings" : {
      "start" : [ 15, 50 ],
      "end" : [ 17, 54 ]
    },
    "preferredSlots" : null,
    "doAfter" : null,
    "nbEmpRequired" : 1,
    "deadline" : [ 11, 40 ],
    "skills" : [ {
      "id" : 3,
      "name" : "PLUMBING",
      "level" : 4
    }, {
      "id" : 2,
      "name" : "ELECTRICIAN",
      "level" : 2
    } ],
    "duration" : 5400.000000000,
    "pause" : false
  }, {
    "id" : 693,
    "desc" : "IRONWORK",
    "location" : {
      "id" : 329,
      "name" : null,
      "latitude" : 43.587376,
      "longitude" : 4.074352
    },
    "openings" : {
      "start" : [ 12, 16 ],
      "end" : [ 14, 20 ]
    },
    "preferredSlots" : null,
    "doAfter" : null,
    "nbEmpRequired" : 1,
    "deadline" : [ 13, 13 ],
    "skills" : [ {
      "id" : 8,
      "name" : "IRONWORK",
      "level" : 4
    } ],
    "duration" : 1800.000000000,
    "pause" : false
  }, {
    "id" : 726,
    "desc" : "PLUMBING",
    "location" : {
      "id" : 8243,
      "name" : null,
      "latitude" : 44.034065,
      "longitude" : 4.180671
    },
    "openings" : {
      "start" : [ 10, 7 ],
      "end" : [ 16, 42 ]
    },
    "preferredSlots" : null,
    "doAfter" : null,
    "nbEmpRequired" : 1,
    "deadline" : [ 17, 15 ],
    "skills" : [ {
      "id" : 3,
      "name" : "PLUMBING",
      "level" : 5
    } ],
    "duration" : 3600.000000000,
    "pause" : false
  }, {
    "id" : 527,
    "desc" : "GLAZING",
    "location" : {
      "id" : 1090,
      "name" : null,
      "latitude" : 44.060425,
      "longitude" : 4.211653
    },
    "openings" : {
      "start" : [ 12, 53 ],
      "end" : [ 17, 29 ]
    },
    "preferredSlots" : null,
    "doAfter" : null,
    "nbEmpRequired" : 1,
    "deadline" : [ 11, 13 ],
    "skills" : [ {
      "id" : 5,
      "name" : "GLAZING",
      "level" : 5
    } ],
    "duration" : 2700.000000000,
    "pause" : false
  }, {
    "id" : 138,
    "desc" : "ENGINEER",
    "location" : {
      "id" : 8456,
      "name" : null,
      "latitude" : 43.551025,
      "longitude" : 4.0252695
    },
    "openings" : {
      "start" : [ 9, 32 ],
      "end" : [ 15, 44 ]
    },
    "preferredSlots" : null,
    "doAfter" : null,
    "nbEmpRequired" : 1,
    "deadline" : [ 15, 14 ],
    "skills" : [ {
      "id" : 1,
      "name" : "ENGINEER",
      "level" : 4
    } ],
    "duration" : 2700.000000000,
    "pause" : false
  }, {
    "id" : 908,
    "desc" : "MASONRY, CARPENTRY",
    "location" : {
      "id" : 3483,
      "name" : null,
      "latitude" : 43.52513,
      "longitude" : 4.1180625
    },
    "openings" : {
      "start" : [ 11, 4 ],
      "end" : [ 17, 40 ]
    },
    "preferredSlots" : null,
    "doAfter" : null,
    "nbEmpRequired" : 1,
    "deadline" : [ 9, 35 ],
    "skills" : [ {
      "id" : 4,
      "name" : "MASONRY",
      "level" : 4
    }, {
      "id" : 6,
      "name" : "CARPENTRY",
      "level" : 4
    } ],
    "duration" : 2700.000000000,
    "pause" : false
  }, {
    "id" : 39,
    "desc" : "ENGINEER, PLUMBING",
    "location" : {
      "id" : 546,
      "name" : null,
      "latitude" : 43.99287,
      "longitude" : 3.704291
    },
    "openings" : {
      "start" : [ 11, 1 ],
      "end" : [ 14, 39 ]
    },
    "preferredSlots" : null,
    "doAfter" : null,
    "nbEmpRequired" : 1,
    "deadline" : [ 12, 16 ],
    "skills" : [ {
      "id" : 1,
      "name" : "ENGINEER",
      "level" : 2
    }, {
      "id" : 3,
      "name" : "PLUMBING",
      "level" : 4
    } ],
    "duration" : 2700.000000000,
    "pause" : false
  }, {
    "id" : 440,
    "desc" : "CARPENTRY",
    "location" : {
      "id" : 8034,
      "name" : null,
      "latitude" : 43.754917,
      "longitude" : 4.216823
    },
    "openings" : {
      "start" : [ 15, 0 ],
      "end" : [ 17, 44 ]
    },
    "preferredSlots" : null,
    "doAfter" : null,
    "nbEmpRequired" : 1,
    "deadline" : [ 15, 28 ],
    "skills" : [ {
      "id" : 6,
      "name" : "CARPENTRY",
      "level" : 1
    } ],
    "duration" : 2700.000000000,
    "pause" : false
  }, {
    "id" : 380,
    "desc" : "PAINTING, ELECTRICIAN",
    "location" : {
      "id" : 168,
      "name" : null,
      "latitude" : 43.911945,
      "longitude" : 3.987065
    },
    "openings" : {
      "start" : [ 12, 11 ],
      "end" : [ 14, 23 ]
    },
    "preferredSlots" : null,
    "doAfter" : null,
    "nbEmpRequired" : 1,
    "deadline" : [ 13, 37 ],
    "skills" : [ {
      "id" : 7,
      "name" : "PAINTING",
      "level" : 4
    }, {
      "id" : 2,
      "name" : "ELECTRICIAN",
      "level" : 2
    } ],
    "duration" : 1800.000000000,
    "pause" : false
  }, {
    "id" : 759,
    "desc" : "GLAZING, PAINTING",
    "location" : {
      "id" : 1412,
      "name" : null,
      "latitude" : 43.839455,
      "longitude" : 3.8647983
    },
    "openings" : {
      "start" : [ 16, 13 ],
      "end" : [ 16, 28 ]
    },
    "preferredSlots" : null,
    "doAfter" : null,
    "nbEmpRequired" : 1,
    "deadline" : [ 10, 58 ],
    "skills" : [ {
      "id" : 5,
      "name" : "GLAZING",
      "level" : 2
    }, {
      "id" : 7,
      "name" : "PAINTING",
      "level" : 2
    } ],
    "duration" : 5400.000000000,
    "pause" : false
  }, {
    "id" : 35,
    "desc" : "TILER",
    "location" : {
      "id" : 9191,
      "name" : null,
      "latitude" : 43.84925,
      "longitude" : 3.8800187
    },
    "openings" : {
      "start" : [ 11, 29 ],
      "end" : [ 16, 43 ]
    },
    "preferredSlots" : null,
    "doAfter" : null,
    "nbEmpRequired" : 1,
    "deadline" : [ 16, 48 ],
    "skills" : [ {
      "id" : 9,
      "name" : "TILER",
      "level" : 2
    } ],
    "duration" : 3600.000000000,
    "pause" : false
  }, {
    "id" : 288,
    "desc" : "MASONRY",
    "location" : {
      "id" : 3077,
      "name" : null,
      "latitude" : 43.567802,
      "longitude" : 3.7916782
    },
    "openings" : {
      "start" : [ 13, 7 ],
      "end" : [ 16, 5 ]
    },
    "preferredSlots" : null,
    "doAfter" : null,
    "nbEmpRequired" : 1,
    "deadline" : [ 12, 13 ],
    "skills" : [ {
      "id" : 4,
      "name" : "MASONRY",
      "level" : 2
    } ],
    "duration" : 1800.000000000,
    "pause" : false
  }, {
    "id" : 369,
    "desc" : "PLUMBING, IRONWORK",
    "location" : {
      "id" : 7075,
      "name" : null,
      "latitude" : 43.943424,
      "longitude" : 3.7687802
    },
    "openings" : {
      "start" : [ 15, 31 ],
      "end" : [ 17, 7 ]
    },
    "preferredSlots" : null,
    "doAfter" : null,
    "nbEmpRequired" : 1,
    "deadline" : [ 11, 23 ],
    "skills" : [ {
      "id" : 3,
      "name" : "PLUMBING",
      "level" : 1
    }, {
      "id" : 8,
      "name" : "IRONWORK",
      "level" : 5
    } ],
    "duration" : 2700.000000000,
    "pause" : false
  }, {
    "id" : 855,
    "desc" : "PLUMBING, GLAZING",
    "location" : {
      "id" : 7582,
      "name" : null,
      "latitude" : 43.786835,
      "longitude" : 3.8700442
    },
    "openings" : {
      "start" : [ 10, 4 ],
      "end" : [ 16, 28 ]
    },
    "preferredSlots" : null,
    "doAfter" : null,
    "nbEmpRequired" : 1,
    "deadline" : [ 16, 56 ],
    "skills" : [ {
      "id" : 3,
      "name" : "PLUMBING",
      "level" : 3
    }, {
      "id" : 5,
      "name" : "GLAZING",
      "level" : 1
    } ],
    "duration" : 3600.000000000,
    "pause" : false
  }, {
    "id" : 14,
    "desc" : "PLUMBING, CARPENTRY",
    "location" : {
      "id" : 7649,
      "name" : null,
      "latitude" : 43.793777,
      "longitude" : 3.7841
    },
    "openings" : {
      "start" : [ 10, 22 ],
      "end" : [ 15, 17 ]
    },
    "preferredSlots" : null,
    "doAfter" : null,
    "nbEmpRequired" : 1,
    "deadline" : [ 17, 2 ],
    "skills" : [ {
      "id" : 3,
      "name" : "PLUMBING",
      "level" : 4
    }, {
      "id" : 6,
      "name" : "CARPENTRY",
      "level" : 1
    } ],
    "duration" : 1800.000000000,
    "pause" : false
  }, {
    "id" : 152,
    "desc" : "IRONWORK, TILER",
    "location" : {
      "id" : 502,
      "name" : null,
      "latitude" : 43.75087,
      "longitude" : 3.8164
    },
    "openings" : {
      "start" : [ 14, 1 ],
      "end" : [ 15, 21 ]
    },
    "preferredSlots" : null,
    "doAfter" : null,
    "nbEmpRequired" : 1,
    "deadline" : [ 12, 6 ],
    "skills" : [ {
      "id" : 8,
      "name" : "IRONWORK",
      "level" : 2
    }, {
      "id" : 9,
      "name" : "TILER",
      "level" : 2
    } ],
    "duration" : 1800.000000000,
    "pause" : false
  }, {
    "id" : 771,
    "desc" : "PLUMBING",
    "location" : {
      "id" : 6967,
      "name" : null,
      "latitude" : 43.49627,
      "longitude" : 4.0785604
    },
    "openings" : {
      "start" : [ 9, 3 ],
      "end" : [ 9, 20 ]
    },
    "preferredSlots" : null,
    "doAfter" : null,
    "nbEmpRequired" : 1,
    "deadline" : [ 10, 38 ],
    "skills" : [ {
      "id" : 3,
      "name" : "PLUMBING",
      "level" : 2
    } ],
    "duration" : 1800.000000000,
    "pause" : false
  }, {
    "id" : 731,
    "desc" : "GLAZING, PAINTING",
    "location" : {
      "id" : 1839,
      "name" : null,
      "latitude" : 43.76863,
      "longitude" : 4.097677
    },
    "openings" : {
      "start" : [ 15, 50 ],
      "end" : [ 16, 56 ]
    },
    "preferredSlots" : null,
    "doAfter" : null,
    "nbEmpRequired" : 1,
    "deadline" : [ 13, 52 ],
    "skills" : [ {
      "id" : 5,
      "name" : "GLAZING",
      "level" : 4
    }, {
      "id" : 7,
      "name" : "PAINTING",
      "level" : 3
    } ],
    "duration" : 2700.000000000,
    "pause" : false
  }, {
    "id" : 65,
    "desc" : "CARPENTRY",
    "location" : {
      "id" : 6566,
      "name" : null,
      "latitude" : 43.902622,
      "longitude" : 3.9939334
    },
    "openings" : {
      "start" : [ 9, 45 ],
      "end" : [ 13, 34 ]
    },
    "preferredSlots" : null,
    "doAfter" : null,
    "nbEmpRequired" : 1,
    "deadline" : [ 16, 2 ],
    "skills" : [ {
      "id" : 6,
      "name" : "CARPENTRY",
      "level" : 5
    } ],
    "duration" : 3600.000000000,
    "pause" : false
  }, {
    "id" : 709,
    "desc" : "CARPENTRY, IRONWORK",
    "location" : {
      "id" : 2974,
      "name" : null,
      "latitude" : 43.53474,
      "longitude" : 4.2237883
    },
    "openings" : {
      "start" : [ 10, 41 ],
      "end" : [ 13, 2 ]
    },
    "preferredSlots" : null,
    "doAfter" : null,
    "nbEmpRequired" : 1,
    "deadline" : [ 11, 45 ],
    "skills" : [ {
      "id" : 6,
      "name" : "CARPENTRY",
      "level" : 4
    }, {
      "id" : 8,
      "name" : "IRONWORK",
      "level" : 4
    } ],
    "duration" : 5400.000000000,
    "pause" : false
  }, {
    "id" : 233,
    "desc" : "GLAZING",
    "location" : {
      "id" : 5888,
      "name" : null,
      "latitude" : 43.66199,
      "longitude" : 3.880183
    },
    "openings" : {
      "start" : [ 10, 50 ],
      "end" : [ 16, 43 ]
    },
    "preferredSlots" : null,
    "doAfter" : null,
    "nbEmpRequired" : 1,
    "deadline" : [ 11, 23 ],
    "skills" : [ {
      "id" : 5,
      "name" : "GLAZING",
      "level" : 1
    } ],
    "duration" : 3600.000000000,
    "pause" : false
  }, {
    "id" : 644,
    "desc" : "CARPENTRY, ENGINEER",
    "location" : {
      "id" : 6017,
      "name" : null,
      "latitude" : 43.933773,
      "longitude" : 3.9722717
    },
    "openings" : {
      "start" : [ 16, 44 ],
      "end" : [ 17, 34 ]
    },
    "preferredSlots" : null,
    "doAfter" : null,
    "nbEmpRequired" : 1,
    "deadline" : [ 10, 12 ],
    "skills" : [ {
      "id" : 6,
      "name" : "CARPENTRY",
      "level" : 5
    }, {
      "id" : 1,
      "name" : "ENGINEER",
      "level" : 5
    } ],
    "duration" : 7200.000000000,
    "pause" : false
  }, {
    "id" : 120,
    "desc" : "ELECTRICIAN, CARPENTRY",
    "location" : {
      "id" : 2491,
      "name" : null,
      "latitude" : 43.85262,
      "longitude" : 4.186651
    },
    "openings" : {
      "start" : [ 9, 12 ],
      "end" : [ 13, 6 ]
    },
    "preferredSlots" : null,
    "doAfter" : null,
    "nbEmpRequired" : 1,
    "deadline" : [ 17, 1 ],
    "skills" : [ {
      "id" : 2,
      "name" : "ELECTRICIAN",
      "level" : 3
    }, {
      "id" : 6,
      "name" : "CARPENTRY",
      "level" : 3
    } ],
    "duration" : 2700.000000000,
    "pause" : false
  }, {
    "id" : 566,
    "desc" : "CARPENTRY",
    "location" : {
      "id" : 139,
      "name" : null,
      "latitude" : 43.724648,
      "longitude" : 4.2598915
    },
    "openings" : {
      "start" : [ 14, 5 ],
      "end" : [ 14, 38 ]
    },
    "preferredSlots" : null,
    "doAfter" : null,
    "nbEmpRequired" : 1,
    "deadline" : [ 14, 42 ],
    "skills" : [ {
      "id" : 6,
      "name" : "CARPENTRY",
      "level" : 1
    } ],
    "duration" : 3600.000000000,
    "pause" : false
  }, {
    "id" : 498,
    "desc" : "CARPENTRY",
    "location" : {
      "id" : 3233,
      "name" : null,
      "latitude" : 44.07599,
      "longitude" : 3.726925
    },
    "openings" : {
      "start" : [ 11, 25 ],
      "end" : [ 12, 47 ]
    },
    "preferredSlots" : null,
    "doAfter" : null,
    "nbEmpRequired" : 1,
    "deadline" : [ 10, 51 ],
    "skills" : [ {
      "id" : 6,
      "name" : "CARPENTRY",
      "level" : 4
    } ],
    "duration" : 2700.000000000,
    "pause" : false
  }, {
    "id" : 814,
    "desc" : "TILER",
    "location" : {
      "id" : 2628,
      "name" : null,
      "latitude" : 43.63758,
      "longitude" : 3.83251
    },
    "openings" : {
      "start" : [ 15, 39 ],
      "end" : [ 16, 37 ]
    },
    "preferredSlots" : null,
    "doAfter" : null,
    "nbEmpRequired" : 1,
    "deadline" : [ 12, 36 ],
    "skills" : [ {
      "id" : 9,
      "name" : "TILER",
      "level" : 5
    } ],
    "duration" : 5400.000000000,
    "pause" : false
  }, {
    "id" : 94,
    "desc" : "MASONRY, PLUMBING",
    "location" : {
      "id" : 693,
      "name" : null,
      "latitude" : 43.7175,
      "longitude" : 4.0724287
    },
    "openings" : {
      "start" : [ 10, 32 ],
      "end" : [ 14, 28 ]
    },
    "preferredSlots" : null,
    "doAfter" : null,
    "nbEmpRequired" : 1,
    "deadline" : [ 13, 28 ],
    "skills" : [ {
      "id" : 4,
      "name" : "MASONRY",
      "level" : 2
    }, {
      "id" : 3,
      "name" : "PLUMBING",
      "level" : 2
    } ],
    "duration" : 3600.000000000,
    "pause" : false
  } ],
  "employees" : [ {
    "id" : 180,
    "name" : "180",
    "shifts" : [ {
      "start" : [ 9, 0 ],
      "end" : [ 12, 0 ]
    }, {
      "start" : [ 13, 0 ],
      "end" : [ 17, 0 ]
    } ],
    "prefSlots" : null,
    "startingLoc" : {
      "id" : 2845,
      "name" : null,
      "latitude" : 43.73148,
      "longitude" : 3.9538512
    },
    "skills" : [ {
      "id" : 7,
      "name" : "PAINTING",
      "level" : 8
    }, {
      "id" : 0,
      "name" : "MANAGEMENT",
      "level" : 10
    }, {
      "id" : 3,
      "name" : "PLUMBING",
      "level" : 10
    }, {
      "id" : 0,
      "name" : "MANAGEMENT",
      "level" : 2
    }, {
      "id" : 2,
      "name" : "ELECTRICIAN",
      "level" : 1
    }, {
      "id" : 3,
      "name" : "PLUMBING",
      "level" : 2
    }, {
      "id" : 1,
      "name" : "ENGINEER",
      "level" : 3
    }, {
      "id" : 5,
      "name" : "GLAZING",
      "level" : 4
    } ]
  }, {
    "id" : 427,
    "name" : "427",
    "shifts" : [ {
      "start" : [ 9, 0 ],
      "end" : [ 12, 0 ]
    }, {
      "start" : [ 13, 0 ],
      "end" : [ 17, 0 ]
    } ],
    "prefSlots" : null,
    "startingLoc" : {
      "id" : 531,
      "name" : null,
      "latitude" : 43.417114,
      "longitude" : 4.1146116
    },
    "skills" : [ {
      "id" : 6,
      "name" : "CARPENTRY",
      "level" : 1
    }, {
      "id" : 1,
      "name" : "ENGINEER",
      "level" : 1
    }, {
      "id" : 6,
      "name" : "CARPENTRY",
      "level" : 1
    } ]
  }, {
    "id" : 956,
    "name" : "956",
    "shifts" : [ {
      "start" : [ 9, 0 ],
      "end" : [ 12, 0 ]
    }, {
      "start" : [ 13, 0 ],
      "end" : [ 17, 0 ]
    } ],
    "prefSlots" : null,
    "startingLoc" : {
      "id" : 1857,
      "name" : null,
      "latitude" : 43.78773,
      "longitude" : 4.1788816
    },
    "skills" : [ {
      "id" : 2,
      "name" : "ELECTRICIAN",
      "level" : 1
    }, {
      "id" : 5,
      "name" : "GLAZING",
      "level" : 8
    } ]
  }, {
    "id" : 11,
    "name" : "11",
    "shifts" : [ {
      "start" : [ 9, 0 ],
      "end" : [ 12, 0 ]
    }, {
      "start" : [ 13, 0 ],
      "end" : [ 17, 0 ]
    } ],
    "prefSlots" : null,
    "startingLoc" : {
      "id" : 6005,
      "name" : null,
      "latitude" : 44.021137,
      "longitude" : 3.8393497
    },
    "skills" : [ {
      "id" : 2,
      "name" : "ELECTRICIAN",
      "level" : 4
    }, {
      "id" : 7,
      "name" : "PAINTING",
      "level" : 3
    }, {
      "id" : 1,
      "name" : "ENGINEER",
      "level" : 1
    } ]
  }, {
    "id" : 800,
    "name" : "800",
    "shifts" : [ {
      "start" : [ 9, 0 ],
      "end" : [ 12, 0 ]
    }, {
      "start" : [ 13, 0 ],
      "end" : [ 17, 0 ]
    } ],
    "prefSlots" : null,
    "startingLoc" : {
      "id" : 3662,
      "name" : null,
      "latitude" : 43.7781,
      "longitude" : 3.8372333
    },
    "skills" : [ {
      "id" : 2,
      "name" : "ELECTRICIAN",
      "level" : 3
    }, {
      "id" : 5,
      "name" : "GLAZING",
      "level" : 5
    }, {
      "id" : 0,
      "name" : "MANAGEMENT",
      "level" : 4
    }, {
      "id" : 1,
      "name" : "ENGINEER",
      "level" : 7
    }, {
      "id" : 9,
      "name" : "TILER",
      "level" : 5
    }, {
      "id" : 5,
      "name" : "GLAZING",
      "level" : 10
    }, {
      "id" : 0,
      "name" : "MANAGEMENT",
      "level" : 4
    }, {
      "id" : 0,
      "name" : "MANAGEMENT",
      "level" : 8
    }, {
      "id" : 6,
      "name" : "CARPENTRY",
      "level" : 2
    } ]
  }, {
    "id" : 68,
    "name" : "68",
    "shifts" : [ {
      "start" : [ 9, 0 ],
      "end" : [ 12, 0 ]
    }, {
      "start" : [ 13, 0 ],
      "end" : [ 17, 0 ]
    } ],
    "prefSlots" : null,
    "startingLoc" : {
      "id" : 4640,
      "name" : null,
      "latitude" : 43.69416,
      "longitude" : 4.090042
    },
    "skills" : [ {
      "id" : 7,
      "name" : "PAINTING",
      "level" : 8
    }, {
      "id" : 7,
      "name" : "PAINTING",
      "level" : 6
    }, {
      "id" : 8,
      "name" : "IRONWORK",
      "level" : 4
    }, {
      "id" : 3,
      "name" : "PLUMBING",
      "level" : 5
    } ]
  }, {
    "id" : 575,
    "name" : "575",
    "shifts" : [ {
      "start" : [ 9, 0 ],
      "end" : [ 12, 0 ]
    }, {
      "start" : [ 13, 0 ],
      "end" : [ 17, 0 ]
    } ],
    "prefSlots" : null,
    "startingLoc" : {
      "id" : 2072,
      "name" : null,
      "latitude" : 43.71438,
      "longitude" : 3.7370362
    },
    "skills" : [ {
      "id" : 2,
      "name" : "ELECTRICIAN",
      "level" : 8
    }, {
      "id" : 7,
      "name" : "PAINTING",
      "level" : 5
    }, {
      "id" : 8,
      "name" : "IRONWORK",
      "level" : 4
    }, {
      "id" : 9,
      "name" : "TILER",
      "level" : 3
    }, {
      "id" : 4,
      "name" : "MASONRY",
      "level" : 8
    }, {
      "id" : 3,
      "name" : "PLUMBING",
      "level" : 1
    }, {
      "id" : 9,
      "name" : "TILER",
      "level" : 8
    }, {
      "id" : 7,
      "name" : "PAINTING",
      "level" : 4
    }, {
      "id" : 0,
      "name" : "MANAGEMENT",
      "level" : 1
    } ]
  }, {
    "id" : 457,
    "name" : "457",
    "shifts" : [ {
      "start" : [ 9, 0 ],
      "end" : [ 12, 0 ]
    }, {
      "start" : [ 13, 0 ],
      "end" : [ 17, 0 ]
    } ],
    "prefSlots" : null,
    "startingLoc" : {
      "id" : 5345,
      "name" : null,
      "latitude" : 43.454815,
      "longitude" : 3.9521737
    },
    "skills" : [ {
      "id" : 3,
      "name" : "PLUMBING",
      "level" : 5
    }, {
      "id" : 6,
      "name" : "CARPENTRY",
      "level" : 5
    } ]
  }, {
    "id" : 615,
    "name" : "615",
    "shifts" : [ {
      "start" : [ 9, 0 ],
      "end" : [ 12, 0 ]
    }, {
      "start" : [ 13, 0 ],
      "end" : [ 17, 0 ]
    } ],
    "prefSlots" : null,
    "startingLoc" : {
      "id" : 3731,
      "name" : null,
      "latitude" : 43.557217,
      "longitude" : 4.186723
    },
    "skills" : [ {
      "id" : 5,
      "name" : "GLAZING",
      "level" : 10
    }, {
      "id" : 9,
      "name" : "TILER",
      "level" : 10
    }, {
      "id" : 1,
      "name" : "ENGINEER",
      "level" : 4
    }, {
      "id" : 5,
      "name" : "GLAZING",
      "level" : 3
    }, {
      "id" : 5,
      "name" : "GLAZING",
      "level" : 9
    } ]
  }, {
    "id" : 334,
    "name" : "334",
    "shifts" : [ {
      "start" : [ 9, 0 ],
      "end" : [ 12, 0 ]
    }, {
      "start" : [ 13, 0 ],
      "end" : [ 17, 0 ]
    } ],
    "prefSlots" : null,
    "startingLoc" : {
      "id" : 347,
      "name" : null,
      "latitude" : 44.089615,
      "longitude" : 3.7908916
    },
    "skills" : [ {
      "id" : 2,
      "name" : "ELECTRICIAN",
      "level" : 6
    }, {
      "id" : 9,
      "name" : "TILER",
      "level" : 5
    }, {
      "id" : 1,
      "name" : "ENGINEER",
      "level" : 9
    }, {
      "id" : 2,
      "name" : "ELECTRICIAN",
      "level" : 6
    }, {
      "id" : 7,
      "name" : "PAINTING",
      "level" : 4
    }, {
      "id" : 9,
      "name" : "TILER",
      "level" : 4
    }, {
      "id" : 0,
      "name" : "MANAGEMENT",
      "level" : 4
    }, {
      "id" : 0,
      "name" : "MANAGEMENT",
      "level" : 6
    } ]
  } ],
  "appointments" : [ {
    "job" : {
      "id" : 573,
      "desc" : "MASONRY, PAINTING",
      "location" : {
        "id" : 1426,
        "name" : null,
        "latitude" : 43.54046,
        "longitude" : 3.8815334
      },
      "openings" : {
        "start" : [ 14, 26 ],
        "end" : [ 16, 7 ]
      },
      "preferredSlots" : null,
      "doAfter" : null,
      "nbEmpRequired" : 1,
      "deadline" : [ 16, 56 ],
      "skills" : [ {
        "id" : 4,
        "name" : "MASONRY",
        "level" : 2
      }, {
        "id" : 7,
        "name" : "PAINTING",
        "level" : 2
      } ],
      "duration" : 7200.000000000,
      "pause" : false
    },
    "needed" : [ {
      "id" : 427,
      "name" : "427",
      "shifts" : [ {
        "start" : [ 9, 0 ],
        "end" : [ 12, 0 ]
      }, {
        "start" : [ 13, 0 ],
        "end" : [ 17, 0 ]
      } ],
      "prefSlots" : null,
      "startingLoc" : {
        "id" : 531,
        "name" : null,
        "latitude" : 43.417114,
        "longitude" : 4.1146116
      },
      "skills" : [ {
        "id" : 6,
        "name" : "CARPENTRY",
        "level" : 1
      }, {
        "id" : 1,
        "name" : "ENGINEER",
        "level" : 1
      }, {
        "id" : 6,
        "name" : "CARPENTRY",
        "level" : 1
      } ]
    }, {
      "id" : 956,
      "name" : "956",
      "shifts" : [ {
        "start" : [ 9, 0 ],
        "end" : [ 12, 0 ]
      }, {
        "start" : [ 13, 0 ],
        "end" : [ 17, 0 ]
      } ],
      "prefSlots" : null,
      "startingLoc" : {
        "id" : 1857,
        "name" : null,
        "latitude" : 43.78773,
        "longitude" : 4.1788816
      },
      "skills" : [ {
        "id" : 2,
        "name" : "ELECTRICIAN",
        "level" : 1
      }, {
        "id" : 5,
        "name" : "GLAZING",
        "level" : 8
      } ]
    }, {
      "id" : 68,
      "name" : "68",
      "shifts" : [ {
        "start" : [ 9, 0 ],
        "end" : [ 12, 0 ]
      }, {
        "start" : [ 13, 0 ],
        "end" : [ 17, 0 ]
      } ],
      "prefSlots" : null,
      "startingLoc" : {
        "id" : 4640,
        "name" : null,
        "latitude" : 43.69416,
        "longitude" : 4.090042
      },
      "skills" : [ {
        "id" : 7,
        "name" : "PAINTING",
        "level" : 8
      }, {
        "id" : 7,
        "name" : "PAINTING",
        "level" : 6
      }, {
        "id" : 8,
        "name" : "IRONWORK",
        "level" : 4
      }, {
        "id" : 3,
        "name" : "PLUMBING",
        "level" : 5
      } ]
    }, {
      "id" : 334,
      "name" : "334",
      "shifts" : [ {
        "start" : [ 9, 0 ],
        "end" : [ 12, 0 ]
      }, {
        "start" : [ 13, 0 ],
        "end" : [ 17, 0 ]
      } ],
      "prefSlots" : null,
      "startingLoc" : {
        "id" : 347,
        "name" : null,
        "latitude" : 44.089615,
        "longitude" : 3.7908916
      },
      "skills" : [ {
        "id" : 2,
        "name" : "ELECTRICIAN",
        "level" : 6
      }, {
        "id" : 9,
        "name" : "TILER",
        "level" : 5
      }, {
        "id" : 1,
        "name" : "ENGINEER",
        "level" : 9
      }, {
        "id" : 2,
        "name" : "ELECTRICIAN",
        "level" : 6
      }, {
        "id" : 7,
        "name" : "PAINTING",
        "level" : 4
      }, {
        "id" : 9,
        "name" : "TILER",
        "level" : 4
      }, {
        "id" : 0,
        "name" : "MANAGEMENT",
        "level" : 4
      }, {
        "id" : 0,
        "name" : "MANAGEMENT",
        "level" : 6
      } ]
    } ]
  }, {
    "job" : {
      "id" : 306,
      "desc" : "CARPENTRY, MANAGEMENT",
      "location" : {
        "id" : 1089,
        "name" : null,
        "latitude" : 43.943596,
        "longitude" : 3.7925694
      },
      "openings" : {
        "start" : [ 10, 17 ],
        "end" : [ 15, 51 ]
      },
      "preferredSlots" : null,
      "doAfter" : null,
      "nbEmpRequired" : 1,
      "deadline" : [ 9, 3 ],
      "skills" : [ {
        "id" : 6,
        "name" : "CARPENTRY",
        "level" : 5
      }, {
        "id" : 0,
        "name" : "MANAGEMENT",
        "level" : 2
      } ],
      "duration" : 3600.000000000,
      "pause" : false
    },
    "needed" : [ {
      "id" : 956,
      "name" : "956",
      "shifts" : [ {
        "start" : [ 9, 0 ],
        "end" : [ 12, 0 ]
      }, {
        "start" : [ 13, 0 ],
        "end" : [ 17, 0 ]
      } ],
      "prefSlots" : null,
      "startingLoc" : {
        "id" : 1857,
        "name" : null,
        "latitude" : 43.78773,
        "longitude" : 4.1788816
      },
      "skills" : [ {
        "id" : 2,
        "name" : "ELECTRICIAN",
        "level" : 1
      }, {
        "id" : 5,
        "name" : "GLAZING",
        "level" : 8
      } ]
    }, {
      "id" : 11,
      "name" : "11",
      "shifts" : [ {
        "start" : [ 9, 0 ],
        "end" : [ 12, 0 ]
      }, {
        "start" : [ 13, 0 ],
        "end" : [ 17, 0 ]
      } ],
      "prefSlots" : null,
      "startingLoc" : {
        "id" : 6005,
        "name" : null,
        "latitude" : 44.021137,
        "longitude" : 3.8393497
      },
      "skills" : [ {
        "id" : 2,
        "name" : "ELECTRICIAN",
        "level" : 4
      }, {
        "id" : 7,
        "name" : "PAINTING",
        "level" : 3
      }, {
        "id" : 1,
        "name" : "ENGINEER",
        "level" : 1
      } ]
    }, {
      "id" : 427,
      "name" : "427",
      "shifts" : [ {
        "start" : [ 9, 0 ],
        "end" : [ 12, 0 ]
      }, {
        "start" : [ 13, 0 ],
        "end" : [ 17, 0 ]
      } ],
      "prefSlots" : null,
      "startingLoc" : {
        "id" : 531,
        "name" : null,
        "latitude" : 43.417114,
        "longitude" : 4.1146116
      },
      "skills" : [ {
        "id" : 6,
        "name" : "CARPENTRY",
        "level" : 1
      }, {
        "id" : 1,
        "name" : "ENGINEER",
        "level" : 1
      }, {
        "id" : 6,
        "name" : "CARPENTRY",
        "level" : 1
      } ]
    }, {
      "id" : 575,
      "name" : "575",
      "shifts" : [ {
        "start" : [ 9, 0 ],
        "end" : [ 12, 0 ]
      }, {
        "start" : [ 13, 0 ],
        "end" : [ 17, 0 ]
      } ],
      "prefSlots" : null,
      "startingLoc" : {
        "id" : 2072,
        "name" : null,
        "latitude" : 43.71438,
        "longitude" : 3.7370362
      },
      "skills" : [ {
        "id" : 2,
        "name" : "ELECTRICIAN",
        "level" : 8
      }, {
        "id" : 7,
        "name" : "PAINTING",
        "level" : 5
      }, {
        "id" : 8,
        "name" : "IRONWORK",
        "level" : 4
      }, {
        "id" : 9,
        "name" : "TILER",
        "level" : 3
      }, {
        "id" : 4,
        "name" : "MASONRY",
        "level" : 8
      }, {
        "id" : 3,
        "name" : "PLUMBING",
        "level" : 1
      }, {
        "id" : 9,
        "name" : "TILER",
        "level" : 8
      }, {
        "id" : 7,
        "name" : "PAINTING",
        "level" : 4
      }, {
        "id" : 0,
        "name" : "MANAGEMENT",
        "level" : 1
      } ]
    }, {
      "id" : 68,
      "name" : "68",
      "shifts" : [ {
        "start" : [ 9, 0 ],
        "end" : [ 12, 0 ]
      }, {
        "start" : [ 13, 0 ],
        "end" : [ 17, 0 ]
      } ],
      "prefSlots" : null,
      "startingLoc" : {
        "id" : 4640,
        "name" : null,
        "latitude" : 43.69416,
        "longitude" : 4.090042
      },
      "skills" : [ {
        "id" : 7,
        "name" : "PAINTING",
        "level" : 8
      }, {
        "id" : 7,
        "name" : "PAINTING",
        "level" : 6
      }, {
        "id" : 8,
        "name" : "IRONWORK",
        "level" : 4
      }, {
        "id" : 3,
        "name" : "PLUMBING",
        "level" : 5
      } ]
    }, {
      "id" : 334,
      "name" : "334",
      "shifts" : [ {
        "start" : [ 9, 0 ],
        "end" : [ 12, 0 ]
      }, {
        "start" : [ 13, 0 ],
        "end" : [ 17, 0 ]
      } ],
      "prefSlots" : null,
      "startingLoc" : {
        "id" : 347,
        "name" : null,
        "latitude" : 44.089615,
        "longitude" : 3.7908916
      },
      "skills" : [ {
        "id" : 2,
        "name" : "ELECTRICIAN",
        "level" : 6
      }, {
        "id" : 9,
        "name" : "TILER",
        "level" : 5
      }, {
        "id" : 1,
        "name" : "ENGINEER",
        "level" : 9
      }, {
        "id" : 2,
        "name" : "ELECTRICIAN",
        "level" : 6
      }, {
        "id" : 7,
        "name" : "PAINTING",
        "level" : 4
      }, {
        "id" : 9,
        "name" : "TILER",
        "level" : 4
      }, {
        "id" : 0,
        "name" : "MANAGEMENT",
        "level" : 4
      }, {
        "id" : 0,
        "name" : "MANAGEMENT",
        "level" : 6
      } ]
    } ]
  }, {
    "job" : {
      "id" : 814,
      "desc" : "TILER",
      "location" : {
        "id" : 2628,
        "name" : null,
        "latitude" : 43.63758,
        "longitude" : 3.83251
      },
      "openings" : {
        "start" : [ 15, 39 ],
        "end" : [ 16, 37 ]
      },
      "preferredSlots" : null,
      "doAfter" : null,
      "nbEmpRequired" : 1,
      "deadline" : [ 12, 36 ],
      "skills" : [ {
        "id" : 9,
        "name" : "TILER",
        "level" : 5
      } ],
      "duration" : 5400.000000000,
      "pause" : false
    },
    "needed" : [ {
      "id" : 615,
      "name" : "615",
      "shifts" : [ {
        "start" : [ 9, 0 ],
        "end" : [ 12, 0 ]
      }, {
        "start" : [ 13, 0 ],
        "end" : [ 17, 0 ]
      } ],
      "prefSlots" : null,
      "startingLoc" : {
        "id" : 3731,
        "name" : null,
        "latitude" : 43.557217,
        "longitude" : 4.186723
      },
      "skills" : [ {
        "id" : 5,
        "name" : "GLAZING",
        "level" : 10
      }, {
        "id" : 9,
        "name" : "TILER",
        "level" : 10
      }, {
        "id" : 1,
        "name" : "ENGINEER",
        "level" : 4
      }, {
        "id" : 5,
        "name" : "GLAZING",
        "level" : 3
      }, {
        "id" : 5,
        "name" : "GLAZING",
        "level" : 9
      } ]
    }, {
      "id" : 575,
      "name" : "575",
      "shifts" : [ {
        "start" : [ 9, 0 ],
        "end" : [ 12, 0 ]
      }, {
        "start" : [ 13, 0 ],
        "end" : [ 17, 0 ]
      } ],
      "prefSlots" : null,
      "startingLoc" : {
        "id" : 2072,
        "name" : null,
        "latitude" : 43.71438,
        "longitude" : 3.7370362
      },
      "skills" : [ {
        "id" : 2,
        "name" : "ELECTRICIAN",
        "level" : 8
      }, {
        "id" : 7,
        "name" : "PAINTING",
        "level" : 5
      }, {
        "id" : 8,
        "name" : "IRONWORK",
        "level" : 4
      }, {
        "id" : 9,
        "name" : "TILER",
        "level" : 3
      }, {
        "id" : 4,
        "name" : "MASONRY",
        "level" : 8
      }, {
        "id" : 3,
        "name" : "PLUMBING",
        "level" : 1
      }, {
        "id" : 9,
        "name" : "TILER",
        "level" : 8
      }, {
        "id" : 7,
        "name" : "PAINTING",
        "level" : 4
      }, {
        "id" : 0,
        "name" : "MANAGEMENT",
        "level" : 1
      } ]
    }, {
      "id" : 457,
      "name" : "457",
      "shifts" : [ {
        "start" : [ 9, 0 ],
        "end" : [ 12, 0 ]
      }, {
        "start" : [ 13, 0 ],
        "end" : [ 17, 0 ]
      } ],
      "prefSlots" : null,
      "startingLoc" : {
        "id" : 5345,
        "name" : null,
        "latitude" : 43.454815,
        "longitude" : 3.9521737
      },
      "skills" : [ {
        "id" : 3,
        "name" : "PLUMBING",
        "level" : 5
      }, {
        "id" : 6,
        "name" : "CARPENTRY",
        "level" : 5
      } ]
    }, {
      "id" : 180,
      "name" : "180",
      "shifts" : [ {
        "start" : [ 9, 0 ],
        "end" : [ 12, 0 ]
      }, {
        "start" : [ 13, 0 ],
        "end" : [ 17, 0 ]
      } ],
      "prefSlots" : null,
      "startingLoc" : {
        "id" : 2845,
        "name" : null,
        "latitude" : 43.73148,
        "longitude" : 3.9538512
      },
      "skills" : [ {
        "id" : 7,
        "name" : "PAINTING",
        "level" : 8
      }, {
        "id" : 0,
        "name" : "MANAGEMENT",
        "level" : 10
      }, {
        "id" : 3,
        "name" : "PLUMBING",
        "level" : 10
      }, {
        "id" : 0,
        "name" : "MANAGEMENT",
        "level" : 2
      }, {
        "id" : 2,
        "name" : "ELECTRICIAN",
        "level" : 1
      }, {
        "id" : 3,
        "name" : "PLUMBING",
        "level" : 2
      }, {
        "id" : 1,
        "name" : "ENGINEER",
        "level" : 3
      }, {
        "id" : 5,
        "name" : "GLAZING",
        "level" : 4
      } ]
    } ]
  }, {
    "job" : {
      "id" : 318,
      "desc" : "GLAZING, PAINTING",
      "location" : {
        "id" : 8579,
        "name" : null,
        "latitude" : 43.71223,
        "longitude" : 4.0050287
      },
      "openings" : {
        "start" : [ 10, 47 ],
        "end" : [ 17, 7 ]
      },
      "preferredSlots" : null,
      "doAfter" : null,
      "nbEmpRequired" : 1,
      "deadline" : [ 16, 6 ],
      "skills" : [ {
        "id" : 5,
        "name" : "GLAZING",
        "level" : 4
      }, {
        "id" : 7,
        "name" : "PAINTING",
        "level" : 2
      } ],
      "duration" : 1800.000000000,
      "pause" : false
    },
    "needed" : [ {
      "id" : 800,
      "name" : "800",
      "shifts" : [ {
        "start" : [ 9, 0 ],
        "end" : [ 12, 0 ]
      }, {
        "start" : [ 13, 0 ],
        "end" : [ 17, 0 ]
      } ],
      "prefSlots" : null,
      "startingLoc" : {
        "id" : 3662,
        "name" : null,
        "latitude" : 43.7781,
        "longitude" : 3.8372333
      },
      "skills" : [ {
        "id" : 2,
        "name" : "ELECTRICIAN",
        "level" : 3
      }, {
        "id" : 5,
        "name" : "GLAZING",
        "level" : 5
      }, {
        "id" : 0,
        "name" : "MANAGEMENT",
        "level" : 4
      }, {
        "id" : 1,
        "name" : "ENGINEER",
        "level" : 7
      }, {
        "id" : 9,
        "name" : "TILER",
        "level" : 5
      }, {
        "id" : 5,
        "name" : "GLAZING",
        "level" : 10
      }, {
        "id" : 0,
        "name" : "MANAGEMENT",
        "level" : 4
      }, {
        "id" : 0,
        "name" : "MANAGEMENT",
        "level" : 8
      }, {
        "id" : 6,
        "name" : "CARPENTRY",
        "level" : 2
      } ]
    }, {
      "id" : 68,
      "name" : "68",
      "shifts" : [ {
        "start" : [ 9, 0 ],
        "end" : [ 12, 0 ]
      }, {
        "start" : [ 13, 0 ],
        "end" : [ 17, 0 ]
      } ],
      "prefSlots" : null,
      "startingLoc" : {
        "id" : 4640,
        "name" : null,
        "latitude" : 43.69416,
        "longitude" : 4.090042
      },
      "skills" : [ {
        "id" : 7,
        "name" : "PAINTING",
        "level" : 8
      }, {
        "id" : 7,
        "name" : "PAINTING",
        "level" : 6
      }, {
        "id" : 8,
        "name" : "IRONWORK",
        "level" : 4
      }, {
        "id" : 3,
        "name" : "PLUMBING",
        "level" : 5
      } ]
    }, {
      "id" : 615,
      "name" : "615",
      "shifts" : [ {
        "start" : [ 9, 0 ],
        "end" : [ 12, 0 ]
      }, {
        "start" : [ 13, 0 ],
        "end" : [ 17, 0 ]
      } ],
      "prefSlots" : null,
      "startingLoc" : {
        "id" : 3731,
        "name" : null,
        "latitude" : 43.557217,
        "longitude" : 4.186723
      },
      "skills" : [ {
        "id" : 5,
        "name" : "GLAZING",
        "level" : 10
      }, {
        "id" : 9,
        "name" : "TILER",
        "level" : 10
      }, {
        "id" : 1,
        "name" : "ENGINEER",
        "level" : 4
      }, {
        "id" : 5,
        "name" : "GLAZING",
        "level" : 3
      }, {
        "id" : 5,
        "name" : "GLAZING",
        "level" : 9
      } ]
    }, {
      "id" : 11,
      "name" : "11",
      "shifts" : [ {
        "start" : [ 9, 0 ],
        "end" : [ 12, 0 ]
      }, {
        "start" : [ 13, 0 ],
        "end" : [ 17, 0 ]
      } ],
      "prefSlots" : null,
      "startingLoc" : {
        "id" : 6005,
        "name" : null,
        "latitude" : 44.021137,
        "longitude" : 3.8393497
      },
      "skills" : [ {
        "id" : 2,
        "name" : "ELECTRICIAN",
        "level" : 4
      }, {
        "id" : 7,
        "name" : "PAINTING",
        "level" : 3
      }, {
        "id" : 1,
        "name" : "ENGINEER",
        "level" : 1
      } ]
    }, {
      "id" : 457,
      "name" : "457",
      "shifts" : [ {
        "start" : [ 9, 0 ],
        "end" : [ 12, 0 ]
      }, {
        "start" : [ 13, 0 ],
        "end" : [ 17, 0 ]
      } ],
      "prefSlots" : null,
      "startingLoc" : {
        "id" : 5345,
        "name" : null,
        "latitude" : 43.454815,
        "longitude" : 3.9521737
      },
      "skills" : [ {
        "id" : 3,
        "name" : "PLUMBING",
        "level" : 5
      }, {
        "id" : 6,
        "name" : "CARPENTRY",
        "level" : 5
      } ]
    } ]
  }, {
    "job" : {
      "id" : 679,
      "desc" : "ELECTRICIAN",
      "location" : {
        "id" : 2160,
        "name" : null,
        "latitude" : 43.89483,
        "longitude" : 3.8769164
      },
      "openings" : {
        "start" : [ 13, 6 ],
        "end" : [ 13, 13 ]
      },
      "preferredSlots" : null,
      "doAfter" : null,
      "nbEmpRequired" : 1,
      "deadline" : [ 9, 37 ],
      "skills" : [ {
        "id" : 2,
        "name" : "ELECTRICIAN",
        "level" : 5
      } ],
      "duration" : 1800.000000000,
      "pause" : false
    },
    "needed" : [ {
      "id" : 615,
      "name" : "615",
      "shifts" : [ {
        "start" : [ 9, 0 ],
        "end" : [ 12, 0 ]
      }, {
        "start" : [ 13, 0 ],
        "end" : [ 17, 0 ]
      } ],
      "prefSlots" : null,
      "startingLoc" : {
        "id" : 3731,
        "name" : null,
        "latitude" : 43.557217,
        "longitude" : 4.186723
      },
      "skills" : [ {
        "id" : 5,
        "name" : "GLAZING",
        "level" : 10
      }, {
        "id" : 9,
        "name" : "TILER",
        "level" : 10
      }, {
        "id" : 1,
        "name" : "ENGINEER",
        "level" : 4
      }, {
        "id" : 5,
        "name" : "GLAZING",
        "level" : 3
      }, {
        "id" : 5,
        "name" : "GLAZING",
        "level" : 9
      } ]
    }, {
      "id" : 68,
      "name" : "68",
      "shifts" : [ {
        "start" : [ 9, 0 ],
        "end" : [ 12, 0 ]
      }, {
        "start" : [ 13, 0 ],
        "end" : [ 17, 0 ]
      } ],
      "prefSlots" : null,
      "startingLoc" : {
        "id" : 4640,
        "name" : null,
        "latitude" : 43.69416,
        "longitude" : 4.090042
      },
      "skills" : [ {
        "id" : 7,
        "name" : "PAINTING",
        "level" : 8
      }, {
        "id" : 7,
        "name" : "PAINTING",
        "level" : 6
      }, {
        "id" : 8,
        "name" : "IRONWORK",
        "level" : 4
      }, {
        "id" : 3,
        "name" : "PLUMBING",
        "level" : 5
      } ]
    } ]
  }, {
    "job" : {
      "id" : 301,
      "desc" : "PAINTING",
      "location" : {
        "id" : 6600,
        "name" : null,
        "latitude" : 43.632427,
        "longitude" : 4.0538507
      },
      "openings" : {
        "start" : [ 15, 4 ],
        "end" : [ 17, 51 ]
      },
      "preferredSlots" : null,
      "doAfter" : null,
      "nbEmpRequired" : 1,
      "deadline" : [ 10, 41 ],
      "skills" : [ {
        "id" : 7,
        "name" : "PAINTING",
        "level" : 3
      } ],
      "duration" : 3600.000000000,
      "pause" : false
    },
    "needed" : [ {
      "id" : 334,
      "name" : "334",
      "shifts" : [ {
        "start" : [ 9, 0 ],
        "end" : [ 12, 0 ]
      }, {
        "start" : [ 13, 0 ],
        "end" : [ 17, 0 ]
      } ],
      "prefSlots" : null,
      "startingLoc" : {
        "id" : 347,
        "name" : null,
        "latitude" : 44.089615,
        "longitude" : 3.7908916
      },
      "skills" : [ {
        "id" : 2,
        "name" : "ELECTRICIAN",
        "level" : 6
      }, {
        "id" : 9,
        "name" : "TILER",
        "level" : 5
      }, {
        "id" : 1,
        "name" : "ENGINEER",
        "level" : 9
      }, {
        "id" : 2,
        "name" : "ELECTRICIAN",
        "level" : 6
      }, {
        "id" : 7,
        "name" : "PAINTING",
        "level" : 4
      }, {
        "id" : 9,
        "name" : "TILER",
        "level" : 4
      }, {
        "id" : 0,
        "name" : "MANAGEMENT",
        "level" : 4
      }, {
        "id" : 0,
        "name" : "MANAGEMENT",
        "level" : 6
      } ]
    } ]
  }, {
    "job" : {
      "id" : 380,
      "desc" : "IRONWORK, TILER",
      "location" : {
        "id" : 8384,
        "name" : null,
        "latitude" : 43.526604,
        "longitude" : 4.296237
      },
      "openings" : {
        "start" : [ 12, 52 ],
        "end" : [ 13, 59 ]
      },
      "preferredSlots" : null,
      "doAfter" : null,
      "nbEmpRequired" : 1,
      "deadline" : [ 14, 20 ],
      "skills" : [ {
        "id" : 8,
        "name" : "IRONWORK",
        "level" : 5
      }, {
        "id" : 9,
        "name" : "TILER",
        "level" : 4
      } ],
      "duration" : 2700.000000000,
      "pause" : false
    },
    "needed" : [ {
      "id" : 68,
      "name" : "68",
      "shifts" : [ {
        "start" : [ 9, 0 ],
        "end" : [ 12, 0 ]
      }, {
        "start" : [ 13, 0 ],
        "end" : [ 17, 0 ]
      } ],
      "prefSlots" : null,
      "startingLoc" : {
        "id" : 4640,
        "name" : null,
        "latitude" : 43.69416,
        "longitude" : 4.090042
      },
      "skills" : [ {
        "id" : 7,
        "name" : "PAINTING",
        "level" : 8
      }, {
        "id" : 7,
        "name" : "PAINTING",
        "level" : 6
      }, {
        "id" : 8,
        "name" : "IRONWORK",
        "level" : 4
      }, {
        "id" : 3,
        "name" : "PLUMBING",
        "level" : 5
      } ]
    }, {
      "id" : 180,
      "name" : "180",
      "shifts" : [ {
        "start" : [ 9, 0 ],
        "end" : [ 12, 0 ]
      }, {
        "start" : [ 13, 0 ],
        "end" : [ 17, 0 ]
      } ],
      "prefSlots" : null,
      "startingLoc" : {
        "id" : 2845,
        "name" : null,
        "latitude" : 43.73148,
        "longitude" : 3.9538512
      },
      "skills" : [ {
        "id" : 7,
        "name" : "PAINTING",
        "level" : 8
      }, {
        "id" : 0,
        "name" : "MANAGEMENT",
        "level" : 10
      }, {
        "id" : 3,
        "name" : "PLUMBING",
        "level" : 10
      }, {
        "id" : 0,
        "name" : "MANAGEMENT",
        "level" : 2
      }, {
        "id" : 2,
        "name" : "ELECTRICIAN",
        "level" : 1
      }, {
        "id" : 3,
        "name" : "PLUMBING",
        "level" : 2
      }, {
        "id" : 1,
        "name" : "ENGINEER",
        "level" : 3
      }, {
        "id" : 5,
        "name" : "GLAZING",
        "level" : 4
      } ]
    }, {
      "id" : 334,
      "name" : "334",
      "shifts" : [ {
        "start" : [ 9, 0 ],
        "end" : [ 12, 0 ]
      }, {
        "start" : [ 13, 0 ],
        "end" : [ 17, 0 ]
      } ],
      "prefSlots" : null,
      "startingLoc" : {
        "id" : 347,
        "name" : null,
        "latitude" : 44.089615,
        "longitude" : 3.7908916
      },
      "skills" : [ {
        "id" : 2,
        "name" : "ELECTRICIAN",
        "level" : 6
      }, {
        "id" : 9,
        "name" : "TILER",
        "level" : 5
      }, {
        "id" : 1,
        "name" : "ENGINEER",
        "level" : 9
      }, {
        "id" : 2,
        "name" : "ELECTRICIAN",
        "level" : 6
      }, {
        "id" : 7,
        "name" : "PAINTING",
        "level" : 4
      }, {
        "id" : 9,
        "name" : "TILER",
        "level" : 4
      }, {
        "id" : 0,
        "name" : "MANAGEMENT",
        "level" : 4
      }, {
        "id" : 0,
        "name" : "MANAGEMENT",
        "level" : 6
      } ]
    }, {
      "id" : 427,
      "name" : "427",
      "shifts" : [ {
        "start" : [ 9, 0 ],
        "end" : [ 12, 0 ]
      }, {
        "start" : [ 13, 0 ],
        "end" : [ 17, 0 ]
      } ],
      "prefSlots" : null,
      "startingLoc" : {
        "id" : 531,
        "name" : null,
        "latitude" : 43.417114,
        "longitude" : 4.1146116
      },
      "skills" : [ {
        "id" : 6,
        "name" : "CARPENTRY",
        "level" : 1
      }, {
        "id" : 1,
        "name" : "ENGINEER",
        "level" : 1
      }, {
        "id" : 6,
        "name" : "CARPENTRY",
        "level" : 1
      } ]
    } ]
  }, {
    "job" : {
      "id" : 731,
      "desc" : "GLAZING, PAINTING",
      "location" : {
        "id" : 1839,
        "name" : null,
        "latitude" : 43.76863,
        "longitude" : 4.097677
      },
      "openings" : {
        "start" : [ 15, 50 ],
        "end" : [ 16, 56 ]
      },
      "preferredSlots" : null,
      "doAfter" : null,
      "nbEmpRequired" : 1,
      "deadline" : [ 13, 52 ],
      "skills" : [ {
        "id" : 5,
        "name" : "GLAZING",
        "level" : 4
      }, {
        "id" : 7,
        "name" : "PAINTING",
        "level" : 3
      } ],
      "duration" : 2700.000000000,
      "pause" : false
    },
    "needed" : [ {
      "id" : 427,
      "name" : "427",
      "shifts" : [ {
        "start" : [ 9, 0 ],
        "end" : [ 12, 0 ]
      }, {
        "start" : [ 13, 0 ],
        "end" : [ 17, 0 ]
      } ],
      "prefSlots" : null,
      "startingLoc" : {
        "id" : 531,
        "name" : null,
        "latitude" : 43.417114,
        "longitude" : 4.1146116
      },
      "skills" : [ {
        "id" : 6,
        "name" : "CARPENTRY",
        "level" : 1
      }, {
        "id" : 1,
        "name" : "ENGINEER",
        "level" : 1
      }, {
        "id" : 6,
        "name" : "CARPENTRY",
        "level" : 1
      } ]
    }, {
      "id" : 180,
      "name" : "180",
      "shifts" : [ {
        "start" : [ 9, 0 ],
        "end" : [ 12, 0 ]
      }, {
        "start" : [ 13, 0 ],
        "end" : [ 17, 0 ]
      } ],
      "prefSlots" : null,
      "startingLoc" : {
        "id" : 2845,
        "name" : null,
        "latitude" : 43.73148,
        "longitude" : 3.9538512
      },
      "skills" : [ {
        "id" : 7,
        "name" : "PAINTING",
        "level" : 8
      }, {
        "id" : 0,
        "name" : "MANAGEMENT",
        "level" : 10
      }, {
        "id" : 3,
        "name" : "PLUMBING",
        "level" : 10
      }, {
        "id" : 0,
        "name" : "MANAGEMENT",
        "level" : 2
      }, {
        "id" : 2,
        "name" : "ELECTRICIAN",
        "level" : 1
      }, {
        "id" : 3,
        "name" : "PLUMBING",
        "level" : 2
      }, {
        "id" : 1,
        "name" : "ENGINEER",
        "level" : 3
      }, {
        "id" : 5,
        "name" : "GLAZING",
        "level" : 4
      } ]
    }, {
      "id" : 575,
      "name" : "575",
      "shifts" : [ {
        "start" : [ 9, 0 ],
        "end" : [ 12, 0 ]
      }, {
        "start" : [ 13, 0 ],
        "end" : [ 17, 0 ]
      } ],
      "prefSlots" : null,
      "startingLoc" : {
        "id" : 2072,
        "name" : null,
        "latitude" : 43.71438,
        "longitude" : 3.7370362
      },
      "skills" : [ {
        "id" : 2,
        "name" : "ELECTRICIAN",
        "level" : 8
      }, {
        "id" : 7,
        "name" : "PAINTING",
        "level" : 5
      }, {
        "id" : 8,
        "name" : "IRONWORK",
        "level" : 4
      }, {
        "id" : 9,
        "name" : "TILER",
        "level" : 3
      }, {
        "id" : 4,
        "name" : "MASONRY",
        "level" : 8
      }, {
        "id" : 3,
        "name" : "PLUMBING",
        "level" : 1
      }, {
        "id" : 9,
        "name" : "TILER",
        "level" : 8
      }, {
        "id" : 7,
        "name" : "PAINTING",
        "level" : 4
      }, {
        "id" : 0,
        "name" : "MANAGEMENT",
        "level" : 1
      } ]
    } ]
  }, {
    "job" : {
      "id" : 624,
      "desc" : "TILER",
      "location" : {
        "id" : 6070,
        "name" : null,
        "latitude" : 43.4073,
        "longitude" : 3.767669
      },
      "openings" : {
        "start" : [ 9, 58 ],
        "end" : [ 10, 10 ]
      },
      "preferredSlots" : null,
      "doAfter" : null,
      "nbEmpRequired" : 1,
      "deadline" : [ 13, 12 ],
      "skills" : [ {
        "id" : 9,
        "name" : "TILER",
        "level" : 1
      } ],
      "duration" : 7200.000000000,
      "pause" : false
    },
    "needed" : [ {
      "id" : 457,
      "name" : "457",
      "shifts" : [ {
        "start" : [ 9, 0 ],
        "end" : [ 12, 0 ]
      }, {
        "start" : [ 13, 0 ],
        "end" : [ 17, 0 ]
      } ],
      "prefSlots" : null,
      "startingLoc" : {
        "id" : 5345,
        "name" : null,
        "latitude" : 43.454815,
        "longitude" : 3.9521737
      },
      "skills" : [ {
        "id" : 3,
        "name" : "PLUMBING",
        "level" : 5
      }, {
        "id" : 6,
        "name" : "CARPENTRY",
        "level" : 5
      } ]
    }, {
      "id" : 11,
      "name" : "11",
      "shifts" : [ {
        "start" : [ 9, 0 ],
        "end" : [ 12, 0 ]
      }, {
        "start" : [ 13, 0 ],
        "end" : [ 17, 0 ]
      } ],
      "prefSlots" : null,
      "startingLoc" : {
        "id" : 6005,
        "name" : null,
        "latitude" : 44.021137,
        "longitude" : 3.8393497
      },
      "skills" : [ {
        "id" : 2,
        "name" : "ELECTRICIAN",
        "level" : 4
      }, {
        "id" : 7,
        "name" : "PAINTING",
        "level" : 3
      }, {
        "id" : 1,
        "name" : "ENGINEER",
        "level" : 1
      } ]
    }, {
      "id" : 180,
      "name" : "180",
      "shifts" : [ {
        "start" : [ 9, 0 ],
        "end" : [ 12, 0 ]
      }, {
        "start" : [ 13, 0 ],
        "end" : [ 17, 0 ]
      } ],
      "prefSlots" : null,
      "startingLoc" : {
        "id" : 2845,
        "name" : null,
        "latitude" : 43.73148,
        "longitude" : 3.9538512
      },
      "skills" : [ {
        "id" : 7,
        "name" : "PAINTING",
        "level" : 8
      }, {
        "id" : 0,
        "name" : "MANAGEMENT",
        "level" : 10
      }, {
        "id" : 3,
        "name" : "PLUMBING",
        "level" : 10
      }, {
        "id" : 0,
        "name" : "MANAGEMENT",
        "level" : 2
      }, {
        "id" : 2,
        "name" : "ELECTRICIAN",
        "level" : 1
      }, {
        "id" : 3,
        "name" : "PLUMBING",
        "level" : 2
      }, {
        "id" : 1,
        "name" : "ENGINEER",
        "level" : 3
      }, {
        "id" : 5,
        "name" : "GLAZING",
        "level" : 4
      } ]
    } ]
  }, {
    "job" : {
      "id" : 313,
      "desc" : "IRONWORK, MASONRY",
      "location" : {
        "id" : 8963,
        "name" : null,
        "latitude" : 44.088448,
        "longitude" : 4.101038
      },
      "openings" : {
        "start" : [ 14, 22 ],
        "end" : [ 14, 50 ]
      },
      "preferredSlots" : null,
      "doAfter" : null,
      "nbEmpRequired" : 1,
      "deadline" : [ 14, 34 ],
      "skills" : [ {
        "id" : 8,
        "name" : "IRONWORK",
        "level" : 1
      }, {
        "id" : 4,
        "name" : "MASONRY",
        "level" : 1
      } ],
      "duration" : 3600.000000000,
      "pause" : false
    },
    "needed" : [ {
      "id" : 68,
      "name" : "68",
      "shifts" : [ {
        "start" : [ 9, 0 ],
        "end" : [ 12, 0 ]
      }, {
        "start" : [ 13, 0 ],
        "end" : [ 17, 0 ]
      } ],
      "prefSlots" : null,
      "startingLoc" : {
        "id" : 4640,
        "name" : null,
        "latitude" : 43.69416,
        "longitude" : 4.090042
      },
      "skills" : [ {
        "id" : 7,
        "name" : "PAINTING",
        "level" : 8
      }, {
        "id" : 7,
        "name" : "PAINTING",
        "level" : 6
      }, {
        "id" : 8,
        "name" : "IRONWORK",
        "level" : 4
      }, {
        "id" : 3,
        "name" : "PLUMBING",
        "level" : 5
      } ]
    } ]
  } ]
}