{
  "jobs" : [ {
    "id" : 466,
    "desc" : "GLAZING",
    "location" : {
      "id" : 5997,
      "name" : null,
      "latitude" : 43.457542,
      "longitude" : 4.160005
    },
    "openings" : {
      "start" : [ 15, 4 ],
      "end" : [ 17, 5 ]
    },
    "preferredSlots" : null,
    "doAfter" : null,
    "nbEmpRequired" : 1,
    "deadline" : [ 10, 26 ],
    "skills" : [ {
      "id" : 5,
      "name" : "GLAZING",
      "level" : 3
    } ],
    "duration" : 7200.000000000,
    "pause" : false
  }, {
    "id" : 748,
    "desc" : "MASONRY",
    "location" : {
      "id" : 7818,
      "name" : null,
      "latitude" : 43.680054,
      "longitude" : 4.2018366
    },
    "openings" : {
      "start" : [ 9, 55 ],
      "end" : [ 11, 14 ]
    },
    "preferredSlots" : null,
    "doAfter" : null,
    "nbEmpRequired" : 1,
    "deadline" : [ 15, 35 ],
    "skills" : [ {
      "id" : 4,
      "name" : "MASONRY",
      "level" : 1
    } ],
    "duration" : 2700.000000000,
    "pause" : false
  }, {
    "id" : 658,
    "desc" : "CARPENTRY",
    "location" : {
      "id" : 9150,
      "name" : null,
      "latitude" : 43.81116,
      "longitude" : 4.111096
    },
    "openings" : {
      "start" : [ 14, 33 ],
      "end" : [ 16, 25 ]
    },
    "preferredSlots" : null,
    "doAfter" : null,
    "nbEmpRequired" : 1,
    "deadline" : [ 9, 56 ],
    "skills" : [ {
      "id" : 6,
      "name" : "CARPENTRY",
      "level" : 2
    } ],
    "duration" : 1800.000000000,
    "pause" : false
  }, {
    "id" : 518,
    "desc" : "GLAZING, ELECTRICIAN",
    "location" : {
      "id" : 1528,
      "name" : null,
      "latitude" : 43.680855,
      "longitude" : 3.7441952
    },
    "openings" : {
      "start" : [ 14, 7 ],
      "end" : [ 17, 50 ]
    },
    "preferredSlots" : null,
    "doAfter" : null,
    "nbEmpRequired" : 1,
    "deadline" : [ 17, 23 ],
    "skills" : [ {
      "id" : 5,
      "name" : "GLAZING",
      "level" : 5
    }, {
      "id" : 2,
      "name" : "ELECTRICIAN",
      "level" : 5
    } ],
    "duration" : 3600.000000000,
    "pause" : false
  }, {
    "id" : 930,
    "desc" : "IRONWORK",
    "location" : {
      "id" : 9156,
      "name" : null,
      "latitude" : 43.505344,
      "longitude" : 3.9840245
    },
    "openings" : {
      "start" : [ 15, 51 ],
      "end" : [ 17, 34 ]
    },
    "preferredSlots" : null,
    "doAfter" : null,
    "nbEmpRequired" : 1,
    "deadline" : [ 14, 22 ],
    "skills" : [ {
      "id" : 8,
      "name" : "IRONWORK",
      "level" : 1
    } ],
    "duration" : 1800.000000000,
    "pause" : false
  }, {
    "id" : 789,
    "desc" : "ELECTRICIAN, CARPENTRY",
    "location" : {
      "id" : 6379,
      "name" : null,
      "latitude" : 43.70264,
      "longitude" : 4.1673155
    },
    "openings" : {
      "start" : [ 12, 21 ],
      "end" : [ 12, 38 ]
    },
    "preferredSlots" : null,
    "doAfter" : null,
    "nbEmpRequired" : 1,
    "deadline" : [ 12, 11 ],
    "skills" : [ {
      "id" : 2,
      "name" : "ELECTRICIAN",
      "level" : 5
    }, {
      "id" : 6,
      "name" : "CARPENTRY",
      "level" : 5
    } ],
    "duration" : 1800.000000000,
    "pause" : false
  }, {
    "id" : 700,
    "desc" : "ENGINEER",
    "location" : {
      "id" : 457,
      "name" : null,
      "latitude" : 43.970055,
      "longitude" : 3.966132
    },
    "openings" : {
      "start" : [ 11, 21 ],
      "end" : [ 15, 0 ]
    },
    "preferredSlots" : null,
    "doAfter" : null,
    "nbEmpRequired" : 1,
    "deadline" : [ 9, 46 ],
    "skills" : [ {
      "id" : 1,
      "name" : "ENGINEER",
      "level" : 4
    } ],
    "duration" : 1800.000000000,
    "pause" : false
  }, {
    "id" : 638,
    "desc" : "TILER",
    "location" : {
      "id" : 6830,
      "name" : null,
      "latitude" : 43.476234,
      "longitude" : 3.9829364
    },
    "openings" : {
      "start" : [ 10, 26 ],
      "end" : [ 10, 37 ]
    },
    "preferredSlots" : null,
    "doAfter" : null,
    "nbEmpRequired" : 1,
    "deadline" : [ 13, 57 ],
    "skills" : [ {
      "id" : 9,
      "name" : "TILER",
      "level" : 1
    } ],
    "duration" : 2700.000000000,
    "pause" : false
  }, {
    "id" : 733,
    "desc" : "IRONWORK",
    "location" : {
      "id" : 6962,
      "name" : null,
      "latitude" : 43.82052,
      "longitude" : 3.9891124
    },
    "openings" : {
      "start" : [ 12, 30 ],
      "end" : [ 13, 53 ]
    },
    "preferredSlots" : null,
    "doAfter" : null,
    "nbEmpRequired" : 1,
    "deadline" : [ 12, 25 ],
    "skills" : [ {
      "id" : 8,
      "name" : "IRONWORK",
      "level" : 4
    } ],
    "duration" : 3600.000000000,
    "pause" : false
  }, {
    "id" : 295,
    "desc" : "PLUMBING",
    "location" : {
      "id" : 4768,
      "name" : null,
      "latitude" : 43.836544,
      "longitude" : 4.165802
    },
    "openings" : {
      "start" : [ 9, 58 ],
      "end" : [ 12, 50 ]
    },
    "preferredSlots" : null,
    "doAfter" : null,
    "nbEmpRequired" : 1,
    "deadline" : [ 13, 44 ],
    "skills" : [ {
      "id" : 3,
      "name" : "PLUMBING",
      "level" : 3
    } ],
    "duration" : 2700.000000000,
    "pause" : false
  }, {
    "id" : 91,
    "desc" : "ELECTRICIAN, IRONWORK",
    "location" : {
      "id" : 7911,
      "name" : null,
      "latitude" : 43.657494,
      "longitude" : 4.2596827
    },
    "openings" : {
      "start" : [ 9, 34 ],
      "end" : [ 12, 14 ]
    },
    "preferredSlots" : null,
    "doAfter" : null,
    "nbEmpRequired" : 1,
    "deadline" : [ 13, 8 ],
    "skills" : [ {
      "id" : 2,
      "name" : "ELECTRICIAN",
      "level" : 1
    }, {
      "id" : 8,
      "name" : "IRONWORK",
      "level" : 2
    } ],
    "duration" : 3600.000000000,
    "pause" : false
  }, {
    "id" : 326,
    "desc" : "PAINTING, PLUMBING",
    "location" : {
      "id" : 1080,
      "name" : null,
      "latitude" : 44.085033,
      "longitude" : 3.7997372
    },
    "openings" : {
      "start" : [ 9, 38 ],
      "end" : [ 14, 9 ]
    },
    "preferredSlots" : null,
    "doAfter" : null,
    "nbEmpRequired" : 1,
    "deadline" : [ 15, 16 ],
    "skills" : [ {
      "id" : 7,
      "name" : "PAINTING",
      "level" : 1
    }, {
      "id" : 3,
      "name" : "PLUMBING",
      "level" : 3
    } ],
    "duration" : 2700.000000000,
    "pause" : false
  }, {
    "id" : 258,
    "desc" : "PAINTING, ELECTRICIAN",
    "location" : {
      "id" : 1319,
      "name" : null,
      "latitude" : 44.088665,
      "longitude" : 4.2646894
    },
    "openings" : {
      "start" : [ 10, 38 ],
      "end" : [ 13, 21 ]
    },
    "preferredSlots" : null,
    "doAfter" : null,
    "nbEmpRequired" : 1,
    "deadline" : [ 15, 13 ],
    "skills" : [ {
      "id" : 7,
      "name" : "PAINTING",
      "level" : 5
    }, {
      "id" : 2,
      "name" : "ELECTRICIAN",
      "level" : 1
    } ],
    "duration" : 1800.000000000,
    "pause" : false
  }, {
    "id" : 562,
    "desc" : "ENGINEER, TILER",
    "location" : {
      "id" : 2585,
      "name" : null,
      "latitude" : 43.60034,
      "longitude" : 3.9638805
    },
    "openings" : {
      "start" : [ 11, 6 ],
      "end" : [ 16, 31 ]
    },
    "preferredSlots" : null,
    "doAfter" : null,
    "nbEmpRequired" : 1,
    "deadline" : [ 17, 32 ],
    "skills" : [ {
      "id" : 1,
      "name" : "ENGINEER",
      "level" : 4
    }, {
      "id" : 9,
      "name" : "TILER",
      "level" : 4
    } ],
    "duration" : 1800.000000000,
    "pause" : false
  }, {
    "id" : 697,
    "desc" : "MASONRY",
    "location" : {
      "id" : 3674,
      "name" : null,
      "latitude" : 43.507908,
      "longitude" : 3.719019
    },
    "openings" : {
      "start" : [ 13, 47 ],
      "end" : [ 15, 52 ]
    },
    "preferredSlots" : null,
    "doAfter" : null,
    "nbEmpRequired" : 1,
    "deadline" : [ 17, 3 ],
    "skills" : [ {
      "id" : 4,
      "name" : "MASONRY",
      "level" : 3
    } ],
    "duration" : 3600.000000000,
    "pause" : false
  }, {
    "id" : 939,
    "desc" : "PLUMBING, MANAGEMENT",
    "location" : {
      "id" : 5291,
      "name" : null,
      "latitude" : 43.860035,
      "longitude" : 4.24286
    },
    "openings" : {
      "start" : [ 9, 55 ],
      "end" : [ 17, 29 ]
    },
    "preferredSlots" : null,
    "doAfter" : null,
    "nbEmpRequired" : 1,
    "deadline" : [ 16, 22 ],
    "skills" : [ {
      "id" : 3,
      "name" : "PLUMBING",
      "level" : 2
    }, {
      "id" : 0,
      "name" : "MANAGEMENT",
      "level" : 5
    } ],
    "duration" : 1800.000000000,
    "pause" : false
  }, {
    "id" : 654,
    "desc" : "PLUMBING, CARPENTRY",
    "location" : {
      "id" : 3315,
      "name" : null,
      "latitude" : 44.00152,
      "longitude" : 3.972112
    },
    "openings" : {
      "start" : [ 12, 18 ],
      "end" : [ 14, 44 ]
    },
    "preferredSlots" : null,
    "doAfter" : null,
    "nbEmpRequired" : 1,
    "deadline" : [ 17, 56 ],
    "skills" : [ {
      "id" : 3,
      "name" : "PLUMBING",
      "level" : 4
    }, {
      "id" : 6,
      "name" : "CARPENTRY",
      "level" : 3
    } ],
    "duration" : 1800.000000000,
    "pause" : false
  }, {
    "id" : 239,
    "desc" : "MASONRY",
    "location" : {
      "id" : 4018,
      "name" : null,
      "latitude" : 43.703926,
      "longitude" : 3.7627444
    },
    "openings" : {
      "start" : [ 15, 23 ],
      "end" : [ 16, 13 ]
    },
    "preferredSlots" : null,
    "doAfter" : null,
    "nbEmpRequired" : 1,
    "deadline" : [ 13, 42 ],
    "skills" : [ {
      "id" : 4,
      "name" : "MASONRY",
      "level" : 2
    } ],
    "duration" : 3600.000000000,
    "pause" : false
  }, {
    "id" : 751,
    "desc" : "GLAZING",
    "location" : {
      "id" : 3900,
      "name" : null,
      "latitude" : 43.881535,
      "longitude" : 3.8379612
    },
    "openings" : {
      "start" : [ 10, 40 ],
      "end" : [ 14, 19 ]
    },
    "preferredSlots" : null,
    "doAfter" : null,
    "nbEmpRequired" : 1,
    "deadline" : [ 14, 35 ],
    "skills" : [ {
      "id" : 5,
      "name" : "GLAZING",
      "level" : 3
    } ],
    "duration" : 5400.000000000,
    "pause" : false
  }, {
    "id" : 556,
    "desc" : "PAINTING",
    "location" : {
      "id" : 6690,
      "name" : null,
      "latitude" : 43.53844,
      "longitude" : 4.044233
    },
    "openings" : {
      "start" : [ 10, 35 ],
      "end" : [ 17, 21 ]
    },
    "preferredSlots" : null,
    "doAfter" : null,
    "nbEmpRequired" : 1,
    "deadline" : [ 15, 56 ],
    "skills" : [ {
      "id" : 7,
      "name" : "PAINTING",
      "level" : 1
    } ],
    "duration" : 5400.000000000,
    "pause" : false
  }, {
    "id" : 317,
    "desc" : "PLUMBING",
    "location" : {
      "id" : 5455,
      "name" : null,
      "latitude" : 43.663124,
      "longitude" : 3.8781896
    },
    "openings" : {
      "start" : [ 12, 31 ],
      "end" : [ 16, 9 ]
    },
    "preferredSlots" : null,
    "doAfter" : null,
    "nbEmpRequired" : 1,
    "deadline" : [ 16, 27 ],
    "skills" : [ {
      "id" : 3,
      "name" : "PLUMBING",
      "level" : 3
    } ],
    "duration" : 3600.000000000,
    "pause" : false
  }, {
    "id" : 890,
    "desc" : "CARPENTRY, IRONWORK",
    "location" : {
      "id" : 4000,
      "name" : null,
      "latitude" : 44.03504,
      "longitude" : 3.9696732
    },
    "openings" : {
      "start" : [ 14, 5 ],
      "end" : [ 17, 12 ]
    },
    "preferredSlots" : null,
    "doAfter" : null,
    "nbEmpRequired" : 1,
    "deadline" : [ 16, 32 ],
    "skills" : [ {
      "id" : 6,
      "name" : "CARPENTRY",
      "level" : 3
    }, {
      "id" : 8,
      "name" : "IRONWORK",
      "level" : 3
    } ],
    "duration" : 1800.000000000,
    "pause" : false
  }, {
    "id" : 848,
    "desc" : "MASONRY, MANAGEMENT",
    "location" : {
      "id" : 4998,
      "name" : null,
      "latitude" : 43.561333,
      "longitude" : 4.1218615
    },
    "openings" : {
      "start" : [ 11, 11 ],
      "end" : [ 11, 51 ]
    },
    "preferredSlots" : null,
    "doAfter" : null,
    "nbEmpRequired" : 1,
    "deadline" : [ 12, 43 ],
    "skills" : [ {
      "id" : 4,
      "name" : "MASONRY",
      "level" : 5
    }, {
      "id" : 0,
      "name" : "MANAGEMENT",
      "level" : 4
    } ],
    "duration" : 1800.000000000,
    "pause" : false
  }, {
    "id" : 693,
    "desc" : "IRONWORK",
    "location" : {
      "id" : 413,
      "name" : null,
      "latitude" : 43.769802,
      "longitude" : 3.8024487
    },
    "openings" : {
      "start" : [ 10, 54 ],
      "end" : [ 12, 28 ]
    },
    "preferredSlots" : null,
    "doAfter" : null,
    "nbEmpRequired" : 1,
    "deadline" : [ 14, 30 ],
    "skills" : [ {
      "id" : 8,
      "name" : "IRONWORK",
      "level" : 4
    } ],
    "duration" : 1800.000000000,
    "pause" : false
  }, {
    "id" : 582,
    "desc" : "GLAZING",
    "location" : {
      "id" : 6693,
      "name" : null,
      "latitude" : 43.933098,
      "longitude" : 3.780986
    },
    "openings" : {
      "start" : [ 15, 45 ],
      "end" : [ 17, 7 ]
    },
    "preferredSlots" : null,
    "doAfter" : null,
    "nbEmpRequired" : 1,
    "deadline" : [ 12, 37 ],
    "skills" : [ {
      "id" : 5,
      "name" : "GLAZING",
      "level" : 2
    } ],
    "duration" : 3600.000000000,
    "pause" : false
  }, {
    "id" : 964,
    "desc" : "PAINTING, ENGINEER",
    "location" : {
      "id" : 7282,
      "name" : null,
      "latitude" : 43.536327,
      "longitude" : 4.2823863
    },
    "openings" : {
      "start" : [ 12, 45 ],
      "end" : [ 13, 50 ]
    },
    "preferredSlots" : null,
    "doAfter" : null,
    "nbEmpRequired" : 1,
    "deadline" : [ 17, 35 ],
    "skills" : [ {
      "id" : 7,
      "name" : "PAINTING",
      "level" : 4
    }, {
      "id" : 1,
      "name" : "ENGINEER",
      "level" : 5
    } ],
    "duration" : 1800.000000000,
    "pause" : false
  }, {
    "id" : 823,
    "desc" : "CARPENTRY, MANAGEMENT",
    "location" : {
      "id" : 5068,
      "name" : null,
      "latitude" : 43.405426,
      "longitude" : 4.135854
    },
    "openings" : {
      "start" : [ 10, 8 ],
      "end" : [ 12, 36 ]
    },
    "preferredSlots" : null,
    "doAfter" : null,
    "nbEmpRequired" : 1,
    "deadline" : [ 11, 35 ],
    "skills" : [ {
      "id" : 6,
      "name" : "CARPENTRY",
      "level" : 3
    }, {
      "id" : 0,
      "name" : "MANAGEMENT",
      "level" : 2
    } ],
    "duration" : 1800.000000000,
    "pause" : false
  }, {
    "id" : 409,
    "desc" : "MANAGEMENT",
    "location" : {
      "id" : 939,
      "name" : null,
      "latitude" : 43.7048,
      "longitude" : 3.8562298
    },
    "openings" : {
      "start" : [ 10, 18 ],
      "end" : [ 11, 30 ]
    },
    "preferredSlots" : null,
    "doAfter" : null,
    "nbEmpRequired" : 1,
    "deadline" : [ 10, 18 ],
    "skills" : [ {
      "id" : 0,
      "name" : "MANAGEMENT",
      "level" : 5
    } ],
    "duration" : 2700.000000000,
    "pause" : false
  }, {
    "id" : 925,
    "desc" : "MASONRY",
    "location" : {
      "id" : 2835,
      "name" : null,
      "latitude" : 43.59911,
      "longitude" : 4.242865
    },
    "openings" : {
      "start" : [ 12, 5 ],
      "end" : [ 13, 11 ]
    },
    "preferredSlots" : null,
    "doAfter" : null,
    "nbEmpRequired" : 1,
    "deadline" : [ 15, 43 ],
    "skills" : [ {
      "id" : 4,
      "name" : "MASONRY",
      "level" : 5
    } ],
    "duration" : 1800.000000000,
    "pause" : false
  }, {
    "id" : 18,
    "desc" : "CARPENTRY",
    "location" : {
      "id" : 2157,
      "name" : null,
      "latitude" : 43.427967,
      "longitude" : 3.7207131
    },
    "openings" : {
      "start" : [ 11, 13 ],
      "end" : [ 16, 35 ]
    },
    "preferredSlots" : null,
    "doAfter" : null,
    "nbEmpRequired" : 1,
    "deadline" : [ 12, 42 ],
    "skills" : [ {
      "id" : 6,
      "name" : "CARPENTRY",
      "level" : 5
    } ],
    "duration" : 2700.000000000,
    "pause" : false
  }, {
    "id" : 906,
    "desc" : "MANAGEMENT",
    "location" : {
      "id" : 8236,
      "name" : null,
      "latitude" : 43.74929,
      "longitude" : 3.9352505
    },
    "openings" : {
      "start" : [ 12, 5 ],
      "end" : [ 12, 18 ]
    },
    "preferredSlots" : null,
    "doAfter" : null,
    "nbEmpRequired" : 1,
    "deadline" : [ 12, 16 ],
    "skills" : [ {
      "id" : 0,
      "name" : "MANAGEMENT",
      "level" : 5
    } ],
    "duration" : 3600.000000000,
    "pause" : false
  }, {
    "id" : 986,
    "desc" : "PLUMBING",
    "location" : {
      "id" : 6090,
      "name" : null,
      "latitude" : 43.464245,
      "longitude" : 3.9002204
    },
    "openings" : {
      "start" : [ 9, 57 ],
      "end" : [ 15, 53 ]
    },
    "preferredSlots" : null,
    "doAfter" : null,
    "nbEmpRequired" : 1,
    "deadline" : [ 14, 18 ],
    "skills" : [ {
      "id" : 3,
      "name" : "PLUMBING",
      "level" : 3
    } ],
    "duration" : 1800.000000000,
    "pause" : false
  }, {
    "id" : 83,
    "desc" : "GLAZING",
    "location" : {
      "id" : 7236,
      "name" : null,
      "latitude" : 43.97218,
      "longitude" : 4.187008
    },
    "openings" : {
      "start" : [ 10, 48 ],
      "end" : [ 13, 6 ]
    },
    "preferredSlots" : null,
    "doAfter" : null,
    "nbEmpRequired" : 1,
    "deadline" : [ 11, 30 ],
    "skills" : [ {
      "id" : 5,
      "name" : "GLAZING",
      "level" : 4
    } ],
    "duration" : 2700.000000000,
    "pause" : false
  }, {
    "id" : 642,
    "desc" : "ELECTRICIAN, MASONRY",
    "location" : {
      "id" : 7602,
      "name" : null,
      "latitude" : 44.072803,
      "longitude" : 4.0523424
    },
    "openings" : {
      "start" : [ 9, 32 ],
      "end" : [ 13, 49 ]
    },
    "preferredSlots" : null,
    "doAfter" : null,
    "nbEmpRequired" : 1,
    "deadline" : [ 13, 22 ],
    "skills" : [ {
      "id" : 2,
      "name" : "ELECTRICIAN",
      "level" : 1
    }, {
      "id" : 4,
      "name" : "MASONRY",
      "level" : 4
    } ],
    "duration" : 3600.000000000,
    "pause" : false
  }, {
    "id" : 104,
    "desc" : "GLAZING, ENGINEER",
    "location" : {
      "id" : 2338,
      "name" : null,
      "latitude" : 43.63459,
      "longitude" : 4.063414
    },
    "openings" : {
      "start" : [ 12, 35 ],
      "end" : [ 17, 8 ]
    },
    "preferredSlots" : null,
    "doAfter" : null,
    "nbEmpRequired" : 1,
    "deadline" : [ 14, 31 ],
    "skills" : [ {
      "id" : 5,
      "name" : "GLAZING",
      "level" : 5
    }, {
      "id" : 1,
      "name" : "ENGINEER",
      "level" : 2
    } ],
    "duration" : 1800.000000000,
    "pause" : false
  }, {
    "id" : 685,
    "desc" : "CARPENTRY",
    "location" : {
      "id" : 5764,
      "name" : null,
      "latitude" : 44.062317,
      "longitude" : 3.7885737
    },
    "openings" : {
      "start" : [ 16, 43 ],
      "end" : [ 17, 45 ]
    },
    "preferredSlots" : null,
    "doAfter" : null,
    "nbEmpRequired" : 1,
    "deadline" : [ 14, 57 ],
    "skills" : [ {
      "id" : 6,
      "name" : "CARPENTRY",
      "level" : 5
    } ],
    "duration" : 7200.000000000,
    "pause" : false
  }, {
    "id" : 244,
    "desc" : "GLAZING, MANAGEMENT",
    "location" : {
      "id" : 6923,
      "name" : null,
      "latitude" : 43.53906,
      "longitude" : 4.128288
    },
    "openings" : {
      "start" : [ 14, 35 ],
      "end" : [ 16, 8 ]
    },
    "preferredSlots" : null,
    "doAfter" : null,
    "nbEmpRequired" : 1,
    "deadline" : [ 10, 16 ],
    "skills" : [ {
      "id" : 5,
      "name" : "GLAZING",
      "level" : 5
    }, {
      "id" : 0,
      "name" : "MANAGEMENT",
      "level" : 2
    } ],
    "duration" : 3600.000000000,
    "pause" : false
  }, {
    "id" : 505,
    "desc" : "IRONWORK, ENGINEER",
    "location" : {
      "id" : 909,
      "name" : null,
      "latitude" : 43.56054,
      "longitude" : 3.9726784
    },
    "openings" : {
      "start" : [ 16, 59 ],
      "end" : [ 17, 12 ]
    },
    "preferredSlots" : null,
    "doAfter" : null,
    "nbEmpRequired" : 1,
    "deadline" : [ 10, 18 ],
    "skills" : [ {
      "id" : 8,
      "name" : "IRONWORK",
      "level" : 4
    }, {
      "id" : 1,
      "name" : "ENGINEER",
      "level" : 3
    } ],
    "duration" : 3600.000000000,
    "pause" : false
  }, {
    "id" : 705,
    "desc" : "ENGINEER",
    "location" : {
      "id" : 9542,
      "name" : null,
      "latitude" : 43.85244,
      "longitude" : 4.07018
    },
    "openings" : {
      "start" : [ 16, 27 ],
      "end" : [ 17, 43 ]
    },
    "preferredSlots" : null,
    "doAfter" : null,
    "nbEmpRequired" : 1,
    "deadline" : [ 12, 17 ],
    "skills" : [ {
      "id" : 1,
      "name" : "ENGINEER",
      "level" : 1
    } ],
    "duration" : 3600.000000000,
    "pause" : false
  }, {
    "id" : 594,
    "desc" : "CARPENTRY",
    "location" : {
      "id" : 6769,
      "name" : null,
      "latitude" : 43.751293,
      "longitude" : 4.1822944
    },
    "openings" : {
      "start" : [ 10, 20 ],
      "end" : [ 12, 2 ]
    },
    "preferredSlots" : null,
    "doAfter" : null,
    "nbEmpRequired" : 1,
    "deadline" : [ 12, 36 ],
    "skills" : [ {
      "id" : 6,
      "name" : "CARPENTRY",
      "level" : 4
    } ],
    "duration" : 3600.000000000,
    "pause" : false
  }, {
    "id" : 428,
    "desc" : "ENGINEER",
    "location" : {
      "id" : 1544,
      "name" : null,
      "latitude" : 44.01684,
      "longitude" : 4.1784334
    },
    "openings" : {
      "start" : [ 11, 37 ],
      "end" : [ 14, 46 ]
    },
    "preferredSlots" : null,
    "doAfter" : null,
    "nbEmpRequired" : 1,
    "deadline" : [ 15, 37 ],
    "skills" : [ {
      "id" : 1,
      "name" : "ENGINEER",
      "level" : 1
    } ],
    "duration" : 2700.000000000,
    "pause" : false
  }, {
    "id" : 436,
    "desc" : "IRONWORK, MANAGEMENT",
    "location" : {
      "id" : 9212,
      "name" : null,
      "latitude" : 43.7681,
      "longitude" : 3.7710025
    },
    "openings" : {
      "start" : [ 16, 40 ],
      "end" : [ 17, 35 ]
    },
    "preferredSlots" : null,
    "doAfter" : null,
    "nbEmpRequired" : 1,
    "deadline" : [ 16, 11 ],
    "skills" : [ {
      "id" : 8,
      "name" : "IRONWORK",
      "level" : 2
    }, {
      "id" : 0,
      "name" : "MANAGEMENT",
      "level" : 2
    } ],
    "duration" : 3600.000000000,
    "pause" : false
  }, {
    "id" : 869,
    "desc" : "PLUMBING",
    "location" : {
      "id" : 3191,
      "name" : null,
      "latitude" : 43.830864,
      "longitude" : 3.8800392
    },
    "openings" : {
      "start" : [ 9, 39 ],
      "end" : [ 11, 29 ]
    },
    "preferredSlots" : null,
    "doAfter" : null,
    "nbEmpRequired" : 1,
    "deadline" : [ 11, 57 ],
    "skills" : [ {
      "id" : 3,
      "name" : "PLUMBING",
      "level" : 5
    } ],
    "duration" : 2700.000000000,
    "pause" : false
  }, {
    "id" : 145,
    "desc" : "IRONWORK",
    "location" : {
      "id" : 6925,
      "name" : null,
      "latitude" : 43.80747,
      "longitude" : 3.7878685
    },
    "openings" : {
      "start" : [ 9, 19 ],
      "end" : [ 15, 50 ]
    },
    "preferredSlots" : null,
    "doAfter" : null,
    "nbEmpRequired" : 1,
    "deadline" : [ 13, 50 ],
    "skills" : [ {
      "id" : 8,
      "name" : "IRONWORK",
      "level" : 3
    } ],
    "duration" : 1800.000000000,
    "pause" : false
  }, {
    "id" : 951,
    "desc" : "PAINTING, IRONWORK",
    "location" : {
      "id" : 5988,
      "name" : null,
      "latitude" : 43.580833,
      "longitude" : 4.0025306
    },
    "openings" : {
      "start" : [ 15, 27 ],
      "end" : [ 16, 3 ]
    },
    "preferredSlots" : null,
    "doAfter" : null,
    "nbEmpRequired" : 1,
    "deadline" : [ 15, 16 ],
    "skills" : [ {
      "id" : 7,
      "name" : "PAINTING",
      "level" : 2
    }, {
      "id" : 8,
      "name" : "IRONWORK",
      "level" : 5
    } ],
    "duration" : 2700.000000000,
    "pause" : false
  }, {
    "id" : 429,
    "desc" : "GLAZING, TILER",
    "location" : {
      "id" : 4906,
      "name" : null,
      "latitude" : 43.723476,
      "longitude" : 4.138678
    },
    "openings" : {
      "start" : [ 10, 2 ],
      "end" : [ 11, 33 ]
    },
    "preferredSlots" : null,
    "doAfter" : null,
    "nbEmpRequired" : 1,
    "deadline" : [ 13, 26 ],
    "skills" : [ {
      "id" : 5,
      "name" : "GLAZING",
      "level" : 5
    }, {
      "id" : 9,
      "name" : "TILER",
      "level" : 1
    } ],
    "duration" : 2700.000000000,
    "pause" : false
  }, {
    "id" : 889,
    "desc" : "PAINTING",
    "location" : {
      "id" : 4598,
      "name" : null,
      "latitude" : 43.440556,
      "longitude" : 3.8696575
    },
    "openings" : {
      "start" : [ 13, 57 ],
      "end" : [ 15, 19 ]
    },
    "preferredSlots" : null,
    "doAfter" : null,
    "nbEmpRequired" : 1,
    "deadline" : [ 14, 29 ],
    "skills" : [ {
      "id" : 7,
      "name" : "PAINTING",
      "level" : 1
    } ],
    "duration" : 1800.000000000,
    "pause" : false
  }, {
    "id" : 387,
    "desc" : "GLAZING, ELECTRICIAN",
    "location" : {
      "id" : 6960,
      "name" : null,
      "latitude" : 44.002083,
      "longitude" : 4.2808905
    },
    "openings" : {
      "start" : [ 11, 6 ],
      "end" : [ 14, 0 ]
    },
    "preferredSlots" : null,
    "doAfter" : null,
    "nbEmpRequired" : 1,
    "deadline" : [ 14, 11 ],
    "skills" : [ {
      "id" : 5,
      "name" : "GLAZING",
      "level" : 3
    }, {
      "id" : 2,
      "name" : "ELECTRICIAN",
      "level" : 2
    } ],
    "duration" : 7200.000000000,
    "pause" : false
  }, {
    "id" : 103,
    "desc" : "CARPENTRY, MASONRY",
    "location" : {
      "id" : 221,
      "name" : null,
      "latitude" : 43.562046,
      "longitude" : 4.1672335
    },
    "openings" : {
      "start" : [ 9, 36 ],
      "end" : [ 15, 49 ]
    },
    "preferredSlots" : null,
    "doAfter" : null,
    "nbEmpRequired" : 1,
    "deadline" : [ 14, 57 ],
    "skills" : [ {
      "id" : 6,
      "name" : "CARPENTRY",
      "level" : 2
    }, {
      "id" : 4,
      "name" : "MASONRY",
      "level" : 3
    } ],
    "duration" : 2700.000000000,
    "pause" : false
  }, {
    "id" : 622,
    "desc" : "PLUMBING, ELECTRICIAN",
    "location" : {
      "id" : 5562,
      "name" : null,
      "latitude" : 43.74752,
      "longitude" : 4.2449265
    },
    "openings" : {
      "start" : [ 13, 20 ],
      "end" : [ 17, 35 ]
    },
    "preferredSlots" : null,
    "doAfter" : null,
    "nbEmpRequired" : 1,
    "deadline" : [ 12, 40 ],
    "skills" : [ {
      "id" : 3,
      "name" : "PLUMBING",
      "level" : 5
    }, {
      "id" : 2,
      "name" : "ELECTRICIAN",
      "level" : 5
    } ],
    "duration" : 2700.000000000,
    "pause" : false
  } ],
  "employees" : [ {
    "id" : 850,
    "name" : "850",
    "shifts" : [ {
      "start" : [ 9, 0 ],
      "end" : [ 12, 0 ]
    }, {
      "start" : [ 13, 0 ],
      "end" : [ 17, 0 ]
    } ],
    "prefSlots" : null,
    "startingLoc" : {
      "id" : 1226,
      "name" : null,
      "latitude" : 43.486504,
      "longitude" : 3.9950862
    },
    "skills" : [ {
      "id" : 9,
      "name" : "TILER",
      "level" : 8
    }, {
      "id" : 5,
      "name" : "GLAZING",
      "level" : 10
    } ]
  }, {
    "id" : 603,
    "name" : "603",
    "shifts" : [ {
      "start" : [ 9, 0 ],
      "end" : [ 12, 0 ]
    }, {
      "start" : [ 13, 0 ],
      "end" : [ 17, 0 ]
    } ],
    "prefSlots" : null,
    "startingLoc" : {
      "id" : 2572,
      "name" : null,
      "latitude" : 43.417145,
      "longitude" : 4.1838164
    },
    "skills" : [ {
      "id" : 4,
      "name" : "MASONRY",
      "level" : 7
    }, {
      "id" : 9,
      "name" : "TILER",
      "level" : 2
    }, {
      "id" : 8,
      "name" : "IRONWORK",
      "level" : 8
    }, {
      "id" : 5,
      "name" : "GLAZING",
      "level" : 4
    }, {
      "id" : 7,
      "name" : "PAINTING",
      "level" : 7
    } ]
  } ],
  "appointments" : [ ]
}