{
  "jobs" : [ {
    "id" : 902,
    "desc" : "CARPENTRY, MASONRY",
    "location" : {
      "id" : 2711,
      "name" : null,
      "latitude" : 43.76246,
      "longitude" : 3.7600627
    },
    "openings" : {
      "start" : [ 10, 53 ],
      "end" : [ 11, 2 ]
    },
    "preferredSlots" : null,
    "doAfter" : null,
    "nbEmpRequired" : 1,
    "deadline" : [ 17, 5 ],
    "skills" : [ {
      "id" : 6,
      "name" : "CARPENTRY",
      "level" : 4
    }, {
      "id" : 4,
      "name" : "MASONRY",
      "level" : 3
    } ],
    "duration" : 1800.000000000,
    "pause" : false
  }, {
    "id" : 800,
    "desc" : "PLUMBING",
    "location" : {
      "id" : 1525,
      "name" : null,
      "latitude" : 43.82454,
      "longitude" : 3.935038
    },
    "openings" : {
      "start" : [ 11, 52 ],
      "end" : [ 11, 58 ]
    },
    "preferredSlots" : null,
    "doAfter" : null,
    "nbEmpRequired" : 1,
    "deadline" : [ 14, 50 ],
    "skills" : [ {
      "id" : 3,
      "name" : "PLUMBING",
      "level" : 4
    } ],
    "duration" : 3600.000000000,
    "pause" : false
  }, {
    "id" : 838,
    "desc" : "GLAZING",
    "location" : {
      "id" : 305,
      "name" : null,
      "latitude" : 43.722652,
      "longitude" : 4.0300536
    },
    "openings" : {
      "start" : [ 9, 36 ],
      "end" : [ 10, 49 ]
    },
    "preferredSlots" : null,
    "doAfter" : null,
    "nbEmpRequired" : 1,
    "deadline" : [ 9, 1 ],
    "skills" : [ {
      "id" : 5,
      "name" : "GLAZING",
      "level" : 5
    } ],
    "duration" : 2700.000000000,
    "pause" : false
  }, {
    "id" : 475,
    "desc" : "PAINTING",
    "location" : {
      "id" : 1136,
      "name" : null,
      "latitude" : 44.095848,
      "longitude" : 3.8392663
    },
    "openings" : {
      "start" : [ 9, 22 ],
      "end" : [ 12, 50 ]
    },
    "preferredSlots" : null,
    "doAfter" : null,
    "nbEmpRequired" : 1,
    "deadline" : [ 13, 49 ],
    "skills" : [ {
      "id" : 7,
      "name" : "PAINTING",
      "level" : 4
    } ],
    "duration" : 1800.000000000,
    "pause" : false
  }, {
    "id" : 378,
    "desc" : "CARPENTRY",
    "location" : {
      "id" : 4362,
      "name" : null,
      "latitude" : 44.095478,
      "longitude" : 3.8208606
    },
    "openings" : {
      "start" : [ 10, 4 ],
      "end" : [ 17, 22 ]
    },
    "preferredSlots" : null,
    "doAfter" : null,
    "nbEmpRequired" : 1,
    "deadline" : [ 16, 43 ],
    "skills" : [ {
      "id" : 6,
      "name" : "CARPENTRY",
      "level" : 5
    } ],
    "duration" : 2700.000000000,
    "pause" : false
  }, {
    "id" : 274,
    "desc" : "PLUMBING, IRONWORK",
    "location" : {
      "id" : 7997,
      "name" : null,
      "latitude" : 43.779118,
      "longitude" : 4.0759573
    },
    "openings" : {
      "start" : [ 15, 34 ],
      "end" : [ 17, 9 ]
    },
    "preferredSlots" : null,
    "doAfter" : null,
    "nbEmpRequired" : 1,
    "deadline" : [ 14, 10 ],
    "skills" : [ {
      "id" : 3,
      "name" : "PLUMBING",
      "level" : 1
    }, {
      "id" : 8,
      "name" : "IRONWORK",
      "level" : 5
    } ],
    "duration" : 1800.000000000,
    "pause" : false
  }, {
    "id" : 52,
    "desc" : "ENGINEER",
    "location" : {
      "id" : 7050,
      "name" : null,
      "latitude" : 43.446053,
      "longitude" : 3.9630516
    },
    "openings" : {
      "start" : [ 11, 6 ],
      "end" : [ 12, 27 ]
    },
    "preferredSlots" : null,
    "doAfter" : null,
    "nbEmpRequired" : 1,
    "deadline" : [ 14, 39 ],
    "skills" : [ {
      "id" : 1,
      "name" : "ENGINEER",
      "level" : 2
    } ],
    "duration" : 2700.000000000,
    "pause" : false
  }, {
    "id" : 832,
    "desc" : "ELECTRICIAN",
    "location" : {
      "id" : 3990,
      "name" : null,
      "latitude" : 43.782963,
      "longitude" : 3.8287644
    },
    "openings" : {
      "start" : [ 14, 53 ],
      "end" : [ 16, 21 ]
    },
    "preferredSlots" : null,
    "doAfter" : null,
    "nbEmpRequired" : 1,
    "deadline" : [ 11, 40 ],
    "skills" : [ {
      "id" : 2,
      "name" : "ELECTRICIAN",
      "level" : 2
    } ],
    "duration" : 2700.000000000,
    "pause" : false
  }, {
    "id" : 653,
    "desc" : "PAINTING, ENGINEER",
    "location" : {
      "id" : 4097,
      "name" : null,
      "latitude" : 43.509613,
      "longitude" : 4.149583
    },
    "openings" : {
      "start" : [ 9, 44 ],
      "end" : [ 11, 1 ]
    },
    "preferredSlots" : null,
    "doAfter" : null,
    "nbEmpRequired" : 1,
    "deadline" : [ 14, 44 ],
    "skills" : [ {
      "id" : 7,
      "name" : "PAINTING",
      "level" : 3
    }, {
      "id" : 1,
      "name" : "ENGINEER",
      "level" : 1
    } ],
    "duration" : 1800.000000000,
    "pause" : false
  }, {
    "id" : 718,
    "desc" : "ENGINEER, PLUMBING",
    "location" : {
      "id" : 6843,
      "name" : null,
      "latitude" : 43.501816,
      "longitude" : 4.2511272
    },
    "openings" : {
      "start" : [ 15, 25 ],
      "end" : [ 17, 49 ]
    },
    "preferredSlots" : null,
    "doAfter" : null,
    "nbEmpRequired" : 1,
    "deadline" : [ 16, 17 ],
    "skills" : [ {
      "id" : 1,
      "name" : "ENGINEER",
      "level" : 3
    }, {
      "id" : 3,
      "name" : "PLUMBING",
      "level" : 4
    } ],
    "duration" : 1800.000000000,
    "pause" : false
  } ],
  "employees" : [ {
    "id" : 207,
    "name" : "207",
    "shifts" : [ {
      "start" : [ 9, 0 ],
      "end" : [ 12, 0 ]
    }, {
      "start" : [ 13, 0 ],
      "end" : [ 17, 0 ]
    } ],
    "prefSlots" : null,
    "startingLoc" : {
      "id" : 6919,
      "name" : null,
      "latitude" : 44.000206,
      "longitude" : 4.244567
    },
    "skills" : [ {
      "id" : 8,
      "name" : "IRONWORK",
      "level" : 9
    }, {
      "id" : 3,
      "name" : "PLUMBING",
      "level" : 7
    }, {
      "id" : 0,
      "name" : "MANAGEMENT",
      "level" : 7
    } ]
  }, {
    "id" : 155,
    "name" : "155",
    "shifts" : [ {
      "start" : [ 9, 0 ],
      "end" : [ 12, 0 ]
    }, {
      "start" : [ 13, 0 ],
      "end" : [ 17, 0 ]
    } ],
    "prefSlots" : null,
    "startingLoc" : {
      "id" : 3672,
      "name" : null,
      "latitude" : 43.687904,
      "longitude" : 3.716163
    },
    "skills" : [ {
      "id" : 9,
      "name" : "TILER",
      "level" : 4
    }, {
      "id" : 8,
      "name" : "IRONWORK",
      "level" : 5
    }, {
      "id" : 3,
      "name" : "PLUMBING",
      "level" : 9
    } ]
  }, {
    "id" : 463,
    "name" : "463",
    "shifts" : [ {
      "start" : [ 9, 0 ],
      "end" : [ 12, 0 ]
    }, {
      "start" : [ 13, 0 ],
      "end" : [ 17, 0 ]
    } ],
    "prefSlots" : null,
    "startingLoc" : {
      "id" : 5870,
      "name" : null,
      "latitude" : 43.46305,
      "longitude" : 4.1254444
    },
    "skills" : [ {
      "id" : 4,
      "name" : "MASONRY",
      "level" : 5
    }, {
      "id" : 5,
      "name" : "GLAZING",
      "level" : 3
    }, {
      "id" : 4,
      "name" : "MASONRY",
      "level" : 8
    }, {
      "id" : 8,
      "name" : "IRONWORK",
      "level" : 7
    }, {
      "id" : 5,
      "name" : "GLAZING",
      "level" : 2
    }, {
      "id" : 4,
      "name" : "MASONRY",
      "level" : 1
    } ]
  }, {
    "id" : 153,
    "name" : "153",
    "shifts" : [ {
      "start" : [ 9, 0 ],
      "end" : [ 12, 0 ]
    }, {
      "start" : [ 13, 0 ],
      "end" : [ 17, 0 ]
    } ],
    "prefSlots" : null,
    "startingLoc" : {
      "id" : 3242,
      "name" : null,
      "latitude" : 43.855495,
      "longitude" : 4.1705756
    },
    "skills" : [ {
      "id" : 3,
      "name" : "PLUMBING",
      "level" : 6
    }, {
      "id" : 4,
      "name" : "MASONRY",
      "level" : 1
    }, {
      "id" : 4,
      "name" : "MASONRY",
      "level" : 7
    }, {
      "id" : 2,
      "name" : "ELECTRICIAN",
      "level" : 5
    }, {
      "id" : 3,
      "name" : "PLUMBING",
      "level" : 6
    }, {
      "id" : 6,
      "name" : "CARPENTRY",
      "level" : 2
    }, {
      "id" : 5,
      "name" : "GLAZING",
      "level" : 2
    }, {
      "id" : 0,
      "name" : "MANAGEMENT",
      "level" : 9
    }, {
      "id" : 5,
      "name" : "GLAZING",
      "level" : 6
    } ]
  }, {
    "id" : 372,
    "name" : "372",
    "shifts" : [ {
      "start" : [ 9, 0 ],
      "end" : [ 12, 0 ]
    }, {
      "start" : [ 13, 0 ],
      "end" : [ 17, 0 ]
    } ],
    "prefSlots" : null,
    "startingLoc" : {
      "id" : 7608,
      "name" : null,
      "latitude" : 44.067696,
      "longitude" : 3.7257245
    },
    "skills" : [ {
      "id" : 6,
      "name" : "CARPENTRY",
      "level" : 8
    }, {
      "id" : 6,
      "name" : "CARPENTRY",
      "level" : 6
    } ]
  }, {
    "id" : 377,
    "name" : "377",
    "shifts" : [ {
      "start" : [ 9, 0 ],
      "end" : [ 12, 0 ]
    }, {
      "start" : [ 13, 0 ],
      "end" : [ 17, 0 ]
    } ],
    "prefSlots" : null,
    "startingLoc" : {
      "id" : 1157,
      "name" : null,
      "latitude" : 44.00297,
      "longitude" : 3.963906
    },
    "skills" : [ {
      "id" : 9,
      "name" : "TILER",
      "level" : 8
    }, {
      "id" : 1,
      "name" : "ENGINEER",
      "level" : 4
    }, {
      "id" : 9,
      "name" : "TILER",
      "level" : 5
    }, {
      "id" : 1,
      "name" : "ENGINEER",
      "level" : 8
    } ]
  }, {
    "id" : 197,
    "name" : "197",
    "shifts" : [ {
      "start" : [ 9, 0 ],
      "end" : [ 12, 0 ]
    }, {
      "start" : [ 13, 0 ],
      "end" : [ 17, 0 ]
    } ],
    "prefSlots" : null,
    "startingLoc" : {
      "id" : 2573,
      "name" : null,
      "latitude" : 43.417137,
      "longitude" : 4.1077447
    },
    "skills" : [ {
      "id" : 4,
      "name" : "MASONRY",
      "level" : 5
    }, {
      "id" : 5,
      "name" : "GLAZING",
      "level" : 2
    }, {
      "id" : 0,
      "name" : "MANAGEMENT",
      "level" : 4
    }, {
      "id" : 1,
      "name" : "ENGINEER",
      "level" : 2
    }, {
      "id" : 1,
      "name" : "ENGINEER",
      "level" : 2
    }, {
      "id" : 7,
      "name" : "PAINTING",
      "level" : 9
    }, {
      "id" : 3,
      "name" : "PLUMBING",
      "level" : 10
    }, {
      "id" : 4,
      "name" : "MASONRY",
      "level" : 10
    }, {
      "id" : 9,
      "name" : "TILER",
      "level" : 10
    }, {
      "id" : 5,
      "name" : "GLAZING",
      "level" : 10
    } ]
  }, {
    "id" : 194,
    "name" : "194",
    "shifts" : [ {
      "start" : [ 9, 0 ],
      "end" : [ 12, 0 ]
    }, {
      "start" : [ 13, 0 ],
      "end" : [ 17, 0 ]
    } ],
    "prefSlots" : null,
    "startingLoc" : {
      "id" : 8755,
      "name" : null,
      "latitude" : 43.77119,
      "longitude" : 4.2032824
    },
    "skills" : [ {
      "id" : 4,
      "name" : "MASONRY",
      "level" : 8
    }, {
      "id" : 5,
      "name" : "GLAZING",
      "level" : 7
    }, {
      "id" : 7,
      "name" : "PAINTING",
      "level" : 1
    }, {
      "id" : 4,
      "name" : "MASONRY",
      "level" : 6
    }, {
      "id" : 2,
      "name" : "ELECTRICIAN",
      "level" : 8
    }, {
      "id" : 2,
      "name" : "ELECTRICIAN",
      "level" : 6
    }, {
      "id" : 6,
      "name" : "CARPENTRY",
      "level" : 3
    }, {
      "id" : 2,
      "name" : "ELECTRICIAN",
      "level" : 2
    } ]
  }, {
    "id" : 293,
    "name" : "293",
    "shifts" : [ {
      "start" : [ 9, 0 ],
      "end" : [ 12, 0 ]
    }, {
      "start" : [ 13, 0 ],
      "end" : [ 17, 0 ]
    } ],
    "prefSlots" : null,
    "startingLoc" : {
      "id" : 2462,
      "name" : null,
      "latitude" : 44.060448,
      "longitude" : 3.9503765
    },
    "skills" : [ {
      "id" : 0,
      "name" : "MANAGEMENT",
      "level" : 2
    }, {
      "id" : 2,
      "name" : "ELECTRICIAN",
      "level" : 2
    }, {
      "id" : 5,
      "name" : "GLAZING",
      "level" : 4
    } ]
  }, {
    "id" : 252,
    "name" : "252",
    "shifts" : [ {
      "start" : [ 9, 0 ],
      "end" : [ 12, 0 ]
    }, {
      "start" : [ 13, 0 ],
      "end" : [ 17, 0 ]
    } ],
    "prefSlots" : null,
    "startingLoc" : {
      "id" : 3900,
      "name" : null,
      "latitude" : 44.00252,
      "longitude" : 4.094247
    },
    "skills" : [ {
      "id" : 3,
      "name" : "PLUMBING",
      "level" : 9
    }, {
      "id" : 7,
      "name" : "PAINTING",
      "level" : 9
    }, {
      "id" : 1,
      "name" : "ENGINEER",
      "level" : 7
    }, {
      "id" : 9,
      "name" : "TILER",
      "level" : 4
    }, {
      "id" : 6,
      "name" : "CARPENTRY",
      "level" : 2
    }, {
      "id" : 4,
      "name" : "MASONRY",
      "level" : 7
    }, {
      "id" : 2,
      "name" : "ELECTRICIAN",
      "level" : 9
    } ]
  }, {
    "id" : 84,
    "name" : "84",
    "shifts" : [ {
      "start" : [ 9, 0 ],
      "end" : [ 12, 0 ]
    }, {
      "start" : [ 13, 0 ],
      "end" : [ 17, 0 ]
    } ],
    "prefSlots" : null,
    "startingLoc" : {
      "id" : 6097,
      "name" : null,
      "latitude" : 43.811333,
      "longitude" : 4.2378993
    },
    "skills" : [ {
      "id" : 4,
      "name" : "MASONRY",
      "level" : 6
    }, {
      "id" : 6,
      "name" : "CARPENTRY",
      "level" : 1
    }, {
      "id" : 4,
      "name" : "MASONRY",
      "level" : 2
    } ]
  }, {
    "id" : 520,
    "name" : "520",
    "shifts" : [ {
      "start" : [ 9, 0 ],
      "end" : [ 12, 0 ]
    }, {
      "start" : [ 13, 0 ],
      "end" : [ 17, 0 ]
    } ],
    "prefSlots" : null,
    "startingLoc" : {
      "id" : 8782,
      "name" : null,
      "latitude" : 43.967327,
      "longitude" : 4.138463
    },
    "skills" : [ {
      "id" : 5,
      "name" : "GLAZING",
      "level" : 6
    }, {
      "id" : 8,
      "name" : "IRONWORK",
      "level" : 9
    }, {
      "id" : 2,
      "name" : "ELECTRICIAN",
      "level" : 9
    }, {
      "id" : 7,
      "name" : "PAINTING",
      "level" : 1
    } ]
  }, {
    "id" : 69,
    "name" : "69",
    "shifts" : [ {
      "start" : [ 9, 0 ],
      "end" : [ 12, 0 ]
    }, {
      "start" : [ 13, 0 ],
      "end" : [ 17, 0 ]
    } ],
    "prefSlots" : null,
    "startingLoc" : {
      "id" : 3520,
      "name" : null,
      "latitude" : 43.427483,
      "longitude" : 4.190258
    },
    "skills" : [ {
      "id" : 8,
      "name" : "IRONWORK",
      "level" : 8
    }, {
      "id" : 9,
      "name" : "TILER",
      "level" : 7
    }, {
      "id" : 1,
      "name" : "ENGINEER",
      "level" : 7
    } ]
  }, {
    "id" : 505,
    "name" : "505",
    "shifts" : [ {
      "start" : [ 9, 0 ],
      "end" : [ 12, 0 ]
    }, {
      "start" : [ 13, 0 ],
      "end" : [ 17, 0 ]
    } ],
    "prefSlots" : null,
    "startingLoc" : {
      "id" : 2066,
      "name" : null,
      "latitude" : 43.62801,
      "longitude" : 3.7310493
    },
    "skills" : [ {
      "id" : 5,
      "name" : "GLAZING",
      "level" : 10
    }, {
      "id" : 2,
      "name" : "ELECTRICIAN",
      "level" : 7
    }, {
      "id" : 6,
      "name" : "CARPENTRY",
      "level" : 5
    }, {
      "id" : 7,
      "name" : "PAINTING",
      "level" : 7
    }, {
      "id" : 1,
      "name" : "ENGINEER",
      "level" : 8
    }, {
      "id" : 9,
      "name" : "TILER",
      "level" : 7
    } ]
  }, {
    "id" : 797,
    "name" : "797",
    "shifts" : [ {
      "start" : [ 9, 0 ],
      "end" : [ 12, 0 ]
    }, {
      "start" : [ 13, 0 ],
      "end" : [ 17, 0 ]
    } ],
    "prefSlots" : null,
    "startingLoc" : {
      "id" : 1702,
      "name" : null,
      "latitude" : 43.715496,
      "longitude" : 4.194398
    },
    "skills" : [ {
      "id" : 5,
      "name" : "GLAZING",
      "level" : 1
    }, {
      "id" : 9,
      "name" : "TILER",
      "level" : 4
    }, {
      "id" : 6,
      "name" : "CARPENTRY",
      "level" : 6
    }, {
      "id" : 0,
      "name" : "MANAGEMENT",
      "level" : 8
    }, {
      "id" : 9,
      "name" : "TILER",
      "level" : 5
    }, {
      "id" : 4,
      "name" : "MASONRY",
      "level" : 1
    }, {
      "id" : 1,
      "name" : "ENGINEER",
      "level" : 8
    }, {
      "id" : 3,
      "name" : "PLUMBING",
      "level" : 8
    }, {
      "id" : 1,
      "name" : "ENGINEER",
      "level" : 1
    }, {
      "id" : 1,
      "name" : "ENGINEER",
      "level" : 5
    } ]
  }, {
    "id" : 685,
    "name" : "685",
    "shifts" : [ {
      "start" : [ 9, 0 ],
      "end" : [ 12, 0 ]
    }, {
      "start" : [ 13, 0 ],
      "end" : [ 17, 0 ]
    } ],
    "prefSlots" : null,
    "startingLoc" : {
      "id" : 2468,
      "name" : null,
      "latitude" : 43.70225,
      "longitude" : 4.1074986
    },
    "skills" : [ {
      "id" : 3,
      "name" : "PLUMBING",
      "level" : 7
    }, {
      "id" : 8,
      "name" : "IRONWORK",
      "level" : 2
    }, {
      "id" : 9,
      "name" : "TILER",
      "level" : 7
    } ]
  }, {
    "id" : 363,
    "name" : "363",
    "shifts" : [ {
      "start" : [ 9, 0 ],
      "end" : [ 12, 0 ]
    }, {
      "start" : [ 13, 0 ],
      "end" : [ 17, 0 ]
    } ],
    "prefSlots" : null,
    "startingLoc" : {
      "id" : 5580,
      "name" : null,
      "latitude" : 44.0148,
      "longitude" : 3.7196243
    },
    "skills" : [ {
      "id" : 4,
      "name" : "MASONRY",
      "level" : 8
    }, {
      "id" : 9,
      "name" : "TILER",
      "level" : 1
    }, {
      "id" : 5,
      "name" : "GLAZING",
      "level" : 4
    }, {
      "id" : 5,
      "name" : "GLAZING",
      "level" : 3
    }, {
      "id" : 0,
      "name" : "MANAGEMENT",
      "level" : 5
    }, {
      "id" : 6,
      "name" : "CARPENTRY",
      "level" : 9
    }, {
      "id" : 5,
      "name" : "GLAZING",
      "level" : 1
    }, {
      "id" : 3,
      "name" : "PLUMBING",
      "level" : 7
    }, {
      "id" : 5,
      "name" : "GLAZING",
      "level" : 1
    } ]
  }, {
    "id" : 950,
    "name" : "950",
    "shifts" : [ {
      "start" : [ 9, 0 ],
      "end" : [ 12, 0 ]
    }, {
      "start" : [ 13, 0 ],
      "end" : [ 17, 0 ]
    } ],
    "prefSlots" : null,
    "startingLoc" : {
      "id" : 5598,
      "name" : null,
      "latitude" : 44.00347,
      "longitude" : 4.2073507
    },
    "skills" : [ {
      "id" : 5,
      "name" : "GLAZING",
      "level" : 2
    }, {
      "id" : 9,
      "name" : "TILER",
      "level" : 6
    }, {
      "id" : 0,
      "name" : "MANAGEMENT",
      "level" : 4
    }, {
      "id" : 9,
      "name" : "TILER",
      "level" : 6
    }, {
      "id" : 3,
      "name" : "PLUMBING",
      "level" : 10
    }, {
      "id" : 3,
      "name" : "PLUMBING",
      "level" : 7
    } ]
  }, {
    "id" : 496,
    "name" : "496",
    "shifts" : [ {
      "start" : [ 9, 0 ],
      "end" : [ 12, 0 ]
    }, {
      "start" : [ 13, 0 ],
      "end" : [ 17, 0 ]
    } ],
    "prefSlots" : null,
    "startingLoc" : {
      "id" : 6420,
      "name" : null,
      "latitude" : 43.77112,
      "longitude" : 4.079067
    },
    "skills" : [ {
      "id" : 9,
      "name" : "TILER",
      "level" : 9
    } ]
  }, {
    "id" : 379,
    "name" : "379",
    "shifts" : [ {
      "start" : [ 9, 0 ],
      "end" : [ 12, 0 ]
    }, {
      "start" : [ 13, 0 ],
      "end" : [ 17, 0 ]
    } ],
    "prefSlots" : null,
    "startingLoc" : {
      "id" : 5188,
      "name" : null,
      "latitude" : 43.4461,
      "longitude" : 4.0414877
    },
    "skills" : [ {
      "id" : 2,
      "name" : "ELECTRICIAN",
      "level" : 3
    }, {
      "id" : 4,
      "name" : "MASONRY",
      "level" : 5
    }, {
      "id" : 2,
      "name" : "ELECTRICIAN",
      "level" : 3
    }, {
      "id" : 3,
      "name" : "PLUMBING",
      "level" : 5
    }, {
      "id" : 6,
      "name" : "CARPENTRY",
      "level" : 6
    }, {
      "id" : 0,
      "name" : "MANAGEMENT",
      "level" : 1
    } ]
  } ],
  "appointments" : [ {
    "job" : {
      "id" : 832,
      "desc" : "ELECTRICIAN",
      "location" : {
        "id" : 3990,
        "name" : null,
        "latitude" : 43.782963,
        "longitude" : 3.8287644
      },
      "openings" : {
        "start" : [ 14, 53 ],
        "end" : [ 16, 21 ]
      },
      "preferredSlots" : null,
      "doAfter" : null,
      "nbEmpRequired" : 1,
      "deadline" : [ 11, 40 ],
      "skills" : [ {
        "id" : 2,
        "name" : "ELECTRICIAN",
        "level" : 2
      } ],
      "duration" : 2700.000000000,
      "pause" : false
    },
    "needed" : [ {
      "id" : 950,
      "name" : "950",
      "shifts" : [ {
        "start" : [ 9, 0 ],
        "end" : [ 12, 0 ]
      }, {
        "start" : [ 13, 0 ],
        "end" : [ 17, 0 ]
      } ],
      "prefSlots" : null,
      "startingLoc" : {
        "id" : 5598,
        "name" : null,
        "latitude" : 44.00347,
        "longitude" : 4.2073507
      },
      "skills" : [ {
        "id" : 5,
        "name" : "GLAZING",
        "level" : 2
      }, {
        "id" : 9,
        "name" : "TILER",
        "level" : 6
      }, {
        "id" : 0,
        "name" : "MANAGEMENT",
        "level" : 4
      }, {
        "id" : 9,
        "name" : "TILER",
        "level" : 6
      }, {
        "id" : 3,
        "name" : "PLUMBING",
        "level" : 10
      }, {
        "id" : 3,
        "name" : "PLUMBING",
        "level" : 7
      } ]
    }, {
      "id" : 363,
      "name" : "363",
      "shifts" : [ {
        "start" : [ 9, 0 ],
        "end" : [ 12, 0 ]
      }, {
        "start" : [ 13, 0 ],
        "end" : [ 17, 0 ]
      } ],
      "prefSlots" : null,
      "startingLoc" : {
        "id" : 5580,
        "name" : null,
        "latitude" : 44.0148,
        "longitude" : 3.7196243
      },
      "skills" : [ {
        "id" : 4,
        "name" : "MASONRY",
        "level" : 8
      }, {
        "id" : 9,
        "name" : "TILER",
        "level" : 1
      }, {
        "id" : 5,
        "name" : "GLAZING",
        "level" : 4
      }, {
        "id" : 5,
        "name" : "GLAZING",
        "level" : 3
      }, {
        "id" : 0,
        "name" : "MANAGEMENT",
        "level" : 5
      }, {
        "id" : 6,
        "name" : "CARPENTRY",
        "level" : 9
      }, {
        "id" : 5,
        "name" : "GLAZING",
        "level" : 1
      }, {
        "id" : 3,
        "name" : "PLUMBING",
        "level" : 7
      }, {
        "id" : 5,
        "name" : "GLAZING",
        "level" : 1
      } ]
    }, {
      "id" : 155,
      "name" : "155",
      "shifts" : [ {
        "start" : [ 9, 0 ],
        "end" : [ 12, 0 ]
      }, {
        "start" : [ 13, 0 ],
        "end" : [ 17, 0 ]
      } ],
      "prefSlots" : null,
      "startingLoc" : {
        "id" : 3672,
        "name" : null,
        "latitude" : 43.687904,
        "longitude" : 3.716163
      },
      "skills" : [ {
        "id" : 9,
        "name" : "TILER",
        "level" : 4
      }, {
        "id" : 8,
        "name" : "IRONWORK",
        "level" : 5
      }, {
        "id" : 3,
        "name" : "PLUMBING",
        "level" : 9
      } ]
    }, {
      "id" : 505,
      "name" : "505",
      "shifts" : [ {
        "start" : [ 9, 0 ],
        "end" : [ 12, 0 ]
      }, {
        "start" : [ 13, 0 ],
        "end" : [ 17, 0 ]
      } ],
      "prefSlots" : null,
      "startingLoc" : {
        "id" : 2066,
        "name" : null,
        "latitude" : 43.62801,
        "longitude" : 3.7310493
      },
      "skills" : [ {
        "id" : 5,
        "name" : "GLAZING",
        "level" : 10
      }, {
        "id" : 2,
        "name" : "ELECTRICIAN",
        "level" : 7
      }, {
        "id" : 6,
        "name" : "CARPENTRY",
        "level" : 5
      }, {
        "id" : 7,
        "name" : "PAINTING",
        "level" : 7
      }, {
        "id" : 1,
        "name" : "ENGINEER",
        "level" : 8
      }, {
        "id" : 9,
        "name" : "TILER",
        "level" : 7
      } ]
    }, {
      "id" : 520,
      "name" : "520",
      "shifts" : [ {
        "start" : [ 9, 0 ],
        "end" : [ 12, 0 ]
      }, {
        "start" : [ 13, 0 ],
        "end" : [ 17, 0 ]
      } ],
      "prefSlots" : null,
      "startingLoc" : {
        "id" : 8782,
        "name" : null,
        "latitude" : 43.967327,
        "longitude" : 4.138463
      },
      "skills" : [ {
        "id" : 5,
        "name" : "GLAZING",
        "level" : 6
      }, {
        "id" : 8,
        "name" : "IRONWORK",
        "level" : 9
      }, {
        "id" : 2,
        "name" : "ELECTRICIAN",
        "level" : 9
      }, {
        "id" : 7,
        "name" : "PAINTING",
        "level" : 1
      } ]
    }, {
      "id" : 252,
      "name" : "252",
      "shifts" : [ {
        "start" : [ 9, 0 ],
        "end" : [ 12, 0 ]
      }, {
        "start" : [ 13, 0 ],
        "end" : [ 17, 0 ]
      } ],
      "prefSlots" : null,
      "startingLoc" : {
        "id" : 3900,
        "name" : null,
        "latitude" : 44.00252,
        "longitude" : 4.094247
      },
      "skills" : [ {
        "id" : 3,
        "name" : "PLUMBING",
        "level" : 9
      }, {
        "id" : 7,
        "name" : "PAINTING",
        "level" : 9
      }, {
        "id" : 1,
        "name" : "ENGINEER",
        "level" : 7
      }, {
        "id" : 9,
        "name" : "TILER",
        "level" : 4
      }, {
        "id" : 6,
        "name" : "CARPENTRY",
        "level" : 2
      }, {
        "id" : 4,
        "name" : "MASONRY",
        "level" : 7
      }, {
        "id" : 2,
        "name" : "ELECTRICIAN",
        "level" : 9
      } ]
    } ]
  }, {
    "job" : {
      "id" : 378,
      "desc" : "CARPENTRY",
      "location" : {
        "id" : 4362,
        "name" : null,
        "latitude" : 44.095478,
        "longitude" : 3.8208606
      },
      "openings" : {
        "start" : [ 10, 4 ],
        "end" : [ 17, 22 ]
      },
      "preferredSlots" : null,
      "doAfter" : null,
      "nbEmpRequired" : 1,
      "deadline" : [ 16, 43 ],
      "skills" : [ {
        "id" : 6,
        "name" : "CARPENTRY",
        "level" : 5
      } ],
      "duration" : 2700.000000000,
      "pause" : false
    },
    "needed" : [ {
      "id" : 463,
      "name" : "463",
      "shifts" : [ {
        "start" : [ 9, 0 ],
        "end" : [ 12, 0 ]
      }, {
        "start" : [ 13, 0 ],
        "end" : [ 17, 0 ]
      } ],
      "prefSlots" : null,
      "startingLoc" : {
        "id" : 5870,
        "name" : null,
        "latitude" : 43.46305,
        "longitude" : 4.1254444
      },
      "skills" : [ {
        "id" : 4,
        "name" : "MASONRY",
        "level" : 5
      }, {
        "id" : 5,
        "name" : "GLAZING",
        "level" : 3
      }, {
        "id" : 4,
        "name" : "MASONRY",
        "level" : 8
      }, {
        "id" : 8,
        "name" : "IRONWORK",
        "level" : 7
      }, {
        "id" : 5,
        "name" : "GLAZING",
        "level" : 2
      }, {
        "id" : 4,
        "name" : "MASONRY",
        "level" : 1
      } ]
    }, {
      "id" : 505,
      "name" : "505",
      "shifts" : [ {
        "start" : [ 9, 0 ],
        "end" : [ 12, 0 ]
      }, {
        "start" : [ 13, 0 ],
        "end" : [ 17, 0 ]
      } ],
      "prefSlots" : null,
      "startingLoc" : {
        "id" : 2066,
        "name" : null,
        "latitude" : 43.62801,
        "longitude" : 3.7310493
      },
      "skills" : [ {
        "id" : 5,
        "name" : "GLAZING",
        "level" : 10
      }, {
        "id" : 2,
        "name" : "ELECTRICIAN",
        "level" : 7
      }, {
        "id" : 6,
        "name" : "CARPENTRY",
        "level" : 5
      }, {
        "id" : 7,
        "name" : "PAINTING",
        "level" : 7
      }, {
        "id" : 1,
        "name" : "ENGINEER",
        "level" : 8
      }, {
        "id" : 9,
        "name" : "TILER",
        "level" : 7
      } ]
    }, {
      "id" : 293,
      "name" : "293",
      "shifts" : [ {
        "start" : [ 9, 0 ],
        "end" : [ 12, 0 ]
      }, {
        "start" : [ 13, 0 ],
        "end" : [ 17, 0 ]
      } ],
      "prefSlots" : null,
      "startingLoc" : {
        "id" : 2462,
        "name" : null,
        "latitude" : 44.060448,
        "longitude" : 3.9503765
      },
      "skills" : [ {
        "id" : 0,
        "name" : "MANAGEMENT",
        "level" : 2
      }, {
        "id" : 2,
        "name" : "ELECTRICIAN",
        "level" : 2
      }, {
        "id" : 5,
        "name" : "GLAZING",
        "level" : 4
      } ]
    }, {
      "id" : 207,
      "name" : "207",
      "shifts" : [ {
        "start" : [ 9, 0 ],
        "end" : [ 12, 0 ]
      }, {
        "start" : [ 13, 0 ],
        "end" : [ 17, 0 ]
      } ],
      "prefSlots" : null,
      "startingLoc" : {
        "id" : 6919,
        "name" : null,
        "latitude" : 44.000206,
        "longitude" : 4.244567
      },
      "skills" : [ {
        "id" : 8,
        "name" : "IRONWORK",
        "level" : 9
      }, {
        "id" : 3,
        "name" : "PLUMBING",
        "level" : 7
      }, {
        "id" : 0,
        "name" : "MANAGEMENT",
        "level" : 7
      } ]
    }, {
      "id" : 950,
      "name" : "950",
      "shifts" : [ {
        "start" : [ 9, 0 ],
        "end" : [ 12, 0 ]
      }, {
        "start" : [ 13, 0 ],
        "end" : [ 17, 0 ]
      } ],
      "prefSlots" : null,
      "startingLoc" : {
        "id" : 5598,
        "name" : null,
        "latitude" : 44.00347,
        "longitude" : 4.2073507
      },
      "skills" : [ {
        "id" : 5,
        "name" : "GLAZING",
        "level" : 2
      }, {
        "id" : 9,
        "name" : "TILER",
        "level" : 6
      }, {
        "id" : 0,
        "name" : "MANAGEMENT",
        "level" : 4
      }, {
        "id" : 9,
        "name" : "TILER",
        "level" : 6
      }, {
        "id" : 3,
        "name" : "PLUMBING",
        "level" : 10
      }, {
        "id" : 3,
        "name" : "PLUMBING",
        "level" : 7
      } ]
    }, {
      "id" : 372,
      "name" : "372",
      "shifts" : [ {
        "start" : [ 9, 0 ],
        "end" : [ 12, 0 ]
      }, {
        "start" : [ 13, 0 ],
        "end" : [ 17, 0 ]
      } ],
      "prefSlots" : null,
      "startingLoc" : {
        "id" : 7608,
        "name" : null,
        "latitude" : 44.067696,
        "longitude" : 3.7257245
      },
      "skills" : [ {
        "id" : 6,
        "name" : "CARPENTRY",
        "level" : 8
      }, {
        "id" : 6,
        "name" : "CARPENTRY",
        "level" : 6
      } ]
    }, {
      "id" : 155,
      "name" : "155",
      "shifts" : [ {
        "start" : [ 9, 0 ],
        "end" : [ 12, 0 ]
      }, {
        "start" : [ 13, 0 ],
        "end" : [ 17, 0 ]
      } ],
      "prefSlots" : null,
      "startingLoc" : {
        "id" : 3672,
        "name" : null,
        "latitude" : 43.687904,
        "longitude" : 3.716163
      },
      "skills" : [ {
        "id" : 9,
        "name" : "TILER",
        "level" : 4
      }, {
        "id" : 8,
        "name" : "IRONWORK",
        "level" : 5
      }, {
        "id" : 3,
        "name" : "PLUMBING",
        "level" : 9
      } ]
    }, {
      "id" : 197,
      "name" : "197",
      "shifts" : [ {
        "start" : [ 9, 0 ],
        "end" : [ 12, 0 ]
      }, {
        "start" : [ 13, 0 ],
        "end" : [ 17, 0 ]
      } ],
      "prefSlots" : null,
      "startingLoc" : {
        "id" : 2573,
        "name" : null,
        "latitude" : 43.417137,
        "longitude" : 4.1077447
      },
      "skills" : [ {
        "id" : 4,
        "name" : "MASONRY",
        "level" : 5
      }, {
        "id" : 5,
        "name" : "GLAZING",
        "level" : 2
      }, {
        "id" : 0,
        "name" : "MANAGEMENT",
        "level" : 4
      }, {
        "id" : 1,
        "name" : "ENGINEER",
        "level" : 2
      }, {
        "id" : 1,
        "name" : "ENGINEER",
        "level" : 2
      }, {
        "id" : 7,
        "name" : "PAINTING",
        "level" : 9
      }, {
        "id" : 3,
        "name" : "PLUMBING",
        "level" : 10
      }, {
        "id" : 4,
        "name" : "MASONRY",
        "level" : 10
      }, {
        "id" : 9,
        "name" : "TILER",
        "level" : 10
      }, {
        "id" : 5,
        "name" : "GLAZING",
        "level" : 10
      } ]
    }, {
      "id" : 797,
      "name" : "797",
      "shifts" : [ {
        "start" : [ 9, 0 ],
        "end" : [ 12, 0 ]
      }, {
        "start" : [ 13, 0 ],
        "end" : [ 17, 0 ]
      } ],
      "prefSlots" : null,
      "startingLoc" : {
        "id" : 1702,
        "name" : null,
        "latitude" : 43.715496,
        "longitude" : 4.194398
      },
      "skills" : [ {
        "id" : 5,
        "name" : "GLAZING",
        "level" : 1
      }, {
        "id" : 9,
        "name" : "TILER",
        "level" : 4
      }, {
        "id" : 6,
        "name" : "CARPENTRY",
        "level" : 6
      }, {
        "id" : 0,
        "name" : "MANAGEMENT",
        "level" : 8
      }, {
        "id" : 9,
        "name" : "TILER",
        "level" : 5
      }, {
        "id" : 4,
        "name" : "MASONRY",
        "level" : 1
      }, {
        "id" : 1,
        "name" : "ENGINEER",
        "level" : 8
      }, {
        "id" : 3,
        "name" : "PLUMBING",
        "level" : 8
      }, {
        "id" : 1,
        "name" : "ENGINEER",
        "level" : 1
      }, {
        "id" : 1,
        "name" : "ENGINEER",
        "level" : 5
      } ]
    }, {
      "id" : 496,
      "name" : "496",
      "shifts" : [ {
        "start" : [ 9, 0 ],
        "end" : [ 12, 0 ]
      }, {
        "start" : [ 13, 0 ],
        "end" : [ 17, 0 ]
      } ],
      "prefSlots" : null,
      "startingLoc" : {
        "id" : 6420,
        "name" : null,
        "latitude" : 43.77112,
        "longitude" : 4.079067
      },
      "skills" : [ {
        "id" : 9,
        "name" : "TILER",
        "level" : 9
      } ]
    }, {
      "id" : 520,
      "name" : "520",
      "shifts" : [ {
        "start" : [ 9, 0 ],
        "end" : [ 12, 0 ]
      }, {
        "start" : [ 13, 0 ],
        "end" : [ 17, 0 ]
      } ],
      "prefSlots" : null,
      "startingLoc" : {
        "id" : 8782,
        "name" : null,
        "latitude" : 43.967327,
        "longitude" : 4.138463
      },
      "skills" : [ {
        "id" : 5,
        "name" : "GLAZING",
        "level" : 6
      }, {
        "id" : 8,
        "name" : "IRONWORK",
        "level" : 9
      }, {
        "id" : 2,
        "name" : "ELECTRICIAN",
        "level" : 9
      }, {
        "id" : 7,
        "name" : "PAINTING",
        "level" : 1
      } ]
    } ]
  } ]
}