{
  "jobs" : [ {
    "id" : 873,
    "desc" : "MANAGEMENT, PLUMBING",
    "location" : {
      "id" : 216,
      "name" : null,
      "latitude" : 43.56277,
      "longitude" : 4.0879297
    },
    "openings" : {
      "start" : [ 10, 43 ],
      "end" : [ 13, 1 ]
    },
    "preferredSlots" : null,
    "doAfter" : null,
    "nbEmpRequired" : 1,
    "deadline" : [ 13, 29 ],
    "skills" : [ {
      "id" : 0,
      "name" : "MANAGEMENT",
      "level" : 1
    }, {
      "id" : 3,
      "name" : "PLUMBING",
      "level" : 4
    } ],
    "duration" : 3600.000000000,
    "pause" : false
  }, {
    "id" : 430,
    "desc" : "ENGINEER, PLUMBING",
    "location" : {
      "id" : 8201,
      "name" : null,
      "latitude" : 44.00032,
      "longitude" : 3.754596
    },
    "openings" : {
      "start" : [ 10, 38 ],
      "end" : [ 16, 23 ]
    },
    "preferredSlots" : null,
    "doAfter" : null,
    "nbEmpRequired" : 1,
    "deadline" : [ 10, 3 ],
    "skills" : [ {
      "id" : 1,
      "name" : "ENGINEER",
      "level" : 5
    }, {
      "id" : 3,
      "name" : "PLUMBING",
      "level" : 1
    } ],
    "duration" : 3600.000000000,
    "pause" : false
  }, {
    "id" : 351,
    "desc" : "TILER",
    "location" : {
      "id" : 8683,
      "name" : null,
      "latitude" : 43.93476,
      "longitude" : 3.8379326
    },
    "openings" : {
      "start" : [ 13, 1 ],
      "end" : [ 16, 29 ]
    },
    "preferredSlots" : null,
    "doAfter" : null,
    "nbEmpRequired" : 1,
    "deadline" : [ 15, 37 ],
    "skills" : [ {
      "id" : 9,
      "name" : "TILER",
      "level" : 2
    } ],
    "duration" : 3600.000000000,
    "pause" : false
  }, {
    "id" : 736,
    "desc" : "ELECTRICIAN",
    "location" : {
      "id" : 66,
      "name" : null,
      "latitude" : 43.60586,
      "longitude" : 3.9038055
    },
    "openings" : {
      "start" : [ 14, 14 ],
      "end" : [ 16, 5 ]
    },
    "preferredSlots" : null,
    "doAfter" : null,
    "nbEmpRequired" : 1,
    "deadline" : [ 14, 6 ],
    "skills" : [ {
      "id" : 2,
      "name" : "ELECTRICIAN",
      "level" : 4
    } ],
    "duration" : 3600.000000000,
    "pause" : false
  }, {
    "id" : 437,
    "desc" : "TILER, IRONWORK",
    "location" : {
      "id" : 8850,
      "name" : null,
      "latitude" : 43.92773,
      "longitude" : 3.90066
    },
    "openings" : {
      "start" : [ 10, 29 ],
      "end" : [ 12, 22 ]
    },
    "preferredSlots" : null,
    "doAfter" : null,
    "nbEmpRequired" : 1,
    "deadline" : [ 13, 42 ],
    "skills" : [ {
      "id" : 9,
      "name" : "TILER",
      "level" : 4
    }, {
      "id" : 8,
      "name" : "IRONWORK",
      "level" : 1
    } ],
    "duration" : 3600.000000000,
    "pause" : false
  }, {
    "id" : 517,
    "desc" : "ENGINEER, MANAGEMENT",
    "location" : {
      "id" : 3833,
      "name" : null,
      "latitude" : 43.834293,
      "longitude" : 3.9721673
    },
    "openings" : {
      "start" : [ 13, 19 ],
      "end" : [ 17, 4 ]
    },
    "preferredSlots" : null,
    "doAfter" : null,
    "nbEmpRequired" : 1,
    "deadline" : [ 15, 21 ],
    "skills" : [ {
      "id" : 1,
      "name" : "ENGINEER",
      "level" : 3
    }, {
      "id" : 0,
      "name" : "MANAGEMENT",
      "level" : 5
    } ],
    "duration" : 2700.000000000,
    "pause" : false
  }, {
    "id" : 710,
    "desc" : "TILER, CARPENTRY",
    "location" : {
      "id" : 3031,
      "name" : null,
      "latitude" : 44.02513,
      "longitude" : 4.1084623
    },
    "openings" : {
      "start" : [ 14, 32 ],
      "end" : [ 16, 12 ]
    },
    "preferredSlots" : null,
    "doAfter" : null,
    "nbEmpRequired" : 1,
    "deadline" : [ 15, 59 ],
    "skills" : [ {
      "id" : 9,
      "name" : "TILER",
      "level" : 3
    }, {
      "id" : 6,
      "name" : "CARPENTRY",
      "level" : 5
    } ],
    "duration" : 1800.000000000,
    "pause" : false
  }, {
    "id" : 266,
    "desc" : "TILER, PLUMBING",
    "location" : {
      "id" : 2155,
      "name" : null,
      "latitude" : 43.887135,
      "longitude" : 3.7311416
    },
    "openings" : {
      "start" : [ 11, 58 ],
      "end" : [ 16, 24 ]
    },
    "preferredSlots" : null,
    "doAfter" : null,
    "nbEmpRequired" : 1,
    "deadline" : [ 13, 45 ],
    "skills" : [ {
      "id" : 9,
      "name" : "TILER",
      "level" : 3
    }, {
      "id" : 3,
      "name" : "PLUMBING",
      "level" : 4
    } ],
    "duration" : 3600.000000000,
    "pause" : false
  }, {
    "id" : 623,
    "desc" : "GLAZING",
    "location" : {
      "id" : 777,
      "name" : null,
      "latitude" : 43.479702,
      "longitude" : 3.9366505
    },
    "openings" : {
      "start" : [ 12, 35 ],
      "end" : [ 16, 43 ]
    },
    "preferredSlots" : null,
    "doAfter" : null,
    "nbEmpRequired" : 1,
    "deadline" : [ 11, 49 ],
    "skills" : [ {
      "id" : 5,
      "name" : "GLAZING",
      "level" : 5
    } ],
    "duration" : 3600.000000000,
    "pause" : false
  }, {
    "id" : 51,
    "desc" : "TILER, CARPENTRY",
    "location" : {
      "id" : 4287,
      "name" : null,
      "latitude" : 43.99888,
      "longitude" : 4.1615047
    },
    "openings" : {
      "start" : [ 9, 11 ],
      "end" : [ 13, 15 ]
    },
    "preferredSlots" : null,
    "doAfter" : null,
    "nbEmpRequired" : 1,
    "deadline" : [ 14, 59 ],
    "skills" : [ {
      "id" : 9,
      "name" : "TILER",
      "level" : 3
    }, {
      "id" : 6,
      "name" : "CARPENTRY",
      "level" : 5
    } ],
    "duration" : 3600.000000000,
    "pause" : false
  }, {
    "id" : 43,
    "desc" : "ELECTRICIAN",
    "location" : {
      "id" : 495,
      "name" : null,
      "latitude" : 43.62008,
      "longitude" : 3.7433438
    },
    "openings" : {
      "start" : [ 15, 24 ],
      "end" : [ 15, 59 ]
    },
    "preferredSlots" : null,
    "doAfter" : null,
    "nbEmpRequired" : 1,
    "deadline" : [ 14, 28 ],
    "skills" : [ {
      "id" : 2,
      "name" : "ELECTRICIAN",
      "level" : 3
    } ],
    "duration" : 3600.000000000,
    "pause" : false
  }, {
    "id" : 913,
    "desc" : "TILER",
    "location" : {
      "id" : 158,
      "name" : null,
      "latitude" : 44.027153,
      "longitude" : 4.022342
    },
    "openings" : {
      "start" : [ 12, 46 ],
      "end" : [ 17, 5 ]
    },
    "preferredSlots" : null,
    "doAfter" : null,
    "nbEmpRequired" : 1,
    "deadline" : [ 11, 18 ],
    "skills" : [ {
      "id" : 9,
      "name" : "TILER",
      "level" : 2
    } ],
    "duration" : 3600.000000000,
    "pause" : false
  }, {
    "id" : 459,
    "desc" : "MANAGEMENT, ENGINEER",
    "location" : {
      "id" : 3649,
      "name" : null,
      "latitude" : 43.456886,
      "longitude" : 3.9461918
    },
    "openings" : {
      "start" : [ 10, 1 ],
      "end" : [ 12, 49 ]
    },
    "preferredSlots" : null,
    "doAfter" : null,
    "nbEmpRequired" : 1,
    "deadline" : [ 17, 9 ],
    "skills" : [ {
      "id" : 0,
      "name" : "MANAGEMENT",
      "level" : 1
    }, {
      "id" : 1,
      "name" : "ENGINEER",
      "level" : 2
    } ],
    "duration" : 2700.000000000,
    "pause" : false
  }, {
    "id" : 790,
    "desc" : "MASONRY",
    "location" : {
      "id" : 251,
      "name" : null,
      "latitude" : 43.487022,
      "longitude" : 4.2869153
    },
    "openings" : {
      "start" : [ 12, 56 ],
      "end" : [ 15, 4 ]
    },
    "preferredSlots" : null,
    "doAfter" : null,
    "nbEmpRequired" : 1,
    "deadline" : [ 11, 27 ],
    "skills" : [ {
      "id" : 4,
      "name" : "MASONRY",
      "level" : 2
    } ],
    "duration" : 1800.000000000,
    "pause" : false
  }, {
    "id" : 418,
    "desc" : "TILER, CARPENTRY",
    "location" : {
      "id" : 7310,
      "name" : null,
      "latitude" : 44.03219,
      "longitude" : 4.262333
    },
    "openings" : {
      "start" : [ 9, 49 ],
      "end" : [ 12, 6 ]
    },
    "preferredSlots" : null,
    "doAfter" : null,
    "nbEmpRequired" : 1,
    "deadline" : [ 15, 1 ],
    "skills" : [ {
      "id" : 9,
      "name" : "TILER",
      "level" : 3
    }, {
      "id" : 6,
      "name" : "CARPENTRY",
      "level" : 4
    } ],
    "duration" : 1800.000000000,
    "pause" : false
  }, {
    "id" : 560,
    "desc" : "IRONWORK, CARPENTRY",
    "location" : {
      "id" : 162,
      "name" : null,
      "latitude" : 43.400383,
      "longitude" : 4.250968
    },
    "openings" : {
      "start" : [ 10, 55 ],
      "end" : [ 12, 31 ]
    },
    "preferredSlots" : null,
    "doAfter" : null,
    "nbEmpRequired" : 1,
    "deadline" : [ 11, 0 ],
    "skills" : [ {
      "id" : 8,
      "name" : "IRONWORK",
      "level" : 4
    }, {
      "id" : 6,
      "name" : "CARPENTRY",
      "level" : 2
    } ],
    "duration" : 1800.000000000,
    "pause" : false
  }, {
    "id" : 27,
    "desc" : "PLUMBING, CARPENTRY",
    "location" : {
      "id" : 546,
      "name" : null,
      "latitude" : 43.79482,
      "longitude" : 4.238299
    },
    "openings" : {
      "start" : [ 11, 5 ],
      "end" : [ 12, 55 ]
    },
    "preferredSlots" : null,
    "doAfter" : null,
    "nbEmpRequired" : 1,
    "deadline" : [ 17, 35 ],
    "skills" : [ {
      "id" : 3,
      "name" : "PLUMBING",
      "level" : 2
    }, {
      "id" : 6,
      "name" : "CARPENTRY",
      "level" : 1
    } ],
    "duration" : 2700.000000000,
    "pause" : false
  }, {
    "id" : 280,
    "desc" : "MASONRY, TILER",
    "location" : {
      "id" : 7677,
      "name" : null,
      "latitude" : 43.944885,
      "longitude" : 4.2667913
    },
    "openings" : {
      "start" : [ 12, 1 ],
      "end" : [ 15, 31 ]
    },
    "preferredSlots" : null,
    "doAfter" : null,
    "nbEmpRequired" : 1,
    "deadline" : [ 17, 44 ],
    "skills" : [ {
      "id" : 4,
      "name" : "MASONRY",
      "level" : 4
    }, {
      "id" : 9,
      "name" : "TILER",
      "level" : 1
    } ],
    "duration" : 3600.000000000,
    "pause" : false
  }, {
    "id" : 741,
    "desc" : "IRONWORK",
    "location" : {
      "id" : 3088,
      "name" : null,
      "latitude" : 43.540215,
      "longitude" : 4.297079
    },
    "openings" : {
      "start" : [ 9, 9 ],
      "end" : [ 10, 38 ]
    },
    "preferredSlots" : null,
    "doAfter" : null,
    "nbEmpRequired" : 1,
    "deadline" : [ 11, 0 ],
    "skills" : [ {
      "id" : 8,
      "name" : "IRONWORK",
      "level" : 4
    } ],
    "duration" : 2700.000000000,
    "pause" : false
  }, {
    "id" : 57,
    "desc" : "TILER, GLAZING",
    "location" : {
      "id" : 5689,
      "name" : null,
      "latitude" : 43.66891,
      "longitude" : 4.2846346
    },
    "openings" : {
      "start" : [ 13, 40 ],
      "end" : [ 17, 37 ]
    },
    "preferredSlots" : null,
    "doAfter" : null,
    "nbEmpRequired" : 1,
    "deadline" : [ 16, 23 ],
    "skills" : [ {
      "id" : 9,
      "name" : "TILER",
      "level" : 4
    }, {
      "id" : 5,
      "name" : "GLAZING",
      "level" : 2
    } ],
    "duration" : 5400.000000000,
    "pause" : false
  }, {
    "id" : 561,
    "desc" : "ELECTRICIAN",
    "location" : {
      "id" : 652,
      "name" : null,
      "latitude" : 43.907097,
      "longitude" : 3.7452717
    },
    "openings" : {
      "start" : [ 14, 37 ],
      "end" : [ 16, 48 ]
    },
    "preferredSlots" : null,
    "doAfter" : null,
    "nbEmpRequired" : 1,
    "deadline" : [ 14, 8 ],
    "skills" : [ {
      "id" : 2,
      "name" : "ELECTRICIAN",
      "level" : 1
    } ],
    "duration" : 1800.000000000,
    "pause" : false
  }, {
    "id" : 3,
    "desc" : "PLUMBING, MANAGEMENT",
    "location" : {
      "id" : 6164,
      "name" : null,
      "latitude" : 43.7185,
      "longitude" : 4.227968
    },
    "openings" : {
      "start" : [ 12, 32 ],
      "end" : [ 17, 18 ]
    },
    "preferredSlots" : null,
    "doAfter" : null,
    "nbEmpRequired" : 1,
    "deadline" : [ 12, 14 ],
    "skills" : [ {
      "id" : 3,
      "name" : "PLUMBING",
      "level" : 5
    }, {
      "id" : 0,
      "name" : "MANAGEMENT",
      "level" : 1
    } ],
    "duration" : 5400.000000000,
    "pause" : false
  }, {
    "id" : 867,
    "desc" : "IRONWORK",
    "location" : {
      "id" : 531,
      "name" : null,
      "latitude" : 43.600246,
      "longitude" : 3.9593854
    },
    "openings" : {
      "start" : [ 9, 20 ],
      "end" : [ 11, 43 ]
    },
    "preferredSlots" : null,
    "doAfter" : null,
    "nbEmpRequired" : 1,
    "deadline" : [ 12, 23 ],
    "skills" : [ {
      "id" : 8,
      "name" : "IRONWORK",
      "level" : 5
    } ],
    "duration" : 7200.000000000,
    "pause" : false
  }, {
    "id" : 116,
    "desc" : "IRONWORK",
    "location" : {
      "id" : 4033,
      "name" : null,
      "latitude" : 43.72044,
      "longitude" : 4.094162
    },
    "openings" : {
      "start" : [ 12, 20 ],
      "end" : [ 13, 31 ]
    },
    "preferredSlots" : null,
    "doAfter" : null,
    "nbEmpRequired" : 1,
    "deadline" : [ 17, 42 ],
    "skills" : [ {
      "id" : 8,
      "name" : "IRONWORK",
      "level" : 2
    } ],
    "duration" : 3600.000000000,
    "pause" : false
  }, {
    "id" : 276,
    "desc" : "CARPENTRY, ELECTRICIAN",
    "location" : {
      "id" : 8909,
      "name" : null,
      "latitude" : 43.748363,
      "longitude" : 3.989186
    },
    "openings" : {
      "start" : [ 14, 56 ],
      "end" : [ 16, 3 ]
    },
    "preferredSlots" : null,
    "doAfter" : null,
    "nbEmpRequired" : 1,
    "deadline" : [ 12, 5 ],
    "skills" : [ {
      "id" : 6,
      "name" : "CARPENTRY",
      "level" : 2
    }, {
      "id" : 2,
      "name" : "ELECTRICIAN",
      "level" : 5
    } ],
    "duration" : 2700.000000000,
    "pause" : false
  }, {
    "id" : 629,
    "desc" : "MASONRY",
    "location" : {
      "id" : 2697,
      "name" : null,
      "latitude" : 43.558186,
      "longitude" : 3.9802337
    },
    "openings" : {
      "start" : [ 12, 43 ],
      "end" : [ 15, 30 ]
    },
    "preferredSlots" : null,
    "doAfter" : null,
    "nbEmpRequired" : 1,
    "deadline" : [ 14, 8 ],
    "skills" : [ {
      "id" : 4,
      "name" : "MASONRY",
      "level" : 1
    } ],
    "duration" : 2700.000000000,
    "pause" : false
  }, {
    "id" : 602,
    "desc" : "GLAZING",
    "location" : {
      "id" : 3763,
      "name" : null,
      "latitude" : 43.499428,
      "longitude" : 4.2246504
    },
    "openings" : {
      "start" : [ 13, 26 ],
      "end" : [ 13, 49 ]
    },
    "preferredSlots" : null,
    "doAfter" : null,
    "nbEmpRequired" : 1,
    "deadline" : [ 16, 25 ],
    "skills" : [ {
      "id" : 5,
      "name" : "GLAZING",
      "level" : 1
    } ],
    "duration" : 3600.000000000,
    "pause" : false
  }, {
    "id" : 869,
    "desc" : "IRONWORK",
    "location" : {
      "id" : 5099,
      "name" : null,
      "latitude" : 43.444206,
      "longitude" : 3.9727027
    },
    "openings" : {
      "start" : [ 9, 6 ],
      "end" : [ 12, 34 ]
    },
    "preferredSlots" : null,
    "doAfter" : null,
    "nbEmpRequired" : 1,
    "deadline" : [ 9, 6 ],
    "skills" : [ {
      "id" : 8,
      "name" : "IRONWORK",
      "level" : 3
    } ],
    "duration" : 3600.000000000,
    "pause" : false
  }, {
    "id" : 860,
    "desc" : "MANAGEMENT",
    "location" : {
      "id" : 512,
      "name" : null,
      "latitude" : 43.85984,
      "longitude" : 3.8329425
    },
    "openings" : {
      "start" : [ 9, 41 ],
      "end" : [ 13, 15 ]
    },
    "preferredSlots" : null,
    "doAfter" : null,
    "nbEmpRequired" : 1,
    "deadline" : [ 10, 17 ],
    "skills" : [ {
      "id" : 0,
      "name" : "MANAGEMENT",
      "level" : 3
    } ],
    "duration" : 3600.000000000,
    "pause" : false
  }, {
    "id" : 827,
    "desc" : "IRONWORK",
    "location" : {
      "id" : 1823,
      "name" : null,
      "latitude" : 43.45213,
      "longitude" : 3.9646537
    },
    "openings" : {
      "start" : [ 10, 32 ],
      "end" : [ 16, 55 ]
    },
    "preferredSlots" : null,
    "doAfter" : null,
    "nbEmpRequired" : 1,
    "deadline" : [ 9, 47 ],
    "skills" : [ {
      "id" : 8,
      "name" : "IRONWORK",
      "level" : 4
    } ],
    "duration" : 2700.000000000,
    "pause" : false
  }, {
    "id" : 632,
    "desc" : "PAINTING",
    "location" : {
      "id" : 7154,
      "name" : null,
      "latitude" : 43.87579,
      "longitude" : 3.874225
    },
    "openings" : {
      "start" : [ 10, 11 ],
      "end" : [ 11, 28 ]
    },
    "preferredSlots" : null,
    "doAfter" : null,
    "nbEmpRequired" : 1,
    "deadline" : [ 16, 0 ],
    "skills" : [ {
      "id" : 7,
      "name" : "PAINTING",
      "level" : 3
    } ],
    "duration" : 2700.000000000,
    "pause" : false
  }, {
    "id" : 791,
    "desc" : "TILER, IRONWORK",
    "location" : {
      "id" : 4374,
      "name" : null,
      "latitude" : 43.835995,
      "longitude" : 4.163599
    },
    "openings" : {
      "start" : [ 12, 58 ],
      "end" : [ 14, 7 ]
    },
    "preferredSlots" : null,
    "doAfter" : null,
    "nbEmpRequired" : 1,
    "deadline" : [ 9, 17 ],
    "skills" : [ {
      "id" : 9,
      "name" : "TILER",
      "level" : 4
    }, {
      "id" : 8,
      "name" : "IRONWORK",
      "level" : 2
    } ],
    "duration" : 2700.000000000,
    "pause" : false
  }, {
    "id" : 723,
    "desc" : "GLAZING, ELECTRICIAN",
    "location" : {
      "id" : 7691,
      "name" : null,
      "latitude" : 43.706123,
      "longitude" : 3.8422337
    },
    "openings" : {
      "start" : [ 13, 11 ],
      "end" : [ 14, 21 ]
    },
    "preferredSlots" : null,
    "doAfter" : null,
    "nbEmpRequired" : 1,
    "deadline" : [ 12, 18 ],
    "skills" : [ {
      "id" : 5,
      "name" : "GLAZING",
      "level" : 2
    }, {
      "id" : 2,
      "name" : "ELECTRICIAN",
      "level" : 1
    } ],
    "duration" : 3600.000000000,
    "pause" : false
  }, {
    "id" : 337,
    "desc" : "GLAZING, CARPENTRY",
    "location" : {
      "id" : 987,
      "name" : null,
      "latitude" : 43.45606,
      "longitude" : 4.2703733
    },
    "openings" : {
      "start" : [ 11, 24 ],
      "end" : [ 14, 46 ]
    },
    "preferredSlots" : null,
    "doAfter" : null,
    "nbEmpRequired" : 1,
    "deadline" : [ 17, 24 ],
    "skills" : [ {
      "id" : 5,
      "name" : "GLAZING",
      "level" : 1
    }, {
      "id" : 6,
      "name" : "CARPENTRY",
      "level" : 1
    } ],
    "duration" : 3600.000000000,
    "pause" : false
  }, {
    "id" : 969,
    "desc" : "MASONRY",
    "location" : {
      "id" : 2836,
      "name" : null,
      "latitude" : 43.711636,
      "longitude" : 3.8675778
    },
    "openings" : {
      "start" : [ 12, 45 ],
      "end" : [ 14, 59 ]
    },
    "preferredSlots" : null,
    "doAfter" : null,
    "nbEmpRequired" : 1,
    "deadline" : [ 15, 8 ],
    "skills" : [ {
      "id" : 4,
      "name" : "MASONRY",
      "level" : 1
    } ],
    "duration" : 5400.000000000,
    "pause" : false
  }, {
    "id" : 998,
    "desc" : "PLUMBING",
    "location" : {
      "id" : 1344,
      "name" : null,
      "latitude" : 43.82009,
      "longitude" : 3.7721775
    },
    "openings" : {
      "start" : [ 12, 14 ],
      "end" : [ 16, 7 ]
    },
    "preferredSlots" : null,
    "doAfter" : null,
    "nbEmpRequired" : 1,
    "deadline" : [ 11, 14 ],
    "skills" : [ {
      "id" : 3,
      "name" : "PLUMBING",
      "level" : 2
    } ],
    "duration" : 3600.000000000,
    "pause" : false
  }, {
    "id" : 306,
    "desc" : "IRONWORK",
    "location" : {
      "id" : 3852,
      "name" : null,
      "latitude" : 43.829685,
      "longitude" : 4.1614127
    },
    "openings" : {
      "start" : [ 12, 3 ],
      "end" : [ 14, 11 ]
    },
    "preferredSlots" : null,
    "doAfter" : null,
    "nbEmpRequired" : 1,
    "deadline" : [ 12, 21 ],
    "skills" : [ {
      "id" : 8,
      "name" : "IRONWORK",
      "level" : 1
    } ],
    "duration" : 3600.000000000,
    "pause" : false
  }, {
    "id" : 992,
    "desc" : "ENGINEER",
    "location" : {
      "id" : 3828,
      "name" : null,
      "latitude" : 43.794147,
      "longitude" : 4.20576
    },
    "openings" : {
      "start" : [ 9, 12 ],
      "end" : [ 11, 11 ]
    },
    "preferredSlots" : null,
    "doAfter" : null,
    "nbEmpRequired" : 1,
    "deadline" : [ 9, 13 ],
    "skills" : [ {
      "id" : 1,
      "name" : "ENGINEER",
      "level" : 3
    } ],
    "duration" : 3600.000000000,
    "pause" : false
  }, {
    "id" : 499,
    "desc" : "TILER",
    "location" : {
      "id" : 2322,
      "name" : null,
      "latitude" : 43.90249,
      "longitude" : 4.14158
    },
    "openings" : {
      "start" : [ 9, 52 ],
      "end" : [ 10, 1 ]
    },
    "preferredSlots" : null,
    "doAfter" : null,
    "nbEmpRequired" : 1,
    "deadline" : [ 16, 19 ],
    "skills" : [ {
      "id" : 9,
      "name" : "TILER",
      "level" : 4
    } ],
    "duration" : 5400.000000000,
    "pause" : false
  }, {
    "id" : 533,
    "desc" : "TILER, IRONWORK",
    "location" : {
      "id" : 7362,
      "name" : null,
      "latitude" : 43.708267,
      "longitude" : 3.8141758
    },
    "openings" : {
      "start" : [ 10, 10 ],
      "end" : [ 11, 7 ]
    },
    "preferredSlots" : null,
    "doAfter" : null,
    "nbEmpRequired" : 1,
    "deadline" : [ 12, 20 ],
    "skills" : [ {
      "id" : 9,
      "name" : "TILER",
      "level" : 5
    }, {
      "id" : 8,
      "name" : "IRONWORK",
      "level" : 1
    } ],
    "duration" : 1800.000000000,
    "pause" : false
  }, {
    "id" : 957,
    "desc" : "CARPENTRY, PLUMBING",
    "location" : {
      "id" : 1745,
      "name" : null,
      "latitude" : 43.68693,
      "longitude" : 4.063536
    },
    "openings" : {
      "start" : [ 10, 21 ],
      "end" : [ 11, 50 ]
    },
    "preferredSlots" : null,
    "doAfter" : null,
    "nbEmpRequired" : 1,
    "deadline" : [ 12, 2 ],
    "skills" : [ {
      "id" : 6,
      "name" : "CARPENTRY",
      "level" : 1
    }, {
      "id" : 3,
      "name" : "PLUMBING",
      "level" : 2
    } ],
    "duration" : 5400.000000000,
    "pause" : false
  }, {
    "id" : 30,
    "desc" : "TILER",
    "location" : {
      "id" : 4077,
      "name" : null,
      "latitude" : 43.84803,
      "longitude" : 3.9157765
    },
    "openings" : {
      "start" : [ 16, 55 ],
      "end" : [ 17, 11 ]
    },
    "preferredSlots" : null,
    "doAfter" : null,
    "nbEmpRequired" : 1,
    "deadline" : [ 15, 30 ],
    "skills" : [ {
      "id" : 9,
      "name" : "TILER",
      "level" : 4
    } ],
    "duration" : 3600.000000000,
    "pause" : false
  }, {
    "id" : 853,
    "desc" : "MASONRY, PLUMBING",
    "location" : {
      "id" : 393,
      "name" : null,
      "latitude" : 43.619205,
      "longitude" : 4.029702
    },
    "openings" : {
      "start" : [ 12, 4 ],
      "end" : [ 13, 46 ]
    },
    "preferredSlots" : null,
    "doAfter" : null,
    "nbEmpRequired" : 1,
    "deadline" : [ 12, 27 ],
    "skills" : [ {
      "id" : 4,
      "name" : "MASONRY",
      "level" : 1
    }, {
      "id" : 3,
      "name" : "PLUMBING",
      "level" : 3
    } ],
    "duration" : 1800.000000000,
    "pause" : false
  }, {
    "id" : 218,
    "desc" : "IRONWORK, PAINTING",
    "location" : {
      "id" : 8073,
      "name" : null,
      "latitude" : 43.551476,
      "longitude" : 3.9322479
    },
    "openings" : {
      "start" : [ 14, 57 ],
      "end" : [ 15, 1 ]
    },
    "preferredSlots" : null,
    "doAfter" : null,
    "nbEmpRequired" : 1,
    "deadline" : [ 16, 15 ],
    "skills" : [ {
      "id" : 8,
      "name" : "IRONWORK",
      "level" : 2
    }, {
      "id" : 7,
      "name" : "PAINTING",
      "level" : 1
    } ],
    "duration" : 3600.000000000,
    "pause" : false
  }, {
    "id" : 823,
    "desc" : "MASONRY",
    "location" : {
      "id" : 540,
      "name" : null,
      "latitude" : 43.8948,
      "longitude" : 3.7220657
    },
    "openings" : {
      "start" : [ 9, 52 ],
      "end" : [ 15, 47 ]
    },
    "preferredSlots" : null,
    "doAfter" : null,
    "nbEmpRequired" : 1,
    "deadline" : [ 15, 52 ],
    "skills" : [ {
      "id" : 4,
      "name" : "MASONRY",
      "level" : 3
    } ],
    "duration" : 5400.000000000,
    "pause" : false
  }, {
    "id" : 776,
    "desc" : "ENGINEER, PLUMBING",
    "location" : {
      "id" : 9316,
      "name" : null,
      "latitude" : 43.93129,
      "longitude" : 4.143173
    },
    "openings" : {
      "start" : [ 11, 9 ],
      "end" : [ 12, 6 ]
    },
    "preferredSlots" : null,
    "doAfter" : null,
    "nbEmpRequired" : 1,
    "deadline" : [ 15, 37 ],
    "skills" : [ {
      "id" : 1,
      "name" : "ENGINEER",
      "level" : 1
    }, {
      "id" : 3,
      "name" : "PLUMBING",
      "level" : 4
    } ],
    "duration" : 2700.000000000,
    "pause" : false
  }, {
    "id" : 814,
    "desc" : "TILER, GLAZING",
    "location" : {
      "id" : 6970,
      "name" : null,
      "latitude" : 43.754257,
      "longitude" : 3.8411574
    },
    "openings" : {
      "start" : [ 9, 4 ],
      "end" : [ 15, 14 ]
    },
    "preferredSlots" : null,
    "doAfter" : null,
    "nbEmpRequired" : 1,
    "deadline" : [ 14, 26 ],
    "skills" : [ {
      "id" : 9,
      "name" : "TILER",
      "level" : 1
    }, {
      "id" : 5,
      "name" : "GLAZING",
      "level" : 5
    } ],
    "duration" : 2700.000000000,
    "pause" : false
  }, {
    "id" : 477,
    "desc" : "CARPENTRY",
    "location" : {
      "id" : 7638,
      "name" : null,
      "latitude" : 43.752464,
      "longitude" : 3.8451037
    },
    "openings" : {
      "start" : [ 15, 10 ],
      "end" : [ 16, 5 ]
    },
    "preferredSlots" : null,
    "doAfter" : null,
    "nbEmpRequired" : 1,
    "deadline" : [ 9, 32 ],
    "skills" : [ {
      "id" : 6,
      "name" : "CARPENTRY",
      "level" : 5
    } ],
    "duration" : 1800.000000000,
    "pause" : false
  }, {
    "id" : 522,
    "desc" : "GLAZING",
    "location" : {
      "id" : 2102,
      "name" : null,
      "latitude" : 43.809715,
      "longitude" : 3.8045707
    },
    "openings" : {
      "start" : [ 10, 26 ],
      "end" : [ 13, 12 ]
    },
    "preferredSlots" : null,
    "doAfter" : null,
    "nbEmpRequired" : 1,
    "deadline" : [ 13, 26 ],
    "skills" : [ {
      "id" : 5,
      "name" : "GLAZING",
      "level" : 5
    } ],
    "duration" : 3600.000000000,
    "pause" : false
  }, {
    "id" : 136,
    "desc" : "TILER",
    "location" : {
      "id" : 5939,
      "name" : null,
      "latitude" : 44.02787,
      "longitude" : 4.0502205
    },
    "openings" : {
      "start" : [ 14, 43 ],
      "end" : [ 17, 26 ]
    },
    "preferredSlots" : null,
    "doAfter" : null,
    "nbEmpRequired" : 1,
    "deadline" : [ 14, 53 ],
    "skills" : [ {
      "id" : 9,
      "name" : "TILER",
      "level" : 4
    } ],
    "duration" : 3600.000000000,
    "pause" : false
  } ],
  "employees" : [ {
    "id" : 806,
    "name" : "806",
    "shifts" : [ {
      "start" : [ 9, 0 ],
      "end" : [ 12, 0 ]
    }, {
      "start" : [ 13, 0 ],
      "end" : [ 17, 0 ]
    } ],
    "prefSlots" : null,
    "startingLoc" : {
      "id" : 961,
      "name" : null,
      "latitude" : 43.463036,
      "longitude" : 3.856257
    },
    "skills" : [ {
      "id" : 1,
      "name" : "ENGINEER",
      "level" : 5
    }, {
      "id" : 2,
      "name" : "ELECTRICIAN",
      "level" : 3
    }, {
      "id" : 8,
      "name" : "IRONWORK",
      "level" : 2
    }, {
      "id" : 4,
      "name" : "MASONRY",
      "level" : 5
    }, {
      "id" : 9,
      "name" : "TILER",
      "level" : 1
    } ]
  }, {
    "id" : 149,
    "name" : "149",
    "shifts" : [ {
      "start" : [ 9, 0 ],
      "end" : [ 12, 0 ]
    }, {
      "start" : [ 13, 0 ],
      "end" : [ 17, 0 ]
    } ],
    "prefSlots" : null,
    "startingLoc" : {
      "id" : 5986,
      "name" : null,
      "latitude" : 43.943306,
      "longitude" : 4.130641
    },
    "skills" : [ {
      "id" : 4,
      "name" : "MASONRY",
      "level" : 3
    }, {
      "id" : 7,
      "name" : "PAINTING",
      "level" : 1
    }, {
      "id" : 4,
      "name" : "MASONRY",
      "level" : 4
    }, {
      "id" : 3,
      "name" : "PLUMBING",
      "level" : 4
    }, {
      "id" : 7,
      "name" : "PAINTING",
      "level" : 8
    }, {
      "id" : 7,
      "name" : "PAINTING",
      "level" : 3
    }, {
      "id" : 3,
      "name" : "PLUMBING",
      "level" : 10
    } ]
  }, {
    "id" : 590,
    "name" : "590",
    "shifts" : [ {
      "start" : [ 9, 0 ],
      "end" : [ 12, 0 ]
    }, {
      "start" : [ 13, 0 ],
      "end" : [ 17, 0 ]
    } ],
    "prefSlots" : null,
    "startingLoc" : {
      "id" : 1085,
      "name" : null,
      "latitude" : 43.403965,
      "longitude" : 3.91955
    },
    "skills" : [ {
      "id" : 9,
      "name" : "TILER",
      "level" : 4
    }, {
      "id" : 0,
      "name" : "MANAGEMENT",
      "level" : 4
    }, {
      "id" : 2,
      "name" : "ELECTRICIAN",
      "level" : 3
    } ]
  }, {
    "id" : 129,
    "name" : "129",
    "shifts" : [ {
      "start" : [ 9, 0 ],
      "end" : [ 12, 0 ]
    }, {
      "start" : [ 13, 0 ],
      "end" : [ 17, 0 ]
    } ],
    "prefSlots" : null,
    "startingLoc" : {
      "id" : 8688,
      "name" : null,
      "latitude" : 43.587273,
      "longitude" : 4.258751
    },
    "skills" : [ {
      "id" : 5,
      "name" : "GLAZING",
      "level" : 7
    }, {
      "id" : 0,
      "name" : "MANAGEMENT",
      "level" : 10
    }, {
      "id" : 9,
      "name" : "TILER",
      "level" : 8
    }, {
      "id" : 7,
      "name" : "PAINTING",
      "level" : 5
    } ]
  }, {
    "id" : 58,
    "name" : "58",
    "shifts" : [ {
      "start" : [ 9, 0 ],
      "end" : [ 12, 0 ]
    }, {
      "start" : [ 13, 0 ],
      "end" : [ 17, 0 ]
    } ],
    "prefSlots" : null,
    "startingLoc" : {
      "id" : 4351,
      "name" : null,
      "latitude" : 44.037174,
      "longitude" : 4.243244
    },
    "skills" : [ {
      "id" : 3,
      "name" : "PLUMBING",
      "level" : 5
    }, {
      "id" : 5,
      "name" : "GLAZING",
      "level" : 1
    }, {
      "id" : 1,
      "name" : "ENGINEER",
      "level" : 9
    }, {
      "id" : 8,
      "name" : "IRONWORK",
      "level" : 8
    }, {
      "id" : 9,
      "name" : "TILER",
      "level" : 9
    } ]
  }, {
    "id" : 684,
    "name" : "684",
    "shifts" : [ {
      "start" : [ 9, 0 ],
      "end" : [ 12, 0 ]
    }, {
      "start" : [ 13, 0 ],
      "end" : [ 17, 0 ]
    } ],
    "prefSlots" : null,
    "startingLoc" : {
      "id" : 2544,
      "name" : null,
      "latitude" : 43.93884,
      "longitude" : 3.7484813
    },
    "skills" : [ {
      "id" : 6,
      "name" : "CARPENTRY",
      "level" : 10
    }, {
      "id" : 7,
      "name" : "PAINTING",
      "level" : 7
    }, {
      "id" : 4,
      "name" : "MASONRY",
      "level" : 4
    }, {
      "id" : 4,
      "name" : "MASONRY",
      "level" : 3
    }, {
      "id" : 6,
      "name" : "CARPENTRY",
      "level" : 10
    }, {
      "id" : 0,
      "name" : "MANAGEMENT",
      "level" : 7
    }, {
      "id" : 6,
      "name" : "CARPENTRY",
      "level" : 10
    } ]
  }, {
    "id" : 264,
    "name" : "264",
    "shifts" : [ {
      "start" : [ 9, 0 ],
      "end" : [ 12, 0 ]
    }, {
      "start" : [ 13, 0 ],
      "end" : [ 17, 0 ]
    } ],
    "prefSlots" : null,
    "startingLoc" : {
      "id" : 705,
      "name" : null,
      "latitude" : 43.89927,
      "longitude" : 3.9287636
    },
    "skills" : [ {
      "id" : 7,
      "name" : "PAINTING",
      "level" : 6
    }, {
      "id" : 6,
      "name" : "CARPENTRY",
      "level" : 6
    }, {
      "id" : 4,
      "name" : "MASONRY",
      "level" : 3
    }, {
      "id" : 2,
      "name" : "ELECTRICIAN",
      "level" : 8
    } ]
  }, {
    "id" : 369,
    "name" : "369",
    "shifts" : [ {
      "start" : [ 9, 0 ],
      "end" : [ 12, 0 ]
    }, {
      "start" : [ 13, 0 ],
      "end" : [ 17, 0 ]
    } ],
    "prefSlots" : null,
    "startingLoc" : {
      "id" : 8706,
      "name" : null,
      "latitude" : 43.712105,
      "longitude" : 3.9750857
    },
    "skills" : [ {
      "id" : 4,
      "name" : "MASONRY",
      "level" : 9
    }, {
      "id" : 8,
      "name" : "IRONWORK",
      "level" : 5
    }, {
      "id" : 0,
      "name" : "MANAGEMENT",
      "level" : 7
    }, {
      "id" : 4,
      "name" : "MASONRY",
      "level" : 1
    }, {
      "id" : 2,
      "name" : "ELECTRICIAN",
      "level" : 6
    }, {
      "id" : 7,
      "name" : "PAINTING",
      "level" : 3
    }, {
      "id" : 8,
      "name" : "IRONWORK",
      "level" : 2
    }, {
      "id" : 5,
      "name" : "GLAZING",
      "level" : 3
    }, {
      "id" : 5,
      "name" : "GLAZING",
      "level" : 2
    }, {
      "id" : 4,
      "name" : "MASONRY",
      "level" : 4
    } ]
  }, {
    "id" : 677,
    "name" : "677",
    "shifts" : [ {
      "start" : [ 9, 0 ],
      "end" : [ 12, 0 ]
    }, {
      "start" : [ 13, 0 ],
      "end" : [ 17, 0 ]
    } ],
    "prefSlots" : null,
    "startingLoc" : {
      "id" : 382,
      "name" : null,
      "latitude" : 43.771923,
      "longitude" : 4.188575
    },
    "skills" : [ {
      "id" : 5,
      "name" : "GLAZING",
      "level" : 2
    } ]
  }, {
    "id" : 984,
    "name" : "984",
    "shifts" : [ {
      "start" : [ 9, 0 ],
      "end" : [ 12, 0 ]
    }, {
      "start" : [ 13, 0 ],
      "end" : [ 17, 0 ]
    } ],
    "prefSlots" : null,
    "startingLoc" : {
      "id" : 9394,
      "name" : null,
      "latitude" : 43.435307,
      "longitude" : 4.1279597
    },
    "skills" : [ {
      "id" : 1,
      "name" : "ENGINEER",
      "level" : 3
    }, {
      "id" : 9,
      "name" : "TILER",
      "level" : 4
    }, {
      "id" : 6,
      "name" : "CARPENTRY",
      "level" : 10
    }, {
      "id" : 5,
      "name" : "GLAZING",
      "level" : 4
    } ]
  } ],
  "appointments" : [ {
    "job" : {
      "id" : 867,
      "desc" : "IRONWORK",
      "location" : {
        "id" : 531,
        "name" : null,
        "latitude" : 43.600246,
        "longitude" : 3.9593854
      },
      "openings" : {
        "start" : [ 9, 20 ],
        "end" : [ 11, 43 ]
      },
      "preferredSlots" : null,
      "doAfter" : null,
      "nbEmpRequired" : 1,
      "deadline" : [ 12, 23 ],
      "skills" : [ {
        "id" : 8,
        "name" : "IRONWORK",
        "level" : 5
      } ],
      "duration" : 7200.000000000,
      "pause" : false
    },
    "needed" : [ {
      "id" : 684,
      "name" : "684",
      "shifts" : [ {
        "start" : [ 9, 0 ],
        "end" : [ 12, 0 ]
      }, {
        "start" : [ 13, 0 ],
        "end" : [ 17, 0 ]
      } ],
      "prefSlots" : null,
      "startingLoc" : {
        "id" : 2544,
        "name" : null,
        "latitude" : 43.93884,
        "longitude" : 3.7484813
      },
      "skills" : [ {
        "id" : 6,
        "name" : "CARPENTRY",
        "level" : 10
      }, {
        "id" : 7,
        "name" : "PAINTING",
        "level" : 7
      }, {
        "id" : 4,
        "name" : "MASONRY",
        "level" : 4
      }, {
        "id" : 4,
        "name" : "MASONRY",
        "level" : 3
      }, {
        "id" : 6,
        "name" : "CARPENTRY",
        "level" : 10
      }, {
        "id" : 0,
        "name" : "MANAGEMENT",
        "level" : 7
      }, {
        "id" : 6,
        "name" : "CARPENTRY",
        "level" : 10
      } ]
    } ]
  }, {
    "job" : {
      "id" : 776,
      "desc" : "ENGINEER, PLUMBING",
      "location" : {
        "id" : 9316,
        "name" : null,
        "latitude" : 43.93129,
        "longitude" : 4.143173
      },
      "openings" : {
        "start" : [ 11, 9 ],
        "end" : [ 12, 6 ]
      },
      "preferredSlots" : null,
      "doAfter" : null,
      "nbEmpRequired" : 1,
      "deadline" : [ 15, 37 ],
      "skills" : [ {
        "id" : 1,
        "name" : "ENGINEER",
        "level" : 1
      }, {
        "id" : 3,
        "name" : "PLUMBING",
        "level" : 4
      } ],
      "duration" : 2700.000000000,
      "pause" : false
    },
    "needed" : [ {
      "id" : 149,
      "name" : "149",
      "shifts" : [ {
        "start" : [ 9, 0 ],
        "end" : [ 12, 0 ]
      }, {
        "start" : [ 13, 0 ],
        "end" : [ 17, 0 ]
      } ],
      "prefSlots" : null,
      "startingLoc" : {
        "id" : 5986,
        "name" : null,
        "latitude" : 43.943306,
        "longitude" : 4.130641
      },
      "skills" : [ {
        "id" : 4,
        "name" : "MASONRY",
        "level" : 3
      }, {
        "id" : 7,
        "name" : "PAINTING",
        "level" : 1
      }, {
        "id" : 4,
        "name" : "MASONRY",
        "level" : 4
      }, {
        "id" : 3,
        "name" : "PLUMBING",
        "level" : 4
      }, {
        "id" : 7,
        "name" : "PAINTING",
        "level" : 8
      }, {
        "id" : 7,
        "name" : "PAINTING",
        "level" : 3
      }, {
        "id" : 3,
        "name" : "PLUMBING",
        "level" : 10
      } ]
    } ]
  } ]
}