{
  "jobs" : [ {
    "id" : 642,
    "desc" : "IRONWORK, ENGINEER",
    "location" : {
      "id" : 3648,
      "name" : null,
      "latitude" : 43.60534,
      "longitude" : 3.8625684
    },
    "openings" : {
      "start" : [ 11, 17 ],
      "end" : [ 11, 52 ]
    },
    "preferredSlots" : null,
    "doAfter" : null,
    "nbEmpRequired" : 1,
    "deadline" : [ 16, 9 ],
    "skills" : [ {
      "id" : 8,
      "name" : "IRONWORK",
      "level" : 5
    }, {
      "id" : 1,
      "name" : "ENGINEER",
      "level" : 1
    } ],
    "duration" : 1800.000000000,
    "pause" : false
  }, {
    "id" : 328,
    "desc" : "GLAZING",
    "location" : {
      "id" : 8932,
      "name" : null,
      "latitude" : 44.052006,
      "longitude" : 4.223138
    },
    "openings" : {
      "start" : [ 13, 27 ],
      "end" : [ 17, 24 ]
    },
    "preferredSlots" : null,
    "doAfter" : null,
    "nbEmpRequired" : 1,
    "deadline" : [ 17, 18 ],
    "skills" : [ {
      "id" : 5,
      "name" : "GLAZING",
      "level" : 3
    } ],
    "duration" : 3600.000000000,
    "pause" : false
  }, {
    "id" : 837,
    "desc" : "CARPENTRY",
    "location" : {
      "id" : 3821,
      "name" : null,
      "latitude" : 43.74278,
      "longitude" : 3.9059067
    },
    "openings" : {
      "start" : [ 9, 25 ],
      "end" : [ 10, 7 ]
    },
    "preferredSlots" : null,
    "doAfter" : null,
    "nbEmpRequired" : 1,
    "deadline" : [ 15, 43 ],
    "skills" : [ {
      "id" : 6,
      "name" : "CARPENTRY",
      "level" : 1
    } ],
    "duration" : 3600.000000000,
    "pause" : false
  }, {
    "id" : 574,
    "desc" : "ENGINEER",
    "location" : {
      "id" : 3055,
      "name" : null,
      "latitude" : 43.683655,
      "longitude" : 4.1523857
    },
    "openings" : {
      "start" : [ 11, 6 ],
      "end" : [ 12, 19 ]
    },
    "preferredSlots" : null,
    "doAfter" : null,
    "nbEmpRequired" : 1,
    "deadline" : [ 15, 48 ],
    "skills" : [ {
      "id" : 1,
      "name" : "ENGINEER",
      "level" : 3
    } ],
    "duration" : 3600.000000000,
    "pause" : false
  }, {
    "id" : 4,
    "desc" : "PLUMBING",
    "location" : {
      "id" : 9653,
      "name" : null,
      "latitude" : 43.846558,
      "longitude" : 3.8163075
    },
    "openings" : {
      "start" : [ 11, 25 ],
      "end" : [ 17, 33 ]
    },
    "preferredSlots" : null,
    "doAfter" : null,
    "nbEmpRequired" : 1,
    "deadline" : [ 11, 12 ],
    "skills" : [ {
      "id" : 3,
      "name" : "PLUMBING",
      "level" : 1
    } ],
    "duration" : 3600.000000000,
    "pause" : false
  }, {
    "id" : 913,
    "desc" : "MASONRY",
    "location" : {
      "id" : 7076,
      "name" : null,
      "latitude" : 43.63777,
      "longitude" : 3.9420013
    },
    "openings" : {
      "start" : [ 11, 3 ],
      "end" : [ 15, 27 ]
    },
    "preferredSlots" : null,
    "doAfter" : null,
    "nbEmpRequired" : 1,
    "deadline" : [ 13, 12 ],
    "skills" : [ {
      "id" : 4,
      "name" : "MASONRY",
      "level" : 4
    } ],
    "duration" : 2700.000000000,
    "pause" : false
  }, {
    "id" : 240,
    "desc" : "GLAZING",
    "location" : {
      "id" : 8198,
      "name" : null,
      "latitude" : 43.614162,
      "longitude" : 4.207979
    },
    "openings" : {
      "start" : [ 14, 24 ],
      "end" : [ 16, 14 ]
    },
    "preferredSlots" : null,
    "doAfter" : null,
    "nbEmpRequired" : 1,
    "deadline" : [ 12, 35 ],
    "skills" : [ {
      "id" : 5,
      "name" : "GLAZING",
      "level" : 3
    } ],
    "duration" : 3600.000000000,
    "pause" : false
  }, {
    "id" : 959,
    "desc" : "PAINTING",
    "location" : {
      "id" : 660,
      "name" : null,
      "latitude" : 44.02636,
      "longitude" : 4.1768456
    },
    "openings" : {
      "start" : [ 9, 7 ],
      "end" : [ 17, 42 ]
    },
    "preferredSlots" : null,
    "doAfter" : null,
    "nbEmpRequired" : 1,
    "deadline" : [ 16, 32 ],
    "skills" : [ {
      "id" : 7,
      "name" : "PAINTING",
      "level" : 3
    } ],
    "duration" : 5400.000000000,
    "pause" : false
  }, {
    "id" : 289,
    "desc" : "GLAZING",
    "location" : {
      "id" : 7685,
      "name" : null,
      "latitude" : 43.9575,
      "longitude" : 3.9238496
    },
    "openings" : {
      "start" : [ 9, 14 ],
      "end" : [ 16, 3 ]
    },
    "preferredSlots" : null,
    "doAfter" : null,
    "nbEmpRequired" : 1,
    "deadline" : [ 10, 14 ],
    "skills" : [ {
      "id" : 5,
      "name" : "GLAZING",
      "level" : 5
    } ],
    "duration" : 3600.000000000,
    "pause" : false
  }, {
    "id" : 565,
    "desc" : "GLAZING",
    "location" : {
      "id" : 6744,
      "name" : null,
      "latitude" : 43.927082,
      "longitude" : 3.7095237
    },
    "openings" : {
      "start" : [ 14, 51 ],
      "end" : [ 15, 15 ]
    },
    "preferredSlots" : null,
    "doAfter" : null,
    "nbEmpRequired" : 1,
    "deadline" : [ 9, 32 ],
    "skills" : [ {
      "id" : 5,
      "name" : "GLAZING",
      "level" : 3
    } ],
    "duration" : 2700.000000000,
    "pause" : false
  }, {
    "id" : 932,
    "desc" : "TILER",
    "location" : {
      "id" : 9508,
      "name" : null,
      "latitude" : 43.84166,
      "longitude" : 4.123859
    },
    "openings" : {
      "start" : [ 10, 41 ],
      "end" : [ 16, 30 ]
    },
    "preferredSlots" : null,
    "doAfter" : null,
    "nbEmpRequired" : 1,
    "deadline" : [ 14, 23 ],
    "skills" : [ {
      "id" : 9,
      "name" : "TILER",
      "level" : 3
    } ],
    "duration" : 1800.000000000,
    "pause" : false
  }, {
    "id" : 22,
    "desc" : "GLAZING, ELECTRICIAN",
    "location" : {
      "id" : 1014,
      "name" : null,
      "latitude" : 43.89483,
      "longitude" : 3.8596153
    },
    "openings" : {
      "start" : [ 12, 9 ],
      "end" : [ 14, 24 ]
    },
    "preferredSlots" : null,
    "doAfter" : null,
    "nbEmpRequired" : 1,
    "deadline" : [ 15, 35 ],
    "skills" : [ {
      "id" : 5,
      "name" : "GLAZING",
      "level" : 4
    }, {
      "id" : 2,
      "name" : "ELECTRICIAN",
      "level" : 1
    } ],
    "duration" : 1800.000000000,
    "pause" : false
  }, {
    "id" : 929,
    "desc" : "IRONWORK, CARPENTRY",
    "location" : {
      "id" : 9368,
      "name" : null,
      "latitude" : 43.759777,
      "longitude" : 3.8769813
    },
    "openings" : {
      "start" : [ 10, 27 ],
      "end" : [ 13, 33 ]
    },
    "preferredSlots" : null,
    "doAfter" : null,
    "nbEmpRequired" : 1,
    "deadline" : [ 16, 51 ],
    "skills" : [ {
      "id" : 8,
      "name" : "IRONWORK",
      "level" : 4
    }, {
      "id" : 6,
      "name" : "CARPENTRY",
      "level" : 4
    } ],
    "duration" : 1800.000000000,
    "pause" : false
  }, {
    "id" : 520,
    "desc" : "MANAGEMENT",
    "location" : {
      "id" : 7515,
      "name" : null,
      "latitude" : 43.819054,
      "longitude" : 4.2472086
    },
    "openings" : {
      "start" : [ 10, 13 ],
      "end" : [ 10, 49 ]
    },
    "preferredSlots" : null,
    "doAfter" : null,
    "nbEmpRequired" : 1,
    "deadline" : [ 10, 27 ],
    "skills" : [ {
      "id" : 0,
      "name" : "MANAGEMENT",
      "level" : 3
    } ],
    "duration" : 2700.000000000,
    "pause" : false
  }, {
    "id" : 850,
    "desc" : "ENGINEER, IRONWORK",
    "location" : {
      "id" : 1026,
      "name" : null,
      "latitude" : 43.814384,
      "longitude" : 4.0905085
    },
    "openings" : {
      "start" : [ 13, 55 ],
      "end" : [ 14, 19 ]
    },
    "preferredSlots" : null,
    "doAfter" : null,
    "nbEmpRequired" : 1,
    "deadline" : [ 9, 14 ],
    "skills" : [ {
      "id" : 1,
      "name" : "ENGINEER",
      "level" : 3
    }, {
      "id" : 8,
      "name" : "IRONWORK",
      "level" : 3
    } ],
    "duration" : 2700.000000000,
    "pause" : false
  }, {
    "id" : 102,
    "desc" : "ENGINEER",
    "location" : {
      "id" : 5261,
      "name" : null,
      "latitude" : 43.75755,
      "longitude" : 4.0763135
    },
    "openings" : {
      "start" : [ 13, 1 ],
      "end" : [ 16, 57 ]
    },
    "preferredSlots" : null,
    "doAfter" : null,
    "nbEmpRequired" : 1,
    "deadline" : [ 12, 39 ],
    "skills" : [ {
      "id" : 1,
      "name" : "ENGINEER",
      "level" : 3
    } ],
    "duration" : 7200.000000000,
    "pause" : false
  }, {
    "id" : 723,
    "desc" : "MASONRY",
    "location" : {
      "id" : 2690,
      "name" : null,
      "latitude" : 43.44406,
      "longitude" : 4.1403093
    },
    "openings" : {
      "start" : [ 9, 13 ],
      "end" : [ 15, 6 ]
    },
    "preferredSlots" : null,
    "doAfter" : null,
    "nbEmpRequired" : 1,
    "deadline" : [ 10, 19 ],
    "skills" : [ {
      "id" : 4,
      "name" : "MASONRY",
      "level" : 3
    } ],
    "duration" : 3600.000000000,
    "pause" : false
  }, {
    "id" : 390,
    "desc" : "ELECTRICIAN",
    "location" : {
      "id" : 1445,
      "name" : null,
      "latitude" : 44.03942,
      "longitude" : 3.8091106
    },
    "openings" : {
      "start" : [ 11, 22 ],
      "end" : [ 16, 7 ]
    },
    "preferredSlots" : null,
    "doAfter" : null,
    "nbEmpRequired" : 1,
    "deadline" : [ 13, 32 ],
    "skills" : [ {
      "id" : 2,
      "name" : "ELECTRICIAN",
      "level" : 2
    } ],
    "duration" : 2700.000000000,
    "pause" : false
  }, {
    "id" : 715,
    "desc" : "ENGINEER",
    "location" : {
      "id" : 4995,
      "name" : null,
      "latitude" : 43.729485,
      "longitude" : 3.7297268
    },
    "openings" : {
      "start" : [ 16, 8 ],
      "end" : [ 17, 2 ]
    },
    "preferredSlots" : null,
    "doAfter" : null,
    "nbEmpRequired" : 1,
    "deadline" : [ 9, 22 ],
    "skills" : [ {
      "id" : 1,
      "name" : "ENGINEER",
      "level" : 2
    } ],
    "duration" : 3600.000000000,
    "pause" : false
  }, {
    "id" : 641,
    "desc" : "PAINTING, TILER",
    "location" : {
      "id" : 6955,
      "name" : null,
      "latitude" : 43.83748,
      "longitude" : 3.7974026
    },
    "openings" : {
      "start" : [ 11, 13 ],
      "end" : [ 13, 32 ]
    },
    "preferredSlots" : null,
    "doAfter" : null,
    "nbEmpRequired" : 1,
    "deadline" : [ 17, 35 ],
    "skills" : [ {
      "id" : 7,
      "name" : "PAINTING",
      "level" : 3
    }, {
      "id" : 9,
      "name" : "TILER",
      "level" : 2
    } ],
    "duration" : 1800.000000000,
    "pause" : false
  }, {
    "id" : 622,
    "desc" : "CARPENTRY",
    "location" : {
      "id" : 9648,
      "name" : null,
      "latitude" : 43.751835,
      "longitude" : 4.220334
    },
    "openings" : {
      "start" : [ 9, 2 ],
      "end" : [ 17, 33 ]
    },
    "preferredSlots" : null,
    "doAfter" : null,
    "nbEmpRequired" : 1,
    "deadline" : [ 17, 25 ],
    "skills" : [ {
      "id" : 6,
      "name" : "CARPENTRY",
      "level" : 5
    } ],
    "duration" : 1800.000000000,
    "pause" : false
  }, {
    "id" : 578,
    "desc" : "PAINTING",
    "location" : {
      "id" : 9164,
      "name" : null,
      "latitude" : 44.040665,
      "longitude" : 4.0234413
    },
    "openings" : {
      "start" : [ 11, 23 ],
      "end" : [ 17, 13 ]
    },
    "preferredSlots" : null,
    "doAfter" : null,
    "nbEmpRequired" : 1,
    "deadline" : [ 13, 59 ],
    "skills" : [ {
      "id" : 7,
      "name" : "PAINTING",
      "level" : 2
    } ],
    "duration" : 3600.000000000,
    "pause" : false
  }, {
    "id" : 602,
    "desc" : "TILER",
    "location" : {
      "id" : 5886,
      "name" : null,
      "latitude" : 43.403862,
      "longitude" : 4.204048
    },
    "openings" : {
      "start" : [ 9, 35 ],
      "end" : [ 17, 57 ]
    },
    "preferredSlots" : null,
    "doAfter" : null,
    "nbEmpRequired" : 1,
    "deadline" : [ 16, 51 ],
    "skills" : [ {
      "id" : 9,
      "name" : "TILER",
      "level" : 3
    } ],
    "duration" : 1800.000000000,
    "pause" : false
  }, {
    "id" : 509,
    "desc" : "MANAGEMENT",
    "location" : {
      "id" : 5816,
      "name" : null,
      "latitude" : 43.798943,
      "longitude" : 4.2118783
    },
    "openings" : {
      "start" : [ 10, 50 ],
      "end" : [ 13, 26 ]
    },
    "preferredSlots" : null,
    "doAfter" : null,
    "nbEmpRequired" : 1,
    "deadline" : [ 9, 47 ],
    "skills" : [ {
      "id" : 0,
      "name" : "MANAGEMENT",
      "level" : 2
    } ],
    "duration" : 3600.000000000,
    "pause" : false
  }, {
    "id" : 136,
    "desc" : "TILER",
    "location" : {
      "id" : 7718,
      "name" : null,
      "latitude" : 43.47253,
      "longitude" : 3.7595425
    },
    "openings" : {
      "start" : [ 10, 22 ],
      "end" : [ 15, 49 ]
    },
    "preferredSlots" : null,
    "doAfter" : null,
    "nbEmpRequired" : 1,
    "deadline" : [ 16, 37 ],
    "skills" : [ {
      "id" : 9,
      "name" : "TILER",
      "level" : 5
    } ],
    "duration" : 5400.000000000,
    "pause" : false
  }, {
    "id" : 425,
    "desc" : "CARPENTRY",
    "location" : {
      "id" : 7855,
      "name" : null,
      "latitude" : 44.095566,
      "longitude" : 4.1174126
    },
    "openings" : {
      "start" : [ 12, 37 ],
      "end" : [ 14, 47 ]
    },
    "preferredSlots" : null,
    "doAfter" : null,
    "nbEmpRequired" : 1,
    "deadline" : [ 17, 22 ],
    "skills" : [ {
      "id" : 6,
      "name" : "CARPENTRY",
      "level" : 3
    } ],
    "duration" : 3600.000000000,
    "pause" : false
  }, {
    "id" : 503,
    "desc" : "CARPENTRY, GLAZING",
    "location" : {
      "id" : 6053,
      "name" : null,
      "latitude" : 43.6013,
      "longitude" : 4.246974
    },
    "openings" : {
      "start" : [ 10, 43 ],
      "end" : [ 14, 53 ]
    },
    "preferredSlots" : null,
    "doAfter" : null,
    "nbEmpRequired" : 1,
    "deadline" : [ 9, 32 ],
    "skills" : [ {
      "id" : 6,
      "name" : "CARPENTRY",
      "level" : 2
    }, {
      "id" : 5,
      "name" : "GLAZING",
      "level" : 4
    } ],
    "duration" : 2700.000000000,
    "pause" : false
  }, {
    "id" : 81,
    "desc" : "ELECTRICIAN, IRONWORK",
    "location" : {
      "id" : 5075,
      "name" : null,
      "latitude" : 43.949596,
      "longitude" : 3.73149
    },
    "openings" : {
      "start" : [ 11, 35 ],
      "end" : [ 11, 49 ]
    },
    "preferredSlots" : null,
    "doAfter" : null,
    "nbEmpRequired" : 1,
    "deadline" : [ 16, 33 ],
    "skills" : [ {
      "id" : 2,
      "name" : "ELECTRICIAN",
      "level" : 4
    }, {
      "id" : 8,
      "name" : "IRONWORK",
      "level" : 2
    } ],
    "duration" : 2700.000000000,
    "pause" : false
  }, {
    "id" : 551,
    "desc" : "PAINTING, GLAZING",
    "location" : {
      "id" : 4878,
      "name" : null,
      "latitude" : 43.610195,
      "longitude" : 3.9062672
    },
    "openings" : {
      "start" : [ 15, 22 ],
      "end" : [ 16, 59 ]
    },
    "preferredSlots" : null,
    "doAfter" : null,
    "nbEmpRequired" : 1,
    "deadline" : [ 17, 15 ],
    "skills" : [ {
      "id" : 7,
      "name" : "PAINTING",
      "level" : 3
    }, {
      "id" : 5,
      "name" : "GLAZING",
      "level" : 1
    } ],
    "duration" : 2700.000000000,
    "pause" : false
  }, {
    "id" : 848,
    "desc" : "TILER, PLUMBING",
    "location" : {
      "id" : 7756,
      "name" : null,
      "latitude" : 43.559376,
      "longitude" : 3.9527867
    },
    "openings" : {
      "start" : [ 12, 26 ],
      "end" : [ 17, 23 ]
    },
    "preferredSlots" : null,
    "doAfter" : null,
    "nbEmpRequired" : 1,
    "deadline" : [ 16, 35 ],
    "skills" : [ {
      "id" : 9,
      "name" : "TILER",
      "level" : 1
    }, {
      "id" : 3,
      "name" : "PLUMBING",
      "level" : 3
    } ],
    "duration" : 3600.000000000,
    "pause" : false
  }, {
    "id" : 251,
    "desc" : "GLAZING, TILER",
    "location" : {
      "id" : 7921,
      "name" : null,
      "latitude" : 43.98574,
      "longitude" : 4.2761784
    },
    "openings" : {
      "start" : [ 10, 30 ],
      "end" : [ 14, 34 ]
    },
    "preferredSlots" : null,
    "doAfter" : null,
    "nbEmpRequired" : 1,
    "deadline" : [ 11, 38 ],
    "skills" : [ {
      "id" : 5,
      "name" : "GLAZING",
      "level" : 1
    }, {
      "id" : 9,
      "name" : "TILER",
      "level" : 1
    } ],
    "duration" : 3600.000000000,
    "pause" : false
  }, {
    "id" : 233,
    "desc" : "ENGINEER, PAINTING",
    "location" : {
      "id" : 4455,
      "name" : null,
      "latitude" : 43.898014,
      "longitude" : 4.2892776
    },
    "openings" : {
      "start" : [ 14, 26 ],
      "end" : [ 17, 39 ]
    },
    "preferredSlots" : null,
    "doAfter" : null,
    "nbEmpRequired" : 1,
    "deadline" : [ 16, 3 ],
    "skills" : [ {
      "id" : 1,
      "name" : "ENGINEER",
      "level" : 3
    }, {
      "id" : 7,
      "name" : "PAINTING",
      "level" : 2
    } ],
    "duration" : 3600.000000000,
    "pause" : false
  }, {
    "id" : 774,
    "desc" : "TILER, ELECTRICIAN",
    "location" : {
      "id" : 3006,
      "name" : null,
      "latitude" : 43.580086,
      "longitude" : 4.1594186
    },
    "openings" : {
      "start" : [ 14, 9 ],
      "end" : [ 16, 29 ]
    },
    "preferredSlots" : null,
    "doAfter" : null,
    "nbEmpRequired" : 1,
    "deadline" : [ 13, 42 ],
    "skills" : [ {
      "id" : 9,
      "name" : "TILER",
      "level" : 1
    }, {
      "id" : 2,
      "name" : "ELECTRICIAN",
      "level" : 3
    } ],
    "duration" : 1800.000000000,
    "pause" : false
  }, {
    "id" : 401,
    "desc" : "PLUMBING, PAINTING",
    "location" : {
      "id" : 5644,
      "name" : null,
      "latitude" : 43.64885,
      "longitude" : 4.165843
    },
    "openings" : {
      "start" : [ 12, 32 ],
      "end" : [ 14, 14 ]
    },
    "preferredSlots" : null,
    "doAfter" : null,
    "nbEmpRequired" : 1,
    "deadline" : [ 15, 1 ],
    "skills" : [ {
      "id" : 3,
      "name" : "PLUMBING",
      "level" : 1
    }, {
      "id" : 7,
      "name" : "PAINTING",
      "level" : 5
    } ],
    "duration" : 3600.000000000,
    "pause" : false
  }, {
    "id" : 699,
    "desc" : "PAINTING, TILER",
    "location" : {
      "id" : 5831,
      "name" : null,
      "latitude" : 43.798447,
      "longitude" : 3.733134
    },
    "openings" : {
      "start" : [ 9, 4 ],
      "end" : [ 15, 57 ]
    },
    "preferredSlots" : null,
    "doAfter" : null,
    "nbEmpRequired" : 1,
    "deadline" : [ 9, 41 ],
    "skills" : [ {
      "id" : 7,
      "name" : "PAINTING",
      "level" : 4
    }, {
      "id" : 9,
      "name" : "TILER",
      "level" : 5
    } ],
    "duration" : 1800.000000000,
    "pause" : false
  }, {
    "id" : 34,
    "desc" : "PAINTING, CARPENTRY",
    "location" : {
      "id" : 7080,
      "name" : null,
      "latitude" : 43.973103,
      "longitude" : 4.207264
    },
    "openings" : {
      "start" : [ 11, 0 ],
      "end" : [ 15, 30 ]
    },
    "preferredSlots" : null,
    "doAfter" : null,
    "nbEmpRequired" : 1,
    "deadline" : [ 15, 26 ],
    "skills" : [ {
      "id" : 7,
      "name" : "PAINTING",
      "level" : 4
    }, {
      "id" : 6,
      "name" : "CARPENTRY",
      "level" : 4
    } ],
    "duration" : 1800.000000000,
    "pause" : false
  }, {
    "id" : 988,
    "desc" : "PLUMBING",
    "location" : {
      "id" : 4494,
      "name" : null,
      "latitude" : 44.017235,
      "longitude" : 3.8376763
    },
    "openings" : {
      "start" : [ 13, 55 ],
      "end" : [ 16, 6 ]
    },
    "preferredSlots" : null,
    "doAfter" : null,
    "nbEmpRequired" : 1,
    "deadline" : [ 16, 15 ],
    "skills" : [ {
      "id" : 3,
      "name" : "PLUMBING",
      "level" : 5
    } ],
    "duration" : 5400.000000000,
    "pause" : false
  }, {
    "id" : 362,
    "desc" : "ELECTRICIAN, ENGINEER",
    "location" : {
      "id" : 7868,
      "name" : null,
      "latitude" : 43.95969,
      "longitude" : 3.7048442
    },
    "openings" : {
      "start" : [ 9, 28 ],
      "end" : [ 17, 50 ]
    },
    "preferredSlots" : null,
    "doAfter" : null,
    "nbEmpRequired" : 1,
    "deadline" : [ 9, 50 ],
    "skills" : [ {
      "id" : 2,
      "name" : "ELECTRICIAN",
      "level" : 4
    }, {
      "id" : 1,
      "name" : "ENGINEER",
      "level" : 4
    } ],
    "duration" : 3600.000000000,
    "pause" : false
  }, {
    "id" : 990,
    "desc" : "PLUMBING",
    "location" : {
      "id" : 9463,
      "name" : null,
      "latitude" : 43.508232,
      "longitude" : 3.712709
    },
    "openings" : {
      "start" : [ 12, 25 ],
      "end" : [ 16, 13 ]
    },
    "preferredSlots" : null,
    "doAfter" : null,
    "nbEmpRequired" : 1,
    "deadline" : [ 10, 55 ],
    "skills" : [ {
      "id" : 3,
      "name" : "PLUMBING",
      "level" : 5
    } ],
    "duration" : 1800.000000000,
    "pause" : false
  }, {
    "id" : 542,
    "desc" : "PAINTING, IRONWORK",
    "location" : {
      "id" : 4720,
      "name" : null,
      "latitude" : 43.802574,
      "longitude" : 4.2032623
    },
    "openings" : {
      "start" : [ 12, 9 ],
      "end" : [ 13, 1 ]
    },
    "preferredSlots" : null,
    "doAfter" : null,
    "nbEmpRequired" : 1,
    "deadline" : [ 15, 58 ],
    "skills" : [ {
      "id" : 7,
      "name" : "PAINTING",
      "level" : 2
    }, {
      "id" : 8,
      "name" : "IRONWORK",
      "level" : 5
    } ],
    "duration" : 5400.000000000,
    "pause" : false
  }, {
    "id" : 290,
    "desc" : "CARPENTRY",
    "location" : {
      "id" : 4381,
      "name" : null,
      "latitude" : 43.770428,
      "longitude" : 4.0365443
    },
    "openings" : {
      "start" : [ 12, 38 ],
      "end" : [ 16, 19 ]
    },
    "preferredSlots" : null,
    "doAfter" : null,
    "nbEmpRequired" : 1,
    "deadline" : [ 10, 49 ],
    "skills" : [ {
      "id" : 6,
      "name" : "CARPENTRY",
      "level" : 1
    } ],
    "duration" : 3600.000000000,
    "pause" : false
  }, {
    "id" : 779,
    "desc" : "PLUMBING, IRONWORK",
    "location" : {
      "id" : 325,
      "name" : null,
      "latitude" : 43.882828,
      "longitude" : 3.7774014
    },
    "openings" : {
      "start" : [ 11, 55 ],
      "end" : [ 17, 14 ]
    },
    "preferredSlots" : null,
    "doAfter" : null,
    "nbEmpRequired" : 1,
    "deadline" : [ 11, 50 ],
    "skills" : [ {
      "id" : 3,
      "name" : "PLUMBING",
      "level" : 4
    }, {
      "id" : 8,
      "name" : "IRONWORK",
      "level" : 1
    } ],
    "duration" : 3600.000000000,
    "pause" : false
  }, {
    "id" : 39,
    "desc" : "IRONWORK, TILER",
    "location" : {
      "id" : 5793,
      "name" : null,
      "latitude" : 43.783287,
      "longitude" : 4.0234184
    },
    "openings" : {
      "start" : [ 13, 36 ],
      "end" : [ 15, 8 ]
    },
    "preferredSlots" : null,
    "doAfter" : null,
    "nbEmpRequired" : 1,
    "deadline" : [ 11, 18 ],
    "skills" : [ {
      "id" : 8,
      "name" : "IRONWORK",
      "level" : 5
    }, {
      "id" : 9,
      "name" : "TILER",
      "level" : 1
    } ],
    "duration" : 5400.000000000,
    "pause" : false
  }, {
    "id" : 637,
    "desc" : "MANAGEMENT",
    "location" : {
      "id" : 401,
      "name" : null,
      "latitude" : 44.062366,
      "longitude" : 4.0631423
    },
    "openings" : {
      "start" : [ 9, 3 ],
      "end" : [ 13, 6 ]
    },
    "preferredSlots" : null,
    "doAfter" : null,
    "nbEmpRequired" : 1,
    "deadline" : [ 15, 10 ],
    "skills" : [ {
      "id" : 0,
      "name" : "MANAGEMENT",
      "level" : 1
    } ],
    "duration" : 1800.000000000,
    "pause" : false
  }, {
    "id" : 204,
    "desc" : "PAINTING",
    "location" : {
      "id" : 5156,
      "name" : null,
      "latitude" : 43.901394,
      "longitude" : 4.2726583
    },
    "openings" : {
      "start" : [ 10, 51 ],
      "end" : [ 15, 43 ]
    },
    "preferredSlots" : null,
    "doAfter" : null,
    "nbEmpRequired" : 1,
    "deadline" : [ 17, 26 ],
    "skills" : [ {
      "id" : 7,
      "name" : "PAINTING",
      "level" : 5
    } ],
    "duration" : 3600.000000000,
    "pause" : false
  }, {
    "id" : 667,
    "desc" : "MASONRY, ELECTRICIAN",
    "location" : {
      "id" : 5684,
      "name" : null,
      "latitude" : 43.832146,
      "longitude" : 3.8924553
    },
    "openings" : {
      "start" : [ 10, 59 ],
      "end" : [ 13, 37 ]
    },
    "preferredSlots" : null,
    "doAfter" : null,
    "nbEmpRequired" : 1,
    "deadline" : [ 12, 17 ],
    "skills" : [ {
      "id" : 4,
      "name" : "MASONRY",
      "level" : 1
    }, {
      "id" : 2,
      "name" : "ELECTRICIAN",
      "level" : 5
    } ],
    "duration" : 1800.000000000,
    "pause" : false
  }, {
    "id" : 839,
    "desc" : "GLAZING",
    "location" : {
      "id" : 7785,
      "name" : null,
      "latitude" : 43.859543,
      "longitude" : 3.927365
    },
    "openings" : {
      "start" : [ 13, 54 ],
      "end" : [ 16, 56 ]
    },
    "preferredSlots" : null,
    "doAfter" : null,
    "nbEmpRequired" : 1,
    "deadline" : [ 15, 28 ],
    "skills" : [ {
      "id" : 5,
      "name" : "GLAZING",
      "level" : 2
    } ],
    "duration" : 3600.000000000,
    "pause" : false
  }, {
    "id" : 166,
    "desc" : "MASONRY",
    "location" : {
      "id" : 8336,
      "name" : null,
      "latitude" : 43.711533,
      "longitude" : 3.9040818
    },
    "openings" : {
      "start" : [ 9, 7 ],
      "end" : [ 9, 48 ]
    },
    "preferredSlots" : null,
    "doAfter" : null,
    "nbEmpRequired" : 1,
    "deadline" : [ 10, 20 ],
    "skills" : [ {
      "id" : 4,
      "name" : "MASONRY",
      "level" : 4
    } ],
    "duration" : 2700.000000000,
    "pause" : false
  }, {
    "id" : 518,
    "desc" : "ENGINEER, IRONWORK",
    "location" : {
      "id" : 5218,
      "name" : null,
      "latitude" : 44.030773,
      "longitude" : 4.1814055
    },
    "openings" : {
      "start" : [ 10, 53 ],
      "end" : [ 14, 15 ]
    },
    "preferredSlots" : null,
    "doAfter" : null,
    "nbEmpRequired" : 1,
    "deadline" : [ 9, 33 ],
    "skills" : [ {
      "id" : 1,
      "name" : "ENGINEER",
      "level" : 1
    }, {
      "id" : 8,
      "name" : "IRONWORK",
      "level" : 2
    } ],
    "duration" : 3600.000000000,
    "pause" : false
  }, {
    "id" : 362,
    "desc" : "TILER, PLUMBING",
    "location" : {
      "id" : 4853,
      "name" : null,
      "latitude" : 43.699356,
      "longitude" : 4.2818727
    },
    "openings" : {
      "start" : [ 9, 51 ],
      "end" : [ 11, 34 ]
    },
    "preferredSlots" : null,
    "doAfter" : null,
    "nbEmpRequired" : 1,
    "deadline" : [ 14, 7 ],
    "skills" : [ {
      "id" : 9,
      "name" : "TILER",
      "level" : 1
    }, {
      "id" : 3,
      "name" : "PLUMBING",
      "level" : 4
    } ],
    "duration" : 2700.000000000,
    "pause" : false
  }, {
    "id" : 150,
    "desc" : "ELECTRICIAN",
    "location" : {
      "id" : 4332,
      "name" : null,
      "latitude" : 43.877087,
      "longitude" : 3.734405
    },
    "openings" : {
      "start" : [ 15, 55 ],
      "end" : [ 16, 26 ]
    },
    "preferredSlots" : null,
    "doAfter" : null,
    "nbEmpRequired" : 1,
    "deadline" : [ 17, 1 ],
    "skills" : [ {
      "id" : 2,
      "name" : "ELECTRICIAN",
      "level" : 4
    } ],
    "duration" : 1800.000000000,
    "pause" : false
  }, {
    "id" : 935,
    "desc" : "GLAZING",
    "location" : {
      "id" : 6828,
      "name" : null,
      "latitude" : 43.92106,
      "longitude" : 4.1220055
    },
    "openings" : {
      "start" : [ 15, 1 ],
      "end" : [ 15, 34 ]
    },
    "preferredSlots" : null,
    "doAfter" : null,
    "nbEmpRequired" : 1,
    "deadline" : [ 12, 56 ],
    "skills" : [ {
      "id" : 5,
      "name" : "GLAZING",
      "level" : 3
    } ],
    "duration" : 5400.000000000,
    "pause" : false
  }, {
    "id" : 926,
    "desc" : "MASONRY, PLUMBING",
    "location" : {
      "id" : 7655,
      "name" : null,
      "latitude" : 43.995346,
      "longitude" : 4.2547545
    },
    "openings" : {
      "start" : [ 11, 8 ],
      "end" : [ 11, 51 ]
    },
    "preferredSlots" : null,
    "doAfter" : null,
    "nbEmpRequired" : 1,
    "deadline" : [ 9, 2 ],
    "skills" : [ {
      "id" : 4,
      "name" : "MASONRY",
      "level" : 5
    }, {
      "id" : 3,
      "name" : "PLUMBING",
      "level" : 5
    } ],
    "duration" : 5400.000000000,
    "pause" : false
  }, {
    "id" : 144,
    "desc" : "MANAGEMENT, ELECTRICIAN",
    "location" : {
      "id" : 131,
      "name" : null,
      "latitude" : 44.029846,
      "longitude" : 3.9391105
    },
    "openings" : {
      "start" : [ 10, 55 ],
      "end" : [ 15, 44 ]
    },
    "preferredSlots" : null,
    "doAfter" : null,
    "nbEmpRequired" : 1,
    "deadline" : [ 16, 28 ],
    "skills" : [ {
      "id" : 0,
      "name" : "MANAGEMENT",
      "level" : 5
    }, {
      "id" : 2,
      "name" : "ELECTRICIAN",
      "level" : 2
    } ],
    "duration" : 3600.000000000,
    "pause" : false
  }, {
    "id" : 48,
    "desc" : "IRONWORK",
    "location" : {
      "id" : 5445,
      "name" : null,
      "latitude" : 43.977844,
      "longitude" : 4.2939763
    },
    "openings" : {
      "start" : [ 11, 27 ],
      "end" : [ 14, 11 ]
    },
    "preferredSlots" : null,
    "doAfter" : null,
    "nbEmpRequired" : 1,
    "deadline" : [ 16, 34 ],
    "skills" : [ {
      "id" : 8,
      "name" : "IRONWORK",
      "level" : 2
    } ],
    "duration" : 3600.000000000,
    "pause" : false
  }, {
    "id" : 942,
    "desc" : "MANAGEMENT, IRONWORK",
    "location" : {
      "id" : 9778,
      "name" : null,
      "latitude" : 43.75267,
      "longitude" : 3.8555703
    },
    "openings" : {
      "start" : [ 9, 52 ],
      "end" : [ 15, 59 ]
    },
    "preferredSlots" : null,
    "doAfter" : null,
    "nbEmpRequired" : 1,
    "deadline" : [ 11, 56 ],
    "skills" : [ {
      "id" : 0,
      "name" : "MANAGEMENT",
      "level" : 3
    }, {
      "id" : 8,
      "name" : "IRONWORK",
      "level" : 3
    } ],
    "duration" : 5400.000000000,
    "pause" : false
  }, {
    "id" : 164,
    "desc" : "MASONRY, CARPENTRY",
    "location" : {
      "id" : 4271,
      "name" : null,
      "latitude" : 43.5965,
      "longitude" : 4.1391935
    },
    "openings" : {
      "start" : [ 11, 12 ],
      "end" : [ 16, 58 ]
    },
    "preferredSlots" : null,
    "doAfter" : null,
    "nbEmpRequired" : 1,
    "deadline" : [ 11, 8 ],
    "skills" : [ {
      "id" : 4,
      "name" : "MASONRY",
      "level" : 3
    }, {
      "id" : 6,
      "name" : "CARPENTRY",
      "level" : 1
    } ],
    "duration" : 2700.000000000,
    "pause" : false
  }, {
    "id" : 673,
    "desc" : "ENGINEER, CARPENTRY",
    "location" : {
      "id" : 8386,
      "name" : null,
      "latitude" : 43.860622,
      "longitude" : 3.8335507
    },
    "openings" : {
      "start" : [ 10, 30 ],
      "end" : [ 12, 13 ]
    },
    "preferredSlots" : null,
    "doAfter" : null,
    "nbEmpRequired" : 1,
    "deadline" : [ 13, 58 ],
    "skills" : [ {
      "id" : 1,
      "name" : "ENGINEER",
      "level" : 2
    }, {
      "id" : 6,
      "name" : "CARPENTRY",
      "level" : 4
    } ],
    "duration" : 7200.000000000,
    "pause" : false
  }, {
    "id" : 504,
    "desc" : "TILER, MANAGEMENT",
    "location" : {
      "id" : 5881,
      "name" : null,
      "latitude" : 43.868824,
      "longitude" : 3.7325854
    },
    "openings" : {
      "start" : [ 9, 16 ],
      "end" : [ 14, 17 ]
    },
    "preferredSlots" : null,
    "doAfter" : null,
    "nbEmpRequired" : 1,
    "deadline" : [ 10, 19 ],
    "skills" : [ {
      "id" : 9,
      "name" : "TILER",
      "level" : 3
    }, {
      "id" : 0,
      "name" : "MANAGEMENT",
      "level" : 4
    } ],
    "duration" : 2700.000000000,
    "pause" : false
  }, {
    "id" : 472,
    "desc" : "PLUMBING, MASONRY",
    "location" : {
      "id" : 4285,
      "name" : null,
      "latitude" : 44.060097,
      "longitude" : 4.2426934
    },
    "openings" : {
      "start" : [ 10, 59 ],
      "end" : [ 17, 3 ]
    },
    "preferredSlots" : null,
    "doAfter" : null,
    "nbEmpRequired" : 1,
    "deadline" : [ 14, 16 ],
    "skills" : [ {
      "id" : 3,
      "name" : "PLUMBING",
      "level" : 4
    }, {
      "id" : 4,
      "name" : "MASONRY",
      "level" : 4
    } ],
    "duration" : 3600.000000000,
    "pause" : false
  }, {
    "id" : 254,
    "desc" : "PAINTING",
    "location" : {
      "id" : 7886,
      "name" : null,
      "latitude" : 43.589584,
      "longitude" : 4.206344
    },
    "openings" : {
      "start" : [ 13, 45 ],
      "end" : [ 14, 47 ]
    },
    "preferredSlots" : null,
    "doAfter" : null,
    "nbEmpRequired" : 1,
    "deadline" : [ 16, 52 ],
    "skills" : [ {
      "id" : 7,
      "name" : "PAINTING",
      "level" : 4
    } ],
    "duration" : 2700.000000000,
    "pause" : false
  }, {
    "id" : 639,
    "desc" : "MASONRY, TILER",
    "location" : {
      "id" : 4196,
      "name" : null,
      "latitude" : 43.42408,
      "longitude" : 4.2474585
    },
    "openings" : {
      "start" : [ 14, 40 ],
      "end" : [ 16, 12 ]
    },
    "preferredSlots" : null,
    "doAfter" : null,
    "nbEmpRequired" : 1,
    "deadline" : [ 16, 27 ],
    "skills" : [ {
      "id" : 4,
      "name" : "MASONRY",
      "level" : 3
    }, {
      "id" : 9,
      "name" : "TILER",
      "level" : 4
    } ],
    "duration" : 3600.000000000,
    "pause" : false
  }, {
    "id" : 77,
    "desc" : "CARPENTRY, PAINTING",
    "location" : {
      "id" : 1477,
      "name" : null,
      "latitude" : 43.56995,
      "longitude" : 3.8877785
    },
    "openings" : {
      "start" : [ 9, 54 ],
      "end" : [ 11, 14 ]
    },
    "preferredSlots" : null,
    "doAfter" : null,
    "nbEmpRequired" : 1,
    "deadline" : [ 13, 14 ],
    "skills" : [ {
      "id" : 6,
      "name" : "CARPENTRY",
      "level" : 4
    }, {
      "id" : 7,
      "name" : "PAINTING",
      "level" : 3
    } ],
    "duration" : 2700.000000000,
    "pause" : false
  }, {
    "id" : 37,
    "desc" : "CARPENTRY, TILER",
    "location" : {
      "id" : 9330,
      "name" : null,
      "latitude" : 43.45072,
      "longitude" : 3.8846161
    },
    "openings" : {
      "start" : [ 9, 58 ],
      "end" : [ 12, 51 ]
    },
    "preferredSlots" : null,
    "doAfter" : null,
    "nbEmpRequired" : 1,
    "deadline" : [ 9, 15 ],
    "skills" : [ {
      "id" : 6,
      "name" : "CARPENTRY",
      "level" : 4
    }, {
      "id" : 9,
      "name" : "TILER",
      "level" : 3
    } ],
    "duration" : 2700.000000000,
    "pause" : false
  }, {
    "id" : 466,
    "desc" : "TILER, PAINTING",
    "location" : {
      "id" : 1006,
      "name" : null,
      "latitude" : 43.56627,
      "longitude" : 4.263221
    },
    "openings" : {
      "start" : [ 11, 59 ],
      "end" : [ 17, 16 ]
    },
    "preferredSlots" : null,
    "doAfter" : null,
    "nbEmpRequired" : 1,
    "deadline" : [ 9, 17 ],
    "skills" : [ {
      "id" : 9,
      "name" : "TILER",
      "level" : 1
    }, {
      "id" : 7,
      "name" : "PAINTING",
      "level" : 5
    } ],
    "duration" : 2700.000000000,
    "pause" : false
  }, {
    "id" : 244,
    "desc" : "PLUMBING, TILER",
    "location" : {
      "id" : 1304,
      "name" : null,
      "latitude" : 43.744656,
      "longitude" : 3.9837413
    },
    "openings" : {
      "start" : [ 14, 52 ],
      "end" : [ 17, 31 ]
    },
    "preferredSlots" : null,
    "doAfter" : null,
    "nbEmpRequired" : 1,
    "deadline" : [ 11, 29 ],
    "skills" : [ {
      "id" : 3,
      "name" : "PLUMBING",
      "level" : 5
    }, {
      "id" : 9,
      "name" : "TILER",
      "level" : 5
    } ],
    "duration" : 7200.000000000,
    "pause" : false
  }, {
    "id" : 443,
    "desc" : "MANAGEMENT",
    "location" : {
      "id" : 7385,
      "name" : null,
      "latitude" : 43.426186,
      "longitude" : 3.925984
    },
    "openings" : {
      "start" : [ 9, 25 ],
      "end" : [ 11, 18 ]
    },
    "preferredSlots" : null,
    "doAfter" : null,
    "nbEmpRequired" : 1,
    "deadline" : [ 12, 24 ],
    "skills" : [ {
      "id" : 0,
      "name" : "MANAGEMENT",
      "level" : 2
    } ],
    "duration" : 2700.000000000,
    "pause" : false
  }, {
    "id" : 822,
    "desc" : "TILER, PAINTING",
    "location" : {
      "id" : 9075,
      "name" : null,
      "latitude" : 44.036674,
      "longitude" : 4.1986074
    },
    "openings" : {
      "start" : [ 10, 11 ],
      "end" : [ 12, 54 ]
    },
    "preferredSlots" : null,
    "doAfter" : null,
    "nbEmpRequired" : 1,
    "deadline" : [ 16, 20 ],
    "skills" : [ {
      "id" : 9,
      "name" : "TILER",
      "level" : 4
    }, {
      "id" : 7,
      "name" : "PAINTING",
      "level" : 5
    } ],
    "duration" : 3600.000000000,
    "pause" : false
  }, {
    "id" : 182,
    "desc" : "MANAGEMENT",
    "location" : {
      "id" : 2437,
      "name" : null,
      "latitude" : 44.001053,
      "longitude" : 4.0732756
    },
    "openings" : {
      "start" : [ 11, 24 ],
      "end" : [ 15, 18 ]
    },
    "preferredSlots" : null,
    "doAfter" : null,
    "nbEmpRequired" : 1,
    "deadline" : [ 14, 57 ],
    "skills" : [ {
      "id" : 0,
      "name" : "MANAGEMENT",
      "level" : 1
    } ],
    "duration" : 3600.000000000,
    "pause" : false
  }, {
    "id" : 620,
    "desc" : "ENGINEER",
    "location" : {
      "id" : 6392,
      "name" : null,
      "latitude" : 43.789345,
      "longitude" : 3.8936152
    },
    "openings" : {
      "start" : [ 13, 56 ],
      "end" : [ 14, 8 ]
    },
    "preferredSlots" : null,
    "doAfter" : null,
    "nbEmpRequired" : 1,
    "deadline" : [ 16, 57 ],
    "skills" : [ {
      "id" : 1,
      "name" : "ENGINEER",
      "level" : 3
    } ],
    "duration" : 2700.000000000,
    "pause" : false
  }, {
    "id" : 418,
    "desc" : "MANAGEMENT, ELECTRICIAN",
    "location" : {
      "id" : 7493,
      "name" : null,
      "latitude" : 43.54275,
      "longitude" : 4.040942
    },
    "openings" : {
      "start" : [ 13, 29 ],
      "end" : [ 14, 23 ]
    },
    "preferredSlots" : null,
    "doAfter" : null,
    "nbEmpRequired" : 1,
    "deadline" : [ 13, 21 ],
    "skills" : [ {
      "id" : 0,
      "name" : "MANAGEMENT",
      "level" : 4
    }, {
      "id" : 2,
      "name" : "ELECTRICIAN",
      "level" : 2
    } ],
    "duration" : 3600.000000000,
    "pause" : false
  }, {
    "id" : 855,
    "desc" : "MANAGEMENT",
    "location" : {
      "id" : 9595,
      "name" : null,
      "latitude" : 43.70723,
      "longitude" : 3.9890683
    },
    "openings" : {
      "start" : [ 15, 36 ],
      "end" : [ 17, 21 ]
    },
    "preferredSlots" : null,
    "doAfter" : null,
    "nbEmpRequired" : 1,
    "deadline" : [ 11, 26 ],
    "skills" : [ {
      "id" : 0,
      "name" : "MANAGEMENT",
      "level" : 1
    } ],
    "duration" : 3600.000000000,
    "pause" : false
  }, {
    "id" : 896,
    "desc" : "TILER, MASONRY",
    "location" : {
      "id" : 4475,
      "name" : null,
      "latitude" : 43.74197,
      "longitude" : 4.121463
    },
    "openings" : {
      "start" : [ 13, 48 ],
      "end" : [ 16, 11 ]
    },
    "preferredSlots" : null,
    "doAfter" : null,
    "nbEmpRequired" : 1,
    "deadline" : [ 10, 38 ],
    "skills" : [ {
      "id" : 9,
      "name" : "TILER",
      "level" : 4
    }, {
      "id" : 4,
      "name" : "MASONRY",
      "level" : 1
    } ],
    "duration" : 1800.000000000,
    "pause" : false
  }, {
    "id" : 306,
    "desc" : "GLAZING, CARPENTRY",
    "location" : {
      "id" : 3220,
      "name" : null,
      "latitude" : 43.919563,
      "longitude" : 4.059804
    },
    "openings" : {
      "start" : [ 13, 22 ],
      "end" : [ 15, 25 ]
    },
    "preferredSlots" : null,
    "doAfter" : null,
    "nbEmpRequired" : 1,
    "deadline" : [ 15, 5 ],
    "skills" : [ {
      "id" : 5,
      "name" : "GLAZING",
      "level" : 5
    }, {
      "id" : 6,
      "name" : "CARPENTRY",
      "level" : 3
    } ],
    "duration" : 1800.000000000,
    "pause" : false
  }, {
    "id" : 850,
    "desc" : "PAINTING, IRONWORK",
    "location" : {
      "id" : 7502,
      "name" : null,
      "latitude" : 43.416996,
      "longitude" : 3.9119751
    },
    "openings" : {
      "start" : [ 12, 23 ],
      "end" : [ 12, 41 ]
    },
    "preferredSlots" : null,
    "doAfter" : null,
    "nbEmpRequired" : 1,
    "deadline" : [ 12, 22 ],
    "skills" : [ {
      "id" : 7,
      "name" : "PAINTING",
      "level" : 5
    }, {
      "id" : 8,
      "name" : "IRONWORK",
      "level" : 2
    } ],
    "duration" : 3600.000000000,
    "pause" : false
  }, {
    "id" : 335,
    "desc" : "ELECTRICIAN, MASONRY",
    "location" : {
      "id" : 530,
      "name" : null,
      "latitude" : 43.502983,
      "longitude" : 3.9537926
    },
    "openings" : {
      "start" : [ 13, 52 ],
      "end" : [ 16, 54 ]
    },
    "preferredSlots" : null,
    "doAfter" : null,
    "nbEmpRequired" : 1,
    "deadline" : [ 11, 42 ],
    "skills" : [ {
      "id" : 2,
      "name" : "ELECTRICIAN",
      "level" : 4
    }, {
      "id" : 4,
      "name" : "MASONRY",
      "level" : 1
    } ],
    "duration" : 3600.000000000,
    "pause" : false
  }, {
    "id" : 769,
    "desc" : "GLAZING",
    "location" : {
      "id" : 7561,
      "name" : null,
      "latitude" : 43.788635,
      "longitude" : 4.081826
    },
    "openings" : {
      "start" : [ 11, 36 ],
      "end" : [ 11, 43 ]
    },
    "preferredSlots" : null,
    "doAfter" : null,
    "nbEmpRequired" : 1,
    "deadline" : [ 13, 28 ],
    "skills" : [ {
      "id" : 5,
      "name" : "GLAZING",
      "level" : 1
    } ],
    "duration" : 3600.000000000,
    "pause" : false
  }, {
    "id" : 276,
    "desc" : "PAINTING",
    "location" : {
      "id" : 773,
      "name" : null,
      "latitude" : 43.43699,
      "longitude" : 3.9473624
    },
    "openings" : {
      "start" : [ 12, 21 ],
      "end" : [ 13, 16 ]
    },
    "preferredSlots" : null,
    "doAfter" : null,
    "nbEmpRequired" : 1,
    "deadline" : [ 17, 52 ],
    "skills" : [ {
      "id" : 7,
      "name" : "PAINTING",
      "level" : 3
    } ],
    "duration" : 7200.000000000,
    "pause" : false
  }, {
    "id" : 298,
    "desc" : "MANAGEMENT",
    "location" : {
      "id" : 4419,
      "name" : null,
      "latitude" : 43.823547,
      "longitude" : 3.9289703
    },
    "openings" : {
      "start" : [ 10, 51 ],
      "end" : [ 11, 45 ]
    },
    "preferredSlots" : null,
    "doAfter" : null,
    "nbEmpRequired" : 1,
    "deadline" : [ 13, 2 ],
    "skills" : [ {
      "id" : 0,
      "name" : "MANAGEMENT",
      "level" : 4
    } ],
    "duration" : 7200.000000000,
    "pause" : false
  }, {
    "id" : 13,
    "desc" : "MASONRY",
    "location" : {
      "id" : 1536,
      "name" : null,
      "latitude" : 44.089092,
      "longitude" : 3.8295505
    },
    "openings" : {
      "start" : [ 10, 46 ],
      "end" : [ 15, 42 ]
    },
    "preferredSlots" : null,
    "doAfter" : null,
    "nbEmpRequired" : 1,
    "deadline" : [ 9, 52 ],
    "skills" : [ {
      "id" : 4,
      "name" : "MASONRY",
      "level" : 2
    } ],
    "duration" : 1800.000000000,
    "pause" : false
  }, {
    "id" : 872,
    "desc" : "IRONWORK",
    "location" : {
      "id" : 6616,
      "name" : null,
      "latitude" : 43.83811,
      "longitude" : 3.8312335
    },
    "openings" : {
      "start" : [ 12, 1 ],
      "end" : [ 13, 20 ]
    },
    "preferredSlots" : null,
    "doAfter" : null,
    "nbEmpRequired" : 1,
    "deadline" : [ 15, 42 ],
    "skills" : [ {
      "id" : 8,
      "name" : "IRONWORK",
      "level" : 1
    } ],
    "duration" : 3600.000000000,
    "pause" : false
  }, {
    "id" : 196,
    "desc" : "MASONRY",
    "location" : {
      "id" : 8770,
      "name" : null,
      "latitude" : 43.561626,
      "longitude" : 3.8102653
    },
    "openings" : {
      "start" : [ 9, 18 ],
      "end" : [ 13, 35 ]
    },
    "preferredSlots" : null,
    "doAfter" : null,
    "nbEmpRequired" : 1,
    "deadline" : [ 14, 35 ],
    "skills" : [ {
      "id" : 4,
      "name" : "MASONRY",
      "level" : 1
    } ],
    "duration" : 2700.000000000,
    "pause" : false
  }, {
    "id" : 794,
    "desc" : "IRONWORK, CARPENTRY",
    "location" : {
      "id" : 3528,
      "name" : null,
      "latitude" : 43.826942,
      "longitude" : 3.9733958
    },
    "openings" : {
      "start" : [ 9, 1 ],
      "end" : [ 17, 37 ]
    },
    "preferredSlots" : null,
    "doAfter" : null,
    "nbEmpRequired" : 1,
    "deadline" : [ 9, 15 ],
    "skills" : [ {
      "id" : 8,
      "name" : "IRONWORK",
      "level" : 4
    }, {
      "id" : 6,
      "name" : "CARPENTRY",
      "level" : 4
    } ],
    "duration" : 1800.000000000,
    "pause" : false
  }, {
    "id" : 491,
    "desc" : "ELECTRICIAN, GLAZING",
    "location" : {
      "id" : 2091,
      "name" : null,
      "latitude" : 44.065006,
      "longitude" : 3.7936711
    },
    "openings" : {
      "start" : [ 12, 27 ],
      "end" : [ 14, 18 ]
    },
    "preferredSlots" : null,
    "doAfter" : null,
    "nbEmpRequired" : 1,
    "deadline" : [ 12, 52 ],
    "skills" : [ {
      "id" : 2,
      "name" : "ELECTRICIAN",
      "level" : 5
    }, {
      "id" : 5,
      "name" : "GLAZING",
      "level" : 2
    } ],
    "duration" : 3600.000000000,
    "pause" : false
  }, {
    "id" : 426,
    "desc" : "ELECTRICIAN, ENGINEER",
    "location" : {
      "id" : 4526,
      "name" : null,
      "latitude" : 43.759953,
      "longitude" : 4.005076
    },
    "openings" : {
      "start" : [ 15, 46 ],
      "end" : [ 17, 43 ]
    },
    "preferredSlots" : null,
    "doAfter" : null,
    "nbEmpRequired" : 1,
    "deadline" : [ 17, 37 ],
    "skills" : [ {
      "id" : 2,
      "name" : "ELECTRICIAN",
      "level" : 5
    }, {
      "id" : 1,
      "name" : "ENGINEER",
      "level" : 5
    } ],
    "duration" : 1800.000000000,
    "pause" : false
  }, {
    "id" : 983,
    "desc" : "PLUMBING",
    "location" : {
      "id" : 3049,
      "name" : null,
      "latitude" : 43.473324,
      "longitude" : 3.916551
    },
    "openings" : {
      "start" : [ 13, 52 ],
      "end" : [ 14, 55 ]
    },
    "preferredSlots" : null,
    "doAfter" : null,
    "nbEmpRequired" : 1,
    "deadline" : [ 11, 35 ],
    "skills" : [ {
      "id" : 3,
      "name" : "PLUMBING",
      "level" : 2
    } ],
    "duration" : 3600.000000000,
    "pause" : false
  }, {
    "id" : 175,
    "desc" : "PLUMBING, ENGINEER",
    "location" : {
      "id" : 2498,
      "name" : null,
      "latitude" : 43.974068,
      "longitude" : 4.250862
    },
    "openings" : {
      "start" : [ 9, 28 ],
      "end" : [ 12, 45 ]
    },
    "preferredSlots" : null,
    "doAfter" : null,
    "nbEmpRequired" : 1,
    "deadline" : [ 14, 13 ],
    "skills" : [ {
      "id" : 3,
      "name" : "PLUMBING",
      "level" : 2
    }, {
      "id" : 1,
      "name" : "ENGINEER",
      "level" : 3
    } ],
    "duration" : 7200.000000000,
    "pause" : false
  }, {
    "id" : 652,
    "desc" : "CARPENTRY",
    "location" : {
      "id" : 3263,
      "name" : null,
      "latitude" : 43.588867,
      "longitude" : 4.1482534
    },
    "openings" : {
      "start" : [ 9, 57 ],
      "end" : [ 17, 38 ]
    },
    "preferredSlots" : null,
    "doAfter" : null,
    "nbEmpRequired" : 1,
    "deadline" : [ 12, 35 ],
    "skills" : [ {
      "id" : 6,
      "name" : "CARPENTRY",
      "level" : 4
    } ],
    "duration" : 1800.000000000,
    "pause" : false
  }, {
    "id" : 516,
    "desc" : "IRONWORK, GLAZING",
    "location" : {
      "id" : 9664,
      "name" : null,
      "latitude" : 43.830532,
      "longitude" : 4.1213756
    },
    "openings" : {
      "start" : [ 16, 29 ],
      "end" : [ 16, 44 ]
    },
    "preferredSlots" : null,
    "doAfter" : null,
    "nbEmpRequired" : 1,
    "deadline" : [ 16, 0 ],
    "skills" : [ {
      "id" : 8,
      "name" : "IRONWORK",
      "level" : 2
    }, {
      "id" : 5,
      "name" : "GLAZING",
      "level" : 3
    } ],
    "duration" : 1800.000000000,
    "pause" : false
  }, {
    "id" : 157,
    "desc" : "ELECTRICIAN, CARPENTRY",
    "location" : {
      "id" : 6869,
      "name" : null,
      "latitude" : 43.836693,
      "longitude" : 3.820147
    },
    "openings" : {
      "start" : [ 11, 47 ],
      "end" : [ 13, 12 ]
    },
    "preferredSlots" : null,
    "doAfter" : null,
    "nbEmpRequired" : 1,
    "deadline" : [ 14, 4 ],
    "skills" : [ {
      "id" : 2,
      "name" : "ELECTRICIAN",
      "level" : 2
    }, {
      "id" : 6,
      "name" : "CARPENTRY",
      "level" : 1
    } ],
    "duration" : 3600.000000000,
    "pause" : false
  }, {
    "id" : 855,
    "desc" : "MASONRY, ELECTRICIAN",
    "location" : {
      "id" : 1835,
      "name" : null,
      "latitude" : 43.538734,
      "longitude" : 4.005352
    },
    "openings" : {
      "start" : [ 11, 51 ],
      "end" : [ 14, 4 ]
    },
    "preferredSlots" : null,
    "doAfter" : null,
    "nbEmpRequired" : 1,
    "deadline" : [ 16, 19 ],
    "skills" : [ {
      "id" : 4,
      "name" : "MASONRY",
      "level" : 2
    }, {
      "id" : 2,
      "name" : "ELECTRICIAN",
      "level" : 3
    } ],
    "duration" : 2700.000000000,
    "pause" : false
  }, {
    "id" : 107,
    "desc" : "MASONRY, IRONWORK",
    "location" : {
      "id" : 1504,
      "name" : null,
      "latitude" : 43.69134,
      "longitude" : 4.280246
    },
    "openings" : {
      "start" : [ 11, 3 ],
      "end" : [ 14, 23 ]
    },
    "preferredSlots" : null,
    "doAfter" : null,
    "nbEmpRequired" : 1,
    "deadline" : [ 16, 0 ],
    "skills" : [ {
      "id" : 4,
      "name" : "MASONRY",
      "level" : 4
    }, {
      "id" : 8,
      "name" : "IRONWORK",
      "level" : 4
    } ],
    "duration" : 3600.000000000,
    "pause" : false
  }, {
    "id" : 887,
    "desc" : "GLAZING",
    "location" : {
      "id" : 6379,
      "name" : null,
      "latitude" : 43.550365,
      "longitude" : 3.9378095
    },
    "openings" : {
      "start" : [ 9, 46 ],
      "end" : [ 14, 39 ]
    },
    "preferredSlots" : null,
    "doAfter" : null,
    "nbEmpRequired" : 1,
    "deadline" : [ 15, 9 ],
    "skills" : [ {
      "id" : 5,
      "name" : "GLAZING",
      "level" : 3
    } ],
    "duration" : 3600.000000000,
    "pause" : false
  }, {
    "id" : 352,
    "desc" : "TILER, IRONWORK",
    "location" : {
      "id" : 1140,
      "name" : null,
      "latitude" : 43.90702,
      "longitude" : 4.2455425
    },
    "openings" : {
      "start" : [ 16, 5 ],
      "end" : [ 16, 9 ]
    },
    "preferredSlots" : null,
    "doAfter" : null,
    "nbEmpRequired" : 1,
    "deadline" : [ 16, 56 ],
    "skills" : [ {
      "id" : 9,
      "name" : "TILER",
      "level" : 5
    }, {
      "id" : 8,
      "name" : "IRONWORK",
      "level" : 1
    } ],
    "duration" : 2700.000000000,
    "pause" : false
  }, {
    "id" : 829,
    "desc" : "PLUMBING, MASONRY",
    "location" : {
      "id" : 4705,
      "name" : null,
      "latitude" : 44.00829,
      "longitude" : 4.1536894
    },
    "openings" : {
      "start" : [ 13, 27 ],
      "end" : [ 13, 50 ]
    },
    "preferredSlots" : null,
    "doAfter" : null,
    "nbEmpRequired" : 1,
    "deadline" : [ 17, 43 ],
    "skills" : [ {
      "id" : 3,
      "name" : "PLUMBING",
      "level" : 1
    }, {
      "id" : 4,
      "name" : "MASONRY",
      "level" : 2
    } ],
    "duration" : 1800.000000000,
    "pause" : false
  }, {
    "id" : 953,
    "desc" : "MASONRY, PLUMBING",
    "location" : {
      "id" : 7200,
      "name" : null,
      "latitude" : 43.858555,
      "longitude" : 4.0087185
    },
    "openings" : {
      "start" : [ 10, 5 ],
      "end" : [ 16, 39 ]
    },
    "preferredSlots" : null,
    "doAfter" : null,
    "nbEmpRequired" : 1,
    "deadline" : [ 15, 34 ],
    "skills" : [ {
      "id" : 4,
      "name" : "MASONRY",
      "level" : 5
    }, {
      "id" : 3,
      "name" : "PLUMBING",
      "level" : 2
    } ],
    "duration" : 3600.000000000,
    "pause" : false
  }, {
    "id" : 890,
    "desc" : "IRONWORK",
    "location" : {
      "id" : 5973,
      "name" : null,
      "latitude" : 43.57403,
      "longitude" : 3.7991512
    },
    "openings" : {
      "start" : [ 11, 11 ],
      "end" : [ 14, 30 ]
    },
    "preferredSlots" : null,
    "doAfter" : null,
    "nbEmpRequired" : 1,
    "deadline" : [ 16, 54 ],
    "skills" : [ {
      "id" : 8,
      "name" : "IRONWORK",
      "level" : 5
    } ],
    "duration" : 3600.000000000,
    "pause" : false
  }, {
    "id" : 475,
    "desc" : "TILER",
    "location" : {
      "id" : 5010,
      "name" : null,
      "latitude" : 43.80709,
      "longitude" : 4.092229
    },
    "openings" : {
      "start" : [ 11, 39 ],
      "end" : [ 12, 18 ]
    },
    "preferredSlots" : null,
    "doAfter" : null,
    "nbEmpRequired" : 1,
    "deadline" : [ 9, 51 ],
    "skills" : [ {
      "id" : 9,
      "name" : "TILER",
      "level" : 4
    } ],
    "duration" : 2700.000000000,
    "pause" : false
  }, {
    "id" : 510,
    "desc" : "ELECTRICIAN, CARPENTRY",
    "location" : {
      "id" : 3600,
      "name" : null,
      "latitude" : 43.534695,
      "longitude" : 3.921336
    },
    "openings" : {
      "start" : [ 15, 31 ],
      "end" : [ 16, 51 ]
    },
    "preferredSlots" : null,
    "doAfter" : null,
    "nbEmpRequired" : 1,
    "deadline" : [ 15, 4 ],
    "skills" : [ {
      "id" : 2,
      "name" : "ELECTRICIAN",
      "level" : 4
    }, {
      "id" : 6,
      "name" : "CARPENTRY",
      "level" : 3
    } ],
    "duration" : 5400.000000000,
    "pause" : false
  }, {
    "id" : 824,
    "desc" : "ENGINEER, TILER",
    "location" : {
      "id" : 5741,
      "name" : null,
      "latitude" : 43.72167,
      "longitude" : 4.0897207
    },
    "openings" : {
      "start" : [ 9, 33 ],
      "end" : [ 16, 31 ]
    },
    "preferredSlots" : null,
    "doAfter" : null,
    "nbEmpRequired" : 1,
    "deadline" : [ 12, 5 ],
    "skills" : [ {
      "id" : 1,
      "name" : "ENGINEER",
      "level" : 1
    }, {
      "id" : 9,
      "name" : "TILER",
      "level" : 2
    } ],
    "duration" : 2700.000000000,
    "pause" : false
  } ],
  "employees" : [ {
    "id" : 455,
    "name" : "455",
    "shifts" : [ {
      "start" : [ 9, 0 ],
      "end" : [ 12, 0 ]
    }, {
      "start" : [ 13, 0 ],
      "end" : [ 17, 0 ]
    } ],
    "prefSlots" : null,
    "startingLoc" : {
      "id" : 2246,
      "name" : null,
      "latitude" : 43.475674,
      "longitude" : 4.1656065
    },
    "skills" : [ {
      "id" : 8,
      "name" : "IRONWORK",
      "level" : 4
    }, {
      "id" : 9,
      "name" : "TILER",
      "level" : 3
    }, {
      "id" : 6,
      "name" : "CARPENTRY",
      "level" : 1
    }, {
      "id" : 2,
      "name" : "ELECTRICIAN",
      "level" : 5
    }, {
      "id" : 4,
      "name" : "MASONRY",
      "level" : 2
    } ]
  }, {
    "id" : 332,
    "name" : "332",
    "shifts" : [ {
      "start" : [ 9, 0 ],
      "end" : [ 12, 0 ]
    }, {
      "start" : [ 13, 0 ],
      "end" : [ 17, 0 ]
    } ],
    "prefSlots" : null,
    "startingLoc" : {
      "id" : 6528,
      "name" : null,
      "latitude" : 43.450874,
      "longitude" : 4.0713525
    },
    "skills" : [ {
      "id" : 5,
      "name" : "GLAZING",
      "level" : 5
    }, {
      "id" : 9,
      "name" : "TILER",
      "level" : 8
    }, {
      "id" : 4,
      "name" : "MASONRY",
      "level" : 5
    }, {
      "id" : 6,
      "name" : "CARPENTRY",
      "level" : 3
    }, {
      "id" : 6,
      "name" : "CARPENTRY",
      "level" : 8
    }, {
      "id" : 4,
      "name" : "MASONRY",
      "level" : 10
    }, {
      "id" : 8,
      "name" : "IRONWORK",
      "level" : 6
    }, {
      "id" : 0,
      "name" : "MANAGEMENT",
      "level" : 6
    }, {
      "id" : 1,
      "name" : "ENGINEER",
      "level" : 4
    }, {
      "id" : 7,
      "name" : "PAINTING",
      "level" : 3
    } ]
  }, {
    "id" : 976,
    "name" : "976",
    "shifts" : [ {
      "start" : [ 9, 0 ],
      "end" : [ 12, 0 ]
    }, {
      "start" : [ 13, 0 ],
      "end" : [ 17, 0 ]
    } ],
    "prefSlots" : null,
    "startingLoc" : {
      "id" : 5572,
      "name" : null,
      "latitude" : 43.92957,
      "longitude" : 4.0363874
    },
    "skills" : [ {
      "id" : 9,
      "name" : "TILER",
      "level" : 9
    }, {
      "id" : 9,
      "name" : "TILER",
      "level" : 4
    } ]
  }, {
    "id" : 838,
    "name" : "838",
    "shifts" : [ {
      "start" : [ 9, 0 ],
      "end" : [ 12, 0 ]
    }, {
      "start" : [ 13, 0 ],
      "end" : [ 17, 0 ]
    } ],
    "prefSlots" : null,
    "startingLoc" : {
      "id" : 1311,
      "name" : null,
      "latitude" : 43.632683,
      "longitude" : 4.152241
    },
    "skills" : [ {
      "id" : 4,
      "name" : "MASONRY",
      "level" : 10
    }, {
      "id" : 7,
      "name" : "PAINTING",
      "level" : 1
    }, {
      "id" : 5,
      "name" : "GLAZING",
      "level" : 4
    }, {
      "id" : 7,
      "name" : "PAINTING",
      "level" : 1
    }, {
      "id" : 7,
      "name" : "PAINTING",
      "level" : 3
    }, {
      "id" : 2,
      "name" : "ELECTRICIAN",
      "level" : 3
    }, {
      "id" : 4,
      "name" : "MASONRY",
      "level" : 9
    }, {
      "id" : 4,
      "name" : "MASONRY",
      "level" : 2
    } ]
  }, {
    "id" : 157,
    "name" : "157",
    "shifts" : [ {
      "start" : [ 9, 0 ],
      "end" : [ 12, 0 ]
    }, {
      "start" : [ 13, 0 ],
      "end" : [ 17, 0 ]
    } ],
    "prefSlots" : null,
    "startingLoc" : {
      "id" : 4639,
      "name" : null,
      "latitude" : 43.92,
      "longitude" : 4.206463
    },
    "skills" : [ {
      "id" : 8,
      "name" : "IRONWORK",
      "level" : 2
    }, {
      "id" : 5,
      "name" : "GLAZING",
      "level" : 2
    }, {
      "id" : 4,
      "name" : "MASONRY",
      "level" : 1
    }, {
      "id" : 0,
      "name" : "MANAGEMENT",
      "level" : 5
    }, {
      "id" : 7,
      "name" : "PAINTING",
      "level" : 1
    }, {
      "id" : 5,
      "name" : "GLAZING",
      "level" : 8
    } ]
  }, {
    "id" : 780,
    "name" : "780",
    "shifts" : [ {
      "start" : [ 9, 0 ],
      "end" : [ 12, 0 ]
    }, {
      "start" : [ 13, 0 ],
      "end" : [ 17, 0 ]
    } ],
    "prefSlots" : null,
    "startingLoc" : {
      "id" : 9844,
      "name" : null,
      "latitude" : 43.47295,
      "longitude" : 4.267699
    },
    "skills" : [ {
      "id" : 9,
      "name" : "TILER",
      "level" : 1
    }, {
      "id" : 0,
      "name" : "MANAGEMENT",
      "level" : 2
    }, {
      "id" : 6,
      "name" : "CARPENTRY",
      "level" : 9
    }, {
      "id" : 0,
      "name" : "MANAGEMENT",
      "level" : 9
    } ]
  }, {
    "id" : 960,
    "name" : "960",
    "shifts" : [ {
      "start" : [ 9, 0 ],
      "end" : [ 12, 0 ]
    }, {
      "start" : [ 13, 0 ],
      "end" : [ 17, 0 ]
    } ],
    "prefSlots" : null,
    "startingLoc" : {
      "id" : 6830,
      "name" : null,
      "latitude" : 43.761166,
      "longitude" : 4.049053
    },
    "skills" : [ {
      "id" : 0,
      "name" : "MANAGEMENT",
      "level" : 5
    }, {
      "id" : 3,
      "name" : "PLUMBING",
      "level" : 3
    } ]
  }, {
    "id" : 593,
    "name" : "593",
    "shifts" : [ {
      "start" : [ 9, 0 ],
      "end" : [ 12, 0 ]
    }, {
      "start" : [ 13, 0 ],
      "end" : [ 17, 0 ]
    } ],
    "prefSlots" : null,
    "startingLoc" : {
      "id" : 2592,
      "name" : null,
      "latitude" : 43.45982,
      "longitude" : 4.1805725
    },
    "skills" : [ {
      "id" : 8,
      "name" : "IRONWORK",
      "level" : 5
    }, {
      "id" : 4,
      "name" : "MASONRY",
      "level" : 3
    }, {
      "id" : 7,
      "name" : "PAINTING",
      "level" : 4
    } ]
  }, {
    "id" : 626,
    "name" : "626",
    "shifts" : [ {
      "start" : [ 9, 0 ],
      "end" : [ 12, 0 ]
    }, {
      "start" : [ 13, 0 ],
      "end" : [ 17, 0 ]
    } ],
    "prefSlots" : null,
    "startingLoc" : {
      "id" : 576,
      "name" : null,
      "latitude" : 43.6336,
      "longitude" : 4.104961
    },
    "skills" : [ {
      "id" : 4,
      "name" : "MASONRY",
      "level" : 1
    }, {
      "id" : 5,
      "name" : "GLAZING",
      "level" : 4
    }, {
      "id" : 7,
      "name" : "PAINTING",
      "level" : 5
    }, {
      "id" : 9,
      "name" : "TILER",
      "level" : 3
    }, {
      "id" : 2,
      "name" : "ELECTRICIAN",
      "level" : 5
    }, {
      "id" : 8,
      "name" : "IRONWORK",
      "level" : 6
    }, {
      "id" : 2,
      "name" : "ELECTRICIAN",
      "level" : 7
    }, {
      "id" : 1,
      "name" : "ENGINEER",
      "level" : 8
    }, {
      "id" : 3,
      "name" : "PLUMBING",
      "level" : 10
    }, {
      "id" : 8,
      "name" : "IRONWORK",
      "level" : 7
    } ]
  }, {
    "id" : 745,
    "name" : "745",
    "shifts" : [ {
      "start" : [ 9, 0 ],
      "end" : [ 12, 0 ]
    }, {
      "start" : [ 13, 0 ],
      "end" : [ 17, 0 ]
    } ],
    "prefSlots" : null,
    "startingLoc" : {
      "id" : 3364,
      "name" : null,
      "latitude" : 43.47402,
      "longitude" : 4.2464857
    },
    "skills" : [ {
      "id" : 6,
      "name" : "CARPENTRY",
      "level" : 2
    }, {
      "id" : 8,
      "name" : "IRONWORK",
      "level" : 1
    }, {
      "id" : 9,
      "name" : "TILER",
      "level" : 7
    }, {
      "id" : 6,
      "name" : "CARPENTRY",
      "level" : 4
    } ]
  }, {
    "id" : 360,
    "name" : "360",
    "shifts" : [ {
      "start" : [ 9, 0 ],
      "end" : [ 12, 0 ]
    }, {
      "start" : [ 13, 0 ],
      "end" : [ 17, 0 ]
    } ],
    "prefSlots" : null,
    "startingLoc" : {
      "id" : 5837,
      "name" : null,
      "latitude" : 43.983456,
      "longitude" : 3.974234
    },
    "skills" : [ {
      "id" : 8,
      "name" : "IRONWORK",
      "level" : 2
    }, {
      "id" : 3,
      "name" : "PLUMBING",
      "level" : 3
    }, {
      "id" : 7,
      "name" : "PAINTING",
      "level" : 6
    }, {
      "id" : 8,
      "name" : "IRONWORK",
      "level" : 8
    }, {
      "id" : 0,
      "name" : "MANAGEMENT",
      "level" : 7
    }, {
      "id" : 1,
      "name" : "ENGINEER",
      "level" : 1
    }, {
      "id" : 4,
      "name" : "MASONRY",
      "level" : 9
    } ]
  }, {
    "id" : 729,
    "name" : "729",
    "shifts" : [ {
      "start" : [ 9, 0 ],
      "end" : [ 12, 0 ]
    }, {
      "start" : [ 13, 0 ],
      "end" : [ 17, 0 ]
    } ],
    "prefSlots" : null,
    "startingLoc" : {
      "id" : 9900,
      "name" : null,
      "latitude" : 43.784977,
      "longitude" : 3.781847
    },
    "skills" : [ {
      "id" : 3,
      "name" : "PLUMBING",
      "level" : 7
    }, {
      "id" : 9,
      "name" : "TILER",
      "level" : 5
    }, {
      "id" : 2,
      "name" : "ELECTRICIAN",
      "level" : 9
    }, {
      "id" : 5,
      "name" : "GLAZING",
      "level" : 7
    }, {
      "id" : 8,
      "name" : "IRONWORK",
      "level" : 1
    }, {
      "id" : 1,
      "name" : "ENGINEER",
      "level" : 3
    }, {
      "id" : 2,
      "name" : "ELECTRICIAN",
      "level" : 5
    }, {
      "id" : 8,
      "name" : "IRONWORK",
      "level" : 7
    }, {
      "id" : 2,
      "name" : "ELECTRICIAN",
      "level" : 10
    }, {
      "id" : 0,
      "name" : "MANAGEMENT",
      "level" : 9
    } ]
  }, {
    "id" : 482,
    "name" : "482",
    "shifts" : [ {
      "start" : [ 9, 0 ],
      "end" : [ 12, 0 ]
    }, {
      "start" : [ 13, 0 ],
      "end" : [ 17, 0 ]
    } ],
    "prefSlots" : null,
    "startingLoc" : {
      "id" : 9171,
      "name" : null,
      "latitude" : 43.44656,
      "longitude" : 4.0887923
    },
    "skills" : [ {
      "id" : 9,
      "name" : "TILER",
      "level" : 8
    }, {
      "id" : 6,
      "name" : "CARPENTRY",
      "level" : 4
    }, {
      "id" : 6,
      "name" : "CARPENTRY",
      "level" : 7
    } ]
  }, {
    "id" : 522,
    "name" : "522",
    "shifts" : [ {
      "start" : [ 9, 0 ],
      "end" : [ 12, 0 ]
    }, {
      "start" : [ 13, 0 ],
      "end" : [ 17, 0 ]
    } ],
    "prefSlots" : null,
    "startingLoc" : {
      "id" : 613,
      "name" : null,
      "latitude" : 43.967033,
      "longitude" : 4.111673
    },
    "skills" : [ {
      "id" : 2,
      "name" : "ELECTRICIAN",
      "level" : 8
    }, {
      "id" : 2,
      "name" : "ELECTRICIAN",
      "level" : 1
    } ]
  }, {
    "id" : 58,
    "name" : "58",
    "shifts" : [ {
      "start" : [ 9, 0 ],
      "end" : [ 12, 0 ]
    }, {
      "start" : [ 13, 0 ],
      "end" : [ 17, 0 ]
    } ],
    "prefSlots" : null,
    "startingLoc" : {
      "id" : 1034,
      "name" : null,
      "latitude" : 43.97186,
      "longitude" : 4.133176
    },
    "skills" : [ {
      "id" : 1,
      "name" : "ENGINEER",
      "level" : 6
    }, {
      "id" : 6,
      "name" : "CARPENTRY",
      "level" : 7
    }, {
      "id" : 7,
      "name" : "PAINTING",
      "level" : 3
    }, {
      "id" : 4,
      "name" : "MASONRY",
      "level" : 3
    }, {
      "id" : 5,
      "name" : "GLAZING",
      "level" : 2
    }, {
      "id" : 1,
      "name" : "ENGINEER",
      "level" : 9
    }, {
      "id" : 5,
      "name" : "GLAZING",
      "level" : 9
    } ]
  }, {
    "id" : 63,
    "name" : "63",
    "shifts" : [ {
      "start" : [ 9, 0 ],
      "end" : [ 12, 0 ]
    }, {
      "start" : [ 13, 0 ],
      "end" : [ 17, 0 ]
    } ],
    "prefSlots" : null,
    "startingLoc" : {
      "id" : 4105,
      "name" : null,
      "latitude" : 44.02787,
      "longitude" : 4.2806787
    },
    "skills" : [ {
      "id" : 4,
      "name" : "MASONRY",
      "level" : 6
    }, {
      "id" : 0,
      "name" : "MANAGEMENT",
      "level" : 7
    } ]
  }, {
    "id" : 410,
    "name" : "410",
    "shifts" : [ {
      "start" : [ 9, 0 ],
      "end" : [ 12, 0 ]
    }, {
      "start" : [ 13, 0 ],
      "end" : [ 17, 0 ]
    } ],
    "prefSlots" : null,
    "startingLoc" : {
      "id" : 4298,
      "name" : null,
      "latitude" : 43.573753,
      "longitude" : 4.2027383
    },
    "skills" : [ {
      "id" : 6,
      "name" : "CARPENTRY",
      "level" : 1
    }, {
      "id" : 8,
      "name" : "IRONWORK",
      "level" : 4
    }, {
      "id" : 9,
      "name" : "TILER",
      "level" : 7
    } ]
  }, {
    "id" : 388,
    "name" : "388",
    "shifts" : [ {
      "start" : [ 9, 0 ],
      "end" : [ 12, 0 ]
    }, {
      "start" : [ 13, 0 ],
      "end" : [ 17, 0 ]
    } ],
    "prefSlots" : null,
    "startingLoc" : {
      "id" : 999,
      "name" : null,
      "latitude" : 43.590557,
      "longitude" : 3.865913
    },
    "skills" : [ {
      "id" : 4,
      "name" : "MASONRY",
      "level" : 7
    }, {
      "id" : 2,
      "name" : "ELECTRICIAN",
      "level" : 5
    }, {
      "id" : 8,
      "name" : "IRONWORK",
      "level" : 2
    }, {
      "id" : 2,
      "name" : "ELECTRICIAN",
      "level" : 2
    }, {
      "id" : 4,
      "name" : "MASONRY",
      "level" : 8
    }, {
      "id" : 9,
      "name" : "TILER",
      "level" : 9
    } ]
  }, {
    "id" : 349,
    "name" : "349",
    "shifts" : [ {
      "start" : [ 9, 0 ],
      "end" : [ 12, 0 ]
    }, {
      "start" : [ 13, 0 ],
      "end" : [ 17, 0 ]
    } ],
    "prefSlots" : null,
    "startingLoc" : {
      "id" : 1566,
      "name" : null,
      "latitude" : 43.811474,
      "longitude" : 4.2642527
    },
    "skills" : [ {
      "id" : 2,
      "name" : "ELECTRICIAN",
      "level" : 4
    } ]
  }, {
    "id" : 577,
    "name" : "577",
    "shifts" : [ {
      "start" : [ 9, 0 ],
      "end" : [ 12, 0 ]
    }, {
      "start" : [ 13, 0 ],
      "end" : [ 17, 0 ]
    } ],
    "prefSlots" : null,
    "startingLoc" : {
      "id" : 6959,
      "name" : null,
      "latitude" : 43.517754,
      "longitude" : 3.7289143
    },
    "skills" : [ {
      "id" : 4,
      "name" : "MASONRY",
      "level" : 9
    } ]
  } ],
  "appointments" : [ {
    "job" : {
      "id" : 839,
      "desc" : "GLAZING",
      "location" : {
        "id" : 7785,
        "name" : null,
        "latitude" : 43.859543,
        "longitude" : 3.927365
      },
      "openings" : {
        "start" : [ 13, 54 ],
        "end" : [ 16, 56 ]
      },
      "preferredSlots" : null,
      "doAfter" : null,
      "nbEmpRequired" : 1,
      "deadline" : [ 15, 28 ],
      "skills" : [ {
        "id" : 5,
        "name" : "GLAZING",
        "level" : 2
      } ],
      "duration" : 3600.000000000,
      "pause" : false
    },
    "needed" : [ {
      "id" : 455,
      "name" : "455",
      "shifts" : [ {
        "start" : [ 9, 0 ],
        "end" : [ 12, 0 ]
      }, {
        "start" : [ 13, 0 ],
        "end" : [ 17, 0 ]
      } ],
      "prefSlots" : null,
      "startingLoc" : {
        "id" : 2246,
        "name" : null,
        "latitude" : 43.475674,
        "longitude" : 4.1656065
      },
      "skills" : [ {
        "id" : 8,
        "name" : "IRONWORK",
        "level" : 4
      }, {
        "id" : 9,
        "name" : "TILER",
        "level" : 3
      }, {
        "id" : 6,
        "name" : "CARPENTRY",
        "level" : 1
      }, {
        "id" : 2,
        "name" : "ELECTRICIAN",
        "level" : 5
      }, {
        "id" : 4,
        "name" : "MASONRY",
        "level" : 2
      } ]
    }, {
      "id" : 482,
      "name" : "482",
      "shifts" : [ {
        "start" : [ 9, 0 ],
        "end" : [ 12, 0 ]
      }, {
        "start" : [ 13, 0 ],
        "end" : [ 17, 0 ]
      } ],
      "prefSlots" : null,
      "startingLoc" : {
        "id" : 9171,
        "name" : null,
        "latitude" : 43.44656,
        "longitude" : 4.0887923
      },
      "skills" : [ {
        "id" : 9,
        "name" : "TILER",
        "level" : 8
      }, {
        "id" : 6,
        "name" : "CARPENTRY",
        "level" : 4
      }, {
        "id" : 6,
        "name" : "CARPENTRY",
        "level" : 7
      } ]
    } ]
  }, {
    "job" : {
      "id" : 620,
      "desc" : "ENGINEER",
      "location" : {
        "id" : 6392,
        "name" : null,
        "latitude" : 43.789345,
        "longitude" : 3.8936152
      },
      "openings" : {
        "start" : [ 13, 56 ],
        "end" : [ 14, 8 ]
      },
      "preferredSlots" : null,
      "doAfter" : null,
      "nbEmpRequired" : 1,
      "deadline" : [ 16, 57 ],
      "skills" : [ {
        "id" : 1,
        "name" : "ENGINEER",
        "level" : 3
      } ],
      "duration" : 2700.000000000,
      "pause" : false
    },
    "needed" : [ {
      "id" : 63,
      "name" : "63",
      "shifts" : [ {
        "start" : [ 9, 0 ],
        "end" : [ 12, 0 ]
      }, {
        "start" : [ 13, 0 ],
        "end" : [ 17, 0 ]
      } ],
      "prefSlots" : null,
      "startingLoc" : {
        "id" : 4105,
        "name" : null,
        "latitude" : 44.02787,
        "longitude" : 4.2806787
      },
      "skills" : [ {
        "id" : 4,
        "name" : "MASONRY",
        "level" : 6
      }, {
        "id" : 0,
        "name" : "MANAGEMENT",
        "level" : 7
      } ]
    } ]
  }, {
    "job" : {
      "id" : 667,
      "desc" : "MASONRY, ELECTRICIAN",
      "location" : {
        "id" : 5684,
        "name" : null,
        "latitude" : 43.832146,
        "longitude" : 3.8924553
      },
      "openings" : {
        "start" : [ 10, 59 ],
        "end" : [ 13, 37 ]
      },
      "preferredSlots" : null,
      "doAfter" : null,
      "nbEmpRequired" : 1,
      "deadline" : [ 12, 17 ],
      "skills" : [ {
        "id" : 4,
        "name" : "MASONRY",
        "level" : 1
      }, {
        "id" : 2,
        "name" : "ELECTRICIAN",
        "level" : 5
      } ],
      "duration" : 1800.000000000,
      "pause" : false
    },
    "needed" : [ {
      "id" : 745,
      "name" : "745",
      "shifts" : [ {
        "start" : [ 9, 0 ],
        "end" : [ 12, 0 ]
      }, {
        "start" : [ 13, 0 ],
        "end" : [ 17, 0 ]
      } ],
      "prefSlots" : null,
      "startingLoc" : {
        "id" : 3364,
        "name" : null,
        "latitude" : 43.47402,
        "longitude" : 4.2464857
      },
      "skills" : [ {
        "id" : 6,
        "name" : "CARPENTRY",
        "level" : 2
      }, {
        "id" : 8,
        "name" : "IRONWORK",
        "level" : 1
      }, {
        "id" : 9,
        "name" : "TILER",
        "level" : 7
      }, {
        "id" : 6,
        "name" : "CARPENTRY",
        "level" : 4
      } ]
    }, {
      "id" : 63,
      "name" : "63",
      "shifts" : [ {
        "start" : [ 9, 0 ],
        "end" : [ 12, 0 ]
      }, {
        "start" : [ 13, 0 ],
        "end" : [ 17, 0 ]
      } ],
      "prefSlots" : null,
      "startingLoc" : {
        "id" : 4105,
        "name" : null,
        "latitude" : 44.02787,
        "longitude" : 4.2806787
      },
      "skills" : [ {
        "id" : 4,
        "name" : "MASONRY",
        "level" : 6
      }, {
        "id" : 0,
        "name" : "MANAGEMENT",
        "level" : 7
      } ]
    }, {
      "id" : 626,
      "name" : "626",
      "shifts" : [ {
        "start" : [ 9, 0 ],
        "end" : [ 12, 0 ]
      }, {
        "start" : [ 13, 0 ],
        "end" : [ 17, 0 ]
      } ],
      "prefSlots" : null,
      "startingLoc" : {
        "id" : 576,
        "name" : null,
        "latitude" : 43.6336,
        "longitude" : 4.104961
      },
      "skills" : [ {
        "id" : 4,
        "name" : "MASONRY",
        "level" : 1
      }, {
        "id" : 5,
        "name" : "GLAZING",
        "level" : 4
      }, {
        "id" : 7,
        "name" : "PAINTING",
        "level" : 5
      }, {
        "id" : 9,
        "name" : "TILER",
        "level" : 3
      }, {
        "id" : 2,
        "name" : "ELECTRICIAN",
        "level" : 5
      }, {
        "id" : 8,
        "name" : "IRONWORK",
        "level" : 6
      }, {
        "id" : 2,
        "name" : "ELECTRICIAN",
        "level" : 7
      }, {
        "id" : 1,
        "name" : "ENGINEER",
        "level" : 8
      }, {
        "id" : 3,
        "name" : "PLUMBING",
        "level" : 10
      }, {
        "id" : 8,
        "name" : "IRONWORK",
        "level" : 7
      } ]
    } ]
  }, {
    "job" : {
      "id" : 983,
      "desc" : "PLUMBING",
      "location" : {
        "id" : 3049,
        "name" : null,
        "latitude" : 43.473324,
        "longitude" : 3.916551
      },
      "openings" : {
        "start" : [ 13, 52 ],
        "end" : [ 14, 55 ]
      },
      "preferredSlots" : null,
      "doAfter" : null,
      "nbEmpRequired" : 1,
      "deadline" : [ 11, 35 ],
      "skills" : [ {
        "id" : 3,
        "name" : "PLUMBING",
        "level" : 2
      } ],
      "duration" : 3600.000000000,
      "pause" : false
    },
    "needed" : [ {
      "id" : 593,
      "name" : "593",
      "shifts" : [ {
        "start" : [ 9, 0 ],
        "end" : [ 12, 0 ]
      }, {
        "start" : [ 13, 0 ],
        "end" : [ 17, 0 ]
      } ],
      "prefSlots" : null,
      "startingLoc" : {
        "id" : 2592,
        "name" : null,
        "latitude" : 43.45982,
        "longitude" : 4.1805725
      },
      "skills" : [ {
        "id" : 8,
        "name" : "IRONWORK",
        "level" : 5
      }, {
        "id" : 4,
        "name" : "MASONRY",
        "level" : 3
      }, {
        "id" : 7,
        "name" : "PAINTING",
        "level" : 4
      } ]
    }, {
      "id" : 745,
      "name" : "745",
      "shifts" : [ {
        "start" : [ 9, 0 ],
        "end" : [ 12, 0 ]
      }, {
        "start" : [ 13, 0 ],
        "end" : [ 17, 0 ]
      } ],
      "prefSlots" : null,
      "startingLoc" : {
        "id" : 3364,
        "name" : null,
        "latitude" : 43.47402,
        "longitude" : 4.2464857
      },
      "skills" : [ {
        "id" : 6,
        "name" : "CARPENTRY",
        "level" : 2
      }, {
        "id" : 8,
        "name" : "IRONWORK",
        "level" : 1
      }, {
        "id" : 9,
        "name" : "TILER",
        "level" : 7
      }, {
        "id" : 6,
        "name" : "CARPENTRY",
        "level" : 4
      } ]
    }, {
      "id" : 729,
      "name" : "729",
      "shifts" : [ {
        "start" : [ 9, 0 ],
        "end" : [ 12, 0 ]
      }, {
        "start" : [ 13, 0 ],
        "end" : [ 17, 0 ]
      } ],
      "prefSlots" : null,
      "startingLoc" : {
        "id" : 9900,
        "name" : null,
        "latitude" : 43.784977,
        "longitude" : 3.781847
      },
      "skills" : [ {
        "id" : 3,
        "name" : "PLUMBING",
        "level" : 7
      }, {
        "id" : 9,
        "name" : "TILER",
        "level" : 5
      }, {
        "id" : 2,
        "name" : "ELECTRICIAN",
        "level" : 9
      }, {
        "id" : 5,
        "name" : "GLAZING",
        "level" : 7
      }, {
        "id" : 8,
        "name" : "IRONWORK",
        "level" : 1
      }, {
        "id" : 1,
        "name" : "ENGINEER",
        "level" : 3
      }, {
        "id" : 2,
        "name" : "ELECTRICIAN",
        "level" : 5
      }, {
        "id" : 8,
        "name" : "IRONWORK",
        "level" : 7
      }, {
        "id" : 2,
        "name" : "ELECTRICIAN",
        "level" : 10
      }, {
        "id" : 0,
        "name" : "MANAGEMENT",
        "level" : 9
      } ]
    } ]
  }, {
    "job" : {
      "id" : 520,
      "desc" : "MANAGEMENT",
      "location" : {
        "id" : 7515,
        "name" : null,
        "latitude" : 43.819054,
        "longitude" : 4.2472086
      },
      "openings" : {
        "start" : [ 10, 13 ],
        "end" : [ 10, 49 ]
      },
      "preferredSlots" : null,
      "doAfter" : null,
      "nbEmpRequired" : 1,
      "deadline" : [ 10, 27 ],
      "skills" : [ {
        "id" : 0,
        "name" : "MANAGEMENT",
        "level" : 3
      } ],
      "duration" : 2700.000000000,
      "pause" : false
    },
    "needed" : [ {
      "id" : 360,
      "name" : "360",
      "shifts" : [ {
        "start" : [ 9, 0 ],
        "end" : [ 12, 0 ]
      }, {
        "start" : [ 13, 0 ],
        "end" : [ 17, 0 ]
      } ],
      "prefSlots" : null,
      "startingLoc" : {
        "id" : 5837,
        "name" : null,
        "latitude" : 43.983456,
        "longitude" : 3.974234
      },
      "skills" : [ {
        "id" : 8,
        "name" : "IRONWORK",
        "level" : 2
      }, {
        "id" : 3,
        "name" : "PLUMBING",
        "level" : 3
      }, {
        "id" : 7,
        "name" : "PAINTING",
        "level" : 6
      }, {
        "id" : 8,
        "name" : "IRONWORK",
        "level" : 8
      }, {
        "id" : 0,
        "name" : "MANAGEMENT",
        "level" : 7
      }, {
        "id" : 1,
        "name" : "ENGINEER",
        "level" : 1
      }, {
        "id" : 4,
        "name" : "MASONRY",
        "level" : 9
      } ]
    } ]
  }, {
    "job" : {
      "id" : 932,
      "desc" : "TILER",
      "location" : {
        "id" : 9508,
        "name" : null,
        "latitude" : 43.84166,
        "longitude" : 4.123859
      },
      "openings" : {
        "start" : [ 10, 41 ],
        "end" : [ 16, 30 ]
      },
      "preferredSlots" : null,
      "doAfter" : null,
      "nbEmpRequired" : 1,
      "deadline" : [ 14, 23 ],
      "skills" : [ {
        "id" : 9,
        "name" : "TILER",
        "level" : 3
      } ],
      "duration" : 1800.000000000,
      "pause" : false
    },
    "needed" : [ {
      "id" : 522,
      "name" : "522",
      "shifts" : [ {
        "start" : [ 9, 0 ],
        "end" : [ 12, 0 ]
      }, {
        "start" : [ 13, 0 ],
        "end" : [ 17, 0 ]
      } ],
      "prefSlots" : null,
      "startingLoc" : {
        "id" : 613,
        "name" : null,
        "latitude" : 43.967033,
        "longitude" : 4.111673
      },
      "skills" : [ {
        "id" : 2,
        "name" : "ELECTRICIAN",
        "level" : 8
      }, {
        "id" : 2,
        "name" : "ELECTRICIAN",
        "level" : 1
      } ]
    }, {
      "id" : 482,
      "name" : "482",
      "shifts" : [ {
        "start" : [ 9, 0 ],
        "end" : [ 12, 0 ]
      }, {
        "start" : [ 13, 0 ],
        "end" : [ 17, 0 ]
      } ],
      "prefSlots" : null,
      "startingLoc" : {
        "id" : 9171,
        "name" : null,
        "latitude" : 43.44656,
        "longitude" : 4.0887923
      },
      "skills" : [ {
        "id" : 9,
        "name" : "TILER",
        "level" : 8
      }, {
        "id" : 6,
        "name" : "CARPENTRY",
        "level" : 4
      }, {
        "id" : 6,
        "name" : "CARPENTRY",
        "level" : 7
      } ]
    }, {
      "id" : 455,
      "name" : "455",
      "shifts" : [ {
        "start" : [ 9, 0 ],
        "end" : [ 12, 0 ]
      }, {
        "start" : [ 13, 0 ],
        "end" : [ 17, 0 ]
      } ],
      "prefSlots" : null,
      "startingLoc" : {
        "id" : 2246,
        "name" : null,
        "latitude" : 43.475674,
        "longitude" : 4.1656065
      },
      "skills" : [ {
        "id" : 8,
        "name" : "IRONWORK",
        "level" : 4
      }, {
        "id" : 9,
        "name" : "TILER",
        "level" : 3
      }, {
        "id" : 6,
        "name" : "CARPENTRY",
        "level" : 1
      }, {
        "id" : 2,
        "name" : "ELECTRICIAN",
        "level" : 5
      }, {
        "id" : 4,
        "name" : "MASONRY",
        "level" : 2
      } ]
    }, {
      "id" : 976,
      "name" : "976",
      "shifts" : [ {
        "start" : [ 9, 0 ],
        "end" : [ 12, 0 ]
      }, {
        "start" : [ 13, 0 ],
        "end" : [ 17, 0 ]
      } ],
      "prefSlots" : null,
      "startingLoc" : {
        "id" : 5572,
        "name" : null,
        "latitude" : 43.92957,
        "longitude" : 4.0363874
      },
      "skills" : [ {
        "id" : 9,
        "name" : "TILER",
        "level" : 9
      }, {
        "id" : 9,
        "name" : "TILER",
        "level" : 4
      } ]
    } ]
  }, {
    "job" : {
      "id" : 848,
      "desc" : "TILER, PLUMBING",
      "location" : {
        "id" : 7756,
        "name" : null,
        "latitude" : 43.559376,
        "longitude" : 3.9527867
      },
      "openings" : {
        "start" : [ 12, 26 ],
        "end" : [ 17, 23 ]
      },
      "preferredSlots" : null,
      "doAfter" : null,
      "nbEmpRequired" : 1,
      "deadline" : [ 16, 35 ],
      "skills" : [ {
        "id" : 9,
        "name" : "TILER",
        "level" : 1
      }, {
        "id" : 3,
        "name" : "PLUMBING",
        "level" : 3
      } ],
      "duration" : 3600.000000000,
      "pause" : false
    },
    "needed" : [ {
      "id" : 593,
      "name" : "593",
      "shifts" : [ {
        "start" : [ 9, 0 ],
        "end" : [ 12, 0 ]
      }, {
        "start" : [ 13, 0 ],
        "end" : [ 17, 0 ]
      } ],
      "prefSlots" : null,
      "startingLoc" : {
        "id" : 2592,
        "name" : null,
        "latitude" : 43.45982,
        "longitude" : 4.1805725
      },
      "skills" : [ {
        "id" : 8,
        "name" : "IRONWORK",
        "level" : 5
      }, {
        "id" : 4,
        "name" : "MASONRY",
        "level" : 3
      }, {
        "id" : 7,
        "name" : "PAINTING",
        "level" : 4
      } ]
    }, {
      "id" : 332,
      "name" : "332",
      "shifts" : [ {
        "start" : [ 9, 0 ],
        "end" : [ 12, 0 ]
      }, {
        "start" : [ 13, 0 ],
        "end" : [ 17, 0 ]
      } ],
      "prefSlots" : null,
      "startingLoc" : {
        "id" : 6528,
        "name" : null,
        "latitude" : 43.450874,
        "longitude" : 4.0713525
      },
      "skills" : [ {
        "id" : 5,
        "name" : "GLAZING",
        "level" : 5
      }, {
        "id" : 9,
        "name" : "TILER",
        "level" : 8
      }, {
        "id" : 4,
        "name" : "MASONRY",
        "level" : 5
      }, {
        "id" : 6,
        "name" : "CARPENTRY",
        "level" : 3
      }, {
        "id" : 6,
        "name" : "CARPENTRY",
        "level" : 8
      }, {
        "id" : 4,
        "name" : "MASONRY",
        "level" : 10
      }, {
        "id" : 8,
        "name" : "IRONWORK",
        "level" : 6
      }, {
        "id" : 0,
        "name" : "MANAGEMENT",
        "level" : 6
      }, {
        "id" : 1,
        "name" : "ENGINEER",
        "level" : 4
      }, {
        "id" : 7,
        "name" : "PAINTING",
        "level" : 3
      } ]
    }, {
      "id" : 522,
      "name" : "522",
      "shifts" : [ {
        "start" : [ 9, 0 ],
        "end" : [ 12, 0 ]
      }, {
        "start" : [ 13, 0 ],
        "end" : [ 17, 0 ]
      } ],
      "prefSlots" : null,
      "startingLoc" : {
        "id" : 613,
        "name" : null,
        "latitude" : 43.967033,
        "longitude" : 4.111673
      },
      "skills" : [ {
        "id" : 2,
        "name" : "ELECTRICIAN",
        "level" : 8
      }, {
        "id" : 2,
        "name" : "ELECTRICIAN",
        "level" : 1
      } ]
    }, {
      "id" : 410,
      "name" : "410",
      "shifts" : [ {
        "start" : [ 9, 0 ],
        "end" : [ 12, 0 ]
      }, {
        "start" : [ 13, 0 ],
        "end" : [ 17, 0 ]
      } ],
      "prefSlots" : null,
      "startingLoc" : {
        "id" : 4298,
        "name" : null,
        "latitude" : 43.573753,
        "longitude" : 4.2027383
      },
      "skills" : [ {
        "id" : 6,
        "name" : "CARPENTRY",
        "level" : 1
      }, {
        "id" : 8,
        "name" : "IRONWORK",
        "level" : 4
      }, {
        "id" : 9,
        "name" : "TILER",
        "level" : 7
      } ]
    }, {
      "id" : 482,
      "name" : "482",
      "shifts" : [ {
        "start" : [ 9, 0 ],
        "end" : [ 12, 0 ]
      }, {
        "start" : [ 13, 0 ],
        "end" : [ 17, 0 ]
      } ],
      "prefSlots" : null,
      "startingLoc" : {
        "id" : 9171,
        "name" : null,
        "latitude" : 43.44656,
        "longitude" : 4.0887923
      },
      "skills" : [ {
        "id" : 9,
        "name" : "TILER",
        "level" : 8
      }, {
        "id" : 6,
        "name" : "CARPENTRY",
        "level" : 4
      }, {
        "id" : 6,
        "name" : "CARPENTRY",
        "level" : 7
      } ]
    } ]
  }, {
    "job" : {
      "id" : 466,
      "desc" : "TILER, PAINTING",
      "location" : {
        "id" : 1006,
        "name" : null,
        "latitude" : 43.56627,
        "longitude" : 4.263221
      },
      "openings" : {
        "start" : [ 11, 59 ],
        "end" : [ 17, 16 ]
      },
      "preferredSlots" : null,
      "doAfter" : null,
      "nbEmpRequired" : 1,
      "deadline" : [ 9, 17 ],
      "skills" : [ {
        "id" : 9,
        "name" : "TILER",
        "level" : 1
      }, {
        "id" : 7,
        "name" : "PAINTING",
        "level" : 5
      } ],
      "duration" : 2700.000000000,
      "pause" : false
    },
    "needed" : [ {
      "id" : 388,
      "name" : "388",
      "shifts" : [ {
        "start" : [ 9, 0 ],
        "end" : [ 12, 0 ]
      }, {
        "start" : [ 13, 0 ],
        "end" : [ 17, 0 ]
      } ],
      "prefSlots" : null,
      "startingLoc" : {
        "id" : 999,
        "name" : null,
        "latitude" : 43.590557,
        "longitude" : 3.865913
      },
      "skills" : [ {
        "id" : 4,
        "name" : "MASONRY",
        "level" : 7
      }, {
        "id" : 2,
        "name" : "ELECTRICIAN",
        "level" : 5
      }, {
        "id" : 8,
        "name" : "IRONWORK",
        "level" : 2
      }, {
        "id" : 2,
        "name" : "ELECTRICIAN",
        "level" : 2
      }, {
        "id" : 4,
        "name" : "MASONRY",
        "level" : 8
      }, {
        "id" : 9,
        "name" : "TILER",
        "level" : 9
      } ]
    }, {
      "id" : 745,
      "name" : "745",
      "shifts" : [ {
        "start" : [ 9, 0 ],
        "end" : [ 12, 0 ]
      }, {
        "start" : [ 13, 0 ],
        "end" : [ 17, 0 ]
      } ],
      "prefSlots" : null,
      "startingLoc" : {
        "id" : 3364,
        "name" : null,
        "latitude" : 43.47402,
        "longitude" : 4.2464857
      },
      "skills" : [ {
        "id" : 6,
        "name" : "CARPENTRY",
        "level" : 2
      }, {
        "id" : 8,
        "name" : "IRONWORK",
        "level" : 1
      }, {
        "id" : 9,
        "name" : "TILER",
        "level" : 7
      }, {
        "id" : 6,
        "name" : "CARPENTRY",
        "level" : 4
      } ]
    }, {
      "id" : 838,
      "name" : "838",
      "shifts" : [ {
        "start" : [ 9, 0 ],
        "end" : [ 12, 0 ]
      }, {
        "start" : [ 13, 0 ],
        "end" : [ 17, 0 ]
      } ],
      "prefSlots" : null,
      "startingLoc" : {
        "id" : 1311,
        "name" : null,
        "latitude" : 43.632683,
        "longitude" : 4.152241
      },
      "skills" : [ {
        "id" : 4,
        "name" : "MASONRY",
        "level" : 10
      }, {
        "id" : 7,
        "name" : "PAINTING",
        "level" : 1
      }, {
        "id" : 5,
        "name" : "GLAZING",
        "level" : 4
      }, {
        "id" : 7,
        "name" : "PAINTING",
        "level" : 1
      }, {
        "id" : 7,
        "name" : "PAINTING",
        "level" : 3
      }, {
        "id" : 2,
        "name" : "ELECTRICIAN",
        "level" : 3
      }, {
        "id" : 4,
        "name" : "MASONRY",
        "level" : 9
      }, {
        "id" : 4,
        "name" : "MASONRY",
        "level" : 2
      } ]
    } ]
  }, {
    "job" : {
      "id" : 254,
      "desc" : "PAINTING",
      "location" : {
        "id" : 7886,
        "name" : null,
        "latitude" : 43.589584,
        "longitude" : 4.206344
      },
      "openings" : {
        "start" : [ 13, 45 ],
        "end" : [ 14, 47 ]
      },
      "preferredSlots" : null,
      "doAfter" : null,
      "nbEmpRequired" : 1,
      "deadline" : [ 16, 52 ],
      "skills" : [ {
        "id" : 7,
        "name" : "PAINTING",
        "level" : 4
      } ],
      "duration" : 2700.000000000,
      "pause" : false
    },
    "needed" : [ {
      "id" : 360,
      "name" : "360",
      "shifts" : [ {
        "start" : [ 9, 0 ],
        "end" : [ 12, 0 ]
      }, {
        "start" : [ 13, 0 ],
        "end" : [ 17, 0 ]
      } ],
      "prefSlots" : null,
      "startingLoc" : {
        "id" : 5837,
        "name" : null,
        "latitude" : 43.983456,
        "longitude" : 3.974234
      },
      "skills" : [ {
        "id" : 8,
        "name" : "IRONWORK",
        "level" : 2
      }, {
        "id" : 3,
        "name" : "PLUMBING",
        "level" : 3
      }, {
        "id" : 7,
        "name" : "PAINTING",
        "level" : 6
      }, {
        "id" : 8,
        "name" : "IRONWORK",
        "level" : 8
      }, {
        "id" : 0,
        "name" : "MANAGEMENT",
        "level" : 7
      }, {
        "id" : 1,
        "name" : "ENGINEER",
        "level" : 1
      }, {
        "id" : 4,
        "name" : "MASONRY",
        "level" : 9
      } ]
    }, {
      "id" : 388,
      "name" : "388",
      "shifts" : [ {
        "start" : [ 9, 0 ],
        "end" : [ 12, 0 ]
      }, {
        "start" : [ 13, 0 ],
        "end" : [ 17, 0 ]
      } ],
      "prefSlots" : null,
      "startingLoc" : {
        "id" : 999,
        "name" : null,
        "latitude" : 43.590557,
        "longitude" : 3.865913
      },
      "skills" : [ {
        "id" : 4,
        "name" : "MASONRY",
        "level" : 7
      }, {
        "id" : 2,
        "name" : "ELECTRICIAN",
        "level" : 5
      }, {
        "id" : 8,
        "name" : "IRONWORK",
        "level" : 2
      }, {
        "id" : 2,
        "name" : "ELECTRICIAN",
        "level" : 2
      }, {
        "id" : 4,
        "name" : "MASONRY",
        "level" : 8
      }, {
        "id" : 9,
        "name" : "TILER",
        "level" : 9
      } ]
    }, {
      "id" : 593,
      "name" : "593",
      "shifts" : [ {
        "start" : [ 9, 0 ],
        "end" : [ 12, 0 ]
      }, {
        "start" : [ 13, 0 ],
        "end" : [ 17, 0 ]
      } ],
      "prefSlots" : null,
      "startingLoc" : {
        "id" : 2592,
        "name" : null,
        "latitude" : 43.45982,
        "longitude" : 4.1805725
      },
      "skills" : [ {
        "id" : 8,
        "name" : "IRONWORK",
        "level" : 5
      }, {
        "id" : 4,
        "name" : "MASONRY",
        "level" : 3
      }, {
        "id" : 7,
        "name" : "PAINTING",
        "level" : 4
      } ]
    } ]
  }, {
    "job" : {
      "id" : 699,
      "desc" : "PAINTING, TILER",
      "location" : {
        "id" : 5831,
        "name" : null,
        "latitude" : 43.798447,
        "longitude" : 3.733134
      },
      "openings" : {
        "start" : [ 9, 4 ],
        "end" : [ 15, 57 ]
      },
      "preferredSlots" : null,
      "doAfter" : null,
      "nbEmpRequired" : 1,
      "deadline" : [ 9, 41 ],
      "skills" : [ {
        "id" : 7,
        "name" : "PAINTING",
        "level" : 4
      }, {
        "id" : 9,
        "name" : "TILER",
        "level" : 5
      } ],
      "duration" : 1800.000000000,
      "pause" : false
    },
    "needed" : [ {
      "id" : 63,
      "name" : "63",
      "shifts" : [ {
        "start" : [ 9, 0 ],
        "end" : [ 12, 0 ]
      }, {
        "start" : [ 13, 0 ],
        "end" : [ 17, 0 ]
      } ],
      "prefSlots" : null,
      "startingLoc" : {
        "id" : 4105,
        "name" : null,
        "latitude" : 44.02787,
        "longitude" : 4.2806787
      },
      "skills" : [ {
        "id" : 4,
        "name" : "MASONRY",
        "level" : 6
      }, {
        "id" : 0,
        "name" : "MANAGEMENT",
        "level" : 7
      } ]
    }, {
      "id" : 58,
      "name" : "58",
      "shifts" : [ {
        "start" : [ 9, 0 ],
        "end" : [ 12, 0 ]
      }, {
        "start" : [ 13, 0 ],
        "end" : [ 17, 0 ]
      } ],
      "prefSlots" : null,
      "startingLoc" : {
        "id" : 1034,
        "name" : null,
        "latitude" : 43.97186,
        "longitude" : 4.133176
      },
      "skills" : [ {
        "id" : 1,
        "name" : "ENGINEER",
        "level" : 6
      }, {
        "id" : 6,
        "name" : "CARPENTRY",
        "level" : 7
      }, {
        "id" : 7,
        "name" : "PAINTING",
        "level" : 3
      }, {
        "id" : 4,
        "name" : "MASONRY",
        "level" : 3
      }, {
        "id" : 5,
        "name" : "GLAZING",
        "level" : 2
      }, {
        "id" : 1,
        "name" : "ENGINEER",
        "level" : 9
      }, {
        "id" : 5,
        "name" : "GLAZING",
        "level" : 9
      } ]
    }, {
      "id" : 626,
      "name" : "626",
      "shifts" : [ {
        "start" : [ 9, 0 ],
        "end" : [ 12, 0 ]
      }, {
        "start" : [ 13, 0 ],
        "end" : [ 17, 0 ]
      } ],
      "prefSlots" : null,
      "startingLoc" : {
        "id" : 576,
        "name" : null,
        "latitude" : 43.6336,
        "longitude" : 4.104961
      },
      "skills" : [ {
        "id" : 4,
        "name" : "MASONRY",
        "level" : 1
      }, {
        "id" : 5,
        "name" : "GLAZING",
        "level" : 4
      }, {
        "id" : 7,
        "name" : "PAINTING",
        "level" : 5
      }, {
        "id" : 9,
        "name" : "TILER",
        "level" : 3
      }, {
        "id" : 2,
        "name" : "ELECTRICIAN",
        "level" : 5
      }, {
        "id" : 8,
        "name" : "IRONWORK",
        "level" : 6
      }, {
        "id" : 2,
        "name" : "ELECTRICIAN",
        "level" : 7
      }, {
        "id" : 1,
        "name" : "ENGINEER",
        "level" : 8
      }, {
        "id" : 3,
        "name" : "PLUMBING",
        "level" : 10
      }, {
        "id" : 8,
        "name" : "IRONWORK",
        "level" : 7
      } ]
    }, {
      "id" : 729,
      "name" : "729",
      "shifts" : [ {
        "start" : [ 9, 0 ],
        "end" : [ 12, 0 ]
      }, {
        "start" : [ 13, 0 ],
        "end" : [ 17, 0 ]
      } ],
      "prefSlots" : null,
      "startingLoc" : {
        "id" : 9900,
        "name" : null,
        "latitude" : 43.784977,
        "longitude" : 3.781847
      },
      "skills" : [ {
        "id" : 3,
        "name" : "PLUMBING",
        "level" : 7
      }, {
        "id" : 9,
        "name" : "TILER",
        "level" : 5
      }, {
        "id" : 2,
        "name" : "ELECTRICIAN",
        "level" : 9
      }, {
        "id" : 5,
        "name" : "GLAZING",
        "level" : 7
      }, {
        "id" : 8,
        "name" : "IRONWORK",
        "level" : 1
      }, {
        "id" : 1,
        "name" : "ENGINEER",
        "level" : 3
      }, {
        "id" : 2,
        "name" : "ELECTRICIAN",
        "level" : 5
      }, {
        "id" : 8,
        "name" : "IRONWORK",
        "level" : 7
      }, {
        "id" : 2,
        "name" : "ELECTRICIAN",
        "level" : 10
      }, {
        "id" : 0,
        "name" : "MANAGEMENT",
        "level" : 9
      } ]
    }, {
      "id" : 960,
      "name" : "960",
      "shifts" : [ {
        "start" : [ 9, 0 ],
        "end" : [ 12, 0 ]
      }, {
        "start" : [ 13, 0 ],
        "end" : [ 17, 0 ]
      } ],
      "prefSlots" : null,
      "startingLoc" : {
        "id" : 6830,
        "name" : null,
        "latitude" : 43.761166,
        "longitude" : 4.049053
      },
      "skills" : [ {
        "id" : 0,
        "name" : "MANAGEMENT",
        "level" : 5
      }, {
        "id" : 3,
        "name" : "PLUMBING",
        "level" : 3
      } ]
    }, {
      "id" : 522,
      "name" : "522",
      "shifts" : [ {
        "start" : [ 9, 0 ],
        "end" : [ 12, 0 ]
      }, {
        "start" : [ 13, 0 ],
        "end" : [ 17, 0 ]
      } ],
      "prefSlots" : null,
      "startingLoc" : {
        "id" : 613,
        "name" : null,
        "latitude" : 43.967033,
        "longitude" : 4.111673
      },
      "skills" : [ {
        "id" : 2,
        "name" : "ELECTRICIAN",
        "level" : 8
      }, {
        "id" : 2,
        "name" : "ELECTRICIAN",
        "level" : 1
      } ]
    } ]
  } ]
}