{
  "jobs" : [ {
    "id" : 917,
    "desc" : "TILER, GLAZING",
    "location" : {
      "id" : 2543,
      "name" : null,
      "latitude" : 43.93186,
      "longitude" : 4.2182283
    },
    "openings" : {
      "start" : [ 12, 47 ],
      "end" : [ 13, 18 ]
    },
    "preferredSlots" : null,
    "doAfter" : null,
    "nbEmpRequired" : 1,
    "deadline" : [ 12, 35 ],
    "skills" : [ {
      "id" : 9,
      "name" : "TILER",
      "level" : 1
    }, {
      "id" : 5,
      "name" : "GLAZING",
      "level" : 1
    } ],
    "duration" : 2700.000000000,
    "pause" : false
  }, {
    "id" : 452,
    "desc" : "GLAZING, TILER",
    "location" : {
      "id" : 9546,
      "name" : null,
      "latitude" : 43.826927,
      "longitude" : 3.9534366
    },
    "openings" : {
      "start" : [ 10, 26 ],
      "end" : [ 15, 23 ]
    },
    "preferredSlots" : null,
    "doAfter" : null,
    "nbEmpRequired" : 1,
    "deadline" : [ 11, 31 ],
    "skills" : [ {
      "id" : 5,
      "name" : "GLAZING",
      "level" : 3
    }, {
      "id" : 9,
      "name" : "TILER",
      "level" : 3
    } ],
    "duration" : 5400.000000000,
    "pause" : false
  }, {
    "id" : 583,
    "desc" : "TILER, GLAZING",
    "location" : {
      "id" : 181,
      "name" : null,
      "latitude" : 43.427254,
      "longitude" : 3.7655704
    },
    "openings" : {
      "start" : [ 13, 10 ],
      "end" : [ 13, 14 ]
    },
    "preferredSlots" : null,
    "doAfter" : null,
    "nbEmpRequired" : 1,
    "deadline" : [ 10, 3 ],
    "skills" : [ {
      "id" : 9,
      "name" : "TILER",
      "level" : 4
    }, {
      "id" : 5,
      "name" : "GLAZING",
      "level" : 2
    } ],
    "duration" : 3600.000000000,
    "pause" : false
  }, {
    "id" : 242,
    "desc" : "MANAGEMENT",
    "location" : {
      "id" : 188,
      "name" : null,
      "latitude" : 44.06567,
      "longitude" : 4.0278163
    },
    "openings" : {
      "start" : [ 9, 37 ],
      "end" : [ 10, 35 ]
    },
    "preferredSlots" : null,
    "doAfter" : null,
    "nbEmpRequired" : 1,
    "deadline" : [ 13, 8 ],
    "skills" : [ {
      "id" : 0,
      "name" : "MANAGEMENT",
      "level" : 2
    } ],
    "duration" : 3600.000000000,
    "pause" : false
  }, {
    "id" : 134,
    "desc" : "TILER, MANAGEMENT",
    "location" : {
      "id" : 5985,
      "name" : null,
      "latitude" : 43.602703,
      "longitude" : 3.92238
    },
    "openings" : {
      "start" : [ 15, 10 ],
      "end" : [ 15, 48 ]
    },
    "preferredSlots" : null,
    "doAfter" : null,
    "nbEmpRequired" : 1,
    "deadline" : [ 11, 53 ],
    "skills" : [ {
      "id" : 9,
      "name" : "TILER",
      "level" : 1
    }, {
      "id" : 0,
      "name" : "MANAGEMENT",
      "level" : 3
    } ],
    "duration" : 1800.000000000,
    "pause" : false
  }, {
    "id" : 859,
    "desc" : "PLUMBING, PAINTING",
    "location" : {
      "id" : 241,
      "name" : null,
      "latitude" : 44.031773,
      "longitude" : 4.100604
    },
    "openings" : {
      "start" : [ 9, 3 ],
      "end" : [ 13, 14 ]
    },
    "preferredSlots" : null,
    "doAfter" : null,
    "nbEmpRequired" : 1,
    "deadline" : [ 10, 53 ],
    "skills" : [ {
      "id" : 3,
      "name" : "PLUMBING",
      "level" : 2
    }, {
      "id" : 7,
      "name" : "PAINTING",
      "level" : 1
    } ],
    "duration" : 1800.000000000,
    "pause" : false
  }, {
    "id" : 75,
    "desc" : "ENGINEER, TILER",
    "location" : {
      "id" : 2591,
      "name" : null,
      "latitude" : 44.021843,
      "longitude" : 4.119184
    },
    "openings" : {
      "start" : [ 15, 47 ],
      "end" : [ 17, 42 ]
    },
    "preferredSlots" : null,
    "doAfter" : null,
    "nbEmpRequired" : 1,
    "deadline" : [ 9, 6 ],
    "skills" : [ {
      "id" : 1,
      "name" : "ENGINEER",
      "level" : 2
    }, {
      "id" : 9,
      "name" : "TILER",
      "level" : 5
    } ],
    "duration" : 3600.000000000,
    "pause" : false
  }, {
    "id" : 756,
    "desc" : "IRONWORK",
    "location" : {
      "id" : 2678,
      "name" : null,
      "latitude" : 43.904297,
      "longitude" : 3.977007
    },
    "openings" : {
      "start" : [ 12, 27 ],
      "end" : [ 13, 33 ]
    },
    "preferredSlots" : null,
    "doAfter" : null,
    "nbEmpRequired" : 1,
    "deadline" : [ 12, 48 ],
    "skills" : [ {
      "id" : 8,
      "name" : "IRONWORK",
      "level" : 5
    } ],
    "duration" : 3600.000000000,
    "pause" : false
  }, {
    "id" : 244,
    "desc" : "PLUMBING, IRONWORK",
    "location" : {
      "id" : 8476,
      "name" : null,
      "latitude" : 44.06365,
      "longitude" : 4.030038
    },
    "openings" : {
      "start" : [ 10, 51 ],
      "end" : [ 12, 40 ]
    },
    "preferredSlots" : null,
    "doAfter" : null,
    "nbEmpRequired" : 1,
    "deadline" : [ 11, 38 ],
    "skills" : [ {
      "id" : 3,
      "name" : "PLUMBING",
      "level" : 5
    }, {
      "id" : 8,
      "name" : "IRONWORK",
      "level" : 1
    } ],
    "duration" : 7200.000000000,
    "pause" : false
  }, {
    "id" : 216,
    "desc" : "ENGINEER, PAINTING",
    "location" : {
      "id" : 9723,
      "name" : null,
      "latitude" : 43.721184,
      "longitude" : 4.249675
    },
    "openings" : {
      "start" : [ 9, 12 ],
      "end" : [ 15, 25 ]
    },
    "preferredSlots" : null,
    "doAfter" : null,
    "nbEmpRequired" : 1,
    "deadline" : [ 9, 54 ],
    "skills" : [ {
      "id" : 1,
      "name" : "ENGINEER",
      "level" : 3
    }, {
      "id" : 7,
      "name" : "PAINTING",
      "level" : 2
    } ],
    "duration" : 1800.000000000,
    "pause" : false
  }, {
    "id" : 150,
    "desc" : "MASONRY",
    "location" : {
      "id" : 4441,
      "name" : null,
      "latitude" : 43.758816,
      "longitude" : 3.7211235
    },
    "openings" : {
      "start" : [ 9, 57 ],
      "end" : [ 16, 5 ]
    },
    "preferredSlots" : null,
    "doAfter" : null,
    "nbEmpRequired" : 1,
    "deadline" : [ 12, 32 ],
    "skills" : [ {
      "id" : 4,
      "name" : "MASONRY",
      "level" : 4
    } ],
    "duration" : 1800.000000000,
    "pause" : false
  }, {
    "id" : 920,
    "desc" : "GLAZING",
    "location" : {
      "id" : 86,
      "name" : null,
      "latitude" : 43.41126,
      "longitude" : 4.198646
    },
    "openings" : {
      "start" : [ 13, 37 ],
      "end" : [ 17, 25 ]
    },
    "preferredSlots" : null,
    "doAfter" : null,
    "nbEmpRequired" : 1,
    "deadline" : [ 13, 11 ],
    "skills" : [ {
      "id" : 5,
      "name" : "GLAZING",
      "level" : 2
    } ],
    "duration" : 3600.000000000,
    "pause" : false
  }, {
    "id" : 326,
    "desc" : "ELECTRICIAN, GLAZING",
    "location" : {
      "id" : 4785,
      "name" : null,
      "latitude" : 43.71357,
      "longitude" : 3.882639
    },
    "openings" : {
      "start" : [ 10, 21 ],
      "end" : [ 12, 29 ]
    },
    "preferredSlots" : null,
    "doAfter" : null,
    "nbEmpRequired" : 1,
    "deadline" : [ 9, 46 ],
    "skills" : [ {
      "id" : 2,
      "name" : "ELECTRICIAN",
      "level" : 3
    }, {
      "id" : 5,
      "name" : "GLAZING",
      "level" : 1
    } ],
    "duration" : 2700.000000000,
    "pause" : false
  }, {
    "id" : 901,
    "desc" : "IRONWORK",
    "location" : {
      "id" : 8879,
      "name" : null,
      "latitude" : 43.402367,
      "longitude" : 4.2162557
    },
    "openings" : {
      "start" : [ 14, 16 ],
      "end" : [ 14, 39 ]
    },
    "preferredSlots" : null,
    "doAfter" : null,
    "nbEmpRequired" : 1,
    "deadline" : [ 14, 47 ],
    "skills" : [ {
      "id" : 8,
      "name" : "IRONWORK",
      "level" : 2
    } ],
    "duration" : 7200.000000000,
    "pause" : false
  }, {
    "id" : 659,
    "desc" : "CARPENTRY",
    "location" : {
      "id" : 2148,
      "name" : null,
      "latitude" : 44.08773,
      "longitude" : 4.125467
    },
    "openings" : {
      "start" : [ 9, 20 ],
      "end" : [ 9, 27 ]
    },
    "preferredSlots" : null,
    "doAfter" : null,
    "nbEmpRequired" : 1,
    "deadline" : [ 11, 50 ],
    "skills" : [ {
      "id" : 6,
      "name" : "CARPENTRY",
      "level" : 3
    } ],
    "duration" : 2700.000000000,
    "pause" : false
  }, {
    "id" : 390,
    "desc" : "ELECTRICIAN, PLUMBING",
    "location" : {
      "id" : 5957,
      "name" : null,
      "latitude" : 43.97786,
      "longitude" : 3.776738
    },
    "openings" : {
      "start" : [ 12, 31 ],
      "end" : [ 14, 12 ]
    },
    "preferredSlots" : null,
    "doAfter" : null,
    "nbEmpRequired" : 1,
    "deadline" : [ 11, 32 ],
    "skills" : [ {
      "id" : 2,
      "name" : "ELECTRICIAN",
      "level" : 4
    }, {
      "id" : 3,
      "name" : "PLUMBING",
      "level" : 4
    } ],
    "duration" : 7200.000000000,
    "pause" : false
  }, {
    "id" : 117,
    "desc" : "ENGINEER",
    "location" : {
      "id" : 959,
      "name" : null,
      "latitude" : 43.72224,
      "longitude" : 4.117667
    },
    "openings" : {
      "start" : [ 10, 44 ],
      "end" : [ 11, 57 ]
    },
    "preferredSlots" : null,
    "doAfter" : null,
    "nbEmpRequired" : 1,
    "deadline" : [ 13, 6 ],
    "skills" : [ {
      "id" : 1,
      "name" : "ENGINEER",
      "level" : 5
    } ],
    "duration" : 2700.000000000,
    "pause" : false
  }, {
    "id" : 610,
    "desc" : "ENGINEER, MANAGEMENT",
    "location" : {
      "id" : 4225,
      "name" : null,
      "latitude" : 43.598465,
      "longitude" : 3.7274666
    },
    "openings" : {
      "start" : [ 10, 9 ],
      "end" : [ 15, 30 ]
    },
    "preferredSlots" : null,
    "doAfter" : null,
    "nbEmpRequired" : 1,
    "deadline" : [ 14, 32 ],
    "skills" : [ {
      "id" : 1,
      "name" : "ENGINEER",
      "level" : 2
    }, {
      "id" : 0,
      "name" : "MANAGEMENT",
      "level" : 1
    } ],
    "duration" : 2700.000000000,
    "pause" : false
  }, {
    "id" : 790,
    "desc" : "MASONRY",
    "location" : {
      "id" : 3429,
      "name" : null,
      "latitude" : 43.977417,
      "longitude" : 4.2798805
    },
    "openings" : {
      "start" : [ 13, 1 ],
      "end" : [ 16, 21 ]
    },
    "preferredSlots" : null,
    "doAfter" : null,
    "nbEmpRequired" : 1,
    "deadline" : [ 17, 50 ],
    "skills" : [ {
      "id" : 4,
      "name" : "MASONRY",
      "level" : 2
    } ],
    "duration" : 7200.000000000,
    "pause" : false
  }, {
    "id" : 317,
    "desc" : "MASONRY",
    "location" : {
      "id" : 6366,
      "name" : null,
      "latitude" : 44.055653,
      "longitude" : 3.837061
    },
    "openings" : {
      "start" : [ 11, 5 ],
      "end" : [ 11, 19 ]
    },
    "preferredSlots" : null,
    "doAfter" : null,
    "nbEmpRequired" : 1,
    "deadline" : [ 9, 19 ],
    "skills" : [ {
      "id" : 4,
      "name" : "MASONRY",
      "level" : 3
    } ],
    "duration" : 5400.000000000,
    "pause" : false
  } ],
  "employees" : [ {
    "id" : 714,
    "name" : "714",
    "shifts" : [ {
      "start" : [ 9, 0 ],
      "end" : [ 12, 0 ]
    }, {
      "start" : [ 13, 0 ],
      "end" : [ 17, 0 ]
    } ],
    "prefSlots" : null,
    "startingLoc" : {
      "id" : 8518,
      "name" : null,
      "latitude" : 43.548424,
      "longitude" : 4.158245
    },
    "skills" : [ {
      "id" : 8,
      "name" : "IRONWORK",
      "level" : 3
    }, {
      "id" : 5,
      "name" : "GLAZING",
      "level" : 1
    }, {
      "id" : 6,
      "name" : "CARPENTRY",
      "level" : 7
    }, {
      "id" : 1,
      "name" : "ENGINEER",
      "level" : 3
    }, {
      "id" : 1,
      "name" : "ENGINEER",
      "level" : 10
    } ]
  }, {
    "id" : 129,
    "name" : "129",
    "shifts" : [ {
      "start" : [ 9, 0 ],
      "end" : [ 12, 0 ]
    }, {
      "start" : [ 13, 0 ],
      "end" : [ 17, 0 ]
    } ],
    "prefSlots" : null,
    "startingLoc" : {
      "id" : 381,
      "name" : null,
      "latitude" : 43.46266,
      "longitude" : 3.722812
    },
    "skills" : [ {
      "id" : 0,
      "name" : "MANAGEMENT",
      "level" : 1
    }, {
      "id" : 2,
      "name" : "ELECTRICIAN",
      "level" : 6
    }, {
      "id" : 4,
      "name" : "MASONRY",
      "level" : 10
    }, {
      "id" : 8,
      "name" : "IRONWORK",
      "level" : 5
    }, {
      "id" : 5,
      "name" : "GLAZING",
      "level" : 7
    }, {
      "id" : 2,
      "name" : "ELECTRICIAN",
      "level" : 4
    }, {
      "id" : 6,
      "name" : "CARPENTRY",
      "level" : 4
    }, {
      "id" : 6,
      "name" : "CARPENTRY",
      "level" : 6
    }, {
      "id" : 6,
      "name" : "CARPENTRY",
      "level" : 3
    } ]
  }, {
    "id" : 585,
    "name" : "585",
    "shifts" : [ {
      "start" : [ 9, 0 ],
      "end" : [ 12, 0 ]
    }, {
      "start" : [ 13, 0 ],
      "end" : [ 17, 0 ]
    } ],
    "prefSlots" : null,
    "startingLoc" : {
      "id" : 3961,
      "name" : null,
      "latitude" : 43.663578,
      "longitude" : 4.172953
    },
    "skills" : [ {
      "id" : 5,
      "name" : "GLAZING",
      "level" : 1
    }, {
      "id" : 2,
      "name" : "ELECTRICIAN",
      "level" : 6
    }, {
      "id" : 2,
      "name" : "ELECTRICIAN",
      "level" : 1
    }, {
      "id" : 3,
      "name" : "PLUMBING",
      "level" : 9
    }, {
      "id" : 9,
      "name" : "TILER",
      "level" : 6
    }, {
      "id" : 1,
      "name" : "ENGINEER",
      "level" : 9
    } ]
  }, {
    "id" : 601,
    "name" : "601",
    "shifts" : [ {
      "start" : [ 9, 0 ],
      "end" : [ 12, 0 ]
    }, {
      "start" : [ 13, 0 ],
      "end" : [ 17, 0 ]
    } ],
    "prefSlots" : null,
    "startingLoc" : {
      "id" : 9470,
      "name" : null,
      "latitude" : 43.66175,
      "longitude" : 3.7846196
    },
    "skills" : [ {
      "id" : 3,
      "name" : "PLUMBING",
      "level" : 10
    }, {
      "id" : 5,
      "name" : "GLAZING",
      "level" : 1
    }, {
      "id" : 1,
      "name" : "ENGINEER",
      "level" : 10
    }, {
      "id" : 2,
      "name" : "ELECTRICIAN",
      "level" : 7
    }, {
      "id" : 7,
      "name" : "PAINTING",
      "level" : 8
    }, {
      "id" : 7,
      "name" : "PAINTING",
      "level" : 3
    }, {
      "id" : 5,
      "name" : "GLAZING",
      "level" : 2
    }, {
      "id" : 4,
      "name" : "MASONRY",
      "level" : 10
    }, {
      "id" : 3,
      "name" : "PLUMBING",
      "level" : 7
    }, {
      "id" : 4,
      "name" : "MASONRY",
      "level" : 2
    } ]
  }, {
    "id" : 57,
    "name" : "57",
    "shifts" : [ {
      "start" : [ 9, 0 ],
      "end" : [ 12, 0 ]
    }, {
      "start" : [ 13, 0 ],
      "end" : [ 17, 0 ]
    } ],
    "prefSlots" : null,
    "startingLoc" : {
      "id" : 837,
      "name" : null,
      "latitude" : 43.766773,
      "longitude" : 3.81544
    },
    "skills" : [ {
      "id" : 2,
      "name" : "ELECTRICIAN",
      "level" : 9
    }, {
      "id" : 1,
      "name" : "ENGINEER",
      "level" : 4
    }, {
      "id" : 6,
      "name" : "CARPENTRY",
      "level" : 6
    }, {
      "id" : 0,
      "name" : "MANAGEMENT",
      "level" : 8
    }, {
      "id" : 6,
      "name" : "CARPENTRY",
      "level" : 5
    } ]
  }, {
    "id" : 590,
    "name" : "590",
    "shifts" : [ {
      "start" : [ 9, 0 ],
      "end" : [ 12, 0 ]
    }, {
      "start" : [ 13, 0 ],
      "end" : [ 17, 0 ]
    } ],
    "prefSlots" : null,
    "startingLoc" : {
      "id" : 3774,
      "name" : null,
      "latitude" : 43.6229,
      "longitude" : 3.7221508
    },
    "skills" : [ {
      "id" : 3,
      "name" : "PLUMBING",
      "level" : 10
    }, {
      "id" : 9,
      "name" : "TILER",
      "level" : 10
    } ]
  }, {
    "id" : 449,
    "name" : "449",
    "shifts" : [ {
      "start" : [ 9, 0 ],
      "end" : [ 12, 0 ]
    }, {
      "start" : [ 13, 0 ],
      "end" : [ 17, 0 ]
    } ],
    "prefSlots" : null,
    "startingLoc" : {
      "id" : 6852,
      "name" : null,
      "latitude" : 44.03125,
      "longitude" : 3.8783622
    },
    "skills" : [ {
      "id" : 5,
      "name" : "GLAZING",
      "level" : 2
    }, {
      "id" : 5,
      "name" : "GLAZING",
      "level" : 7
    }, {
      "id" : 6,
      "name" : "CARPENTRY",
      "level" : 2
    }, {
      "id" : 5,
      "name" : "GLAZING",
      "level" : 3
    }, {
      "id" : 8,
      "name" : "IRONWORK",
      "level" : 2
    }, {
      "id" : 8,
      "name" : "IRONWORK",
      "level" : 6
    }, {
      "id" : 0,
      "name" : "MANAGEMENT",
      "level" : 10
    } ]
  }, {
    "id" : 534,
    "name" : "534",
    "shifts" : [ {
      "start" : [ 9, 0 ],
      "end" : [ 12, 0 ]
    }, {
      "start" : [ 13, 0 ],
      "end" : [ 17, 0 ]
    } ],
    "prefSlots" : null,
    "startingLoc" : {
      "id" : 9399,
      "name" : null,
      "latitude" : 43.865322,
      "longitude" : 3.8735695
    },
    "skills" : [ {
      "id" : 4,
      "name" : "MASONRY",
      "level" : 8
    }, {
      "id" : 3,
      "name" : "PLUMBING",
      "level" : 9
    }, {
      "id" : 9,
      "name" : "TILER",
      "level" : 1
    }, {
      "id" : 9,
      "name" : "TILER",
      "level" : 1
    } ]
  }, {
    "id" : 436,
    "name" : "436",
    "shifts" : [ {
      "start" : [ 9, 0 ],
      "end" : [ 12, 0 ]
    }, {
      "start" : [ 13, 0 ],
      "end" : [ 17, 0 ]
    } ],
    "prefSlots" : null,
    "startingLoc" : {
      "id" : 5657,
      "name" : null,
      "latitude" : 43.577705,
      "longitude" : 3.8125443
    },
    "skills" : [ {
      "id" : 3,
      "name" : "PLUMBING",
      "level" : 6
    }, {
      "id" : 2,
      "name" : "ELECTRICIAN",
      "level" : 3
    }, {
      "id" : 1,
      "name" : "ENGINEER",
      "level" : 10
    }, {
      "id" : 6,
      "name" : "CARPENTRY",
      "level" : 5
    }, {
      "id" : 9,
      "name" : "TILER",
      "level" : 8
    }, {
      "id" : 8,
      "name" : "IRONWORK",
      "level" : 6
    }, {
      "id" : 0,
      "name" : "MANAGEMENT",
      "level" : 7
    }, {
      "id" : 0,
      "name" : "MANAGEMENT",
      "level" : 3
    }, {
      "id" : 3,
      "name" : "PLUMBING",
      "level" : 9
    } ]
  }, {
    "id" : 20,
    "name" : "20",
    "shifts" : [ {
      "start" : [ 9, 0 ],
      "end" : [ 12, 0 ]
    }, {
      "start" : [ 13, 0 ],
      "end" : [ 17, 0 ]
    } ],
    "prefSlots" : null,
    "startingLoc" : {
      "id" : 8713,
      "name" : null,
      "latitude" : 44.01867,
      "longitude" : 4.11301
    },
    "skills" : [ {
      "id" : 1,
      "name" : "ENGINEER",
      "level" : 5
    }, {
      "id" : 4,
      "name" : "MASONRY",
      "level" : 10
    }, {
      "id" : 2,
      "name" : "ELECTRICIAN",
      "level" : 7
    }, {
      "id" : 6,
      "name" : "CARPENTRY",
      "level" : 7
    }, {
      "id" : 8,
      "name" : "IRONWORK",
      "level" : 6
    }, {
      "id" : 4,
      "name" : "MASONRY",
      "level" : 10
    }, {
      "id" : 1,
      "name" : "ENGINEER",
      "level" : 4
    } ]
  }, {
    "id" : 184,
    "name" : "184",
    "shifts" : [ {
      "start" : [ 9, 0 ],
      "end" : [ 12, 0 ]
    }, {
      "start" : [ 13, 0 ],
      "end" : [ 17, 0 ]
    } ],
    "prefSlots" : null,
    "startingLoc" : {
      "id" : 4618,
      "name" : null,
      "latitude" : 43.441673,
      "longitude" : 3.9091918
    },
    "skills" : [ {
      "id" : 8,
      "name" : "IRONWORK",
      "level" : 5
    } ]
  }, {
    "id" : 310,
    "name" : "310",
    "shifts" : [ {
      "start" : [ 9, 0 ],
      "end" : [ 12, 0 ]
    }, {
      "start" : [ 13, 0 ],
      "end" : [ 17, 0 ]
    } ],
    "prefSlots" : null,
    "startingLoc" : {
      "id" : 3662,
      "name" : null,
      "latitude" : 43.48485,
      "longitude" : 4.017234
    },
    "skills" : [ {
      "id" : 2,
      "name" : "ELECTRICIAN",
      "level" : 9
    }, {
      "id" : 9,
      "name" : "TILER",
      "level" : 2
    }, {
      "id" : 9,
      "name" : "TILER",
      "level" : 5
    }, {
      "id" : 4,
      "name" : "MASONRY",
      "level" : 7
    }, {
      "id" : 5,
      "name" : "GLAZING",
      "level" : 10
    }, {
      "id" : 9,
      "name" : "TILER",
      "level" : 1
    }, {
      "id" : 3,
      "name" : "PLUMBING",
      "level" : 8
    }, {
      "id" : 6,
      "name" : "CARPENTRY",
      "level" : 2
    }, {
      "id" : 2,
      "name" : "ELECTRICIAN",
      "level" : 5
    }, {
      "id" : 8,
      "name" : "IRONWORK",
      "level" : 4
    } ]
  }, {
    "id" : 628,
    "name" : "628",
    "shifts" : [ {
      "start" : [ 9, 0 ],
      "end" : [ 12, 0 ]
    }, {
      "start" : [ 13, 0 ],
      "end" : [ 17, 0 ]
    } ],
    "prefSlots" : null,
    "startingLoc" : {
      "id" : 7980,
      "name" : null,
      "latitude" : 43.958088,
      "longitude" : 4.168942
    },
    "skills" : [ {
      "id" : 1,
      "name" : "ENGINEER",
      "level" : 8
    }, {
      "id" : 5,
      "name" : "GLAZING",
      "level" : 9
    }, {
      "id" : 5,
      "name" : "GLAZING",
      "level" : 4
    }, {
      "id" : 2,
      "name" : "ELECTRICIAN",
      "level" : 10
    } ]
  }, {
    "id" : 208,
    "name" : "208",
    "shifts" : [ {
      "start" : [ 9, 0 ],
      "end" : [ 12, 0 ]
    }, {
      "start" : [ 13, 0 ],
      "end" : [ 17, 0 ]
    } ],
    "prefSlots" : null,
    "startingLoc" : {
      "id" : 6435,
      "name" : null,
      "latitude" : 44.022175,
      "longitude" : 4.091778
    },
    "skills" : [ {
      "id" : 5,
      "name" : "GLAZING",
      "level" : 9
    }, {
      "id" : 8,
      "name" : "IRONWORK",
      "level" : 10
    }, {
      "id" : 7,
      "name" : "PAINTING",
      "level" : 2
    }, {
      "id" : 2,
      "name" : "ELECTRICIAN",
      "level" : 4
    }, {
      "id" : 0,
      "name" : "MANAGEMENT",
      "level" : 10
    }, {
      "id" : 3,
      "name" : "PLUMBING",
      "level" : 7
    }, {
      "id" : 0,
      "name" : "MANAGEMENT",
      "level" : 2
    } ]
  }, {
    "id" : 770,
    "name" : "770",
    "shifts" : [ {
      "start" : [ 9, 0 ],
      "end" : [ 12, 0 ]
    }, {
      "start" : [ 13, 0 ],
      "end" : [ 17, 0 ]
    } ],
    "prefSlots" : null,
    "startingLoc" : {
      "id" : 5447,
      "name" : null,
      "latitude" : 43.773106,
      "longitude" : 3.765068
    },
    "skills" : [ {
      "id" : 8,
      "name" : "IRONWORK",
      "level" : 3
    }, {
      "id" : 4,
      "name" : "MASONRY",
      "level" : 4
    }, {
      "id" : 8,
      "name" : "IRONWORK",
      "level" : 2
    }, {
      "id" : 8,
      "name" : "IRONWORK",
      "level" : 7
    } ]
  }, {
    "id" : 881,
    "name" : "881",
    "shifts" : [ {
      "start" : [ 9, 0 ],
      "end" : [ 12, 0 ]
    }, {
      "start" : [ 13, 0 ],
      "end" : [ 17, 0 ]
    } ],
    "prefSlots" : null,
    "startingLoc" : {
      "id" : 1342,
      "name" : null,
      "latitude" : 43.76487,
      "longitude" : 3.7687194
    },
    "skills" : [ {
      "id" : 2,
      "name" : "ELECTRICIAN",
      "level" : 5
    }, {
      "id" : 0,
      "name" : "MANAGEMENT",
      "level" : 3
    }, {
      "id" : 0,
      "name" : "MANAGEMENT",
      "level" : 1
    } ]
  }, {
    "id" : 225,
    "name" : "225",
    "shifts" : [ {
      "start" : [ 9, 0 ],
      "end" : [ 12, 0 ]
    }, {
      "start" : [ 13, 0 ],
      "end" : [ 17, 0 ]
    } ],
    "prefSlots" : null,
    "startingLoc" : {
      "id" : 8396,
      "name" : null,
      "latitude" : 43.69683,
      "longitude" : 4.202572
    },
    "skills" : [ {
      "id" : 0,
      "name" : "MANAGEMENT",
      "level" : 3
    }, {
      "id" : 7,
      "name" : "PAINTING",
      "level" : 8
    }, {
      "id" : 1,
      "name" : "ENGINEER",
      "level" : 10
    }, {
      "id" : 6,
      "name" : "CARPENTRY",
      "level" : 10
    }, {
      "id" : 8,
      "name" : "IRONWORK",
      "level" : 9
    }, {
      "id" : 7,
      "name" : "PAINTING",
      "level" : 3
    }, {
      "id" : 8,
      "name" : "IRONWORK",
      "level" : 2
    }, {
      "id" : 6,
      "name" : "CARPENTRY",
      "level" : 2
    }, {
      "id" : 5,
      "name" : "GLAZING",
      "level" : 4
    } ]
  }, {
    "id" : 789,
    "name" : "789",
    "shifts" : [ {
      "start" : [ 9, 0 ],
      "end" : [ 12, 0 ]
    }, {
      "start" : [ 13, 0 ],
      "end" : [ 17, 0 ]
    } ],
    "prefSlots" : null,
    "startingLoc" : {
      "id" : 3970,
      "name" : null,
      "latitude" : 43.933125,
      "longitude" : 4.029731
    },
    "skills" : [ {
      "id" : 7,
      "name" : "PAINTING",
      "level" : 2
    }, {
      "id" : 1,
      "name" : "ENGINEER",
      "level" : 3
    }, {
      "id" : 4,
      "name" : "MASONRY",
      "level" : 9
    }, {
      "id" : 4,
      "name" : "MASONRY",
      "level" : 2
    } ]
  }, {
    "id" : 715,
    "name" : "715",
    "shifts" : [ {
      "start" : [ 9, 0 ],
      "end" : [ 12, 0 ]
    }, {
      "start" : [ 13, 0 ],
      "end" : [ 17, 0 ]
    } ],
    "prefSlots" : null,
    "startingLoc" : {
      "id" : 4309,
      "name" : null,
      "latitude" : 43.585136,
      "longitude" : 3.7836628
    },
    "skills" : [ {
      "id" : 5,
      "name" : "GLAZING",
      "level" : 2
    }, {
      "id" : 7,
      "name" : "PAINTING",
      "level" : 10
    }, {
      "id" : 5,
      "name" : "GLAZING",
      "level" : 3
    }, {
      "id" : 1,
      "name" : "ENGINEER",
      "level" : 4
    } ]
  }, {
    "id" : 8,
    "name" : "8",
    "shifts" : [ {
      "start" : [ 9, 0 ],
      "end" : [ 12, 0 ]
    }, {
      "start" : [ 13, 0 ],
      "end" : [ 17, 0 ]
    } ],
    "prefSlots" : null,
    "startingLoc" : {
      "id" : 152,
      "name" : null,
      "latitude" : 43.967724,
      "longitude" : 4.1446753
    },
    "skills" : [ {
      "id" : 2,
      "name" : "ELECTRICIAN",
      "level" : 2
    }, {
      "id" : 4,
      "name" : "MASONRY",
      "level" : 10
    }, {
      "id" : 2,
      "name" : "ELECTRICIAN",
      "level" : 6
    }, {
      "id" : 8,
      "name" : "IRONWORK",
      "level" : 3
    }, {
      "id" : 0,
      "name" : "MANAGEMENT",
      "level" : 9
    }, {
      "id" : 8,
      "name" : "IRONWORK",
      "level" : 5
    } ]
  } ],
  "appointments" : [ {
    "job" : {
      "id" : 756,
      "desc" : "IRONWORK",
      "location" : {
        "id" : 2678,
        "name" : null,
        "latitude" : 43.904297,
        "longitude" : 3.977007
      },
      "openings" : {
        "start" : [ 12, 27 ],
        "end" : [ 13, 33 ]
      },
      "preferredSlots" : null,
      "doAfter" : null,
      "nbEmpRequired" : 1,
      "deadline" : [ 12, 48 ],
      "skills" : [ {
        "id" : 8,
        "name" : "IRONWORK",
        "level" : 5
      } ],
      "duration" : 3600.000000000,
      "pause" : false
    },
    "needed" : [ {
      "id" : 715,
      "name" : "715",
      "shifts" : [ {
        "start" : [ 9, 0 ],
        "end" : [ 12, 0 ]
      }, {
        "start" : [ 13, 0 ],
        "end" : [ 17, 0 ]
      } ],
      "prefSlots" : null,
      "startingLoc" : {
        "id" : 4309,
        "name" : null,
        "latitude" : 43.585136,
        "longitude" : 3.7836628
      },
      "skills" : [ {
        "id" : 5,
        "name" : "GLAZING",
        "level" : 2
      }, {
        "id" : 7,
        "name" : "PAINTING",
        "level" : 10
      }, {
        "id" : 5,
        "name" : "GLAZING",
        "level" : 3
      }, {
        "id" : 1,
        "name" : "ENGINEER",
        "level" : 4
      } ]
    }, {
      "id" : 57,
      "name" : "57",
      "shifts" : [ {
        "start" : [ 9, 0 ],
        "end" : [ 12, 0 ]
      }, {
        "start" : [ 13, 0 ],
        "end" : [ 17, 0 ]
      } ],
      "prefSlots" : null,
      "startingLoc" : {
        "id" : 837,
        "name" : null,
        "latitude" : 43.766773,
        "longitude" : 3.81544
      },
      "skills" : [ {
        "id" : 2,
        "name" : "ELECTRICIAN",
        "level" : 9
      }, {
        "id" : 1,
        "name" : "ENGINEER",
        "level" : 4
      }, {
        "id" : 6,
        "name" : "CARPENTRY",
        "level" : 6
      }, {
        "id" : 0,
        "name" : "MANAGEMENT",
        "level" : 8
      }, {
        "id" : 6,
        "name" : "CARPENTRY",
        "level" : 5
      } ]
    }, {
      "id" : 534,
      "name" : "534",
      "shifts" : [ {
        "start" : [ 9, 0 ],
        "end" : [ 12, 0 ]
      }, {
        "start" : [ 13, 0 ],
        "end" : [ 17, 0 ]
      } ],
      "prefSlots" : null,
      "startingLoc" : {
        "id" : 9399,
        "name" : null,
        "latitude" : 43.865322,
        "longitude" : 3.8735695
      },
      "skills" : [ {
        "id" : 4,
        "name" : "MASONRY",
        "level" : 8
      }, {
        "id" : 3,
        "name" : "PLUMBING",
        "level" : 9
      }, {
        "id" : 9,
        "name" : "TILER",
        "level" : 1
      }, {
        "id" : 9,
        "name" : "TILER",
        "level" : 1
      } ]
    }, {
      "id" : 628,
      "name" : "628",
      "shifts" : [ {
        "start" : [ 9, 0 ],
        "end" : [ 12, 0 ]
      }, {
        "start" : [ 13, 0 ],
        "end" : [ 17, 0 ]
      } ],
      "prefSlots" : null,
      "startingLoc" : {
        "id" : 7980,
        "name" : null,
        "latitude" : 43.958088,
        "longitude" : 4.168942
      },
      "skills" : [ {
        "id" : 1,
        "name" : "ENGINEER",
        "level" : 8
      }, {
        "id" : 5,
        "name" : "GLAZING",
        "level" : 9
      }, {
        "id" : 5,
        "name" : "GLAZING",
        "level" : 4
      }, {
        "id" : 2,
        "name" : "ELECTRICIAN",
        "level" : 10
      } ]
    }, {
      "id" : 436,
      "name" : "436",
      "shifts" : [ {
        "start" : [ 9, 0 ],
        "end" : [ 12, 0 ]
      }, {
        "start" : [ 13, 0 ],
        "end" : [ 17, 0 ]
      } ],
      "prefSlots" : null,
      "startingLoc" : {
        "id" : 5657,
        "name" : null,
        "latitude" : 43.577705,
        "longitude" : 3.8125443
      },
      "skills" : [ {
        "id" : 3,
        "name" : "PLUMBING",
        "level" : 6
      }, {
        "id" : 2,
        "name" : "ELECTRICIAN",
        "level" : 3
      }, {
        "id" : 1,
        "name" : "ENGINEER",
        "level" : 10
      }, {
        "id" : 6,
        "name" : "CARPENTRY",
        "level" : 5
      }, {
        "id" : 9,
        "name" : "TILER",
        "level" : 8
      }, {
        "id" : 8,
        "name" : "IRONWORK",
        "level" : 6
      }, {
        "id" : 0,
        "name" : "MANAGEMENT",
        "level" : 7
      }, {
        "id" : 0,
        "name" : "MANAGEMENT",
        "level" : 3
      }, {
        "id" : 3,
        "name" : "PLUMBING",
        "level" : 9
      } ]
    }, {
      "id" : 770,
      "name" : "770",
      "shifts" : [ {
        "start" : [ 9, 0 ],
        "end" : [ 12, 0 ]
      }, {
        "start" : [ 13, 0 ],
        "end" : [ 17, 0 ]
      } ],
      "prefSlots" : null,
      "startingLoc" : {
        "id" : 5447,
        "name" : null,
        "latitude" : 43.773106,
        "longitude" : 3.765068
      },
      "skills" : [ {
        "id" : 8,
        "name" : "IRONWORK",
        "level" : 3
      }, {
        "id" : 4,
        "name" : "MASONRY",
        "level" : 4
      }, {
        "id" : 8,
        "name" : "IRONWORK",
        "level" : 2
      }, {
        "id" : 8,
        "name" : "IRONWORK",
        "level" : 7
      } ]
    }, {
      "id" : 585,
      "name" : "585",
      "shifts" : [ {
        "start" : [ 9, 0 ],
        "end" : [ 12, 0 ]
      }, {
        "start" : [ 13, 0 ],
        "end" : [ 17, 0 ]
      } ],
      "prefSlots" : null,
      "startingLoc" : {
        "id" : 3961,
        "name" : null,
        "latitude" : 43.663578,
        "longitude" : 4.172953
      },
      "skills" : [ {
        "id" : 5,
        "name" : "GLAZING",
        "level" : 1
      }, {
        "id" : 2,
        "name" : "ELECTRICIAN",
        "level" : 6
      }, {
        "id" : 2,
        "name" : "ELECTRICIAN",
        "level" : 1
      }, {
        "id" : 3,
        "name" : "PLUMBING",
        "level" : 9
      }, {
        "id" : 9,
        "name" : "TILER",
        "level" : 6
      }, {
        "id" : 1,
        "name" : "ENGINEER",
        "level" : 9
      } ]
    }, {
      "id" : 225,
      "name" : "225",
      "shifts" : [ {
        "start" : [ 9, 0 ],
        "end" : [ 12, 0 ]
      }, {
        "start" : [ 13, 0 ],
        "end" : [ 17, 0 ]
      } ],
      "prefSlots" : null,
      "startingLoc" : {
        "id" : 8396,
        "name" : null,
        "latitude" : 43.69683,
        "longitude" : 4.202572
      },
      "skills" : [ {
        "id" : 0,
        "name" : "MANAGEMENT",
        "level" : 3
      }, {
        "id" : 7,
        "name" : "PAINTING",
        "level" : 8
      }, {
        "id" : 1,
        "name" : "ENGINEER",
        "level" : 10
      }, {
        "id" : 6,
        "name" : "CARPENTRY",
        "level" : 10
      }, {
        "id" : 8,
        "name" : "IRONWORK",
        "level" : 9
      }, {
        "id" : 7,
        "name" : "PAINTING",
        "level" : 3
      }, {
        "id" : 8,
        "name" : "IRONWORK",
        "level" : 2
      }, {
        "id" : 6,
        "name" : "CARPENTRY",
        "level" : 2
      }, {
        "id" : 5,
        "name" : "GLAZING",
        "level" : 4
      } ]
    }, {
      "id" : 590,
      "name" : "590",
      "shifts" : [ {
        "start" : [ 9, 0 ],
        "end" : [ 12, 0 ]
      }, {
        "start" : [ 13, 0 ],
        "end" : [ 17, 0 ]
      } ],
      "prefSlots" : null,
      "startingLoc" : {
        "id" : 3774,
        "name" : null,
        "latitude" : 43.6229,
        "longitude" : 3.7221508
      },
      "skills" : [ {
        "id" : 3,
        "name" : "PLUMBING",
        "level" : 10
      }, {
        "id" : 9,
        "name" : "TILER",
        "level" : 10
      } ]
    }, {
      "id" : 714,
      "name" : "714",
      "shifts" : [ {
        "start" : [ 9, 0 ],
        "end" : [ 12, 0 ]
      }, {
        "start" : [ 13, 0 ],
        "end" : [ 17, 0 ]
      } ],
      "prefSlots" : null,
      "startingLoc" : {
        "id" : 8518,
        "name" : null,
        "latitude" : 43.548424,
        "longitude" : 4.158245
      },
      "skills" : [ {
        "id" : 8,
        "name" : "IRONWORK",
        "level" : 3
      }, {
        "id" : 5,
        "name" : "GLAZING",
        "level" : 1
      }, {
        "id" : 6,
        "name" : "CARPENTRY",
        "level" : 7
      }, {
        "id" : 1,
        "name" : "ENGINEER",
        "level" : 3
      }, {
        "id" : 1,
        "name" : "ENGINEER",
        "level" : 10
      } ]
    }, {
      "id" : 8,
      "name" : "8",
      "shifts" : [ {
        "start" : [ 9, 0 ],
        "end" : [ 12, 0 ]
      }, {
        "start" : [ 13, 0 ],
        "end" : [ 17, 0 ]
      } ],
      "prefSlots" : null,
      "startingLoc" : {
        "id" : 152,
        "name" : null,
        "latitude" : 43.967724,
        "longitude" : 4.1446753
      },
      "skills" : [ {
        "id" : 2,
        "name" : "ELECTRICIAN",
        "level" : 2
      }, {
        "id" : 4,
        "name" : "MASONRY",
        "level" : 10
      }, {
        "id" : 2,
        "name" : "ELECTRICIAN",
        "level" : 6
      }, {
        "id" : 8,
        "name" : "IRONWORK",
        "level" : 3
      }, {
        "id" : 0,
        "name" : "MANAGEMENT",
        "level" : 9
      }, {
        "id" : 8,
        "name" : "IRONWORK",
        "level" : 5
      } ]
    }, {
      "id" : 184,
      "name" : "184",
      "shifts" : [ {
        "start" : [ 9, 0 ],
        "end" : [ 12, 0 ]
      }, {
        "start" : [ 13, 0 ],
        "end" : [ 17, 0 ]
      } ],
      "prefSlots" : null,
      "startingLoc" : {
        "id" : 4618,
        "name" : null,
        "latitude" : 43.441673,
        "longitude" : 3.9091918
      },
      "skills" : [ {
        "id" : 8,
        "name" : "IRONWORK",
        "level" : 5
      } ]
    }, {
      "id" : 601,
      "name" : "601",
      "shifts" : [ {
        "start" : [ 9, 0 ],
        "end" : [ 12, 0 ]
      }, {
        "start" : [ 13, 0 ],
        "end" : [ 17, 0 ]
      } ],
      "prefSlots" : null,
      "startingLoc" : {
        "id" : 9470,
        "name" : null,
        "latitude" : 43.66175,
        "longitude" : 3.7846196
      },
      "skills" : [ {
        "id" : 3,
        "name" : "PLUMBING",
        "level" : 10
      }, {
        "id" : 5,
        "name" : "GLAZING",
        "level" : 1
      }, {
        "id" : 1,
        "name" : "ENGINEER",
        "level" : 10
      }, {
        "id" : 2,
        "name" : "ELECTRICIAN",
        "level" : 7
      }, {
        "id" : 7,
        "name" : "PAINTING",
        "level" : 8
      }, {
        "id" : 7,
        "name" : "PAINTING",
        "level" : 3
      }, {
        "id" : 5,
        "name" : "GLAZING",
        "level" : 2
      }, {
        "id" : 4,
        "name" : "MASONRY",
        "level" : 10
      }, {
        "id" : 3,
        "name" : "PLUMBING",
        "level" : 7
      }, {
        "id" : 4,
        "name" : "MASONRY",
        "level" : 2
      } ]
    }, {
      "id" : 310,
      "name" : "310",
      "shifts" : [ {
        "start" : [ 9, 0 ],
        "end" : [ 12, 0 ]
      }, {
        "start" : [ 13, 0 ],
        "end" : [ 17, 0 ]
      } ],
      "prefSlots" : null,
      "startingLoc" : {
        "id" : 3662,
        "name" : null,
        "latitude" : 43.48485,
        "longitude" : 4.017234
      },
      "skills" : [ {
        "id" : 2,
        "name" : "ELECTRICIAN",
        "level" : 9
      }, {
        "id" : 9,
        "name" : "TILER",
        "level" : 2
      }, {
        "id" : 9,
        "name" : "TILER",
        "level" : 5
      }, {
        "id" : 4,
        "name" : "MASONRY",
        "level" : 7
      }, {
        "id" : 5,
        "name" : "GLAZING",
        "level" : 10
      }, {
        "id" : 9,
        "name" : "TILER",
        "level" : 1
      }, {
        "id" : 3,
        "name" : "PLUMBING",
        "level" : 8
      }, {
        "id" : 6,
        "name" : "CARPENTRY",
        "level" : 2
      }, {
        "id" : 2,
        "name" : "ELECTRICIAN",
        "level" : 5
      }, {
        "id" : 8,
        "name" : "IRONWORK",
        "level" : 4
      } ]
    }, {
      "id" : 129,
      "name" : "129",
      "shifts" : [ {
        "start" : [ 9, 0 ],
        "end" : [ 12, 0 ]
      }, {
        "start" : [ 13, 0 ],
        "end" : [ 17, 0 ]
      } ],
      "prefSlots" : null,
      "startingLoc" : {
        "id" : 381,
        "name" : null,
        "latitude" : 43.46266,
        "longitude" : 3.722812
      },
      "skills" : [ {
        "id" : 0,
        "name" : "MANAGEMENT",
        "level" : 1
      }, {
        "id" : 2,
        "name" : "ELECTRICIAN",
        "level" : 6
      }, {
        "id" : 4,
        "name" : "MASONRY",
        "level" : 10
      }, {
        "id" : 8,
        "name" : "IRONWORK",
        "level" : 5
      }, {
        "id" : 5,
        "name" : "GLAZING",
        "level" : 7
      }, {
        "id" : 2,
        "name" : "ELECTRICIAN",
        "level" : 4
      }, {
        "id" : 6,
        "name" : "CARPENTRY",
        "level" : 4
      }, {
        "id" : 6,
        "name" : "CARPENTRY",
        "level" : 6
      }, {
        "id" : 6,
        "name" : "CARPENTRY",
        "level" : 3
      } ]
    } ]
  }, {
    "job" : {
      "id" : 244,
      "desc" : "PLUMBING, IRONWORK",
      "location" : {
        "id" : 8476,
        "name" : null,
        "latitude" : 44.06365,
        "longitude" : 4.030038
      },
      "openings" : {
        "start" : [ 10, 51 ],
        "end" : [ 12, 40 ]
      },
      "preferredSlots" : null,
      "doAfter" : null,
      "nbEmpRequired" : 1,
      "deadline" : [ 11, 38 ],
      "skills" : [ {
        "id" : 3,
        "name" : "PLUMBING",
        "level" : 5
      }, {
        "id" : 8,
        "name" : "IRONWORK",
        "level" : 1
      } ],
      "duration" : 7200.000000000,
      "pause" : false
    },
    "needed" : [ {
      "id" : 57,
      "name" : "57",
      "shifts" : [ {
        "start" : [ 9, 0 ],
        "end" : [ 12, 0 ]
      }, {
        "start" : [ 13, 0 ],
        "end" : [ 17, 0 ]
      } ],
      "prefSlots" : null,
      "startingLoc" : {
        "id" : 837,
        "name" : null,
        "latitude" : 43.766773,
        "longitude" : 3.81544
      },
      "skills" : [ {
        "id" : 2,
        "name" : "ELECTRICIAN",
        "level" : 9
      }, {
        "id" : 1,
        "name" : "ENGINEER",
        "level" : 4
      }, {
        "id" : 6,
        "name" : "CARPENTRY",
        "level" : 6
      }, {
        "id" : 0,
        "name" : "MANAGEMENT",
        "level" : 8
      }, {
        "id" : 6,
        "name" : "CARPENTRY",
        "level" : 5
      } ]
    }, {
      "id" : 184,
      "name" : "184",
      "shifts" : [ {
        "start" : [ 9, 0 ],
        "end" : [ 12, 0 ]
      }, {
        "start" : [ 13, 0 ],
        "end" : [ 17, 0 ]
      } ],
      "prefSlots" : null,
      "startingLoc" : {
        "id" : 4618,
        "name" : null,
        "latitude" : 43.441673,
        "longitude" : 3.9091918
      },
      "skills" : [ {
        "id" : 8,
        "name" : "IRONWORK",
        "level" : 5
      } ]
    }, {
      "id" : 789,
      "name" : "789",
      "shifts" : [ {
        "start" : [ 9, 0 ],
        "end" : [ 12, 0 ]
      }, {
        "start" : [ 13, 0 ],
        "end" : [ 17, 0 ]
      } ],
      "prefSlots" : null,
      "startingLoc" : {
        "id" : 3970,
        "name" : null,
        "latitude" : 43.933125,
        "longitude" : 4.029731
      },
      "skills" : [ {
        "id" : 7,
        "name" : "PAINTING",
        "level" : 2
      }, {
        "id" : 1,
        "name" : "ENGINEER",
        "level" : 3
      }, {
        "id" : 4,
        "name" : "MASONRY",
        "level" : 9
      }, {
        "id" : 4,
        "name" : "MASONRY",
        "level" : 2
      } ]
    }, {
      "id" : 881,
      "name" : "881",
      "shifts" : [ {
        "start" : [ 9, 0 ],
        "end" : [ 12, 0 ]
      }, {
        "start" : [ 13, 0 ],
        "end" : [ 17, 0 ]
      } ],
      "prefSlots" : null,
      "startingLoc" : {
        "id" : 1342,
        "name" : null,
        "latitude" : 43.76487,
        "longitude" : 3.7687194
      },
      "skills" : [ {
        "id" : 2,
        "name" : "ELECTRICIAN",
        "level" : 5
      }, {
        "id" : 0,
        "name" : "MANAGEMENT",
        "level" : 3
      }, {
        "id" : 0,
        "name" : "MANAGEMENT",
        "level" : 1
      } ]
    }, {
      "id" : 715,
      "name" : "715",
      "shifts" : [ {
        "start" : [ 9, 0 ],
        "end" : [ 12, 0 ]
      }, {
        "start" : [ 13, 0 ],
        "end" : [ 17, 0 ]
      } ],
      "prefSlots" : null,
      "startingLoc" : {
        "id" : 4309,
        "name" : null,
        "latitude" : 43.585136,
        "longitude" : 3.7836628
      },
      "skills" : [ {
        "id" : 5,
        "name" : "GLAZING",
        "level" : 2
      }, {
        "id" : 7,
        "name" : "PAINTING",
        "level" : 10
      }, {
        "id" : 5,
        "name" : "GLAZING",
        "level" : 3
      }, {
        "id" : 1,
        "name" : "ENGINEER",
        "level" : 4
      } ]
    }, {
      "id" : 714,
      "name" : "714",
      "shifts" : [ {
        "start" : [ 9, 0 ],
        "end" : [ 12, 0 ]
      }, {
        "start" : [ 13, 0 ],
        "end" : [ 17, 0 ]
      } ],
      "prefSlots" : null,
      "startingLoc" : {
        "id" : 8518,
        "name" : null,
        "latitude" : 43.548424,
        "longitude" : 4.158245
      },
      "skills" : [ {
        "id" : 8,
        "name" : "IRONWORK",
        "level" : 3
      }, {
        "id" : 5,
        "name" : "GLAZING",
        "level" : 1
      }, {
        "id" : 6,
        "name" : "CARPENTRY",
        "level" : 7
      }, {
        "id" : 1,
        "name" : "ENGINEER",
        "level" : 3
      }, {
        "id" : 1,
        "name" : "ENGINEER",
        "level" : 10
      } ]
    }, {
      "id" : 20,
      "name" : "20",
      "shifts" : [ {
        "start" : [ 9, 0 ],
        "end" : [ 12, 0 ]
      }, {
        "start" : [ 13, 0 ],
        "end" : [ 17, 0 ]
      } ],
      "prefSlots" : null,
      "startingLoc" : {
        "id" : 8713,
        "name" : null,
        "latitude" : 44.01867,
        "longitude" : 4.11301
      },
      "skills" : [ {
        "id" : 1,
        "name" : "ENGINEER",
        "level" : 5
      }, {
        "id" : 4,
        "name" : "MASONRY",
        "level" : 10
      }, {
        "id" : 2,
        "name" : "ELECTRICIAN",
        "level" : 7
      }, {
        "id" : 6,
        "name" : "CARPENTRY",
        "level" : 7
      }, {
        "id" : 8,
        "name" : "IRONWORK",
        "level" : 6
      }, {
        "id" : 4,
        "name" : "MASONRY",
        "level" : 10
      }, {
        "id" : 1,
        "name" : "ENGINEER",
        "level" : 4
      } ]
    }, {
      "id" : 534,
      "name" : "534",
      "shifts" : [ {
        "start" : [ 9, 0 ],
        "end" : [ 12, 0 ]
      }, {
        "start" : [ 13, 0 ],
        "end" : [ 17, 0 ]
      } ],
      "prefSlots" : null,
      "startingLoc" : {
        "id" : 9399,
        "name" : null,
        "latitude" : 43.865322,
        "longitude" : 3.8735695
      },
      "skills" : [ {
        "id" : 4,
        "name" : "MASONRY",
        "level" : 8
      }, {
        "id" : 3,
        "name" : "PLUMBING",
        "level" : 9
      }, {
        "id" : 9,
        "name" : "TILER",
        "level" : 1
      }, {
        "id" : 9,
        "name" : "TILER",
        "level" : 1
      } ]
    }, {
      "id" : 8,
      "name" : "8",
      "shifts" : [ {
        "start" : [ 9, 0 ],
        "end" : [ 12, 0 ]
      }, {
        "start" : [ 13, 0 ],
        "end" : [ 17, 0 ]
      } ],
      "prefSlots" : null,
      "startingLoc" : {
        "id" : 152,
        "name" : null,
        "latitude" : 43.967724,
        "longitude" : 4.1446753
      },
      "skills" : [ {
        "id" : 2,
        "name" : "ELECTRICIAN",
        "level" : 2
      }, {
        "id" : 4,
        "name" : "MASONRY",
        "level" : 10
      }, {
        "id" : 2,
        "name" : "ELECTRICIAN",
        "level" : 6
      }, {
        "id" : 8,
        "name" : "IRONWORK",
        "level" : 3
      }, {
        "id" : 0,
        "name" : "MANAGEMENT",
        "level" : 9
      }, {
        "id" : 8,
        "name" : "IRONWORK",
        "level" : 5
      } ]
    }, {
      "id" : 770,
      "name" : "770",
      "shifts" : [ {
        "start" : [ 9, 0 ],
        "end" : [ 12, 0 ]
      }, {
        "start" : [ 13, 0 ],
        "end" : [ 17, 0 ]
      } ],
      "prefSlots" : null,
      "startingLoc" : {
        "id" : 5447,
        "name" : null,
        "latitude" : 43.773106,
        "longitude" : 3.765068
      },
      "skills" : [ {
        "id" : 8,
        "name" : "IRONWORK",
        "level" : 3
      }, {
        "id" : 4,
        "name" : "MASONRY",
        "level" : 4
      }, {
        "id" : 8,
        "name" : "IRONWORK",
        "level" : 2
      }, {
        "id" : 8,
        "name" : "IRONWORK",
        "level" : 7
      } ]
    }, {
      "id" : 449,
      "name" : "449",
      "shifts" : [ {
        "start" : [ 9, 0 ],
        "end" : [ 12, 0 ]
      }, {
        "start" : [ 13, 0 ],
        "end" : [ 17, 0 ]
      } ],
      "prefSlots" : null,
      "startingLoc" : {
        "id" : 6852,
        "name" : null,
        "latitude" : 44.03125,
        "longitude" : 3.8783622
      },
      "skills" : [ {
        "id" : 5,
        "name" : "GLAZING",
        "level" : 2
      }, {
        "id" : 5,
        "name" : "GLAZING",
        "level" : 7
      }, {
        "id" : 6,
        "name" : "CARPENTRY",
        "level" : 2
      }, {
        "id" : 5,
        "name" : "GLAZING",
        "level" : 3
      }, {
        "id" : 8,
        "name" : "IRONWORK",
        "level" : 2
      }, {
        "id" : 8,
        "name" : "IRONWORK",
        "level" : 6
      }, {
        "id" : 0,
        "name" : "MANAGEMENT",
        "level" : 10
      } ]
    }, {
      "id" : 310,
      "name" : "310",
      "shifts" : [ {
        "start" : [ 9, 0 ],
        "end" : [ 12, 0 ]
      }, {
        "start" : [ 13, 0 ],
        "end" : [ 17, 0 ]
      } ],
      "prefSlots" : null,
      "startingLoc" : {
        "id" : 3662,
        "name" : null,
        "latitude" : 43.48485,
        "longitude" : 4.017234
      },
      "skills" : [ {
        "id" : 2,
        "name" : "ELECTRICIAN",
        "level" : 9
      }, {
        "id" : 9,
        "name" : "TILER",
        "level" : 2
      }, {
        "id" : 9,
        "name" : "TILER",
        "level" : 5
      }, {
        "id" : 4,
        "name" : "MASONRY",
        "level" : 7
      }, {
        "id" : 5,
        "name" : "GLAZING",
        "level" : 10
      }, {
        "id" : 9,
        "name" : "TILER",
        "level" : 1
      }, {
        "id" : 3,
        "name" : "PLUMBING",
        "level" : 8
      }, {
        "id" : 6,
        "name" : "CARPENTRY",
        "level" : 2
      }, {
        "id" : 2,
        "name" : "ELECTRICIAN",
        "level" : 5
      }, {
        "id" : 8,
        "name" : "IRONWORK",
        "level" : 4
      } ]
    }, {
      "id" : 628,
      "name" : "628",
      "shifts" : [ {
        "start" : [ 9, 0 ],
        "end" : [ 12, 0 ]
      }, {
        "start" : [ 13, 0 ],
        "end" : [ 17, 0 ]
      } ],
      "prefSlots" : null,
      "startingLoc" : {
        "id" : 7980,
        "name" : null,
        "latitude" : 43.958088,
        "longitude" : 4.168942
      },
      "skills" : [ {
        "id" : 1,
        "name" : "ENGINEER",
        "level" : 8
      }, {
        "id" : 5,
        "name" : "GLAZING",
        "level" : 9
      }, {
        "id" : 5,
        "name" : "GLAZING",
        "level" : 4
      }, {
        "id" : 2,
        "name" : "ELECTRICIAN",
        "level" : 10
      } ]
    }, {
      "id" : 208,
      "name" : "208",
      "shifts" : [ {
        "start" : [ 9, 0 ],
        "end" : [ 12, 0 ]
      }, {
        "start" : [ 13, 0 ],
        "end" : [ 17, 0 ]
      } ],
      "prefSlots" : null,
      "startingLoc" : {
        "id" : 6435,
        "name" : null,
        "latitude" : 44.022175,
        "longitude" : 4.091778
      },
      "skills" : [ {
        "id" : 5,
        "name" : "GLAZING",
        "level" : 9
      }, {
        "id" : 8,
        "name" : "IRONWORK",
        "level" : 10
      }, {
        "id" : 7,
        "name" : "PAINTING",
        "level" : 2
      }, {
        "id" : 2,
        "name" : "ELECTRICIAN",
        "level" : 4
      }, {
        "id" : 0,
        "name" : "MANAGEMENT",
        "level" : 10
      }, {
        "id" : 3,
        "name" : "PLUMBING",
        "level" : 7
      }, {
        "id" : 0,
        "name" : "MANAGEMENT",
        "level" : 2
      } ]
    }, {
      "id" : 585,
      "name" : "585",
      "shifts" : [ {
        "start" : [ 9, 0 ],
        "end" : [ 12, 0 ]
      }, {
        "start" : [ 13, 0 ],
        "end" : [ 17, 0 ]
      } ],
      "prefSlots" : null,
      "startingLoc" : {
        "id" : 3961,
        "name" : null,
        "latitude" : 43.663578,
        "longitude" : 4.172953
      },
      "skills" : [ {
        "id" : 5,
        "name" : "GLAZING",
        "level" : 1
      }, {
        "id" : 2,
        "name" : "ELECTRICIAN",
        "level" : 6
      }, {
        "id" : 2,
        "name" : "ELECTRICIAN",
        "level" : 1
      }, {
        "id" : 3,
        "name" : "PLUMBING",
        "level" : 9
      }, {
        "id" : 9,
        "name" : "TILER",
        "level" : 6
      }, {
        "id" : 1,
        "name" : "ENGINEER",
        "level" : 9
      } ]
    }, {
      "id" : 225,
      "name" : "225",
      "shifts" : [ {
        "start" : [ 9, 0 ],
        "end" : [ 12, 0 ]
      }, {
        "start" : [ 13, 0 ],
        "end" : [ 17, 0 ]
      } ],
      "prefSlots" : null,
      "startingLoc" : {
        "id" : 8396,
        "name" : null,
        "latitude" : 43.69683,
        "longitude" : 4.202572
      },
      "skills" : [ {
        "id" : 0,
        "name" : "MANAGEMENT",
        "level" : 3
      }, {
        "id" : 7,
        "name" : "PAINTING",
        "level" : 8
      }, {
        "id" : 1,
        "name" : "ENGINEER",
        "level" : 10
      }, {
        "id" : 6,
        "name" : "CARPENTRY",
        "level" : 10
      }, {
        "id" : 8,
        "name" : "IRONWORK",
        "level" : 9
      }, {
        "id" : 7,
        "name" : "PAINTING",
        "level" : 3
      }, {
        "id" : 8,
        "name" : "IRONWORK",
        "level" : 2
      }, {
        "id" : 6,
        "name" : "CARPENTRY",
        "level" : 2
      }, {
        "id" : 5,
        "name" : "GLAZING",
        "level" : 4
      } ]
    }, {
      "id" : 601,
      "name" : "601",
      "shifts" : [ {
        "start" : [ 9, 0 ],
        "end" : [ 12, 0 ]
      }, {
        "start" : [ 13, 0 ],
        "end" : [ 17, 0 ]
      } ],
      "prefSlots" : null,
      "startingLoc" : {
        "id" : 9470,
        "name" : null,
        "latitude" : 43.66175,
        "longitude" : 3.7846196
      },
      "skills" : [ {
        "id" : 3,
        "name" : "PLUMBING",
        "level" : 10
      }, {
        "id" : 5,
        "name" : "GLAZING",
        "level" : 1
      }, {
        "id" : 1,
        "name" : "ENGINEER",
        "level" : 10
      }, {
        "id" : 2,
        "name" : "ELECTRICIAN",
        "level" : 7
      }, {
        "id" : 7,
        "name" : "PAINTING",
        "level" : 8
      }, {
        "id" : 7,
        "name" : "PAINTING",
        "level" : 3
      }, {
        "id" : 5,
        "name" : "GLAZING",
        "level" : 2
      }, {
        "id" : 4,
        "name" : "MASONRY",
        "level" : 10
      }, {
        "id" : 3,
        "name" : "PLUMBING",
        "level" : 7
      }, {
        "id" : 4,
        "name" : "MASONRY",
        "level" : 2
      } ]
    }, {
      "id" : 129,
      "name" : "129",
      "shifts" : [ {
        "start" : [ 9, 0 ],
        "end" : [ 12, 0 ]
      }, {
        "start" : [ 13, 0 ],
        "end" : [ 17, 0 ]
      } ],
      "prefSlots" : null,
      "startingLoc" : {
        "id" : 381,
        "name" : null,
        "latitude" : 43.46266,
        "longitude" : 3.722812
      },
      "skills" : [ {
        "id" : 0,
        "name" : "MANAGEMENT",
        "level" : 1
      }, {
        "id" : 2,
        "name" : "ELECTRICIAN",
        "level" : 6
      }, {
        "id" : 4,
        "name" : "MASONRY",
        "level" : 10
      }, {
        "id" : 8,
        "name" : "IRONWORK",
        "level" : 5
      }, {
        "id" : 5,
        "name" : "GLAZING",
        "level" : 7
      }, {
        "id" : 2,
        "name" : "ELECTRICIAN",
        "level" : 4
      }, {
        "id" : 6,
        "name" : "CARPENTRY",
        "level" : 4
      }, {
        "id" : 6,
        "name" : "CARPENTRY",
        "level" : 6
      }, {
        "id" : 6,
        "name" : "CARPENTRY",
        "level" : 3
      } ]
    } ]
  } ]
}