{
  "jobs" : [ {
    "id" : 636,
    "desc" : "CARPENTRY, IRONWORK",
    "location" : {
      "id" : 7636,
      "name" : null,
      "latitude" : 43.45681,
      "longitude" : 3.990333
    },
    "openings" : {
      "start" : [ 13, 21 ],
      "end" : [ 13, 33 ]
    },
    "preferredSlots" : null,
    "doAfter" : null,
    "nbEmpRequired" : 1,
    "deadline" : [ 17, 29 ],
    "skills" : [ {
      "id" : 6,
      "name" : "CARPENTRY",
      "level" : 2
    }, {
      "id" : 8,
      "name" : "IRONWORK",
      "level" : 5
    } ],
    "duration" : 5400.000000000,
    "pause" : false
  }, {
    "id" : 554,
    "desc" : "PLUMBING",
    "location" : {
      "id" : 426,
      "name" : null,
      "latitude" : 43.450863,
      "longitude" : 3.8207421
    },
    "openings" : {
      "start" : [ 13, 5 ],
      "end" : [ 16, 17 ]
    },
    "preferredSlots" : null,
    "doAfter" : null,
    "nbEmpRequired" : 1,
    "deadline" : [ 14, 15 ],
    "skills" : [ {
      "id" : 3,
      "name" : "PLUMBING",
      "level" : 5
    } ],
    "duration" : 3600.000000000,
    "pause" : false
  }, {
    "id" : 425,
    "desc" : "PLUMBING, MASONRY",
    "location" : {
      "id" : 4023,
      "name" : null,
      "latitude" : 43.61638,
      "longitude" : 3.943296
    },
    "openings" : {
      "start" : [ 9, 55 ],
      "end" : [ 16, 13 ]
    },
    "preferredSlots" : null,
    "doAfter" : null,
    "nbEmpRequired" : 1,
    "deadline" : [ 12, 17 ],
    "skills" : [ {
      "id" : 3,
      "name" : "PLUMBING",
      "level" : 3
    }, {
      "id" : 4,
      "name" : "MASONRY",
      "level" : 3
    } ],
    "duration" : 2700.000000000,
    "pause" : false
  }, {
    "id" : 869,
    "desc" : "MASONRY, ELECTRICIAN",
    "location" : {
      "id" : 1419,
      "name" : null,
      "latitude" : 43.650555,
      "longitude" : 3.7442367
    },
    "openings" : {
      "start" : [ 10, 40 ],
      "end" : [ 17, 33 ]
    },
    "preferredSlots" : null,
    "doAfter" : null,
    "nbEmpRequired" : 1,
    "deadline" : [ 9, 32 ],
    "skills" : [ {
      "id" : 4,
      "name" : "MASONRY",
      "level" : 4
    }, {
      "id" : 2,
      "name" : "ELECTRICIAN",
      "level" : 1
    } ],
    "duration" : 3600.000000000,
    "pause" : false
  }, {
    "id" : 406,
    "desc" : "IRONWORK, MANAGEMENT",
    "location" : {
      "id" : 4032,
      "name" : null,
      "latitude" : 43.990246,
      "longitude" : 3.9804776
    },
    "openings" : {
      "start" : [ 12, 3 ],
      "end" : [ 16, 43 ]
    },
    "preferredSlots" : null,
    "doAfter" : null,
    "nbEmpRequired" : 1,
    "deadline" : [ 17, 39 ],
    "skills" : [ {
      "id" : 8,
      "name" : "IRONWORK",
      "level" : 2
    }, {
      "id" : 0,
      "name" : "MANAGEMENT",
      "level" : 2
    } ],
    "duration" : 1800.000000000,
    "pause" : false
  }, {
    "id" : 452,
    "desc" : "MASONRY",
    "location" : {
      "id" : 3324,
      "name" : null,
      "latitude" : 43.43203,
      "longitude" : 3.9488266
    },
    "openings" : {
      "start" : [ 9, 7 ],
      "end" : [ 15, 43 ]
    },
    "preferredSlots" : null,
    "doAfter" : null,
    "nbEmpRequired" : 1,
    "deadline" : [ 9, 39 ],
    "skills" : [ {
      "id" : 4,
      "name" : "MASONRY",
      "level" : 4
    } ],
    "duration" : 3600.000000000,
    "pause" : false
  }, {
    "id" : 201,
    "desc" : "ENGINEER",
    "location" : {
      "id" : 5427,
      "name" : null,
      "latitude" : 43.944923,
      "longitude" : 4.1967936
    },
    "openings" : {
      "start" : [ 9, 0 ],
      "end" : [ 13, 26 ]
    },
    "preferredSlots" : null,
    "doAfter" : null,
    "nbEmpRequired" : 1,
    "deadline" : [ 14, 34 ],
    "skills" : [ {
      "id" : 1,
      "name" : "ENGINEER",
      "level" : 5
    } ],
    "duration" : 1800.000000000,
    "pause" : false
  }, {
    "id" : 37,
    "desc" : "MANAGEMENT",
    "location" : {
      "id" : 580,
      "name" : null,
      "latitude" : 43.850414,
      "longitude" : 3.7811978
    },
    "openings" : {
      "start" : [ 10, 59 ],
      "end" : [ 13, 7 ]
    },
    "preferredSlots" : null,
    "doAfter" : null,
    "nbEmpRequired" : 1,
    "deadline" : [ 16, 55 ],
    "skills" : [ {
      "id" : 0,
      "name" : "MANAGEMENT",
      "level" : 4
    } ],
    "duration" : 3600.000000000,
    "pause" : false
  }, {
    "id" : 241,
    "desc" : "ENGINEER, IRONWORK",
    "location" : {
      "id" : 2268,
      "name" : null,
      "latitude" : 43.7171,
      "longitude" : 4.2889643
    },
    "openings" : {
      "start" : [ 10, 43 ],
      "end" : [ 15, 36 ]
    },
    "preferredSlots" : null,
    "doAfter" : null,
    "nbEmpRequired" : 1,
    "deadline" : [ 10, 51 ],
    "skills" : [ {
      "id" : 1,
      "name" : "ENGINEER",
      "level" : 5
    }, {
      "id" : 8,
      "name" : "IRONWORK",
      "level" : 5
    } ],
    "duration" : 2700.000000000,
    "pause" : false
  }, {
    "id" : 795,
    "desc" : "CARPENTRY, IRONWORK",
    "location" : {
      "id" : 2544,
      "name" : null,
      "latitude" : 43.711807,
      "longitude" : 4.152181
    },
    "openings" : {
      "start" : [ 10, 2 ],
      "end" : [ 10, 59 ]
    },
    "preferredSlots" : null,
    "doAfter" : null,
    "nbEmpRequired" : 1,
    "deadline" : [ 15, 45 ],
    "skills" : [ {
      "id" : 6,
      "name" : "CARPENTRY",
      "level" : 2
    }, {
      "id" : 8,
      "name" : "IRONWORK",
      "level" : 1
    } ],
    "duration" : 2700.000000000,
    "pause" : false
  }, {
    "id" : 134,
    "desc" : "PLUMBING",
    "location" : {
      "id" : 7239,
      "name" : null,
      "latitude" : 44.06193,
      "longitude" : 4.1448493
    },
    "openings" : {
      "start" : [ 13, 56 ],
      "end" : [ 16, 29 ]
    },
    "preferredSlots" : null,
    "doAfter" : null,
    "nbEmpRequired" : 1,
    "deadline" : [ 10, 24 ],
    "skills" : [ {
      "id" : 3,
      "name" : "PLUMBING",
      "level" : 2
    } ],
    "duration" : 1800.000000000,
    "pause" : false
  }, {
    "id" : 466,
    "desc" : "IRONWORK, TILER",
    "location" : {
      "id" : 2463,
      "name" : null,
      "latitude" : 43.996487,
      "longitude" : 3.8840175
    },
    "openings" : {
      "start" : [ 11, 58 ],
      "end" : [ 12, 16 ]
    },
    "preferredSlots" : null,
    "doAfter" : null,
    "nbEmpRequired" : 1,
    "deadline" : [ 9, 23 ],
    "skills" : [ {
      "id" : 8,
      "name" : "IRONWORK",
      "level" : 2
    }, {
      "id" : 9,
      "name" : "TILER",
      "level" : 5
    } ],
    "duration" : 2700.000000000,
    "pause" : false
  }, {
    "id" : 390,
    "desc" : "MANAGEMENT, PAINTING",
    "location" : {
      "id" : 447,
      "name" : null,
      "latitude" : 43.51725,
      "longitude" : 3.8543751
    },
    "openings" : {
      "start" : [ 12, 57 ],
      "end" : [ 13, 53 ]
    },
    "preferredSlots" : null,
    "doAfter" : null,
    "nbEmpRequired" : 1,
    "deadline" : [ 12, 57 ],
    "skills" : [ {
      "id" : 0,
      "name" : "MANAGEMENT",
      "level" : 1
    }, {
      "id" : 7,
      "name" : "PAINTING",
      "level" : 3
    } ],
    "duration" : 3600.000000000,
    "pause" : false
  }, {
    "id" : 254,
    "desc" : "IRONWORK, MASONRY",
    "location" : {
      "id" : 1478,
      "name" : null,
      "latitude" : 43.513905,
      "longitude" : 4.2278543
    },
    "openings" : {
      "start" : [ 11, 7 ],
      "end" : [ 15, 34 ]
    },
    "preferredSlots" : null,
    "doAfter" : null,
    "nbEmpRequired" : 1,
    "deadline" : [ 11, 23 ],
    "skills" : [ {
      "id" : 8,
      "name" : "IRONWORK",
      "level" : 1
    }, {
      "id" : 4,
      "name" : "MASONRY",
      "level" : 4
    } ],
    "duration" : 2700.000000000,
    "pause" : false
  }, {
    "id" : 605,
    "desc" : "TILER",
    "location" : {
      "id" : 2466,
      "name" : null,
      "latitude" : 44.04856,
      "longitude" : 4.2481527
    },
    "openings" : {
      "start" : [ 13, 18 ],
      "end" : [ 16, 6 ]
    },
    "preferredSlots" : null,
    "doAfter" : null,
    "nbEmpRequired" : 1,
    "deadline" : [ 16, 26 ],
    "skills" : [ {
      "id" : 9,
      "name" : "TILER",
      "level" : 1
    } ],
    "duration" : 1800.000000000,
    "pause" : false
  }, {
    "id" : 168,
    "desc" : "MANAGEMENT",
    "location" : {
      "id" : 4783,
      "name" : null,
      "latitude" : 43.727448,
      "longitude" : 3.8877664
    },
    "openings" : {
      "start" : [ 12, 36 ],
      "end" : [ 12, 48 ]
    },
    "preferredSlots" : null,
    "doAfter" : null,
    "nbEmpRequired" : 1,
    "deadline" : [ 16, 22 ],
    "skills" : [ {
      "id" : 0,
      "name" : "MANAGEMENT",
      "level" : 3
    } ],
    "duration" : 1800.000000000,
    "pause" : false
  }, {
    "id" : 196,
    "desc" : "MASONRY, CARPENTRY",
    "location" : {
      "id" : 3444,
      "name" : null,
      "latitude" : 43.481003,
      "longitude" : 3.9881794
    },
    "openings" : {
      "start" : [ 12, 25 ],
      "end" : [ 17, 26 ]
    },
    "preferredSlots" : null,
    "doAfter" : null,
    "nbEmpRequired" : 1,
    "deadline" : [ 16, 23 ],
    "skills" : [ {
      "id" : 4,
      "name" : "MASONRY",
      "level" : 3
    }, {
      "id" : 6,
      "name" : "CARPENTRY",
      "level" : 4
    } ],
    "duration" : 5400.000000000,
    "pause" : false
  }, {
    "id" : 418,
    "desc" : "ENGINEER",
    "location" : {
      "id" : 7192,
      "name" : null,
      "latitude" : 43.92302,
      "longitude" : 3.8224015
    },
    "openings" : {
      "start" : [ 10, 8 ],
      "end" : [ 17, 15 ]
    },
    "preferredSlots" : null,
    "doAfter" : null,
    "nbEmpRequired" : 1,
    "deadline" : [ 12, 3 ],
    "skills" : [ {
      "id" : 1,
      "name" : "ENGINEER",
      "level" : 1
    } ],
    "duration" : 2700.000000000,
    "pause" : false
  }, {
    "id" : 931,
    "desc" : "CARPENTRY, MASONRY",
    "location" : {
      "id" : 6312,
      "name" : null,
      "latitude" : 43.497887,
      "longitude" : 4.0231175
    },
    "openings" : {
      "start" : [ 10, 41 ],
      "end" : [ 10, 56 ]
    },
    "preferredSlots" : null,
    "doAfter" : null,
    "nbEmpRequired" : 1,
    "deadline" : [ 10, 7 ],
    "skills" : [ {
      "id" : 6,
      "name" : "CARPENTRY",
      "level" : 4
    }, {
      "id" : 4,
      "name" : "MASONRY",
      "level" : 3
    } ],
    "duration" : 7200.000000000,
    "pause" : false
  }, {
    "id" : 95,
    "desc" : "MANAGEMENT",
    "location" : {
      "id" : 9319,
      "name" : null,
      "latitude" : 43.611572,
      "longitude" : 3.7991624
    },
    "openings" : {
      "start" : [ 13, 9 ],
      "end" : [ 16, 54 ]
    },
    "preferredSlots" : null,
    "doAfter" : null,
    "nbEmpRequired" : 1,
    "deadline" : [ 12, 24 ],
    "skills" : [ {
      "id" : 0,
      "name" : "MANAGEMENT",
      "level" : 1
    } ],
    "duration" : 5400.000000000,
    "pause" : false
  }, {
    "id" : 89,
    "desc" : "PLUMBING",
    "location" : {
      "id" : 7829,
      "name" : null,
      "latitude" : 44.02532,
      "longitude" : 4.207015
    },
    "openings" : {
      "start" : [ 14, 19 ],
      "end" : [ 17, 59 ]
    },
    "preferredSlots" : null,
    "doAfter" : null,
    "nbEmpRequired" : 1,
    "deadline" : [ 13, 43 ],
    "skills" : [ {
      "id" : 3,
      "name" : "PLUMBING",
      "level" : 1
    } ],
    "duration" : 7200.000000000,
    "pause" : false
  }, {
    "id" : 911,
    "desc" : "MASONRY",
    "location" : {
      "id" : 6023,
      "name" : null,
      "latitude" : 43.600838,
      "longitude" : 3.918309
    },
    "openings" : {
      "start" : [ 12, 1 ],
      "end" : [ 12, 23 ]
    },
    "preferredSlots" : null,
    "doAfter" : null,
    "nbEmpRequired" : 1,
    "deadline" : [ 12, 29 ],
    "skills" : [ {
      "id" : 4,
      "name" : "MASONRY",
      "level" : 1
    } ],
    "duration" : 7200.000000000,
    "pause" : false
  }, {
    "id" : 786,
    "desc" : "GLAZING, ELECTRICIAN",
    "location" : {
      "id" : 3757,
      "name" : null,
      "latitude" : 43.883377,
      "longitude" : 4.2759533
    },
    "openings" : {
      "start" : [ 11, 32 ],
      "end" : [ 16, 5 ]
    },
    "preferredSlots" : null,
    "doAfter" : null,
    "nbEmpRequired" : 1,
    "deadline" : [ 10, 49 ],
    "skills" : [ {
      "id" : 5,
      "name" : "GLAZING",
      "level" : 5
    }, {
      "id" : 2,
      "name" : "ELECTRICIAN",
      "level" : 5
    } ],
    "duration" : 2700.000000000,
    "pause" : false
  }, {
    "id" : 529,
    "desc" : "MANAGEMENT",
    "location" : {
      "id" : 1234,
      "name" : null,
      "latitude" : 44.029232,
      "longitude" : 4.0003233
    },
    "openings" : {
      "start" : [ 13, 50 ],
      "end" : [ 14, 46 ]
    },
    "preferredSlots" : null,
    "doAfter" : null,
    "nbEmpRequired" : 1,
    "deadline" : [ 10, 0 ],
    "skills" : [ {
      "id" : 0,
      "name" : "MANAGEMENT",
      "level" : 2
    } ],
    "duration" : 3600.000000000,
    "pause" : false
  }, {
    "id" : 481,
    "desc" : "PAINTING",
    "location" : {
      "id" : 1499,
      "name" : null,
      "latitude" : 43.6016,
      "longitude" : 4.1741796
    },
    "openings" : {
      "start" : [ 10, 35 ],
      "end" : [ 12, 39 ]
    },
    "preferredSlots" : null,
    "doAfter" : null,
    "nbEmpRequired" : 1,
    "deadline" : [ 17, 8 ],
    "skills" : [ {
      "id" : 7,
      "name" : "PAINTING",
      "level" : 4
    } ],
    "duration" : 1800.000000000,
    "pause" : false
  }, {
    "id" : 498,
    "desc" : "ENGINEER",
    "location" : {
      "id" : 4928,
      "name" : null,
      "latitude" : 43.552055,
      "longitude" : 3.740424
    },
    "openings" : {
      "start" : [ 9, 45 ],
      "end" : [ 12, 40 ]
    },
    "preferredSlots" : null,
    "doAfter" : null,
    "nbEmpRequired" : 1,
    "deadline" : [ 15, 50 ],
    "skills" : [ {
      "id" : 1,
      "name" : "ENGINEER",
      "level" : 5
    } ],
    "duration" : 5400.000000000,
    "pause" : false
  }, {
    "id" : 791,
    "desc" : "PAINTING",
    "location" : {
      "id" : 5379,
      "name" : null,
      "latitude" : 43.6395,
      "longitude" : 4.1222925
    },
    "openings" : {
      "start" : [ 11, 6 ],
      "end" : [ 13, 57 ]
    },
    "preferredSlots" : null,
    "doAfter" : null,
    "nbEmpRequired" : 1,
    "deadline" : [ 13, 46 ],
    "skills" : [ {
      "id" : 7,
      "name" : "PAINTING",
      "level" : 1
    } ],
    "duration" : 3600.000000000,
    "pause" : false
  }, {
    "id" : 38,
    "desc" : "PLUMBING, MASONRY",
    "location" : {
      "id" : 4474,
      "name" : null,
      "latitude" : 44.06776,
      "longitude" : 3.7845936
    },
    "openings" : {
      "start" : [ 12, 11 ],
      "end" : [ 14, 25 ]
    },
    "preferredSlots" : null,
    "doAfter" : null,
    "nbEmpRequired" : 1,
    "deadline" : [ 15, 8 ],
    "skills" : [ {
      "id" : 3,
      "name" : "PLUMBING",
      "level" : 2
    }, {
      "id" : 4,
      "name" : "MASONRY",
      "level" : 5
    } ],
    "duration" : 1800.000000000,
    "pause" : false
  }, {
    "id" : 493,
    "desc" : "PLUMBING, MANAGEMENT",
    "location" : {
      "id" : 9226,
      "name" : null,
      "latitude" : 43.779537,
      "longitude" : 3.7175708
    },
    "openings" : {
      "start" : [ 9, 31 ],
      "end" : [ 16, 48 ]
    },
    "preferredSlots" : null,
    "doAfter" : null,
    "nbEmpRequired" : 1,
    "deadline" : [ 17, 50 ],
    "skills" : [ {
      "id" : 3,
      "name" : "PLUMBING",
      "level" : 3
    }, {
      "id" : 0,
      "name" : "MANAGEMENT",
      "level" : 2
    } ],
    "duration" : 2700.000000000,
    "pause" : false
  }, {
    "id" : 667,
    "desc" : "ELECTRICIAN, IRONWORK",
    "location" : {
      "id" : 6183,
      "name" : null,
      "latitude" : 43.623264,
      "longitude" : 4.162451
    },
    "openings" : {
      "start" : [ 10, 11 ],
      "end" : [ 13, 29 ]
    },
    "preferredSlots" : null,
    "doAfter" : null,
    "nbEmpRequired" : 1,
    "deadline" : [ 10, 12 ],
    "skills" : [ {
      "id" : 2,
      "name" : "ELECTRICIAN",
      "level" : 1
    }, {
      "id" : 8,
      "name" : "IRONWORK",
      "level" : 5
    } ],
    "duration" : 1800.000000000,
    "pause" : false
  }, {
    "id" : 572,
    "desc" : "PAINTING, TILER",
    "location" : {
      "id" : 3658,
      "name" : null,
      "latitude" : 43.49618,
      "longitude" : 4.0350885
    },
    "openings" : {
      "start" : [ 9, 27 ],
      "end" : [ 16, 40 ]
    },
    "preferredSlots" : null,
    "doAfter" : null,
    "nbEmpRequired" : 1,
    "deadline" : [ 13, 30 ],
    "skills" : [ {
      "id" : 7,
      "name" : "PAINTING",
      "level" : 1
    }, {
      "id" : 9,
      "name" : "TILER",
      "level" : 2
    } ],
    "duration" : 2700.000000000,
    "pause" : false
  }, {
    "id" : 941,
    "desc" : "PLUMBING",
    "location" : {
      "id" : 3363,
      "name" : null,
      "latitude" : 44.099556,
      "longitude" : 4.2027397
    },
    "openings" : {
      "start" : [ 12, 31 ],
      "end" : [ 17, 30 ]
    },
    "preferredSlots" : null,
    "doAfter" : null,
    "nbEmpRequired" : 1,
    "deadline" : [ 15, 26 ],
    "skills" : [ {
      "id" : 3,
      "name" : "PLUMBING",
      "level" : 5
    } ],
    "duration" : 1800.000000000,
    "pause" : false
  }, {
    "id" : 142,
    "desc" : "TILER",
    "location" : {
      "id" : 6128,
      "name" : null,
      "latitude" : 43.877464,
      "longitude" : 3.7197528
    },
    "openings" : {
      "start" : [ 9, 25 ],
      "end" : [ 12, 33 ]
    },
    "preferredSlots" : null,
    "doAfter" : null,
    "nbEmpRequired" : 1,
    "deadline" : [ 13, 21 ],
    "skills" : [ {
      "id" : 9,
      "name" : "TILER",
      "level" : 2
    } ],
    "duration" : 3600.000000000,
    "pause" : false
  }, {
    "id" : 997,
    "desc" : "PLUMBING",
    "location" : {
      "id" : 430,
      "name" : null,
      "latitude" : 43.42957,
      "longitude" : 4.1978188
    },
    "openings" : {
      "start" : [ 10, 27 ],
      "end" : [ 16, 11 ]
    },
    "preferredSlots" : null,
    "doAfter" : null,
    "nbEmpRequired" : 1,
    "deadline" : [ 14, 23 ],
    "skills" : [ {
      "id" : 3,
      "name" : "PLUMBING",
      "level" : 4
    } ],
    "duration" : 3600.000000000,
    "pause" : false
  }, {
    "id" : 908,
    "desc" : "ELECTRICIAN",
    "location" : {
      "id" : 5470,
      "name" : null,
      "latitude" : 43.44083,
      "longitude" : 4.04611
    },
    "openings" : {
      "start" : [ 11, 54 ],
      "end" : [ 12, 8 ]
    },
    "preferredSlots" : null,
    "doAfter" : null,
    "nbEmpRequired" : 1,
    "deadline" : [ 17, 12 ],
    "skills" : [ {
      "id" : 2,
      "name" : "ELECTRICIAN",
      "level" : 3
    } ],
    "duration" : 5400.000000000,
    "pause" : false
  }, {
    "id" : 369,
    "desc" : "CARPENTRY",
    "location" : {
      "id" : 3321,
      "name" : null,
      "latitude" : 43.78475,
      "longitude" : 3.9443755
    },
    "openings" : {
      "start" : [ 11, 7 ],
      "end" : [ 11, 12 ]
    },
    "preferredSlots" : null,
    "doAfter" : null,
    "nbEmpRequired" : 1,
    "deadline" : [ 11, 38 ],
    "skills" : [ {
      "id" : 6,
      "name" : "CARPENTRY",
      "level" : 5
    } ],
    "duration" : 2700.000000000,
    "pause" : false
  }, {
    "id" : 363,
    "desc" : "PAINTING, ENGINEER",
    "location" : {
      "id" : 6167,
      "name" : null,
      "latitude" : 43.65107,
      "longitude" : 3.7088323
    },
    "openings" : {
      "start" : [ 14, 48 ],
      "end" : [ 16, 12 ]
    },
    "preferredSlots" : null,
    "doAfter" : null,
    "nbEmpRequired" : 1,
    "deadline" : [ 9, 17 ],
    "skills" : [ {
      "id" : 7,
      "name" : "PAINTING",
      "level" : 1
    }, {
      "id" : 1,
      "name" : "ENGINEER",
      "level" : 4
    } ],
    "duration" : 2700.000000000,
    "pause" : false
  }, {
    "id" : 592,
    "desc" : "CARPENTRY, TILER",
    "location" : {
      "id" : 2898,
      "name" : null,
      "latitude" : 43.608658,
      "longitude" : 4.281259
    },
    "openings" : {
      "start" : [ 10, 39 ],
      "end" : [ 16, 58 ]
    },
    "preferredSlots" : null,
    "doAfter" : null,
    "nbEmpRequired" : 1,
    "deadline" : [ 9, 15 ],
    "skills" : [ {
      "id" : 6,
      "name" : "CARPENTRY",
      "level" : 2
    }, {
      "id" : 9,
      "name" : "TILER",
      "level" : 5
    } ],
    "duration" : 2700.000000000,
    "pause" : false
  }, {
    "id" : 268,
    "desc" : "ELECTRICIAN",
    "location" : {
      "id" : 8750,
      "name" : null,
      "latitude" : 43.487587,
      "longitude" : 4.206397
    },
    "openings" : {
      "start" : [ 9, 10 ],
      "end" : [ 15, 33 ]
    },
    "preferredSlots" : null,
    "doAfter" : null,
    "nbEmpRequired" : 1,
    "deadline" : [ 9, 35 ],
    "skills" : [ {
      "id" : 2,
      "name" : "ELECTRICIAN",
      "level" : 1
    } ],
    "duration" : 3600.000000000,
    "pause" : false
  }, {
    "id" : 696,
    "desc" : "TILER, GLAZING",
    "location" : {
      "id" : 4711,
      "name" : null,
      "latitude" : 43.728954,
      "longitude" : 3.752119
    },
    "openings" : {
      "start" : [ 15, 9 ],
      "end" : [ 16, 58 ]
    },
    "preferredSlots" : null,
    "doAfter" : null,
    "nbEmpRequired" : 1,
    "deadline" : [ 9, 54 ],
    "skills" : [ {
      "id" : 9,
      "name" : "TILER",
      "level" : 4
    }, {
      "id" : 5,
      "name" : "GLAZING",
      "level" : 3
    } ],
    "duration" : 2700.000000000,
    "pause" : false
  }, {
    "id" : 754,
    "desc" : "PLUMBING, MANAGEMENT",
    "location" : {
      "id" : 7630,
      "name" : null,
      "latitude" : 43.410618,
      "longitude" : 4.2981844
    },
    "openings" : {
      "start" : [ 15, 10 ],
      "end" : [ 16, 46 ]
    },
    "preferredSlots" : null,
    "doAfter" : null,
    "nbEmpRequired" : 1,
    "deadline" : [ 16, 47 ],
    "skills" : [ {
      "id" : 3,
      "name" : "PLUMBING",
      "level" : 4
    }, {
      "id" : 0,
      "name" : "MANAGEMENT",
      "level" : 1
    } ],
    "duration" : 3600.000000000,
    "pause" : false
  }, {
    "id" : 522,
    "desc" : "CARPENTRY, GLAZING",
    "location" : {
      "id" : 6120,
      "name" : null,
      "latitude" : 43.86527,
      "longitude" : 3.8933036
    },
    "openings" : {
      "start" : [ 11, 41 ],
      "end" : [ 13, 47 ]
    },
    "preferredSlots" : null,
    "doAfter" : null,
    "nbEmpRequired" : 1,
    "deadline" : [ 14, 36 ],
    "skills" : [ {
      "id" : 6,
      "name" : "CARPENTRY",
      "level" : 2
    }, {
      "id" : 5,
      "name" : "GLAZING",
      "level" : 4
    } ],
    "duration" : 1800.000000000,
    "pause" : false
  }, {
    "id" : 113,
    "desc" : "IRONWORK",
    "location" : {
      "id" : 7427,
      "name" : null,
      "latitude" : 43.796776,
      "longitude" : 3.889077
    },
    "openings" : {
      "start" : [ 13, 9 ],
      "end" : [ 15, 47 ]
    },
    "preferredSlots" : null,
    "doAfter" : null,
    "nbEmpRequired" : 1,
    "deadline" : [ 9, 1 ],
    "skills" : [ {
      "id" : 8,
      "name" : "IRONWORK",
      "level" : 5
    } ],
    "duration" : 5400.000000000,
    "pause" : false
  }, {
    "id" : 224,
    "desc" : "ENGINEER",
    "location" : {
      "id" : 8610,
      "name" : null,
      "latitude" : 43.757824,
      "longitude" : 3.81837
    },
    "openings" : {
      "start" : [ 11, 52 ],
      "end" : [ 15, 2 ]
    },
    "preferredSlots" : null,
    "doAfter" : null,
    "nbEmpRequired" : 1,
    "deadline" : [ 14, 22 ],
    "skills" : [ {
      "id" : 1,
      "name" : "ENGINEER",
      "level" : 3
    } ],
    "duration" : 5400.000000000,
    "pause" : false
  }, {
    "id" : 682,
    "desc" : "TILER, CARPENTRY",
    "location" : {
      "id" : 1967,
      "name" : null,
      "latitude" : 43.97951,
      "longitude" : 3.829356
    },
    "openings" : {
      "start" : [ 9, 0 ],
      "end" : [ 11, 17 ]
    },
    "preferredSlots" : null,
    "doAfter" : null,
    "nbEmpRequired" : 1,
    "deadline" : [ 12, 12 ],
    "skills" : [ {
      "id" : 9,
      "name" : "TILER",
      "level" : 2
    }, {
      "id" : 6,
      "name" : "CARPENTRY",
      "level" : 1
    } ],
    "duration" : 2700.000000000,
    "pause" : false
  }, {
    "id" : 114,
    "desc" : "MASONRY",
    "location" : {
      "id" : 1799,
      "name" : null,
      "latitude" : 43.791893,
      "longitude" : 4.1762433
    },
    "openings" : {
      "start" : [ 9, 44 ],
      "end" : [ 11, 10 ]
    },
    "preferredSlots" : null,
    "doAfter" : null,
    "nbEmpRequired" : 1,
    "deadline" : [ 14, 10 ],
    "skills" : [ {
      "id" : 4,
      "name" : "MASONRY",
      "level" : 5
    } ],
    "duration" : 7200.000000000,
    "pause" : false
  }, {
    "id" : 154,
    "desc" : "CARPENTRY",
    "location" : {
      "id" : 5831,
      "name" : null,
      "latitude" : 43.852642,
      "longitude" : 3.9894683
    },
    "openings" : {
      "start" : [ 9, 35 ],
      "end" : [ 13, 9 ]
    },
    "preferredSlots" : null,
    "doAfter" : null,
    "nbEmpRequired" : 1,
    "deadline" : [ 10, 38 ],
    "skills" : [ {
      "id" : 6,
      "name" : "CARPENTRY",
      "level" : 1
    } ],
    "duration" : 7200.000000000,
    "pause" : false
  }, {
    "id" : 849,
    "desc" : "IRONWORK",
    "location" : {
      "id" : 9852,
      "name" : null,
      "latitude" : 43.70976,
      "longitude" : 3.946233
    },
    "openings" : {
      "start" : [ 12, 13 ],
      "end" : [ 14, 9 ]
    },
    "preferredSlots" : null,
    "doAfter" : null,
    "nbEmpRequired" : 1,
    "deadline" : [ 9, 25 ],
    "skills" : [ {
      "id" : 8,
      "name" : "IRONWORK",
      "level" : 3
    } ],
    "duration" : 2700.000000000,
    "pause" : false
  }, {
    "id" : 268,
    "desc" : "GLAZING",
    "location" : {
      "id" : 9409,
      "name" : null,
      "latitude" : 43.495045,
      "longitude" : 4.234191
    },
    "openings" : {
      "start" : [ 11, 49 ],
      "end" : [ 13, 55 ]
    },
    "preferredSlots" : null,
    "doAfter" : null,
    "nbEmpRequired" : 1,
    "deadline" : [ 16, 59 ],
    "skills" : [ {
      "id" : 5,
      "name" : "GLAZING",
      "level" : 3
    } ],
    "duration" : 3600.000000000,
    "pause" : false
  }, {
    "id" : 424,
    "desc" : "PAINTING",
    "location" : {
      "id" : 138,
      "name" : null,
      "latitude" : 43.44869,
      "longitude" : 3.7904556
    },
    "openings" : {
      "start" : [ 11, 38 ],
      "end" : [ 16, 59 ]
    },
    "preferredSlots" : null,
    "doAfter" : null,
    "nbEmpRequired" : 1,
    "deadline" : [ 11, 3 ],
    "skills" : [ {
      "id" : 7,
      "name" : "PAINTING",
      "level" : 1
    } ],
    "duration" : 5400.000000000,
    "pause" : false
  } ],
  "employees" : [ {
    "id" : 378,
    "name" : "378",
    "shifts" : [ {
      "start" : [ 9, 0 ],
      "end" : [ 12, 0 ]
    }, {
      "start" : [ 13, 0 ],
      "end" : [ 17, 0 ]
    } ],
    "prefSlots" : null,
    "startingLoc" : {
      "id" : 6751,
      "name" : null,
      "latitude" : 43.45861,
      "longitude" : 4.216459
    },
    "skills" : [ {
      "id" : 2,
      "name" : "ELECTRICIAN",
      "level" : 6
    }, {
      "id" : 2,
      "name" : "ELECTRICIAN",
      "level" : 2
    }, {
      "id" : 2,
      "name" : "ELECTRICIAN",
      "level" : 5
    }, {
      "id" : 3,
      "name" : "PLUMBING",
      "level" : 9
    }, {
      "id" : 8,
      "name" : "IRONWORK",
      "level" : 10
    }, {
      "id" : 6,
      "name" : "CARPENTRY",
      "level" : 3
    }, {
      "id" : 7,
      "name" : "PAINTING",
      "level" : 9
    }, {
      "id" : 0,
      "name" : "MANAGEMENT",
      "level" : 4
    } ]
  }, {
    "id" : 789,
    "name" : "789",
    "shifts" : [ {
      "start" : [ 9, 0 ],
      "end" : [ 12, 0 ]
    }, {
      "start" : [ 13, 0 ],
      "end" : [ 17, 0 ]
    } ],
    "prefSlots" : null,
    "startingLoc" : {
      "id" : 4913,
      "name" : null,
      "latitude" : 43.95088,
      "longitude" : 4.141288
    },
    "skills" : [ {
      "id" : 1,
      "name" : "ENGINEER",
      "level" : 9
    }, {
      "id" : 4,
      "name" : "MASONRY",
      "level" : 7
    }, {
      "id" : 1,
      "name" : "ENGINEER",
      "level" : 9
    }, {
      "id" : 5,
      "name" : "GLAZING",
      "level" : 1
    } ]
  }, {
    "id" : 765,
    "name" : "765",
    "shifts" : [ {
      "start" : [ 9, 0 ],
      "end" : [ 12, 0 ]
    }, {
      "start" : [ 13, 0 ],
      "end" : [ 17, 0 ]
    } ],
    "prefSlots" : null,
    "startingLoc" : {
      "id" : 3620,
      "name" : null,
      "latitude" : 43.82337,
      "longitude" : 3.8609161
    },
    "skills" : [ {
      "id" : 7,
      "name" : "PAINTING",
      "level" : 8
    }, {
      "id" : 5,
      "name" : "GLAZING",
      "level" : 7
    }, {
      "id" : 1,
      "name" : "ENGINEER",
      "level" : 10
    }, {
      "id" : 2,
      "name" : "ELECTRICIAN",
      "level" : 8
    }, {
      "id" : 3,
      "name" : "PLUMBING",
      "level" : 2
    }, {
      "id" : 8,
      "name" : "IRONWORK",
      "level" : 3
    }, {
      "id" : 3,
      "name" : "PLUMBING",
      "level" : 10
    }, {
      "id" : 7,
      "name" : "PAINTING",
      "level" : 3
    }, {
      "id" : 1,
      "name" : "ENGINEER",
      "level" : 2
    } ]
  }, {
    "id" : 540,
    "name" : "540",
    "shifts" : [ {
      "start" : [ 9, 0 ],
      "end" : [ 12, 0 ]
    }, {
      "start" : [ 13, 0 ],
      "end" : [ 17, 0 ]
    } ],
    "prefSlots" : null,
    "startingLoc" : {
      "id" : 9950,
      "name" : null,
      "latitude" : 43.850613,
      "longitude" : 3.7607598
    },
    "skills" : [ {
      "id" : 4,
      "name" : "MASONRY",
      "level" : 10
    }, {
      "id" : 4,
      "name" : "MASONRY",
      "level" : 9
    }, {
      "id" : 4,
      "name" : "MASONRY",
      "level" : 6
    }, {
      "id" : 6,
      "name" : "CARPENTRY",
      "level" : 9
    }, {
      "id" : 4,
      "name" : "MASONRY",
      "level" : 10
    }, {
      "id" : 8,
      "name" : "IRONWORK",
      "level" : 1
    }, {
      "id" : 0,
      "name" : "MANAGEMENT",
      "level" : 8
    }, {
      "id" : 3,
      "name" : "PLUMBING",
      "level" : 9
    }, {
      "id" : 5,
      "name" : "GLAZING",
      "level" : 5
    } ]
  }, {
    "id" : 484,
    "name" : "484",
    "shifts" : [ {
      "start" : [ 9, 0 ],
      "end" : [ 12, 0 ]
    }, {
      "start" : [ 13, 0 ],
      "end" : [ 17, 0 ]
    } ],
    "prefSlots" : null,
    "startingLoc" : {
      "id" : 9599,
      "name" : null,
      "latitude" : 43.42849,
      "longitude" : 3.8795483
    },
    "skills" : [ {
      "id" : 6,
      "name" : "CARPENTRY",
      "level" : 2
    }, {
      "id" : 3,
      "name" : "PLUMBING",
      "level" : 8
    }, {
      "id" : 9,
      "name" : "TILER",
      "level" : 3
    }, {
      "id" : 9,
      "name" : "TILER",
      "level" : 4
    }, {
      "id" : 0,
      "name" : "MANAGEMENT",
      "level" : 10
    }, {
      "id" : 4,
      "name" : "MASONRY",
      "level" : 3
    }, {
      "id" : 2,
      "name" : "ELECTRICIAN",
      "level" : 6
    }, {
      "id" : 1,
      "name" : "ENGINEER",
      "level" : 8
    } ]
  }, {
    "id" : 253,
    "name" : "253",
    "shifts" : [ {
      "start" : [ 9, 0 ],
      "end" : [ 12, 0 ]
    }, {
      "start" : [ 13, 0 ],
      "end" : [ 17, 0 ]
    } ],
    "prefSlots" : null,
    "startingLoc" : {
      "id" : 578,
      "name" : null,
      "latitude" : 44.06577,
      "longitude" : 4.25663
    },
    "skills" : [ {
      "id" : 7,
      "name" : "PAINTING",
      "level" : 2
    }, {
      "id" : 7,
      "name" : "PAINTING",
      "level" : 4
    }, {
      "id" : 9,
      "name" : "TILER",
      "level" : 9
    }, {
      "id" : 4,
      "name" : "MASONRY",
      "level" : 10
    }, {
      "id" : 7,
      "name" : "PAINTING",
      "level" : 5
    }, {
      "id" : 7,
      "name" : "PAINTING",
      "level" : 9
    }, {
      "id" : 9,
      "name" : "TILER",
      "level" : 9
    }, {
      "id" : 4,
      "name" : "MASONRY",
      "level" : 4
    }, {
      "id" : 1,
      "name" : "ENGINEER",
      "level" : 7
    }, {
      "id" : 0,
      "name" : "MANAGEMENT",
      "level" : 2
    } ]
  }, {
    "id" : 457,
    "name" : "457",
    "shifts" : [ {
      "start" : [ 9, 0 ],
      "end" : [ 12, 0 ]
    }, {
      "start" : [ 13, 0 ],
      "end" : [ 17, 0 ]
    } ],
    "prefSlots" : null,
    "startingLoc" : {
      "id" : 9151,
      "name" : null,
      "latitude" : 43.73901,
      "longitude" : 3.9920712
    },
    "skills" : [ {
      "id" : 7,
      "name" : "PAINTING",
      "level" : 7
    }, {
      "id" : 3,
      "name" : "PLUMBING",
      "level" : 9
    }, {
      "id" : 6,
      "name" : "CARPENTRY",
      "level" : 9
    } ]
  }, {
    "id" : 775,
    "name" : "775",
    "shifts" : [ {
      "start" : [ 9, 0 ],
      "end" : [ 12, 0 ]
    }, {
      "start" : [ 13, 0 ],
      "end" : [ 17, 0 ]
    } ],
    "prefSlots" : null,
    "startingLoc" : {
      "id" : 7943,
      "name" : null,
      "latitude" : 44.07875,
      "longitude" : 3.755567
    },
    "skills" : [ {
      "id" : 6,
      "name" : "CARPENTRY",
      "level" : 5
    } ]
  }, {
    "id" : 350,
    "name" : "350",
    "shifts" : [ {
      "start" : [ 9, 0 ],
      "end" : [ 12, 0 ]
    }, {
      "start" : [ 13, 0 ],
      "end" : [ 17, 0 ]
    } ],
    "prefSlots" : null,
    "startingLoc" : {
      "id" : 5982,
      "name" : null,
      "latitude" : 44.01473,
      "longitude" : 4.038346
    },
    "skills" : [ {
      "id" : 3,
      "name" : "PLUMBING",
      "level" : 5
    }, {
      "id" : 4,
      "name" : "MASONRY",
      "level" : 7
    }, {
      "id" : 5,
      "name" : "GLAZING",
      "level" : 4
    } ]
  }, {
    "id" : 83,
    "name" : "83",
    "shifts" : [ {
      "start" : [ 9, 0 ],
      "end" : [ 12, 0 ]
    }, {
      "start" : [ 13, 0 ],
      "end" : [ 17, 0 ]
    } ],
    "prefSlots" : null,
    "startingLoc" : {
      "id" : 8752,
      "name" : null,
      "latitude" : 43.51556,
      "longitude" : 4.1600027
    },
    "skills" : [ {
      "id" : 0,
      "name" : "MANAGEMENT",
      "level" : 5
    }, {
      "id" : 5,
      "name" : "GLAZING",
      "level" : 3
    }, {
      "id" : 6,
      "name" : "CARPENTRY",
      "level" : 9
    }, {
      "id" : 0,
      "name" : "MANAGEMENT",
      "level" : 9
    }, {
      "id" : 0,
      "name" : "MANAGEMENT",
      "level" : 7
    }, {
      "id" : 1,
      "name" : "ENGINEER",
      "level" : 2
    } ]
  }, {
    "id" : 874,
    "name" : "874",
    "shifts" : [ {
      "start" : [ 9, 0 ],
      "end" : [ 12, 0 ]
    }, {
      "start" : [ 13, 0 ],
      "end" : [ 17, 0 ]
    } ],
    "prefSlots" : null,
    "startingLoc" : {
      "id" : 656,
      "name" : null,
      "latitude" : 43.90768,
      "longitude" : 4.0653906
    },
    "skills" : [ {
      "id" : 1,
      "name" : "ENGINEER",
      "level" : 8
    }, {
      "id" : 8,
      "name" : "IRONWORK",
      "level" : 8
    }, {
      "id" : 8,
      "name" : "IRONWORK",
      "level" : 6
    }, {
      "id" : 5,
      "name" : "GLAZING",
      "level" : 7
    }, {
      "id" : 5,
      "name" : "GLAZING",
      "level" : 6
    }, {
      "id" : 6,
      "name" : "CARPENTRY",
      "level" : 2
    } ]
  }, {
    "id" : 422,
    "name" : "422",
    "shifts" : [ {
      "start" : [ 9, 0 ],
      "end" : [ 12, 0 ]
    }, {
      "start" : [ 13, 0 ],
      "end" : [ 17, 0 ]
    } ],
    "prefSlots" : null,
    "startingLoc" : {
      "id" : 6686,
      "name" : null,
      "latitude" : 43.956463,
      "longitude" : 3.7873185
    },
    "skills" : [ {
      "id" : 4,
      "name" : "MASONRY",
      "level" : 7
    }, {
      "id" : 5,
      "name" : "GLAZING",
      "level" : 3
    }, {
      "id" : 5,
      "name" : "GLAZING",
      "level" : 6
    }, {
      "id" : 6,
      "name" : "CARPENTRY",
      "level" : 3
    } ]
  }, {
    "id" : 720,
    "name" : "720",
    "shifts" : [ {
      "start" : [ 9, 0 ],
      "end" : [ 12, 0 ]
    }, {
      "start" : [ 13, 0 ],
      "end" : [ 17, 0 ]
    } ],
    "prefSlots" : null,
    "startingLoc" : {
      "id" : 9087,
      "name" : null,
      "latitude" : 43.912697,
      "longitude" : 4.083335
    },
    "skills" : [ {
      "id" : 9,
      "name" : "TILER",
      "level" : 4
    }, {
      "id" : 4,
      "name" : "MASONRY",
      "level" : 1
    }, {
      "id" : 7,
      "name" : "PAINTING",
      "level" : 4
    }, {
      "id" : 3,
      "name" : "PLUMBING",
      "level" : 8
    }, {
      "id" : 3,
      "name" : "PLUMBING",
      "level" : 9
    }, {
      "id" : 5,
      "name" : "GLAZING",
      "level" : 9
    }, {
      "id" : 8,
      "name" : "IRONWORK",
      "level" : 5
    }, {
      "id" : 0,
      "name" : "MANAGEMENT",
      "level" : 1
    }, {
      "id" : 9,
      "name" : "TILER",
      "level" : 1
    } ]
  }, {
    "id" : 700,
    "name" : "700",
    "shifts" : [ {
      "start" : [ 9, 0 ],
      "end" : [ 12, 0 ]
    }, {
      "start" : [ 13, 0 ],
      "end" : [ 17, 0 ]
    } ],
    "prefSlots" : null,
    "startingLoc" : {
      "id" : 9445,
      "name" : null,
      "latitude" : 44.06065,
      "longitude" : 3.9013271
    },
    "skills" : [ {
      "id" : 0,
      "name" : "MANAGEMENT",
      "level" : 3
    }, {
      "id" : 4,
      "name" : "MASONRY",
      "level" : 9
    }, {
      "id" : 6,
      "name" : "CARPENTRY",
      "level" : 8
    }, {
      "id" : 5,
      "name" : "GLAZING",
      "level" : 7
    } ]
  }, {
    "id" : 257,
    "name" : "257",
    "shifts" : [ {
      "start" : [ 9, 0 ],
      "end" : [ 12, 0 ]
    }, {
      "start" : [ 13, 0 ],
      "end" : [ 17, 0 ]
    } ],
    "prefSlots" : null,
    "startingLoc" : {
      "id" : 9995,
      "name" : null,
      "latitude" : 43.57413,
      "longitude" : 4.1172876
    },
    "skills" : [ {
      "id" : 1,
      "name" : "ENGINEER",
      "level" : 7
    }, {
      "id" : 8,
      "name" : "IRONWORK",
      "level" : 2
    }, {
      "id" : 6,
      "name" : "CARPENTRY",
      "level" : 3
    }, {
      "id" : 4,
      "name" : "MASONRY",
      "level" : 4
    }, {
      "id" : 5,
      "name" : "GLAZING",
      "level" : 8
    }, {
      "id" : 7,
      "name" : "PAINTING",
      "level" : 10
    }, {
      "id" : 9,
      "name" : "TILER",
      "level" : 3
    }, {
      "id" : 7,
      "name" : "PAINTING",
      "level" : 6
    }, {
      "id" : 0,
      "name" : "MANAGEMENT",
      "level" : 4
    }, {
      "id" : 9,
      "name" : "TILER",
      "level" : 10
    } ]
  }, {
    "id" : 398,
    "name" : "398",
    "shifts" : [ {
      "start" : [ 9, 0 ],
      "end" : [ 12, 0 ]
    }, {
      "start" : [ 13, 0 ],
      "end" : [ 17, 0 ]
    } ],
    "prefSlots" : null,
    "startingLoc" : {
      "id" : 6095,
      "name" : null,
      "latitude" : 43.71979,
      "longitude" : 4.1262546
    },
    "skills" : [ {
      "id" : 2,
      "name" : "ELECTRICIAN",
      "level" : 9
    }, {
      "id" : 3,
      "name" : "PLUMBING",
      "level" : 6
    }, {
      "id" : 7,
      "name" : "PAINTING",
      "level" : 10
    }, {
      "id" : 0,
      "name" : "MANAGEMENT",
      "level" : 7
    }, {
      "id" : 2,
      "name" : "ELECTRICIAN",
      "level" : 7
    }, {
      "id" : 7,
      "name" : "PAINTING",
      "level" : 10
    }, {
      "id" : 8,
      "name" : "IRONWORK",
      "level" : 1
    }, {
      "id" : 6,
      "name" : "CARPENTRY",
      "level" : 4
    }, {
      "id" : 4,
      "name" : "MASONRY",
      "level" : 1
    } ]
  }, {
    "id" : 659,
    "name" : "659",
    "shifts" : [ {
      "start" : [ 9, 0 ],
      "end" : [ 12, 0 ]
    }, {
      "start" : [ 13, 0 ],
      "end" : [ 17, 0 ]
    } ],
    "prefSlots" : null,
    "startingLoc" : {
      "id" : 2808,
      "name" : null,
      "latitude" : 43.605232,
      "longitude" : 3.77303
    },
    "skills" : [ {
      "id" : 7,
      "name" : "PAINTING",
      "level" : 1
    }, {
      "id" : 8,
      "name" : "IRONWORK",
      "level" : 2
    }, {
      "id" : 4,
      "name" : "MASONRY",
      "level" : 2
    }, {
      "id" : 2,
      "name" : "ELECTRICIAN",
      "level" : 3
    }, {
      "id" : 4,
      "name" : "MASONRY",
      "level" : 10
    } ]
  }, {
    "id" : 782,
    "name" : "782",
    "shifts" : [ {
      "start" : [ 9, 0 ],
      "end" : [ 12, 0 ]
    }, {
      "start" : [ 13, 0 ],
      "end" : [ 17, 0 ]
    } ],
    "prefSlots" : null,
    "startingLoc" : {
      "id" : 6473,
      "name" : null,
      "latitude" : 43.682884,
      "longitude" : 3.789193
    },
    "skills" : [ {
      "id" : 7,
      "name" : "PAINTING",
      "level" : 5
    }, {
      "id" : 9,
      "name" : "TILER",
      "level" : 1
    }, {
      "id" : 4,
      "name" : "MASONRY",
      "level" : 4
    }, {
      "id" : 8,
      "name" : "IRONWORK",
      "level" : 4
    } ]
  }, {
    "id" : 464,
    "name" : "464",
    "shifts" : [ {
      "start" : [ 9, 0 ],
      "end" : [ 12, 0 ]
    }, {
      "start" : [ 13, 0 ],
      "end" : [ 17, 0 ]
    } ],
    "prefSlots" : null,
    "startingLoc" : {
      "id" : 7395,
      "name" : null,
      "latitude" : 43.998955,
      "longitude" : 4.229154
    },
    "skills" : [ {
      "id" : 2,
      "name" : "ELECTRICIAN",
      "level" : 8
    }, {
      "id" : 0,
      "name" : "MANAGEMENT",
      "level" : 5
    }, {
      "id" : 1,
      "name" : "ENGINEER",
      "level" : 5
    }, {
      "id" : 9,
      "name" : "TILER",
      "level" : 4
    }, {
      "id" : 8,
      "name" : "IRONWORK",
      "level" : 7
    }, {
      "id" : 9,
      "name" : "TILER",
      "level" : 6
    }, {
      "id" : 1,
      "name" : "ENGINEER",
      "level" : 2
    }, {
      "id" : 2,
      "name" : "ELECTRICIAN",
      "level" : 5
    }, {
      "id" : 8,
      "name" : "IRONWORK",
      "level" : 1
    } ]
  }, {
    "id" : 37,
    "name" : "37",
    "shifts" : [ {
      "start" : [ 9, 0 ],
      "end" : [ 12, 0 ]
    }, {
      "start" : [ 13, 0 ],
      "end" : [ 17, 0 ]
    } ],
    "prefSlots" : null,
    "startingLoc" : {
      "id" : 3836,
      "name" : null,
      "latitude" : 43.91585,
      "longitude" : 3.9277713
    },
    "skills" : [ {
      "id" : 5,
      "name" : "GLAZING",
      "level" : 7
    }, {
      "id" : 0,
      "name" : "MANAGEMENT",
      "level" : 3
    }, {
      "id" : 0,
      "name" : "MANAGEMENT",
      "level" : 3
    } ]
  } ],
  "appointments" : [ {
    "job" : {
      "id" : 201,
      "desc" : "ENGINEER",
      "location" : {
        "id" : 5427,
        "name" : null,
        "latitude" : 43.944923,
        "longitude" : 4.1967936
      },
      "openings" : {
        "start" : [ 9, 0 ],
        "end" : [ 13, 26 ]
      },
      "preferredSlots" : null,
      "doAfter" : null,
      "nbEmpRequired" : 1,
      "deadline" : [ 14, 34 ],
      "skills" : [ {
        "id" : 1,
        "name" : "ENGINEER",
        "level" : 5
      } ],
      "duration" : 1800.000000000,
      "pause" : false
    },
    "needed" : [ {
      "id" : 350,
      "name" : "350",
      "shifts" : [ {
        "start" : [ 9, 0 ],
        "end" : [ 12, 0 ]
      }, {
        "start" : [ 13, 0 ],
        "end" : [ 17, 0 ]
      } ],
      "prefSlots" : null,
      "startingLoc" : {
        "id" : 5982,
        "name" : null,
        "latitude" : 44.01473,
        "longitude" : 4.038346
      },
      "skills" : [ {
        "id" : 3,
        "name" : "PLUMBING",
        "level" : 5
      }, {
        "id" : 4,
        "name" : "MASONRY",
        "level" : 7
      }, {
        "id" : 5,
        "name" : "GLAZING",
        "level" : 4
      } ]
    } ]
  }, {
    "job" : {
      "id" : 908,
      "desc" : "ELECTRICIAN",
      "location" : {
        "id" : 5470,
        "name" : null,
        "latitude" : 43.44083,
        "longitude" : 4.04611
      },
      "openings" : {
        "start" : [ 11, 54 ],
        "end" : [ 12, 8 ]
      },
      "preferredSlots" : null,
      "doAfter" : null,
      "nbEmpRequired" : 1,
      "deadline" : [ 17, 12 ],
      "skills" : [ {
        "id" : 2,
        "name" : "ELECTRICIAN",
        "level" : 3
      } ],
      "duration" : 5400.000000000,
      "pause" : false
    },
    "needed" : [ {
      "id" : 484,
      "name" : "484",
      "shifts" : [ {
        "start" : [ 9, 0 ],
        "end" : [ 12, 0 ]
      }, {
        "start" : [ 13, 0 ],
        "end" : [ 17, 0 ]
      } ],
      "prefSlots" : null,
      "startingLoc" : {
        "id" : 9599,
        "name" : null,
        "latitude" : 43.42849,
        "longitude" : 3.8795483
      },
      "skills" : [ {
        "id" : 6,
        "name" : "CARPENTRY",
        "level" : 2
      }, {
        "id" : 3,
        "name" : "PLUMBING",
        "level" : 8
      }, {
        "id" : 9,
        "name" : "TILER",
        "level" : 3
      }, {
        "id" : 9,
        "name" : "TILER",
        "level" : 4
      }, {
        "id" : 0,
        "name" : "MANAGEMENT",
        "level" : 10
      }, {
        "id" : 4,
        "name" : "MASONRY",
        "level" : 3
      }, {
        "id" : 2,
        "name" : "ELECTRICIAN",
        "level" : 6
      }, {
        "id" : 1,
        "name" : "ENGINEER",
        "level" : 8
      } ]
    }, {
      "id" : 659,
      "name" : "659",
      "shifts" : [ {
        "start" : [ 9, 0 ],
        "end" : [ 12, 0 ]
      }, {
        "start" : [ 13, 0 ],
        "end" : [ 17, 0 ]
      } ],
      "prefSlots" : null,
      "startingLoc" : {
        "id" : 2808,
        "name" : null,
        "latitude" : 43.605232,
        "longitude" : 3.77303
      },
      "skills" : [ {
        "id" : 7,
        "name" : "PAINTING",
        "level" : 1
      }, {
        "id" : 8,
        "name" : "IRONWORK",
        "level" : 2
      }, {
        "id" : 4,
        "name" : "MASONRY",
        "level" : 2
      }, {
        "id" : 2,
        "name" : "ELECTRICIAN",
        "level" : 3
      }, {
        "id" : 4,
        "name" : "MASONRY",
        "level" : 10
      } ]
    }, {
      "id" : 398,
      "name" : "398",
      "shifts" : [ {
        "start" : [ 9, 0 ],
        "end" : [ 12, 0 ]
      }, {
        "start" : [ 13, 0 ],
        "end" : [ 17, 0 ]
      } ],
      "prefSlots" : null,
      "startingLoc" : {
        "id" : 6095,
        "name" : null,
        "latitude" : 43.71979,
        "longitude" : 4.1262546
      },
      "skills" : [ {
        "id" : 2,
        "name" : "ELECTRICIAN",
        "level" : 9
      }, {
        "id" : 3,
        "name" : "PLUMBING",
        "level" : 6
      }, {
        "id" : 7,
        "name" : "PAINTING",
        "level" : 10
      }, {
        "id" : 0,
        "name" : "MANAGEMENT",
        "level" : 7
      }, {
        "id" : 2,
        "name" : "ELECTRICIAN",
        "level" : 7
      }, {
        "id" : 7,
        "name" : "PAINTING",
        "level" : 10
      }, {
        "id" : 8,
        "name" : "IRONWORK",
        "level" : 1
      }, {
        "id" : 6,
        "name" : "CARPENTRY",
        "level" : 4
      }, {
        "id" : 4,
        "name" : "MASONRY",
        "level" : 1
      } ]
    } ]
  }, {
    "job" : {
      "id" : 268,
      "desc" : "ELECTRICIAN",
      "location" : {
        "id" : 8750,
        "name" : null,
        "latitude" : 43.487587,
        "longitude" : 4.206397
      },
      "openings" : {
        "start" : [ 9, 10 ],
        "end" : [ 15, 33 ]
      },
      "preferredSlots" : null,
      "doAfter" : null,
      "nbEmpRequired" : 1,
      "deadline" : [ 9, 35 ],
      "skills" : [ {
        "id" : 2,
        "name" : "ELECTRICIAN",
        "level" : 1
      } ],
      "duration" : 3600.000000000,
      "pause" : false
    },
    "needed" : [ {
      "id" : 720,
      "name" : "720",
      "shifts" : [ {
        "start" : [ 9, 0 ],
        "end" : [ 12, 0 ]
      }, {
        "start" : [ 13, 0 ],
        "end" : [ 17, 0 ]
      } ],
      "prefSlots" : null,
      "startingLoc" : {
        "id" : 9087,
        "name" : null,
        "latitude" : 43.912697,
        "longitude" : 4.083335
      },
      "skills" : [ {
        "id" : 9,
        "name" : "TILER",
        "level" : 4
      }, {
        "id" : 4,
        "name" : "MASONRY",
        "level" : 1
      }, {
        "id" : 7,
        "name" : "PAINTING",
        "level" : 4
      }, {
        "id" : 3,
        "name" : "PLUMBING",
        "level" : 8
      }, {
        "id" : 3,
        "name" : "PLUMBING",
        "level" : 9
      }, {
        "id" : 5,
        "name" : "GLAZING",
        "level" : 9
      }, {
        "id" : 8,
        "name" : "IRONWORK",
        "level" : 5
      }, {
        "id" : 0,
        "name" : "MANAGEMENT",
        "level" : 1
      }, {
        "id" : 9,
        "name" : "TILER",
        "level" : 1
      } ]
    } ]
  }, {
    "job" : {
      "id" : 941,
      "desc" : "PLUMBING",
      "location" : {
        "id" : 3363,
        "name" : null,
        "latitude" : 44.099556,
        "longitude" : 4.2027397
      },
      "openings" : {
        "start" : [ 12, 31 ],
        "end" : [ 17, 30 ]
      },
      "preferredSlots" : null,
      "doAfter" : null,
      "nbEmpRequired" : 1,
      "deadline" : [ 15, 26 ],
      "skills" : [ {
        "id" : 3,
        "name" : "PLUMBING",
        "level" : 5
      } ],
      "duration" : 1800.000000000,
      "pause" : false
    },
    "needed" : [ {
      "id" : 422,
      "name" : "422",
      "shifts" : [ {
        "start" : [ 9, 0 ],
        "end" : [ 12, 0 ]
      }, {
        "start" : [ 13, 0 ],
        "end" : [ 17, 0 ]
      } ],
      "prefSlots" : null,
      "startingLoc" : {
        "id" : 6686,
        "name" : null,
        "latitude" : 43.956463,
        "longitude" : 3.7873185
      },
      "skills" : [ {
        "id" : 4,
        "name" : "MASONRY",
        "level" : 7
      }, {
        "id" : 5,
        "name" : "GLAZING",
        "level" : 3
      }, {
        "id" : 5,
        "name" : "GLAZING",
        "level" : 6
      }, {
        "id" : 6,
        "name" : "CARPENTRY",
        "level" : 3
      } ]
    }, {
      "id" : 257,
      "name" : "257",
      "shifts" : [ {
        "start" : [ 9, 0 ],
        "end" : [ 12, 0 ]
      }, {
        "start" : [ 13, 0 ],
        "end" : [ 17, 0 ]
      } ],
      "prefSlots" : null,
      "startingLoc" : {
        "id" : 9995,
        "name" : null,
        "latitude" : 43.57413,
        "longitude" : 4.1172876
      },
      "skills" : [ {
        "id" : 1,
        "name" : "ENGINEER",
        "level" : 7
      }, {
        "id" : 8,
        "name" : "IRONWORK",
        "level" : 2
      }, {
        "id" : 6,
        "name" : "CARPENTRY",
        "level" : 3
      }, {
        "id" : 4,
        "name" : "MASONRY",
        "level" : 4
      }, {
        "id" : 5,
        "name" : "GLAZING",
        "level" : 8
      }, {
        "id" : 7,
        "name" : "PAINTING",
        "level" : 10
      }, {
        "id" : 9,
        "name" : "TILER",
        "level" : 3
      }, {
        "id" : 7,
        "name" : "PAINTING",
        "level" : 6
      }, {
        "id" : 0,
        "name" : "MANAGEMENT",
        "level" : 4
      }, {
        "id" : 9,
        "name" : "TILER",
        "level" : 10
      } ]
    }, {
      "id" : 253,
      "name" : "253",
      "shifts" : [ {
        "start" : [ 9, 0 ],
        "end" : [ 12, 0 ]
      }, {
        "start" : [ 13, 0 ],
        "end" : [ 17, 0 ]
      } ],
      "prefSlots" : null,
      "startingLoc" : {
        "id" : 578,
        "name" : null,
        "latitude" : 44.06577,
        "longitude" : 4.25663
      },
      "skills" : [ {
        "id" : 7,
        "name" : "PAINTING",
        "level" : 2
      }, {
        "id" : 7,
        "name" : "PAINTING",
        "level" : 4
      }, {
        "id" : 9,
        "name" : "TILER",
        "level" : 9
      }, {
        "id" : 4,
        "name" : "MASONRY",
        "level" : 10
      }, {
        "id" : 7,
        "name" : "PAINTING",
        "level" : 5
      }, {
        "id" : 7,
        "name" : "PAINTING",
        "level" : 9
      }, {
        "id" : 9,
        "name" : "TILER",
        "level" : 9
      }, {
        "id" : 4,
        "name" : "MASONRY",
        "level" : 4
      }, {
        "id" : 1,
        "name" : "ENGINEER",
        "level" : 7
      }, {
        "id" : 0,
        "name" : "MANAGEMENT",
        "level" : 2
      } ]
    } ]
  }, {
    "job" : {
      "id" : 592,
      "desc" : "CARPENTRY, TILER",
      "location" : {
        "id" : 2898,
        "name" : null,
        "latitude" : 43.608658,
        "longitude" : 4.281259
      },
      "openings" : {
        "start" : [ 10, 39 ],
        "end" : [ 16, 58 ]
      },
      "preferredSlots" : null,
      "doAfter" : null,
      "nbEmpRequired" : 1,
      "deadline" : [ 9, 15 ],
      "skills" : [ {
        "id" : 6,
        "name" : "CARPENTRY",
        "level" : 2
      }, {
        "id" : 9,
        "name" : "TILER",
        "level" : 5
      } ],
      "duration" : 2700.000000000,
      "pause" : false
    },
    "needed" : [ {
      "id" : 457,
      "name" : "457",
      "shifts" : [ {
        "start" : [ 9, 0 ],
        "end" : [ 12, 0 ]
      }, {
        "start" : [ 13, 0 ],
        "end" : [ 17, 0 ]
      } ],
      "prefSlots" : null,
      "startingLoc" : {
        "id" : 9151,
        "name" : null,
        "latitude" : 43.73901,
        "longitude" : 3.9920712
      },
      "skills" : [ {
        "id" : 7,
        "name" : "PAINTING",
        "level" : 7
      }, {
        "id" : 3,
        "name" : "PLUMBING",
        "level" : 9
      }, {
        "id" : 6,
        "name" : "CARPENTRY",
        "level" : 9
      } ]
    } ]
  } ]
}