{
  "jobs" : [ {
    "id" : 183,
    "desc" : "PAINTING, TILER",
    "location" : {
      "id" : 5845,
      "name" : null,
      "latitude" : 43.78115,
      "longitude" : 3.7302876
    },
    "openings" : {
      "start" : [ 16, 57 ],
      "end" : [ 17, 22 ]
    },
    "preferredSlots" : null,
    "doAfter" : null,
    "nbEmpRequired" : 1,
    "deadline" : [ 16, 59 ],
    "skills" : [ {
      "id" : 7,
      "name" : "PAINTING",
      "level" : 2
    }, {
      "id" : 9,
      "name" : "TILER",
      "level" : 3
    } ],
    "duration" : 1800.000000000,
    "pause" : false
  }, {
    "id" : 874,
    "desc" : "IRONWORK, MASONRY",
    "location" : {
      "id" : 9885,
      "name" : null,
      "latitude" : 43.719883,
      "longitude" : 4.2508755
    },
    "openings" : {
      "start" : [ 10, 56 ],
      "end" : [ 13, 49 ]
    },
    "preferredSlots" : null,
    "doAfter" : null,
    "nbEmpRequired" : 1,
    "deadline" : [ 17, 47 ],
    "skills" : [ {
      "id" : 8,
      "name" : "IRONWORK",
      "level" : 5
    }, {
      "id" : 4,
      "name" : "MASONRY",
      "level" : 4
    } ],
    "duration" : 2700.000000000,
    "pause" : false
  }, {
    "id" : 185,
    "desc" : "MASONRY, ELECTRICIAN",
    "location" : {
      "id" : 7884,
      "name" : null,
      "latitude" : 43.693474,
      "longitude" : 4.027642
    },
    "openings" : {
      "start" : [ 10, 27 ],
      "end" : [ 13, 8 ]
    },
    "preferredSlots" : null,
    "doAfter" : null,
    "nbEmpRequired" : 1,
    "deadline" : [ 11, 28 ],
    "skills" : [ {
      "id" : 4,
      "name" : "MASONRY",
      "level" : 5
    }, {
      "id" : 2,
      "name" : "ELECTRICIAN",
      "level" : 2
    } ],
    "duration" : 7200.000000000,
    "pause" : false
  }, {
    "id" : 770,
    "desc" : "IRONWORK",
    "location" : {
      "id" : 8459,
      "name" : null,
      "latitude" : 43.740868,
      "longitude" : 3.8339767
    },
    "openings" : {
      "start" : [ 11, 23 ],
      "end" : [ 17, 31 ]
    },
    "preferredSlots" : null,
    "doAfter" : null,
    "nbEmpRequired" : 1,
    "deadline" : [ 16, 17 ],
    "skills" : [ {
      "id" : 8,
      "name" : "IRONWORK",
      "level" : 2
    } ],
    "duration" : 2700.000000000,
    "pause" : false
  }, {
    "id" : 573,
    "desc" : "GLAZING, PLUMBING",
    "location" : {
      "id" : 5578,
      "name" : null,
      "latitude" : 43.562992,
      "longitude" : 4.2988105
    },
    "openings" : {
      "start" : [ 11, 4 ],
      "end" : [ 11, 35 ]
    },
    "preferredSlots" : null,
    "doAfter" : null,
    "nbEmpRequired" : 1,
    "deadline" : [ 14, 54 ],
    "skills" : [ {
      "id" : 5,
      "name" : "GLAZING",
      "level" : 2
    }, {
      "id" : 3,
      "name" : "PLUMBING",
      "level" : 4
    } ],
    "duration" : 1800.000000000,
    "pause" : false
  }, {
    "id" : 414,
    "desc" : "PLUMBING, CARPENTRY",
    "location" : {
      "id" : 7585,
      "name" : null,
      "latitude" : 43.934944,
      "longitude" : 4.1159453
    },
    "openings" : {
      "start" : [ 12, 39 ],
      "end" : [ 15, 29 ]
    },
    "preferredSlots" : null,
    "doAfter" : null,
    "nbEmpRequired" : 1,
    "deadline" : [ 15, 13 ],
    "skills" : [ {
      "id" : 3,
      "name" : "PLUMBING",
      "level" : 1
    }, {
      "id" : 6,
      "name" : "CARPENTRY",
      "level" : 4
    } ],
    "duration" : 7200.000000000,
    "pause" : false
  }, {
    "id" : 454,
    "desc" : "PLUMBING",
    "location" : {
      "id" : 4321,
      "name" : null,
      "latitude" : 43.672016,
      "longitude" : 3.9971898
    },
    "openings" : {
      "start" : [ 14, 55 ],
      "end" : [ 17, 7 ]
    },
    "preferredSlots" : null,
    "doAfter" : null,
    "nbEmpRequired" : 1,
    "deadline" : [ 16, 45 ],
    "skills" : [ {
      "id" : 3,
      "name" : "PLUMBING",
      "level" : 3
    } ],
    "duration" : 3600.000000000,
    "pause" : false
  }, {
    "id" : 640,
    "desc" : "PLUMBING",
    "location" : {
      "id" : 9320,
      "name" : null,
      "latitude" : 43.594036,
      "longitude" : 4.020697
    },
    "openings" : {
      "start" : [ 10, 43 ],
      "end" : [ 12, 32 ]
    },
    "preferredSlots" : null,
    "doAfter" : null,
    "nbEmpRequired" : 1,
    "deadline" : [ 10, 59 ],
    "skills" : [ {
      "id" : 3,
      "name" : "PLUMBING",
      "level" : 3
    } ],
    "duration" : 2700.000000000,
    "pause" : false
  }, {
    "id" : 78,
    "desc" : "MANAGEMENT",
    "location" : {
      "id" : 8570,
      "name" : null,
      "latitude" : 43.937515,
      "longitude" : 3.824894
    },
    "openings" : {
      "start" : [ 12, 23 ],
      "end" : [ 17, 54 ]
    },
    "preferredSlots" : null,
    "doAfter" : null,
    "nbEmpRequired" : 1,
    "deadline" : [ 13, 48 ],
    "skills" : [ {
      "id" : 0,
      "name" : "MANAGEMENT",
      "level" : 4
    } ],
    "duration" : 2700.000000000,
    "pause" : false
  }, {
    "id" : 317,
    "desc" : "MANAGEMENT, IRONWORK",
    "location" : {
      "id" : 493,
      "name" : null,
      "latitude" : 43.728794,
      "longitude" : 3.7586455
    },
    "openings" : {
      "start" : [ 16, 27 ],
      "end" : [ 16, 41 ]
    },
    "preferredSlots" : null,
    "doAfter" : null,
    "nbEmpRequired" : 1,
    "deadline" : [ 9, 44 ],
    "skills" : [ {
      "id" : 0,
      "name" : "MANAGEMENT",
      "level" : 4
    }, {
      "id" : 8,
      "name" : "IRONWORK",
      "level" : 1
    } ],
    "duration" : 3600.000000000,
    "pause" : false
  }, {
    "id" : 599,
    "desc" : "MANAGEMENT",
    "location" : {
      "id" : 5369,
      "name" : null,
      "latitude" : 43.718224,
      "longitude" : 4.0335875
    },
    "openings" : {
      "start" : [ 13, 57 ],
      "end" : [ 14, 54 ]
    },
    "preferredSlots" : null,
    "doAfter" : null,
    "nbEmpRequired" : 1,
    "deadline" : [ 14, 25 ],
    "skills" : [ {
      "id" : 0,
      "name" : "MANAGEMENT",
      "level" : 1
    } ],
    "duration" : 2700.000000000,
    "pause" : false
  }, {
    "id" : 773,
    "desc" : "MANAGEMENT, TILER",
    "location" : {
      "id" : 3136,
      "name" : null,
      "latitude" : 43.533478,
      "longitude" : 3.7072327
    },
    "openings" : {
      "start" : [ 12, 8 ],
      "end" : [ 15, 19 ]
    },
    "preferredSlots" : null,
    "doAfter" : null,
    "nbEmpRequired" : 1,
    "deadline" : [ 15, 26 ],
    "skills" : [ {
      "id" : 0,
      "name" : "MANAGEMENT",
      "level" : 3
    }, {
      "id" : 9,
      "name" : "TILER",
      "level" : 4
    } ],
    "duration" : 3600.000000000,
    "pause" : false
  }, {
    "id" : 228,
    "desc" : "ENGINEER",
    "location" : {
      "id" : 6474,
      "name" : null,
      "latitude" : 43.811737,
      "longitude" : 3.8202713
    },
    "openings" : {
      "start" : [ 9, 22 ],
      "end" : [ 15, 44 ]
    },
    "preferredSlots" : null,
    "doAfter" : null,
    "nbEmpRequired" : 1,
    "deadline" : [ 16, 6 ],
    "skills" : [ {
      "id" : 1,
      "name" : "ENGINEER",
      "level" : 2
    } ],
    "duration" : 1800.000000000,
    "pause" : false
  }, {
    "id" : 100,
    "desc" : "CARPENTRY, TILER",
    "location" : {
      "id" : 2587,
      "name" : null,
      "latitude" : 43.50311,
      "longitude" : 3.7984385
    },
    "openings" : {
      "start" : [ 13, 40 ],
      "end" : [ 13, 52 ]
    },
    "preferredSlots" : null,
    "doAfter" : null,
    "nbEmpRequired" : 1,
    "deadline" : [ 17, 57 ],
    "skills" : [ {
      "id" : 6,
      "name" : "CARPENTRY",
      "level" : 4
    }, {
      "id" : 9,
      "name" : "TILER",
      "level" : 1
    } ],
    "duration" : 1800.000000000,
    "pause" : false
  }, {
    "id" : 809,
    "desc" : "TILER",
    "location" : {
      "id" : 2443,
      "name" : null,
      "latitude" : 43.55191,
      "longitude" : 4.2708864
    },
    "openings" : {
      "start" : [ 10, 50 ],
      "end" : [ 17, 3 ]
    },
    "preferredSlots" : null,
    "doAfter" : null,
    "nbEmpRequired" : 1,
    "deadline" : [ 15, 27 ],
    "skills" : [ {
      "id" : 9,
      "name" : "TILER",
      "level" : 3
    } ],
    "duration" : 5400.000000000,
    "pause" : false
  }, {
    "id" : 500,
    "desc" : "IRONWORK",
    "location" : {
      "id" : 950,
      "name" : null,
      "latitude" : 43.683952,
      "longitude" : 4.1629763
    },
    "openings" : {
      "start" : [ 9, 47 ],
      "end" : [ 11, 58 ]
    },
    "preferredSlots" : null,
    "doAfter" : null,
    "nbEmpRequired" : 1,
    "deadline" : [ 17, 45 ],
    "skills" : [ {
      "id" : 8,
      "name" : "IRONWORK",
      "level" : 5
    } ],
    "duration" : 2700.000000000,
    "pause" : false
  }, {
    "id" : 697,
    "desc" : "MANAGEMENT, ELECTRICIAN",
    "location" : {
      "id" : 1842,
      "name" : null,
      "latitude" : 43.858395,
      "longitude" : 3.9638016
    },
    "openings" : {
      "start" : [ 13, 27 ],
      "end" : [ 13, 36 ]
    },
    "preferredSlots" : null,
    "doAfter" : null,
    "nbEmpRequired" : 1,
    "deadline" : [ 13, 20 ],
    "skills" : [ {
      "id" : 0,
      "name" : "MANAGEMENT",
      "level" : 2
    }, {
      "id" : 2,
      "name" : "ELECTRICIAN",
      "level" : 2
    } ],
    "duration" : 2700.000000000,
    "pause" : false
  }, {
    "id" : 303,
    "desc" : "MANAGEMENT",
    "location" : {
      "id" : 7300,
      "name" : null,
      "latitude" : 43.45478,
      "longitude" : 4.223555
    },
    "openings" : {
      "start" : [ 10, 21 ],
      "end" : [ 17, 54 ]
    },
    "preferredSlots" : null,
    "doAfter" : null,
    "nbEmpRequired" : 1,
    "deadline" : [ 17, 40 ],
    "skills" : [ {
      "id" : 0,
      "name" : "MANAGEMENT",
      "level" : 1
    } ],
    "duration" : 2700.000000000,
    "pause" : false
  }, {
    "id" : 52,
    "desc" : "CARPENTRY",
    "location" : {
      "id" : 5816,
      "name" : null,
      "latitude" : 43.861237,
      "longitude" : 4.08195
    },
    "openings" : {
      "start" : [ 10, 36 ],
      "end" : [ 15, 36 ]
    },
    "preferredSlots" : null,
    "doAfter" : null,
    "nbEmpRequired" : 1,
    "deadline" : [ 14, 17 ],
    "skills" : [ {
      "id" : 6,
      "name" : "CARPENTRY",
      "level" : 2
    } ],
    "duration" : 2700.000000000,
    "pause" : false
  }, {
    "id" : 331,
    "desc" : "CARPENTRY",
    "location" : {
      "id" : 5127,
      "name" : null,
      "latitude" : 43.477776,
      "longitude" : 3.9252045
    },
    "openings" : {
      "start" : [ 14, 34 ],
      "end" : [ 15, 31 ]
    },
    "preferredSlots" : null,
    "doAfter" : null,
    "nbEmpRequired" : 1,
    "deadline" : [ 16, 48 ],
    "skills" : [ {
      "id" : 6,
      "name" : "CARPENTRY",
      "level" : 5
    } ],
    "duration" : 2700.000000000,
    "pause" : false
  }, {
    "id" : 104,
    "desc" : "PLUMBING",
    "location" : {
      "id" : 6067,
      "name" : null,
      "latitude" : 43.91983,
      "longitude" : 4.2371125
    },
    "openings" : {
      "start" : [ 9, 47 ],
      "end" : [ 17, 45 ]
    },
    "preferredSlots" : null,
    "doAfter" : null,
    "nbEmpRequired" : 1,
    "deadline" : [ 16, 41 ],
    "skills" : [ {
      "id" : 3,
      "name" : "PLUMBING",
      "level" : 3
    } ],
    "duration" : 2700.000000000,
    "pause" : false
  }, {
    "id" : 271,
    "desc" : "GLAZING",
    "location" : {
      "id" : 878,
      "name" : null,
      "latitude" : 43.735405,
      "longitude" : 4.22552
    },
    "openings" : {
      "start" : [ 10, 10 ],
      "end" : [ 11, 11 ]
    },
    "preferredSlots" : null,
    "doAfter" : null,
    "nbEmpRequired" : 1,
    "deadline" : [ 10, 12 ],
    "skills" : [ {
      "id" : 5,
      "name" : "GLAZING",
      "level" : 5
    } ],
    "duration" : 2700.000000000,
    "pause" : false
  }, {
    "id" : 576,
    "desc" : "ENGINEER, TILER",
    "location" : {
      "id" : 8788,
      "name" : null,
      "latitude" : 44.03183,
      "longitude" : 4.2574496
    },
    "openings" : {
      "start" : [ 12, 33 ],
      "end" : [ 17, 15 ]
    },
    "preferredSlots" : null,
    "doAfter" : null,
    "nbEmpRequired" : 1,
    "deadline" : [ 10, 42 ],
    "skills" : [ {
      "id" : 1,
      "name" : "ENGINEER",
      "level" : 3
    }, {
      "id" : 9,
      "name" : "TILER",
      "level" : 1
    } ],
    "duration" : 5400.000000000,
    "pause" : false
  }, {
    "id" : 547,
    "desc" : "PAINTING, ENGINEER",
    "location" : {
      "id" : 8063,
      "name" : null,
      "latitude" : 43.53706,
      "longitude" : 3.8857121
    },
    "openings" : {
      "start" : [ 14, 36 ],
      "end" : [ 17, 47 ]
    },
    "preferredSlots" : null,
    "doAfter" : null,
    "nbEmpRequired" : 1,
    "deadline" : [ 9, 52 ],
    "skills" : [ {
      "id" : 7,
      "name" : "PAINTING",
      "level" : 1
    }, {
      "id" : 1,
      "name" : "ENGINEER",
      "level" : 1
    } ],
    "duration" : 3600.000000000,
    "pause" : false
  }, {
    "id" : 412,
    "desc" : "IRONWORK, PLUMBING",
    "location" : {
      "id" : 5255,
      "name" : null,
      "latitude" : 43.702698,
      "longitude" : 3.8392036
    },
    "openings" : {
      "start" : [ 9, 54 ],
      "end" : [ 13, 57 ]
    },
    "preferredSlots" : null,
    "doAfter" : null,
    "nbEmpRequired" : 1,
    "deadline" : [ 16, 2 ],
    "skills" : [ {
      "id" : 8,
      "name" : "IRONWORK",
      "level" : 2
    }, {
      "id" : 3,
      "name" : "PLUMBING",
      "level" : 2
    } ],
    "duration" : 3600.000000000,
    "pause" : false
  }, {
    "id" : 762,
    "desc" : "PAINTING",
    "location" : {
      "id" : 9289,
      "name" : null,
      "latitude" : 43.40197,
      "longitude" : 3.703148
    },
    "openings" : {
      "start" : [ 11, 12 ],
      "end" : [ 16, 19 ]
    },
    "preferredSlots" : null,
    "doAfter" : null,
    "nbEmpRequired" : 1,
    "deadline" : [ 14, 56 ],
    "skills" : [ {
      "id" : 7,
      "name" : "PAINTING",
      "level" : 2
    } ],
    "duration" : 3600.000000000,
    "pause" : false
  }, {
    "id" : 899,
    "desc" : "TILER",
    "location" : {
      "id" : 9683,
      "name" : null,
      "latitude" : 43.47695,
      "longitude" : 3.7565033
    },
    "openings" : {
      "start" : [ 10, 14 ],
      "end" : [ 11, 59 ]
    },
    "preferredSlots" : null,
    "doAfter" : null,
    "nbEmpRequired" : 1,
    "deadline" : [ 9, 18 ],
    "skills" : [ {
      "id" : 9,
      "name" : "TILER",
      "level" : 5
    } ],
    "duration" : 3600.000000000,
    "pause" : false
  }, {
    "id" : 554,
    "desc" : "MANAGEMENT",
    "location" : {
      "id" : 4556,
      "name" : null,
      "latitude" : 43.94181,
      "longitude" : 3.913322
    },
    "openings" : {
      "start" : [ 12, 48 ],
      "end" : [ 14, 10 ]
    },
    "preferredSlots" : null,
    "doAfter" : null,
    "nbEmpRequired" : 1,
    "deadline" : [ 10, 19 ],
    "skills" : [ {
      "id" : 0,
      "name" : "MANAGEMENT",
      "level" : 3
    } ],
    "duration" : 2700.000000000,
    "pause" : false
  }, {
    "id" : 626,
    "desc" : "TILER",
    "location" : {
      "id" : 74,
      "name" : null,
      "latitude" : 44.013577,
      "longitude" : 4.062645
    },
    "openings" : {
      "start" : [ 12, 3 ],
      "end" : [ 14, 33 ]
    },
    "preferredSlots" : null,
    "doAfter" : null,
    "nbEmpRequired" : 1,
    "deadline" : [ 9, 17 ],
    "skills" : [ {
      "id" : 9,
      "name" : "TILER",
      "level" : 3
    } ],
    "duration" : 3600.000000000,
    "pause" : false
  }, {
    "id" : 782,
    "desc" : "TILER, PLUMBING",
    "location" : {
      "id" : 3257,
      "name" : null,
      "latitude" : 44.004402,
      "longitude" : 4.1590195
    },
    "openings" : {
      "start" : [ 11, 39 ],
      "end" : [ 17, 0 ]
    },
    "preferredSlots" : null,
    "doAfter" : null,
    "nbEmpRequired" : 1,
    "deadline" : [ 12, 57 ],
    "skills" : [ {
      "id" : 9,
      "name" : "TILER",
      "level" : 1
    }, {
      "id" : 3,
      "name" : "PLUMBING",
      "level" : 4
    } ],
    "duration" : 1800.000000000,
    "pause" : false
  }, {
    "id" : 864,
    "desc" : "CARPENTRY",
    "location" : {
      "id" : 7305,
      "name" : null,
      "latitude" : 43.486534,
      "longitude" : 3.7998989
    },
    "openings" : {
      "start" : [ 11, 2 ],
      "end" : [ 15, 33 ]
    },
    "preferredSlots" : null,
    "doAfter" : null,
    "nbEmpRequired" : 1,
    "deadline" : [ 14, 2 ],
    "skills" : [ {
      "id" : 6,
      "name" : "CARPENTRY",
      "level" : 3
    } ],
    "duration" : 2700.000000000,
    "pause" : false
  }, {
    "id" : 420,
    "desc" : "CARPENTRY, IRONWORK",
    "location" : {
      "id" : 2152,
      "name" : null,
      "latitude" : 43.961544,
      "longitude" : 4.206381
    },
    "openings" : {
      "start" : [ 9, 3 ],
      "end" : [ 14, 24 ]
    },
    "preferredSlots" : null,
    "doAfter" : null,
    "nbEmpRequired" : 1,
    "deadline" : [ 12, 30 ],
    "skills" : [ {
      "id" : 6,
      "name" : "CARPENTRY",
      "level" : 1
    }, {
      "id" : 8,
      "name" : "IRONWORK",
      "level" : 1
    } ],
    "duration" : 7200.000000000,
    "pause" : false
  }, {
    "id" : 739,
    "desc" : "MASONRY",
    "location" : {
      "id" : 8554,
      "name" : null,
      "latitude" : 43.892113,
      "longitude" : 4.1222196
    },
    "openings" : {
      "start" : [ 12, 48 ],
      "end" : [ 16, 11 ]
    },
    "preferredSlots" : null,
    "doAfter" : null,
    "nbEmpRequired" : 1,
    "deadline" : [ 9, 17 ],
    "skills" : [ {
      "id" : 4,
      "name" : "MASONRY",
      "level" : 1
    } ],
    "duration" : 5400.000000000,
    "pause" : false
  }, {
    "id" : 123,
    "desc" : "PLUMBING",
    "location" : {
      "id" : 6201,
      "name" : null,
      "latitude" : 43.703453,
      "longitude" : 3.9090557
    },
    "openings" : {
      "start" : [ 13, 34 ],
      "end" : [ 16, 25 ]
    },
    "preferredSlots" : null,
    "doAfter" : null,
    "nbEmpRequired" : 1,
    "deadline" : [ 12, 47 ],
    "skills" : [ {
      "id" : 3,
      "name" : "PLUMBING",
      "level" : 3
    } ],
    "duration" : 3600.000000000,
    "pause" : false
  }, {
    "id" : 110,
    "desc" : "IRONWORK",
    "location" : {
      "id" : 5687,
      "name" : null,
      "latitude" : 43.786983,
      "longitude" : 4.0198736
    },
    "openings" : {
      "start" : [ 16, 44 ],
      "end" : [ 17, 14 ]
    },
    "preferredSlots" : null,
    "doAfter" : null,
    "nbEmpRequired" : 1,
    "deadline" : [ 11, 37 ],
    "skills" : [ {
      "id" : 8,
      "name" : "IRONWORK",
      "level" : 5
    } ],
    "duration" : 2700.000000000,
    "pause" : false
  }, {
    "id" : 433,
    "desc" : "CARPENTRY",
    "location" : {
      "id" : 5466,
      "name" : null,
      "latitude" : 43.886078,
      "longitude" : 3.9653568
    },
    "openings" : {
      "start" : [ 12, 27 ],
      "end" : [ 16, 11 ]
    },
    "preferredSlots" : null,
    "doAfter" : null,
    "nbEmpRequired" : 1,
    "deadline" : [ 17, 41 ],
    "skills" : [ {
      "id" : 6,
      "name" : "CARPENTRY",
      "level" : 1
    } ],
    "duration" : 5400.000000000,
    "pause" : false
  }, {
    "id" : 677,
    "desc" : "CARPENTRY",
    "location" : {
      "id" : 125,
      "name" : null,
      "latitude" : 43.996,
      "longitude" : 3.992754
    },
    "openings" : {
      "start" : [ 16, 43 ],
      "end" : [ 17, 14 ]
    },
    "preferredSlots" : null,
    "doAfter" : null,
    "nbEmpRequired" : 1,
    "deadline" : [ 16, 12 ],
    "skills" : [ {
      "id" : 6,
      "name" : "CARPENTRY",
      "level" : 3
    } ],
    "duration" : 2700.000000000,
    "pause" : false
  }, {
    "id" : 327,
    "desc" : "MANAGEMENT, PLUMBING",
    "location" : {
      "id" : 6878,
      "name" : null,
      "latitude" : 43.764988,
      "longitude" : 4.160223
    },
    "openings" : {
      "start" : [ 9, 10 ],
      "end" : [ 17, 34 ]
    },
    "preferredSlots" : null,
    "doAfter" : null,
    "nbEmpRequired" : 1,
    "deadline" : [ 11, 34 ],
    "skills" : [ {
      "id" : 0,
      "name" : "MANAGEMENT",
      "level" : 3
    }, {
      "id" : 3,
      "name" : "PLUMBING",
      "level" : 4
    } ],
    "duration" : 7200.000000000,
    "pause" : false
  }, {
    "id" : 82,
    "desc" : "PLUMBING, PAINTING",
    "location" : {
      "id" : 8021,
      "name" : null,
      "latitude" : 43.541893,
      "longitude" : 4.2925715
    },
    "openings" : {
      "start" : [ 14, 25 ],
      "end" : [ 16, 39 ]
    },
    "preferredSlots" : null,
    "doAfter" : null,
    "nbEmpRequired" : 1,
    "deadline" : [ 11, 20 ],
    "skills" : [ {
      "id" : 3,
      "name" : "PLUMBING",
      "level" : 4
    }, {
      "id" : 7,
      "name" : "PAINTING",
      "level" : 1
    } ],
    "duration" : 5400.000000000,
    "pause" : false
  }, {
    "id" : 293,
    "desc" : "PLUMBING, IRONWORK",
    "location" : {
      "id" : 553,
      "name" : null,
      "latitude" : 43.4172,
      "longitude" : 4.0510716
    },
    "openings" : {
      "start" : [ 11, 57 ],
      "end" : [ 12, 26 ]
    },
    "preferredSlots" : null,
    "doAfter" : null,
    "nbEmpRequired" : 1,
    "deadline" : [ 17, 53 ],
    "skills" : [ {
      "id" : 3,
      "name" : "PLUMBING",
      "level" : 2
    }, {
      "id" : 8,
      "name" : "IRONWORK",
      "level" : 1
    } ],
    "duration" : 7200.000000000,
    "pause" : false
  }, {
    "id" : 980,
    "desc" : "GLAZING, IRONWORK",
    "location" : {
      "id" : 3231,
      "name" : null,
      "latitude" : 43.604088,
      "longitude" : 4.259833
    },
    "openings" : {
      "start" : [ 10, 57 ],
      "end" : [ 14, 7 ]
    },
    "preferredSlots" : null,
    "doAfter" : null,
    "nbEmpRequired" : 1,
    "deadline" : [ 13, 25 ],
    "skills" : [ {
      "id" : 5,
      "name" : "GLAZING",
      "level" : 1
    }, {
      "id" : 8,
      "name" : "IRONWORK",
      "level" : 2
    } ],
    "duration" : 2700.000000000,
    "pause" : false
  }, {
    "id" : 621,
    "desc" : "TILER, ENGINEER",
    "location" : {
      "id" : 1464,
      "name" : null,
      "latitude" : 43.58068,
      "longitude" : 3.8361206
    },
    "openings" : {
      "start" : [ 14, 50 ],
      "end" : [ 15, 2 ]
    },
    "preferredSlots" : null,
    "doAfter" : null,
    "nbEmpRequired" : 1,
    "deadline" : [ 11, 18 ],
    "skills" : [ {
      "id" : 9,
      "name" : "TILER",
      "level" : 5
    }, {
      "id" : 1,
      "name" : "ENGINEER",
      "level" : 5
    } ],
    "duration" : 5400.000000000,
    "pause" : false
  }, {
    "id" : 71,
    "desc" : "GLAZING, MASONRY",
    "location" : {
      "id" : 880,
      "name" : null,
      "latitude" : 43.682983,
      "longitude" : 4.0720797
    },
    "openings" : {
      "start" : [ 10, 3 ],
      "end" : [ 10, 51 ]
    },
    "preferredSlots" : null,
    "doAfter" : null,
    "nbEmpRequired" : 1,
    "deadline" : [ 16, 31 ],
    "skills" : [ {
      "id" : 5,
      "name" : "GLAZING",
      "level" : 4
    }, {
      "id" : 4,
      "name" : "MASONRY",
      "level" : 2
    } ],
    "duration" : 7200.000000000,
    "pause" : false
  }, {
    "id" : 741,
    "desc" : "CARPENTRY",
    "location" : {
      "id" : 647,
      "name" : null,
      "latitude" : 43.440857,
      "longitude" : 4.1186776
    },
    "openings" : {
      "start" : [ 10, 1 ],
      "end" : [ 17, 4 ]
    },
    "preferredSlots" : null,
    "doAfter" : null,
    "nbEmpRequired" : 1,
    "deadline" : [ 16, 59 ],
    "skills" : [ {
      "id" : 6,
      "name" : "CARPENTRY",
      "level" : 1
    } ],
    "duration" : 3600.000000000,
    "pause" : false
  }, {
    "id" : 746,
    "desc" : "PAINTING",
    "location" : {
      "id" : 1796,
      "name" : null,
      "latitude" : 44.049538,
      "longitude" : 4.2500353
    },
    "openings" : {
      "start" : [ 10, 51 ],
      "end" : [ 16, 21 ]
    },
    "preferredSlots" : null,
    "doAfter" : null,
    "nbEmpRequired" : 1,
    "deadline" : [ 13, 24 ],
    "skills" : [ {
      "id" : 7,
      "name" : "PAINTING",
      "level" : 2
    } ],
    "duration" : 3600.000000000,
    "pause" : false
  }, {
    "id" : 181,
    "desc" : "MASONRY",
    "location" : {
      "id" : 91,
      "name" : null,
      "latitude" : 44.03855,
      "longitude" : 4.165331
    },
    "openings" : {
      "start" : [ 10, 6 ],
      "end" : [ 13, 12 ]
    },
    "preferredSlots" : null,
    "doAfter" : null,
    "nbEmpRequired" : 1,
    "deadline" : [ 12, 16 ],
    "skills" : [ {
      "id" : 4,
      "name" : "MASONRY",
      "level" : 1
    } ],
    "duration" : 7200.000000000,
    "pause" : false
  }, {
    "id" : 549,
    "desc" : "MANAGEMENT",
    "location" : {
      "id" : 8292,
      "name" : null,
      "latitude" : 44.079193,
      "longitude" : 3.9067543
    },
    "openings" : {
      "start" : [ 11, 18 ],
      "end" : [ 17, 10 ]
    },
    "preferredSlots" : null,
    "doAfter" : null,
    "nbEmpRequired" : 1,
    "deadline" : [ 12, 33 ],
    "skills" : [ {
      "id" : 0,
      "name" : "MANAGEMENT",
      "level" : 2
    } ],
    "duration" : 1800.000000000,
    "pause" : false
  }, {
    "id" : 643,
    "desc" : "MASONRY",
    "location" : {
      "id" : 9721,
      "name" : null,
      "latitude" : 43.415142,
      "longitude" : 4.064361
    },
    "openings" : {
      "start" : [ 9, 11 ],
      "end" : [ 9, 15 ]
    },
    "preferredSlots" : null,
    "doAfter" : null,
    "nbEmpRequired" : 1,
    "deadline" : [ 12, 2 ],
    "skills" : [ {
      "id" : 4,
      "name" : "MASONRY",
      "level" : 4
    } ],
    "duration" : 2700.000000000,
    "pause" : false
  }, {
    "id" : 275,
    "desc" : "PLUMBING, PAINTING",
    "location" : {
      "id" : 1138,
      "name" : null,
      "latitude" : 43.58616,
      "longitude" : 4.2965074
    },
    "openings" : {
      "start" : [ 12, 17 ],
      "end" : [ 13, 30 ]
    },
    "preferredSlots" : null,
    "doAfter" : null,
    "nbEmpRequired" : 1,
    "deadline" : [ 11, 16 ],
    "skills" : [ {
      "id" : 3,
      "name" : "PLUMBING",
      "level" : 1
    }, {
      "id" : 7,
      "name" : "PAINTING",
      "level" : 3
    } ],
    "duration" : 3600.000000000,
    "pause" : false
  }, {
    "id" : 252,
    "desc" : "MASONRY, MANAGEMENT",
    "location" : {
      "id" : 6763,
      "name" : null,
      "latitude" : 43.611828,
      "longitude" : 3.8656063
    },
    "openings" : {
      "start" : [ 14, 27 ],
      "end" : [ 14, 59 ]
    },
    "preferredSlots" : null,
    "doAfter" : null,
    "nbEmpRequired" : 1,
    "deadline" : [ 16, 56 ],
    "skills" : [ {
      "id" : 4,
      "name" : "MASONRY",
      "level" : 4
    }, {
      "id" : 0,
      "name" : "MANAGEMENT",
      "level" : 4
    } ],
    "duration" : 3600.000000000,
    "pause" : false
  }, {
    "id" : 973,
    "desc" : "PAINTING",
    "location" : {
      "id" : 2804,
      "name" : null,
      "latitude" : 43.44746,
      "longitude" : 4.267411
    },
    "openings" : {
      "start" : [ 13, 14 ],
      "end" : [ 14, 45 ]
    },
    "preferredSlots" : null,
    "doAfter" : null,
    "nbEmpRequired" : 1,
    "deadline" : [ 10, 45 ],
    "skills" : [ {
      "id" : 7,
      "name" : "PAINTING",
      "level" : 1
    } ],
    "duration" : 5400.000000000,
    "pause" : false
  }, {
    "id" : 122,
    "desc" : "TILER",
    "location" : {
      "id" : 3291,
      "name" : null,
      "latitude" : 43.929054,
      "longitude" : 4.0019264
    },
    "openings" : {
      "start" : [ 10, 29 ],
      "end" : [ 14, 7 ]
    },
    "preferredSlots" : null,
    "doAfter" : null,
    "nbEmpRequired" : 1,
    "deadline" : [ 13, 16 ],
    "skills" : [ {
      "id" : 9,
      "name" : "TILER",
      "level" : 1
    } ],
    "duration" : 3600.000000000,
    "pause" : false
  }, {
    "id" : 532,
    "desc" : "ENGINEER, TILER",
    "location" : {
      "id" : 8462,
      "name" : null,
      "latitude" : 43.782524,
      "longitude" : 4.268048
    },
    "openings" : {
      "start" : [ 11, 9 ],
      "end" : [ 12, 11 ]
    },
    "preferredSlots" : null,
    "doAfter" : null,
    "nbEmpRequired" : 1,
    "deadline" : [ 13, 16 ],
    "skills" : [ {
      "id" : 1,
      "name" : "ENGINEER",
      "level" : 3
    }, {
      "id" : 9,
      "name" : "TILER",
      "level" : 4
    } ],
    "duration" : 1800.000000000,
    "pause" : false
  }, {
    "id" : 114,
    "desc" : "PLUMBING, GLAZING",
    "location" : {
      "id" : 4724,
      "name" : null,
      "latitude" : 43.500744,
      "longitude" : 4.219562
    },
    "openings" : {
      "start" : [ 12, 9 ],
      "end" : [ 15, 6 ]
    },
    "preferredSlots" : null,
    "doAfter" : null,
    "nbEmpRequired" : 1,
    "deadline" : [ 11, 31 ],
    "skills" : [ {
      "id" : 3,
      "name" : "PLUMBING",
      "level" : 4
    }, {
      "id" : 5,
      "name" : "GLAZING",
      "level" : 4
    } ],
    "duration" : 3600.000000000,
    "pause" : false
  }, {
    "id" : 930,
    "desc" : "CARPENTRY",
    "location" : {
      "id" : 3165,
      "name" : null,
      "latitude" : 44.03891,
      "longitude" : 4.2414026
    },
    "openings" : {
      "start" : [ 9, 11 ],
      "end" : [ 10, 58 ]
    },
    "preferredSlots" : null,
    "doAfter" : null,
    "nbEmpRequired" : 1,
    "deadline" : [ 9, 19 ],
    "skills" : [ {
      "id" : 6,
      "name" : "CARPENTRY",
      "level" : 4
    } ],
    "duration" : 1800.000000000,
    "pause" : false
  }, {
    "id" : 420,
    "desc" : "MASONRY, MANAGEMENT",
    "location" : {
      "id" : 5672,
      "name" : null,
      "latitude" : 43.78266,
      "longitude" : 3.9334931
    },
    "openings" : {
      "start" : [ 9, 17 ],
      "end" : [ 10, 13 ]
    },
    "preferredSlots" : null,
    "doAfter" : null,
    "nbEmpRequired" : 1,
    "deadline" : [ 11, 50 ],
    "skills" : [ {
      "id" : 4,
      "name" : "MASONRY",
      "level" : 1
    }, {
      "id" : 0,
      "name" : "MANAGEMENT",
      "level" : 4
    } ],
    "duration" : 7200.000000000,
    "pause" : false
  }, {
    "id" : 288,
    "desc" : "TILER",
    "location" : {
      "id" : 2094,
      "name" : null,
      "latitude" : 43.5025,
      "longitude" : 3.7314992
    },
    "openings" : {
      "start" : [ 11, 40 ],
      "end" : [ 12, 20 ]
    },
    "preferredSlots" : null,
    "doAfter" : null,
    "nbEmpRequired" : 1,
    "deadline" : [ 11, 57 ],
    "skills" : [ {
      "id" : 9,
      "name" : "TILER",
      "level" : 3
    } ],
    "duration" : 2700.000000000,
    "pause" : false
  }, {
    "id" : 954,
    "desc" : "ELECTRICIAN, MASONRY",
    "location" : {
      "id" : 463,
      "name" : null,
      "latitude" : 43.42367,
      "longitude" : 3.9392612
    },
    "openings" : {
      "start" : [ 15, 11 ],
      "end" : [ 16, 58 ]
    },
    "preferredSlots" : null,
    "doAfter" : null,
    "nbEmpRequired" : 1,
    "deadline" : [ 14, 55 ],
    "skills" : [ {
      "id" : 2,
      "name" : "ELECTRICIAN",
      "level" : 2
    }, {
      "id" : 4,
      "name" : "MASONRY",
      "level" : 1
    } ],
    "duration" : 3600.000000000,
    "pause" : false
  }, {
    "id" : 871,
    "desc" : "CARPENTRY, TILER",
    "location" : {
      "id" : 445,
      "name" : null,
      "latitude" : 43.507927,
      "longitude" : 4.055029
    },
    "openings" : {
      "start" : [ 9, 51 ],
      "end" : [ 16, 4 ]
    },
    "preferredSlots" : null,
    "doAfter" : null,
    "nbEmpRequired" : 1,
    "deadline" : [ 14, 38 ],
    "skills" : [ {
      "id" : 6,
      "name" : "CARPENTRY",
      "level" : 1
    }, {
      "id" : 9,
      "name" : "TILER",
      "level" : 5
    } ],
    "duration" : 1800.000000000,
    "pause" : false
  }, {
    "id" : 730,
    "desc" : "TILER, GLAZING",
    "location" : {
      "id" : 2641,
      "name" : null,
      "latitude" : 43.724205,
      "longitude" : 4.082677
    },
    "openings" : {
      "start" : [ 15, 6 ],
      "end" : [ 16, 39 ]
    },
    "preferredSlots" : null,
    "doAfter" : null,
    "nbEmpRequired" : 1,
    "deadline" : [ 12, 33 ],
    "skills" : [ {
      "id" : 9,
      "name" : "TILER",
      "level" : 5
    }, {
      "id" : 5,
      "name" : "GLAZING",
      "level" : 1
    } ],
    "duration" : 1800.000000000,
    "pause" : false
  }, {
    "id" : 653,
    "desc" : "PAINTING, GLAZING",
    "location" : {
      "id" : 4755,
      "name" : null,
      "latitude" : 44.061127,
      "longitude" : 3.8483043
    },
    "openings" : {
      "start" : [ 10, 40 ],
      "end" : [ 16, 38 ]
    },
    "preferredSlots" : null,
    "doAfter" : null,
    "nbEmpRequired" : 1,
    "deadline" : [ 13, 47 ],
    "skills" : [ {
      "id" : 7,
      "name" : "PAINTING",
      "level" : 2
    }, {
      "id" : 5,
      "name" : "GLAZING",
      "level" : 3
    } ],
    "duration" : 1800.000000000,
    "pause" : false
  }, {
    "id" : 946,
    "desc" : "PAINTING",
    "location" : {
      "id" : 6730,
      "name" : null,
      "latitude" : 43.61959,
      "longitude" : 3.9598007
    },
    "openings" : {
      "start" : [ 13, 11 ],
      "end" : [ 16, 58 ]
    },
    "preferredSlots" : null,
    "doAfter" : null,
    "nbEmpRequired" : 1,
    "deadline" : [ 17, 8 ],
    "skills" : [ {
      "id" : 7,
      "name" : "PAINTING",
      "level" : 4
    } ],
    "duration" : 3600.000000000,
    "pause" : false
  }, {
    "id" : 14,
    "desc" : "MASONRY",
    "location" : {
      "id" : 7588,
      "name" : null,
      "latitude" : 43.817028,
      "longitude" : 4.175828
    },
    "openings" : {
      "start" : [ 11, 31 ],
      "end" : [ 17, 31 ]
    },
    "preferredSlots" : null,
    "doAfter" : null,
    "nbEmpRequired" : 1,
    "deadline" : [ 11, 38 ],
    "skills" : [ {
      "id" : 4,
      "name" : "MASONRY",
      "level" : 2
    } ],
    "duration" : 2700.000000000,
    "pause" : false
  }, {
    "id" : 637,
    "desc" : "GLAZING",
    "location" : {
      "id" : 6158,
      "name" : null,
      "latitude" : 44.017044,
      "longitude" : 4.183786
    },
    "openings" : {
      "start" : [ 11, 20 ],
      "end" : [ 15, 37 ]
    },
    "preferredSlots" : null,
    "doAfter" : null,
    "nbEmpRequired" : 1,
    "deadline" : [ 17, 47 ],
    "skills" : [ {
      "id" : 5,
      "name" : "GLAZING",
      "level" : 2
    } ],
    "duration" : 5400.000000000,
    "pause" : false
  }, {
    "id" : 939,
    "desc" : "PLUMBING",
    "location" : {
      "id" : 4946,
      "name" : null,
      "latitude" : 43.589314,
      "longitude" : 4.0026255
    },
    "openings" : {
      "start" : [ 9, 4 ],
      "end" : [ 9, 19 ]
    },
    "preferredSlots" : null,
    "doAfter" : null,
    "nbEmpRequired" : 1,
    "deadline" : [ 11, 7 ],
    "skills" : [ {
      "id" : 3,
      "name" : "PLUMBING",
      "level" : 5
    } ],
    "duration" : 1800.000000000,
    "pause" : false
  }, {
    "id" : 790,
    "desc" : "PAINTING, PLUMBING",
    "location" : {
      "id" : 7903,
      "name" : null,
      "latitude" : 44.038307,
      "longitude" : 3.7695699
    },
    "openings" : {
      "start" : [ 9, 35 ],
      "end" : [ 12, 30 ]
    },
    "preferredSlots" : null,
    "doAfter" : null,
    "nbEmpRequired" : 1,
    "deadline" : [ 15, 53 ],
    "skills" : [ {
      "id" : 7,
      "name" : "PAINTING",
      "level" : 2
    }, {
      "id" : 3,
      "name" : "PLUMBING",
      "level" : 3
    } ],
    "duration" : 2700.000000000,
    "pause" : false
  }, {
    "id" : 500,
    "desc" : "ELECTRICIAN",
    "location" : {
      "id" : 3967,
      "name" : null,
      "latitude" : 43.961266,
      "longitude" : 3.960652
    },
    "openings" : {
      "start" : [ 11, 17 ],
      "end" : [ 17, 33 ]
    },
    "preferredSlots" : null,
    "doAfter" : null,
    "nbEmpRequired" : 1,
    "deadline" : [ 11, 16 ],
    "skills" : [ {
      "id" : 2,
      "name" : "ELECTRICIAN",
      "level" : 2
    } ],
    "duration" : 7200.000000000,
    "pause" : false
  }, {
    "id" : 754,
    "desc" : "GLAZING",
    "location" : {
      "id" : 6147,
      "name" : null,
      "latitude" : 43.5888,
      "longitude" : 3.8491852
    },
    "openings" : {
      "start" : [ 10, 6 ],
      "end" : [ 15, 54 ]
    },
    "preferredSlots" : null,
    "doAfter" : null,
    "nbEmpRequired" : 1,
    "deadline" : [ 13, 58 ],
    "skills" : [ {
      "id" : 5,
      "name" : "GLAZING",
      "level" : 4
    } ],
    "duration" : 3600.000000000,
    "pause" : false
  }, {
    "id" : 43,
    "desc" : "PLUMBING, MASONRY",
    "location" : {
      "id" : 1460,
      "name" : null,
      "latitude" : 44.043938,
      "longitude" : 3.9738948
    },
    "openings" : {
      "start" : [ 13, 48 ],
      "end" : [ 13, 57 ]
    },
    "preferredSlots" : null,
    "doAfter" : null,
    "nbEmpRequired" : 1,
    "deadline" : [ 11, 11 ],
    "skills" : [ {
      "id" : 3,
      "name" : "PLUMBING",
      "level" : 5
    }, {
      "id" : 4,
      "name" : "MASONRY",
      "level" : 3
    } ],
    "duration" : 7200.000000000,
    "pause" : false
  }, {
    "id" : 947,
    "desc" : "CARPENTRY",
    "location" : {
      "id" : 3779,
      "name" : null,
      "latitude" : 43.661213,
      "longitude" : 4.0991325
    },
    "openings" : {
      "start" : [ 10, 46 ],
      "end" : [ 16, 38 ]
    },
    "preferredSlots" : null,
    "doAfter" : null,
    "nbEmpRequired" : 1,
    "deadline" : [ 17, 19 ],
    "skills" : [ {
      "id" : 6,
      "name" : "CARPENTRY",
      "level" : 2
    } ],
    "duration" : 3600.000000000,
    "pause" : false
  }, {
    "id" : 701,
    "desc" : "PAINTING, PLUMBING",
    "location" : {
      "id" : 6653,
      "name" : null,
      "latitude" : 43.478344,
      "longitude" : 4.2334213
    },
    "openings" : {
      "start" : [ 11, 15 ],
      "end" : [ 13, 23 ]
    },
    "preferredSlots" : null,
    "doAfter" : null,
    "nbEmpRequired" : 1,
    "deadline" : [ 17, 32 ],
    "skills" : [ {
      "id" : 7,
      "name" : "PAINTING",
      "level" : 3
    }, {
      "id" : 3,
      "name" : "PLUMBING",
      "level" : 1
    } ],
    "duration" : 2700.000000000,
    "pause" : false
  }, {
    "id" : 173,
    "desc" : "PLUMBING, PAINTING",
    "location" : {
      "id" : 2001,
      "name" : null,
      "latitude" : 43.67233,
      "longitude" : 4.2430215
    },
    "openings" : {
      "start" : [ 14, 0 ],
      "end" : [ 17, 22 ]
    },
    "preferredSlots" : null,
    "doAfter" : null,
    "nbEmpRequired" : 1,
    "deadline" : [ 10, 43 ],
    "skills" : [ {
      "id" : 3,
      "name" : "PLUMBING",
      "level" : 4
    }, {
      "id" : 7,
      "name" : "PAINTING",
      "level" : 5
    } ],
    "duration" : 1800.000000000,
    "pause" : false
  }, {
    "id" : 94,
    "desc" : "PAINTING",
    "location" : {
      "id" : 4765,
      "name" : null,
      "latitude" : 44.01432,
      "longitude" : 3.7936313
    },
    "openings" : {
      "start" : [ 15, 18 ],
      "end" : [ 15, 39 ]
    },
    "preferredSlots" : null,
    "doAfter" : null,
    "nbEmpRequired" : 1,
    "deadline" : [ 14, 44 ],
    "skills" : [ {
      "id" : 7,
      "name" : "PAINTING",
      "level" : 2
    } ],
    "duration" : 3600.000000000,
    "pause" : false
  }, {
    "id" : 935,
    "desc" : "ENGINEER, PAINTING",
    "location" : {
      "id" : 9634,
      "name" : null,
      "latitude" : 43.75555,
      "longitude" : 4.010345
    },
    "openings" : {
      "start" : [ 11, 39 ],
      "end" : [ 14, 38 ]
    },
    "preferredSlots" : null,
    "doAfter" : null,
    "nbEmpRequired" : 1,
    "deadline" : [ 13, 45 ],
    "skills" : [ {
      "id" : 1,
      "name" : "ENGINEER",
      "level" : 3
    }, {
      "id" : 7,
      "name" : "PAINTING",
      "level" : 4
    } ],
    "duration" : 1800.000000000,
    "pause" : false
  }, {
    "id" : 260,
    "desc" : "ENGINEER",
    "location" : {
      "id" : 8609,
      "name" : null,
      "latitude" : 43.817223,
      "longitude" : 4.0275044
    },
    "openings" : {
      "start" : [ 11, 7 ],
      "end" : [ 17, 48 ]
    },
    "preferredSlots" : null,
    "doAfter" : null,
    "nbEmpRequired" : 1,
    "deadline" : [ 14, 54 ],
    "skills" : [ {
      "id" : 1,
      "name" : "ENGINEER",
      "level" : 2
    } ],
    "duration" : 2700.000000000,
    "pause" : false
  }, {
    "id" : 49,
    "desc" : "MASONRY",
    "location" : {
      "id" : 2136,
      "name" : null,
      "latitude" : 43.94075,
      "longitude" : 4.1187778
    },
    "openings" : {
      "start" : [ 9, 50 ],
      "end" : [ 14, 54 ]
    },
    "preferredSlots" : null,
    "doAfter" : null,
    "nbEmpRequired" : 1,
    "deadline" : [ 17, 48 ],
    "skills" : [ {
      "id" : 4,
      "name" : "MASONRY",
      "level" : 1
    } ],
    "duration" : 2700.000000000,
    "pause" : false
  }, {
    "id" : 942,
    "desc" : "IRONWORK",
    "location" : {
      "id" : 12,
      "name" : null,
      "latitude" : 43.475235,
      "longitude" : 4.1558557
    },
    "openings" : {
      "start" : [ 11, 17 ],
      "end" : [ 17, 52 ]
    },
    "preferredSlots" : null,
    "doAfter" : null,
    "nbEmpRequired" : 1,
    "deadline" : [ 16, 25 ],
    "skills" : [ {
      "id" : 8,
      "name" : "IRONWORK",
      "level" : 5
    } ],
    "duration" : 3600.000000000,
    "pause" : false
  }, {
    "id" : 493,
    "desc" : "CARPENTRY, IRONWORK",
    "location" : {
      "id" : 6520,
      "name" : null,
      "latitude" : 43.749886,
      "longitude" : 3.7819226
    },
    "openings" : {
      "start" : [ 9, 14 ],
      "end" : [ 17, 27 ]
    },
    "preferredSlots" : null,
    "doAfter" : null,
    "nbEmpRequired" : 1,
    "deadline" : [ 14, 20 ],
    "skills" : [ {
      "id" : 6,
      "name" : "CARPENTRY",
      "level" : 5
    }, {
      "id" : 8,
      "name" : "IRONWORK",
      "level" : 5
    } ],
    "duration" : 3600.000000000,
    "pause" : false
  }, {
    "id" : 489,
    "desc" : "TILER, CARPENTRY",
    "location" : {
      "id" : 5900,
      "name" : null,
      "latitude" : 43.5364,
      "longitude" : 3.8773804
    },
    "openings" : {
      "start" : [ 14, 46 ],
      "end" : [ 16, 0 ]
    },
    "preferredSlots" : null,
    "doAfter" : null,
    "nbEmpRequired" : 1,
    "deadline" : [ 17, 52 ],
    "skills" : [ {
      "id" : 9,
      "name" : "TILER",
      "level" : 5
    }, {
      "id" : 6,
      "name" : "CARPENTRY",
      "level" : 2
    } ],
    "duration" : 3600.000000000,
    "pause" : false
  }, {
    "id" : 322,
    "desc" : "CARPENTRY, IRONWORK",
    "location" : {
      "id" : 8165,
      "name" : null,
      "latitude" : 43.628586,
      "longitude" : 3.7230277
    },
    "openings" : {
      "start" : [ 9, 30 ],
      "end" : [ 12, 24 ]
    },
    "preferredSlots" : null,
    "doAfter" : null,
    "nbEmpRequired" : 1,
    "deadline" : [ 13, 29 ],
    "skills" : [ {
      "id" : 6,
      "name" : "CARPENTRY",
      "level" : 5
    }, {
      "id" : 8,
      "name" : "IRONWORK",
      "level" : 5
    } ],
    "duration" : 5400.000000000,
    "pause" : false
  }, {
    "id" : 568,
    "desc" : "GLAZING, PAINTING",
    "location" : {
      "id" : 7820,
      "name" : null,
      "latitude" : 44.096313,
      "longitude" : 4.057148
    },
    "openings" : {
      "start" : [ 12, 15 ],
      "end" : [ 14, 26 ]
    },
    "preferredSlots" : null,
    "doAfter" : null,
    "nbEmpRequired" : 1,
    "deadline" : [ 17, 18 ],
    "skills" : [ {
      "id" : 5,
      "name" : "GLAZING",
      "level" : 2
    }, {
      "id" : 7,
      "name" : "PAINTING",
      "level" : 3
    } ],
    "duration" : 3600.000000000,
    "pause" : false
  }, {
    "id" : 249,
    "desc" : "PAINTING, ELECTRICIAN",
    "location" : {
      "id" : 6910,
      "name" : null,
      "latitude" : 43.670113,
      "longitude" : 3.8409505
    },
    "openings" : {
      "start" : [ 14, 59 ],
      "end" : [ 15, 0 ]
    },
    "preferredSlots" : null,
    "doAfter" : null,
    "nbEmpRequired" : 1,
    "deadline" : [ 10, 45 ],
    "skills" : [ {
      "id" : 7,
      "name" : "PAINTING",
      "level" : 5
    }, {
      "id" : 2,
      "name" : "ELECTRICIAN",
      "level" : 5
    } ],
    "duration" : 3600.000000000,
    "pause" : false
  }, {
    "id" : 934,
    "desc" : "ENGINEER",
    "location" : {
      "id" : 4125,
      "name" : null,
      "latitude" : 43.6665,
      "longitude" : 4.1864576
    },
    "openings" : {
      "start" : [ 9, 40 ],
      "end" : [ 10, 56 ]
    },
    "preferredSlots" : null,
    "doAfter" : null,
    "nbEmpRequired" : 1,
    "deadline" : [ 10, 37 ],
    "skills" : [ {
      "id" : 1,
      "name" : "ENGINEER",
      "level" : 5
    } ],
    "duration" : 1800.000000000,
    "pause" : false
  }, {
    "id" : 714,
    "desc" : "PAINTING",
    "location" : {
      "id" : 4593,
      "name" : null,
      "latitude" : 43.45866,
      "longitude" : 4.186909
    },
    "openings" : {
      "start" : [ 11, 9 ],
      "end" : [ 14, 35 ]
    },
    "preferredSlots" : null,
    "doAfter" : null,
    "nbEmpRequired" : 1,
    "deadline" : [ 14, 38 ],
    "skills" : [ {
      "id" : 7,
      "name" : "PAINTING",
      "level" : 2
    } ],
    "duration" : 3600.000000000,
    "pause" : false
  }, {
    "id" : 10,
    "desc" : "GLAZING",
    "location" : {
      "id" : 562,
      "name" : null,
      "latitude" : 43.6224,
      "longitude" : 3.8073635
    },
    "openings" : {
      "start" : [ 9, 15 ],
      "end" : [ 10, 36 ]
    },
    "preferredSlots" : null,
    "doAfter" : null,
    "nbEmpRequired" : 1,
    "deadline" : [ 11, 36 ],
    "skills" : [ {
      "id" : 5,
      "name" : "GLAZING",
      "level" : 4
    } ],
    "duration" : 3600.000000000,
    "pause" : false
  }, {
    "id" : 587,
    "desc" : "MASONRY",
    "location" : {
      "id" : 5194,
      "name" : null,
      "latitude" : 44.023422,
      "longitude" : 4.173869
    },
    "openings" : {
      "start" : [ 13, 18 ],
      "end" : [ 15, 30 ]
    },
    "preferredSlots" : null,
    "doAfter" : null,
    "nbEmpRequired" : 1,
    "deadline" : [ 9, 20 ],
    "skills" : [ {
      "id" : 4,
      "name" : "MASONRY",
      "level" : 1
    } ],
    "duration" : 2700.000000000,
    "pause" : false
  }, {
    "id" : 891,
    "desc" : "ELECTRICIAN",
    "location" : {
      "id" : 1745,
      "name" : null,
      "latitude" : 43.991776,
      "longitude" : 3.7928588
    },
    "openings" : {
      "start" : [ 9, 25 ],
      "end" : [ 10, 21 ]
    },
    "preferredSlots" : null,
    "doAfter" : null,
    "nbEmpRequired" : 1,
    "deadline" : [ 13, 44 ],
    "skills" : [ {
      "id" : 2,
      "name" : "ELECTRICIAN",
      "level" : 4
    } ],
    "duration" : 7200.000000000,
    "pause" : false
  }, {
    "id" : 614,
    "desc" : "CARPENTRY, PLUMBING",
    "location" : {
      "id" : 1770,
      "name" : null,
      "latitude" : 43.64889,
      "longitude" : 4.160647
    },
    "openings" : {
      "start" : [ 10, 12 ],
      "end" : [ 16, 36 ]
    },
    "preferredSlots" : null,
    "doAfter" : null,
    "nbEmpRequired" : 1,
    "deadline" : [ 9, 33 ],
    "skills" : [ {
      "id" : 6,
      "name" : "CARPENTRY",
      "level" : 4
    }, {
      "id" : 3,
      "name" : "PLUMBING",
      "level" : 2
    } ],
    "duration" : 3600.000000000,
    "pause" : false
  }, {
    "id" : 28,
    "desc" : "MASONRY",
    "location" : {
      "id" : 3516,
      "name" : null,
      "latitude" : 44.012154,
      "longitude" : 3.847508
    },
    "openings" : {
      "start" : [ 14, 13 ],
      "end" : [ 15, 36 ]
    },
    "preferredSlots" : null,
    "doAfter" : null,
    "nbEmpRequired" : 1,
    "deadline" : [ 11, 36 ],
    "skills" : [ {
      "id" : 4,
      "name" : "MASONRY",
      "level" : 4
    } ],
    "duration" : 3600.000000000,
    "pause" : false
  }, {
    "id" : 47,
    "desc" : "CARPENTRY, ENGINEER",
    "location" : {
      "id" : 1591,
      "name" : null,
      "latitude" : 43.47314,
      "longitude" : 4.0473123
    },
    "openings" : {
      "start" : [ 15, 8 ],
      "end" : [ 16, 13 ]
    },
    "preferredSlots" : null,
    "doAfter" : null,
    "nbEmpRequired" : 1,
    "deadline" : [ 15, 33 ],
    "skills" : [ {
      "id" : 6,
      "name" : "CARPENTRY",
      "level" : 4
    }, {
      "id" : 1,
      "name" : "ENGINEER",
      "level" : 4
    } ],
    "duration" : 3600.000000000,
    "pause" : false
  }, {
    "id" : 833,
    "desc" : "ENGINEER, MANAGEMENT",
    "location" : {
      "id" : 5484,
      "name" : null,
      "latitude" : 43.659977,
      "longitude" : 4.0243177
    },
    "openings" : {
      "start" : [ 12, 8 ],
      "end" : [ 14, 20 ]
    },
    "preferredSlots" : null,
    "doAfter" : null,
    "nbEmpRequired" : 1,
    "deadline" : [ 14, 17 ],
    "skills" : [ {
      "id" : 1,
      "name" : "ENGINEER",
      "level" : 5
    }, {
      "id" : 0,
      "name" : "MANAGEMENT",
      "level" : 4
    } ],
    "duration" : 3600.000000000,
    "pause" : false
  }, {
    "id" : 613,
    "desc" : "PLUMBING, ELECTRICIAN",
    "location" : {
      "id" : 3200,
      "name" : null,
      "latitude" : 43.60175,
      "longitude" : 4.000045
    },
    "openings" : {
      "start" : [ 10, 32 ],
      "end" : [ 12, 23 ]
    },
    "preferredSlots" : null,
    "doAfter" : null,
    "nbEmpRequired" : 1,
    "deadline" : [ 15, 47 ],
    "skills" : [ {
      "id" : 3,
      "name" : "PLUMBING",
      "level" : 5
    }, {
      "id" : 2,
      "name" : "ELECTRICIAN",
      "level" : 4
    } ],
    "duration" : 5400.000000000,
    "pause" : false
  }, {
    "id" : 353,
    "desc" : "PAINTING",
    "location" : {
      "id" : 8851,
      "name" : null,
      "latitude" : 43.794823,
      "longitude" : 3.9501693
    },
    "openings" : {
      "start" : [ 11, 45 ],
      "end" : [ 16, 10 ]
    },
    "preferredSlots" : null,
    "doAfter" : null,
    "nbEmpRequired" : 1,
    "deadline" : [ 12, 56 ],
    "skills" : [ {
      "id" : 7,
      "name" : "PAINTING",
      "level" : 3
    } ],
    "duration" : 1800.000000000,
    "pause" : false
  }, {
    "id" : 519,
    "desc" : "PLUMBING, MANAGEMENT",
    "location" : {
      "id" : 9442,
      "name" : null,
      "latitude" : 43.49442,
      "longitude" : 3.8702412
    },
    "openings" : {
      "start" : [ 9, 34 ],
      "end" : [ 15, 44 ]
    },
    "preferredSlots" : null,
    "doAfter" : null,
    "nbEmpRequired" : 1,
    "deadline" : [ 16, 22 ],
    "skills" : [ {
      "id" : 3,
      "name" : "PLUMBING",
      "level" : 3
    }, {
      "id" : 0,
      "name" : "MANAGEMENT",
      "level" : 3
    } ],
    "duration" : 3600.000000000,
    "pause" : false
  }, {
    "id" : 80,
    "desc" : "GLAZING, CARPENTRY",
    "location" : {
      "id" : 9179,
      "name" : null,
      "latitude" : 43.918262,
      "longitude" : 3.8669841
    },
    "openings" : {
      "start" : [ 10, 6 ],
      "end" : [ 13, 50 ]
    },
    "preferredSlots" : null,
    "doAfter" : null,
    "nbEmpRequired" : 1,
    "deadline" : [ 16, 54 ],
    "skills" : [ {
      "id" : 5,
      "name" : "GLAZING",
      "level" : 3
    }, {
      "id" : 6,
      "name" : "CARPENTRY",
      "level" : 2
    } ],
    "duration" : 2700.000000000,
    "pause" : false
  }, {
    "id" : 851,
    "desc" : "MASONRY",
    "location" : {
      "id" : 9220,
      "name" : null,
      "latitude" : 43.889214,
      "longitude" : 4.0488424
    },
    "openings" : {
      "start" : [ 11, 12 ],
      "end" : [ 16, 59 ]
    },
    "preferredSlots" : null,
    "doAfter" : null,
    "nbEmpRequired" : 1,
    "deadline" : [ 17, 6 ],
    "skills" : [ {
      "id" : 4,
      "name" : "MASONRY",
      "level" : 4
    } ],
    "duration" : 2700.000000000,
    "pause" : false
  }, {
    "id" : 156,
    "desc" : "IRONWORK, PLUMBING",
    "location" : {
      "id" : 2446,
      "name" : null,
      "latitude" : 43.536488,
      "longitude" : 4.0513864
    },
    "openings" : {
      "start" : [ 10, 8 ],
      "end" : [ 17, 16 ]
    },
    "preferredSlots" : null,
    "doAfter" : null,
    "nbEmpRequired" : 1,
    "deadline" : [ 10, 40 ],
    "skills" : [ {
      "id" : 8,
      "name" : "IRONWORK",
      "level" : 1
    }, {
      "id" : 3,
      "name" : "PLUMBING",
      "level" : 3
    } ],
    "duration" : 7200.000000000,
    "pause" : false
  }, {
    "id" : 93,
    "desc" : "PLUMBING, ELECTRICIAN",
    "location" : {
      "id" : 7748,
      "name" : null,
      "latitude" : 44.04202,
      "longitude" : 4.214917
    },
    "openings" : {
      "start" : [ 10, 45 ],
      "end" : [ 12, 10 ]
    },
    "preferredSlots" : null,
    "doAfter" : null,
    "nbEmpRequired" : 1,
    "deadline" : [ 17, 47 ],
    "skills" : [ {
      "id" : 3,
      "name" : "PLUMBING",
      "level" : 5
    }, {
      "id" : 2,
      "name" : "ELECTRICIAN",
      "level" : 5
    } ],
    "duration" : 3600.000000000,
    "pause" : false
  }, {
    "id" : 721,
    "desc" : "ENGINEER",
    "location" : {
      "id" : 9980,
      "name" : null,
      "latitude" : 43.749996,
      "longitude" : 3.8680687
    },
    "openings" : {
      "start" : [ 16, 12 ],
      "end" : [ 16, 15 ]
    },
    "preferredSlots" : null,
    "doAfter" : null,
    "nbEmpRequired" : 1,
    "deadline" : [ 11, 47 ],
    "skills" : [ {
      "id" : 1,
      "name" : "ENGINEER",
      "level" : 1
    } ],
    "duration" : 2700.000000000,
    "pause" : false
  }, {
    "id" : 340,
    "desc" : "PLUMBING",
    "location" : {
      "id" : 4205,
      "name" : null,
      "latitude" : 43.438087,
      "longitude" : 3.7149386
    },
    "openings" : {
      "start" : [ 11, 39 ],
      "end" : [ 15, 17 ]
    },
    "preferredSlots" : null,
    "doAfter" : null,
    "nbEmpRequired" : 1,
    "deadline" : [ 17, 4 ],
    "skills" : [ {
      "id" : 3,
      "name" : "PLUMBING",
      "level" : 4
    } ],
    "duration" : 5400.000000000,
    "pause" : false
  } ],
  "employees" : [ {
    "id" : 263,
    "name" : "263",
    "shifts" : [ {
      "start" : [ 9, 0 ],
      "end" : [ 12, 0 ]
    }, {
      "start" : [ 13, 0 ],
      "end" : [ 17, 0 ]
    } ],
    "prefSlots" : null,
    "startingLoc" : {
      "id" : 6074,
      "name" : null,
      "latitude" : 43.682205,
      "longitude" : 3.8688388
    },
    "skills" : [ {
      "id" : 3,
      "name" : "PLUMBING",
      "level" : 5
    }, {
      "id" : 7,
      "name" : "PAINTING",
      "level" : 7
    }, {
      "id" : 5,
      "name" : "GLAZING",
      "level" : 4
    }, {
      "id" : 8,
      "name" : "IRONWORK",
      "level" : 7
    }, {
      "id" : 0,
      "name" : "MANAGEMENT",
      "level" : 3
    }, {
      "id" : 5,
      "name" : "GLAZING",
      "level" : 8
    }, {
      "id" : 4,
      "name" : "MASONRY",
      "level" : 4
    }, {
      "id" : 1,
      "name" : "ENGINEER",
      "level" : 2
    }, {
      "id" : 8,
      "name" : "IRONWORK",
      "level" : 2
    }, {
      "id" : 5,
      "name" : "GLAZING",
      "level" : 6
    } ]
  }, {
    "id" : 134,
    "name" : "134",
    "shifts" : [ {
      "start" : [ 9, 0 ],
      "end" : [ 12, 0 ]
    }, {
      "start" : [ 13, 0 ],
      "end" : [ 17, 0 ]
    } ],
    "prefSlots" : null,
    "startingLoc" : {
      "id" : 5448,
      "name" : null,
      "latitude" : 44.01638,
      "longitude" : 3.778487
    },
    "skills" : [ {
      "id" : 2,
      "name" : "ELECTRICIAN",
      "level" : 6
    }, {
      "id" : 1,
      "name" : "ENGINEER",
      "level" : 8
    }, {
      "id" : 5,
      "name" : "GLAZING",
      "level" : 1
    }, {
      "id" : 6,
      "name" : "CARPENTRY",
      "level" : 9
    }, {
      "id" : 5,
      "name" : "GLAZING",
      "level" : 4
    } ]
  }, {
    "id" : 287,
    "name" : "287",
    "shifts" : [ {
      "start" : [ 9, 0 ],
      "end" : [ 12, 0 ]
    }, {
      "start" : [ 13, 0 ],
      "end" : [ 17, 0 ]
    } ],
    "prefSlots" : null,
    "startingLoc" : {
      "id" : 5157,
      "name" : null,
      "latitude" : 43.55725,
      "longitude" : 4.1070766
    },
    "skills" : [ {
      "id" : 8,
      "name" : "IRONWORK",
      "level" : 4
    }, {
      "id" : 9,
      "name" : "TILER",
      "level" : 9
    }, {
      "id" : 5,
      "name" : "GLAZING",
      "level" : 9
    }, {
      "id" : 3,
      "name" : "PLUMBING",
      "level" : 2
    }, {
      "id" : 3,
      "name" : "PLUMBING",
      "level" : 8
    }, {
      "id" : 0,
      "name" : "MANAGEMENT",
      "level" : 2
    }, {
      "id" : 3,
      "name" : "PLUMBING",
      "level" : 2
    } ]
  }, {
    "id" : 122,
    "name" : "122",
    "shifts" : [ {
      "start" : [ 9, 0 ],
      "end" : [ 12, 0 ]
    }, {
      "start" : [ 13, 0 ],
      "end" : [ 17, 0 ]
    } ],
    "prefSlots" : null,
    "startingLoc" : {
      "id" : 5344,
      "name" : null,
      "latitude" : 43.750217,
      "longitude" : 3.901315
    },
    "skills" : [ {
      "id" : 4,
      "name" : "MASONRY",
      "level" : 10
    } ]
  }, {
    "id" : 712,
    "name" : "712",
    "shifts" : [ {
      "start" : [ 9, 0 ],
      "end" : [ 12, 0 ]
    }, {
      "start" : [ 13, 0 ],
      "end" : [ 17, 0 ]
    } ],
    "prefSlots" : null,
    "startingLoc" : {
      "id" : 940,
      "name" : null,
      "latitude" : 43.83619,
      "longitude" : 3.7465901
    },
    "skills" : [ {
      "id" : 1,
      "name" : "ENGINEER",
      "level" : 1
    }, {
      "id" : 5,
      "name" : "GLAZING",
      "level" : 10
    }, {
      "id" : 9,
      "name" : "TILER",
      "level" : 8
    }, {
      "id" : 4,
      "name" : "MASONRY",
      "level" : 10
    }, {
      "id" : 4,
      "name" : "MASONRY",
      "level" : 4
    }, {
      "id" : 4,
      "name" : "MASONRY",
      "level" : 3
    }, {
      "id" : 5,
      "name" : "GLAZING",
      "level" : 6
    }, {
      "id" : 3,
      "name" : "PLUMBING",
      "level" : 4
    } ]
  }, {
    "id" : 410,
    "name" : "410",
    "shifts" : [ {
      "start" : [ 9, 0 ],
      "end" : [ 12, 0 ]
    }, {
      "start" : [ 13, 0 ],
      "end" : [ 17, 0 ]
    } ],
    "prefSlots" : null,
    "startingLoc" : {
      "id" : 781,
      "name" : null,
      "latitude" : 44.070576,
      "longitude" : 4.2154346
    },
    "skills" : [ {
      "id" : 1,
      "name" : "ENGINEER",
      "level" : 2
    }, {
      "id" : 5,
      "name" : "GLAZING",
      "level" : 1
    }, {
      "id" : 0,
      "name" : "MANAGEMENT",
      "level" : 2
    }, {
      "id" : 1,
      "name" : "ENGINEER",
      "level" : 5
    } ]
  }, {
    "id" : 319,
    "name" : "319",
    "shifts" : [ {
      "start" : [ 9, 0 ],
      "end" : [ 12, 0 ]
    }, {
      "start" : [ 13, 0 ],
      "end" : [ 17, 0 ]
    } ],
    "prefSlots" : null,
    "startingLoc" : {
      "id" : 728,
      "name" : null,
      "latitude" : 43.60049,
      "longitude" : 3.7969398
    },
    "skills" : [ {
      "id" : 5,
      "name" : "GLAZING",
      "level" : 8
    }, {
      "id" : 1,
      "name" : "ENGINEER",
      "level" : 2
    } ]
  }, {
    "id" : 970,
    "name" : "970",
    "shifts" : [ {
      "start" : [ 9, 0 ],
      "end" : [ 12, 0 ]
    }, {
      "start" : [ 13, 0 ],
      "end" : [ 17, 0 ]
    } ],
    "prefSlots" : null,
    "startingLoc" : {
      "id" : 7917,
      "name" : null,
      "latitude" : 43.423275,
      "longitude" : 4.1648316
    },
    "skills" : [ {
      "id" : 0,
      "name" : "MANAGEMENT",
      "level" : 5
    }, {
      "id" : 5,
      "name" : "GLAZING",
      "level" : 3
    }, {
      "id" : 4,
      "name" : "MASONRY",
      "level" : 3
    } ]
  }, {
    "id" : 981,
    "name" : "981",
    "shifts" : [ {
      "start" : [ 9, 0 ],
      "end" : [ 12, 0 ]
    }, {
      "start" : [ 13, 0 ],
      "end" : [ 17, 0 ]
    } ],
    "prefSlots" : null,
    "startingLoc" : {
      "id" : 1860,
      "name" : null,
      "latitude" : 43.78345,
      "longitude" : 4.102999
    },
    "skills" : [ {
      "id" : 9,
      "name" : "TILER",
      "level" : 1
    }, {
      "id" : 3,
      "name" : "PLUMBING",
      "level" : 9
    }, {
      "id" : 9,
      "name" : "TILER",
      "level" : 7
    }, {
      "id" : 5,
      "name" : "GLAZING",
      "level" : 2
    }, {
      "id" : 1,
      "name" : "ENGINEER",
      "level" : 2
    }, {
      "id" : 0,
      "name" : "MANAGEMENT",
      "level" : 2
    }, {
      "id" : 4,
      "name" : "MASONRY",
      "level" : 7
    } ]
  }, {
    "id" : 612,
    "name" : "612",
    "shifts" : [ {
      "start" : [ 9, 0 ],
      "end" : [ 12, 0 ]
    }, {
      "start" : [ 13, 0 ],
      "end" : [ 17, 0 ]
    } ],
    "prefSlots" : null,
    "startingLoc" : {
      "id" : 6880,
      "name" : null,
      "latitude" : 43.796696,
      "longitude" : 4.0364885
    },
    "skills" : [ {
      "id" : 5,
      "name" : "GLAZING",
      "level" : 9
    }, {
      "id" : 1,
      "name" : "ENGINEER",
      "level" : 2
    }, {
      "id" : 8,
      "name" : "IRONWORK",
      "level" : 9
    }, {
      "id" : 1,
      "name" : "ENGINEER",
      "level" : 6
    }, {
      "id" : 9,
      "name" : "TILER",
      "level" : 10
    }, {
      "id" : 6,
      "name" : "CARPENTRY",
      "level" : 1
    }, {
      "id" : 3,
      "name" : "PLUMBING",
      "level" : 8
    }, {
      "id" : 9,
      "name" : "TILER",
      "level" : 3
    } ]
  } ],
  "appointments" : [ {
    "job" : {
      "id" : 714,
      "desc" : "PAINTING",
      "location" : {
        "id" : 4593,
        "name" : null,
        "latitude" : 43.45866,
        "longitude" : 4.186909
      },
      "openings" : {
        "start" : [ 11, 9 ],
        "end" : [ 14, 35 ]
      },
      "preferredSlots" : null,
      "doAfter" : null,
      "nbEmpRequired" : 1,
      "deadline" : [ 14, 38 ],
      "skills" : [ {
        "id" : 7,
        "name" : "PAINTING",
        "level" : 2
      } ],
      "duration" : 3600.000000000,
      "pause" : false
    },
    "needed" : [ {
      "id" : 122,
      "name" : "122",
      "shifts" : [ {
        "start" : [ 9, 0 ],
        "end" : [ 12, 0 ]
      }, {
        "start" : [ 13, 0 ],
        "end" : [ 17, 0 ]
      } ],
      "prefSlots" : null,
      "startingLoc" : {
        "id" : 5344,
        "name" : null,
        "latitude" : 43.750217,
        "longitude" : 3.901315
      },
      "skills" : [ {
        "id" : 4,
        "name" : "MASONRY",
        "level" : 10
      } ]
    }, {
      "id" : 287,
      "name" : "287",
      "shifts" : [ {
        "start" : [ 9, 0 ],
        "end" : [ 12, 0 ]
      }, {
        "start" : [ 13, 0 ],
        "end" : [ 17, 0 ]
      } ],
      "prefSlots" : null,
      "startingLoc" : {
        "id" : 5157,
        "name" : null,
        "latitude" : 43.55725,
        "longitude" : 4.1070766
      },
      "skills" : [ {
        "id" : 8,
        "name" : "IRONWORK",
        "level" : 4
      }, {
        "id" : 9,
        "name" : "TILER",
        "level" : 9
      }, {
        "id" : 5,
        "name" : "GLAZING",
        "level" : 9
      }, {
        "id" : 3,
        "name" : "PLUMBING",
        "level" : 2
      }, {
        "id" : 3,
        "name" : "PLUMBING",
        "level" : 8
      }, {
        "id" : 0,
        "name" : "MANAGEMENT",
        "level" : 2
      }, {
        "id" : 3,
        "name" : "PLUMBING",
        "level" : 2
      } ]
    }, {
      "id" : 612,
      "name" : "612",
      "shifts" : [ {
        "start" : [ 9, 0 ],
        "end" : [ 12, 0 ]
      }, {
        "start" : [ 13, 0 ],
        "end" : [ 17, 0 ]
      } ],
      "prefSlots" : null,
      "startingLoc" : {
        "id" : 6880,
        "name" : null,
        "latitude" : 43.796696,
        "longitude" : 4.0364885
      },
      "skills" : [ {
        "id" : 5,
        "name" : "GLAZING",
        "level" : 9
      }, {
        "id" : 1,
        "name" : "ENGINEER",
        "level" : 2
      }, {
        "id" : 8,
        "name" : "IRONWORK",
        "level" : 9
      }, {
        "id" : 1,
        "name" : "ENGINEER",
        "level" : 6
      }, {
        "id" : 9,
        "name" : "TILER",
        "level" : 10
      }, {
        "id" : 6,
        "name" : "CARPENTRY",
        "level" : 1
      }, {
        "id" : 3,
        "name" : "PLUMBING",
        "level" : 8
      }, {
        "id" : 9,
        "name" : "TILER",
        "level" : 3
      } ]
    } ]
  }, {
    "job" : {
      "id" : 260,
      "desc" : "ENGINEER",
      "location" : {
        "id" : 8609,
        "name" : null,
        "latitude" : 43.817223,
        "longitude" : 4.0275044
      },
      "openings" : {
        "start" : [ 11, 7 ],
        "end" : [ 17, 48 ]
      },
      "preferredSlots" : null,
      "doAfter" : null,
      "nbEmpRequired" : 1,
      "deadline" : [ 14, 54 ],
      "skills" : [ {
        "id" : 1,
        "name" : "ENGINEER",
        "level" : 2
      } ],
      "duration" : 2700.000000000,
      "pause" : false
    },
    "needed" : [ {
      "id" : 263,
      "name" : "263",
      "shifts" : [ {
        "start" : [ 9, 0 ],
        "end" : [ 12, 0 ]
      }, {
        "start" : [ 13, 0 ],
        "end" : [ 17, 0 ]
      } ],
      "prefSlots" : null,
      "startingLoc" : {
        "id" : 6074,
        "name" : null,
        "latitude" : 43.682205,
        "longitude" : 3.8688388
      },
      "skills" : [ {
        "id" : 3,
        "name" : "PLUMBING",
        "level" : 5
      }, {
        "id" : 7,
        "name" : "PAINTING",
        "level" : 7
      }, {
        "id" : 5,
        "name" : "GLAZING",
        "level" : 4
      }, {
        "id" : 8,
        "name" : "IRONWORK",
        "level" : 7
      }, {
        "id" : 0,
        "name" : "MANAGEMENT",
        "level" : 3
      }, {
        "id" : 5,
        "name" : "GLAZING",
        "level" : 8
      }, {
        "id" : 4,
        "name" : "MASONRY",
        "level" : 4
      }, {
        "id" : 1,
        "name" : "ENGINEER",
        "level" : 2
      }, {
        "id" : 8,
        "name" : "IRONWORK",
        "level" : 2
      }, {
        "id" : 5,
        "name" : "GLAZING",
        "level" : 6
      } ]
    } ]
  }, {
    "job" : {
      "id" : 809,
      "desc" : "TILER",
      "location" : {
        "id" : 2443,
        "name" : null,
        "latitude" : 43.55191,
        "longitude" : 4.2708864
      },
      "openings" : {
        "start" : [ 10, 50 ],
        "end" : [ 17, 3 ]
      },
      "preferredSlots" : null,
      "doAfter" : null,
      "nbEmpRequired" : 1,
      "deadline" : [ 15, 27 ],
      "skills" : [ {
        "id" : 9,
        "name" : "TILER",
        "level" : 3
      } ],
      "duration" : 5400.000000000,
      "pause" : false
    },
    "needed" : [ {
      "id" : 970,
      "name" : "970",
      "shifts" : [ {
        "start" : [ 9, 0 ],
        "end" : [ 12, 0 ]
      }, {
        "start" : [ 13, 0 ],
        "end" : [ 17, 0 ]
      } ],
      "prefSlots" : null,
      "startingLoc" : {
        "id" : 7917,
        "name" : null,
        "latitude" : 43.423275,
        "longitude" : 4.1648316
      },
      "skills" : [ {
        "id" : 0,
        "name" : "MANAGEMENT",
        "level" : 5
      }, {
        "id" : 5,
        "name" : "GLAZING",
        "level" : 3
      }, {
        "id" : 4,
        "name" : "MASONRY",
        "level" : 3
      } ]
    } ]
  }, {
    "job" : {
      "id" : 43,
      "desc" : "PLUMBING, MASONRY",
      "location" : {
        "id" : 1460,
        "name" : null,
        "latitude" : 44.043938,
        "longitude" : 3.9738948
      },
      "openings" : {
        "start" : [ 13, 48 ],
        "end" : [ 13, 57 ]
      },
      "preferredSlots" : null,
      "doAfter" : null,
      "nbEmpRequired" : 1,
      "deadline" : [ 11, 11 ],
      "skills" : [ {
        "id" : 3,
        "name" : "PLUMBING",
        "level" : 5
      }, {
        "id" : 4,
        "name" : "MASONRY",
        "level" : 3
      } ],
      "duration" : 7200.000000000,
      "pause" : false
    },
    "needed" : [ {
      "id" : 134,
      "name" : "134",
      "shifts" : [ {
        "start" : [ 9, 0 ],
        "end" : [ 12, 0 ]
      }, {
        "start" : [ 13, 0 ],
        "end" : [ 17, 0 ]
      } ],
      "prefSlots" : null,
      "startingLoc" : {
        "id" : 5448,
        "name" : null,
        "latitude" : 44.01638,
        "longitude" : 3.778487
      },
      "skills" : [ {
        "id" : 2,
        "name" : "ELECTRICIAN",
        "level" : 6
      }, {
        "id" : 1,
        "name" : "ENGINEER",
        "level" : 8
      }, {
        "id" : 5,
        "name" : "GLAZING",
        "level" : 1
      }, {
        "id" : 6,
        "name" : "CARPENTRY",
        "level" : 9
      }, {
        "id" : 5,
        "name" : "GLAZING",
        "level" : 4
      } ]
    }, {
      "id" : 970,
      "name" : "970",
      "shifts" : [ {
        "start" : [ 9, 0 ],
        "end" : [ 12, 0 ]
      }, {
        "start" : [ 13, 0 ],
        "end" : [ 17, 0 ]
      } ],
      "prefSlots" : null,
      "startingLoc" : {
        "id" : 7917,
        "name" : null,
        "latitude" : 43.423275,
        "longitude" : 4.1648316
      },
      "skills" : [ {
        "id" : 0,
        "name" : "MANAGEMENT",
        "level" : 5
      }, {
        "id" : 5,
        "name" : "GLAZING",
        "level" : 3
      }, {
        "id" : 4,
        "name" : "MASONRY",
        "level" : 3
      } ]
    }, {
      "id" : 712,
      "name" : "712",
      "shifts" : [ {
        "start" : [ 9, 0 ],
        "end" : [ 12, 0 ]
      }, {
        "start" : [ 13, 0 ],
        "end" : [ 17, 0 ]
      } ],
      "prefSlots" : null,
      "startingLoc" : {
        "id" : 940,
        "name" : null,
        "latitude" : 43.83619,
        "longitude" : 3.7465901
      },
      "skills" : [ {
        "id" : 1,
        "name" : "ENGINEER",
        "level" : 1
      }, {
        "id" : 5,
        "name" : "GLAZING",
        "level" : 10
      }, {
        "id" : 9,
        "name" : "TILER",
        "level" : 8
      }, {
        "id" : 4,
        "name" : "MASONRY",
        "level" : 10
      }, {
        "id" : 4,
        "name" : "MASONRY",
        "level" : 4
      }, {
        "id" : 4,
        "name" : "MASONRY",
        "level" : 3
      }, {
        "id" : 5,
        "name" : "GLAZING",
        "level" : 6
      }, {
        "id" : 3,
        "name" : "PLUMBING",
        "level" : 4
      } ]
    } ]
  }, {
    "job" : {
      "id" : 122,
      "desc" : "TILER",
      "location" : {
        "id" : 3291,
        "name" : null,
        "latitude" : 43.929054,
        "longitude" : 4.0019264
      },
      "openings" : {
        "start" : [ 10, 29 ],
        "end" : [ 14, 7 ]
      },
      "preferredSlots" : null,
      "doAfter" : null,
      "nbEmpRequired" : 1,
      "deadline" : [ 13, 16 ],
      "skills" : [ {
        "id" : 9,
        "name" : "TILER",
        "level" : 1
      } ],
      "duration" : 3600.000000000,
      "pause" : false
    },
    "needed" : [ {
      "id" : 263,
      "name" : "263",
      "shifts" : [ {
        "start" : [ 9, 0 ],
        "end" : [ 12, 0 ]
      }, {
        "start" : [ 13, 0 ],
        "end" : [ 17, 0 ]
      } ],
      "prefSlots" : null,
      "startingLoc" : {
        "id" : 6074,
        "name" : null,
        "latitude" : 43.682205,
        "longitude" : 3.8688388
      },
      "skills" : [ {
        "id" : 3,
        "name" : "PLUMBING",
        "level" : 5
      }, {
        "id" : 7,
        "name" : "PAINTING",
        "level" : 7
      }, {
        "id" : 5,
        "name" : "GLAZING",
        "level" : 4
      }, {
        "id" : 8,
        "name" : "IRONWORK",
        "level" : 7
      }, {
        "id" : 0,
        "name" : "MANAGEMENT",
        "level" : 3
      }, {
        "id" : 5,
        "name" : "GLAZING",
        "level" : 8
      }, {
        "id" : 4,
        "name" : "MASONRY",
        "level" : 4
      }, {
        "id" : 1,
        "name" : "ENGINEER",
        "level" : 2
      }, {
        "id" : 8,
        "name" : "IRONWORK",
        "level" : 2
      }, {
        "id" : 5,
        "name" : "GLAZING",
        "level" : 6
      } ]
    } ]
  } ]
}