{
  "jobs" : [ {
    "id" : 739,
    "desc" : "IRONWORK",
    "location" : {
      "id" : 8344,
      "name" : null,
      "latitude" : 43.403305,
      "longitude" : 3.721661
    },
    "openings" : {
      "start" : [ 11, 15 ],
      "end" : [ 14, 27 ]
    },
    "preferredSlots" : null,
    "doAfter" : null,
    "nbEmpRequired" : 1,
    "deadline" : [ 15, 48 ],
    "skills" : [ {
      "id" : 8,
      "name" : "IRONWORK",
      "level" : 5
    } ],
    "duration" : 3600.000000000,
    "pause" : false
  }, {
    "id" : 640,
    "desc" : "CARPENTRY",
    "location" : {
      "id" : 4705,
      "name" : null,
      "latitude" : 43.42705,
      "longitude" : 4.11681
    },
    "openings" : {
      "start" : [ 9, 33 ],
      "end" : [ 12, 12 ]
    },
    "preferredSlots" : null,
    "doAfter" : null,
    "nbEmpRequired" : 1,
    "deadline" : [ 15, 39 ],
    "skills" : [ {
      "id" : 6,
      "name" : "CARPENTRY",
      "level" : 3
    } ],
    "duration" : 5400.000000000,
    "pause" : false
  }, {
    "id" : 265,
    "desc" : "ENGINEER",
    "location" : {
      "id" : 6468,
      "name" : null,
      "latitude" : 43.414925,
      "longitude" : 3.719195
    },
    "openings" : {
      "start" : [ 11, 30 ],
      "end" : [ 12, 10 ]
    },
    "preferredSlots" : null,
    "doAfter" : null,
    "nbEmpRequired" : 1,
    "deadline" : [ 14, 14 ],
    "skills" : [ {
      "id" : 1,
      "name" : "ENGINEER",
      "level" : 1
    } ],
    "duration" : 3600.000000000,
    "pause" : false
  }, {
    "id" : 0,
    "desc" : "ELECTRICIAN, MANAGEMENT",
    "location" : {
      "id" : 6633,
      "name" : null,
      "latitude" : 43.832474,
      "longitude" : 3.7229133
    },
    "openings" : {
      "start" : [ 11, 6 ],
      "end" : [ 13, 1 ]
    },
    "preferredSlots" : null,
    "doAfter" : null,
    "nbEmpRequired" : 1,
    "deadline" : [ 11, 47 ],
    "skills" : [ {
      "id" : 2,
      "name" : "ELECTRICIAN",
      "level" : 5
    }, {
      "id" : 0,
      "name" : "MANAGEMENT",
      "level" : 5
    } ],
    "duration" : 2700.000000000,
    "pause" : false
  }, {
    "id" : 511,
    "desc" : "PAINTING",
    "location" : {
      "id" : 4131,
      "name" : null,
      "latitude" : 43.714867,
      "longitude" : 4.0383615
    },
    "openings" : {
      "start" : [ 16, 57 ],
      "end" : [ 17, 48 ]
    },
    "preferredSlots" : null,
    "doAfter" : null,
    "nbEmpRequired" : 1,
    "deadline" : [ 10, 37 ],
    "skills" : [ {
      "id" : 7,
      "name" : "PAINTING",
      "level" : 1
    } ],
    "duration" : 3600.000000000,
    "pause" : false
  }, {
    "id" : 150,
    "desc" : "PLUMBING",
    "location" : {
      "id" : 7042,
      "name" : null,
      "latitude" : 43.662815,
      "longitude" : 3.7328885
    },
    "openings" : {
      "start" : [ 11, 18 ],
      "end" : [ 11, 21 ]
    },
    "preferredSlots" : null,
    "doAfter" : null,
    "nbEmpRequired" : 1,
    "deadline" : [ 15, 57 ],
    "skills" : [ {
      "id" : 3,
      "name" : "PLUMBING",
      "level" : 1
    } ],
    "duration" : 3600.000000000,
    "pause" : false
  }, {
    "id" : 927,
    "desc" : "TILER, IRONWORK",
    "location" : {
      "id" : 7882,
      "name" : null,
      "latitude" : 43.483414,
      "longitude" : 3.721241
    },
    "openings" : {
      "start" : [ 16, 58 ],
      "end" : [ 17, 43 ]
    },
    "preferredSlots" : null,
    "doAfter" : null,
    "nbEmpRequired" : 1,
    "deadline" : [ 17, 15 ],
    "skills" : [ {
      "id" : 9,
      "name" : "TILER",
      "level" : 2
    }, {
      "id" : 8,
      "name" : "IRONWORK",
      "level" : 3
    } ],
    "duration" : 1800.000000000,
    "pause" : false
  }, {
    "id" : 607,
    "desc" : "CARPENTRY, IRONWORK",
    "location" : {
      "id" : 325,
      "name" : null,
      "latitude" : 43.8531,
      "longitude" : 3.819055
    },
    "openings" : {
      "start" : [ 9, 6 ],
      "end" : [ 15, 18 ]
    },
    "preferredSlots" : null,
    "doAfter" : null,
    "nbEmpRequired" : 1,
    "deadline" : [ 14, 2 ],
    "skills" : [ {
      "id" : 6,
      "name" : "CARPENTRY",
      "level" : 4
    }, {
      "id" : 8,
      "name" : "IRONWORK",
      "level" : 2
    } ],
    "duration" : 2700.000000000,
    "pause" : false
  }, {
    "id" : 584,
    "desc" : "TILER",
    "location" : {
      "id" : 4684,
      "name" : null,
      "latitude" : 43.901176,
      "longitude" : 3.7813213
    },
    "openings" : {
      "start" : [ 12, 5 ],
      "end" : [ 15, 48 ]
    },
    "preferredSlots" : null,
    "doAfter" : null,
    "nbEmpRequired" : 1,
    "deadline" : [ 17, 9 ],
    "skills" : [ {
      "id" : 9,
      "name" : "TILER",
      "level" : 4
    } ],
    "duration" : 5400.000000000,
    "pause" : false
  }, {
    "id" : 20,
    "desc" : "IRONWORK, ENGINEER",
    "location" : {
      "id" : 8304,
      "name" : null,
      "latitude" : 43.483875,
      "longitude" : 3.8948739
    },
    "openings" : {
      "start" : [ 9, 18 ],
      "end" : [ 17, 10 ]
    },
    "preferredSlots" : null,
    "doAfter" : null,
    "nbEmpRequired" : 1,
    "deadline" : [ 16, 47 ],
    "skills" : [ {
      "id" : 8,
      "name" : "IRONWORK",
      "level" : 4
    }, {
      "id" : 1,
      "name" : "ENGINEER",
      "level" : 2
    } ],
    "duration" : 1800.000000000,
    "pause" : false
  }, {
    "id" : 294,
    "desc" : "TILER",
    "location" : {
      "id" : 4445,
      "name" : null,
      "latitude" : 43.968838,
      "longitude" : 4.2389245
    },
    "openings" : {
      "start" : [ 9, 25 ],
      "end" : [ 16, 54 ]
    },
    "preferredSlots" : null,
    "doAfter" : null,
    "nbEmpRequired" : 1,
    "deadline" : [ 10, 47 ],
    "skills" : [ {
      "id" : 9,
      "name" : "TILER",
      "level" : 4
    } ],
    "duration" : 5400.000000000,
    "pause" : false
  }, {
    "id" : 17,
    "desc" : "PLUMBING",
    "location" : {
      "id" : 17,
      "name" : null,
      "latitude" : 43.825146,
      "longitude" : 3.8469658
    },
    "openings" : {
      "start" : [ 12, 59 ],
      "end" : [ 13, 39 ]
    },
    "preferredSlots" : null,
    "doAfter" : null,
    "nbEmpRequired" : 1,
    "deadline" : [ 13, 32 ],
    "skills" : [ {
      "id" : 3,
      "name" : "PLUMBING",
      "level" : 3
    } ],
    "duration" : 5400.000000000,
    "pause" : false
  }, {
    "id" : 558,
    "desc" : "PLUMBING",
    "location" : {
      "id" : 7152,
      "name" : null,
      "latitude" : 43.57833,
      "longitude" : 3.741563
    },
    "openings" : {
      "start" : [ 13, 39 ],
      "end" : [ 15, 29 ]
    },
    "preferredSlots" : null,
    "doAfter" : null,
    "nbEmpRequired" : 1,
    "deadline" : [ 10, 51 ],
    "skills" : [ {
      "id" : 3,
      "name" : "PLUMBING",
      "level" : 4
    } ],
    "duration" : 5400.000000000,
    "pause" : false
  }, {
    "id" : 663,
    "desc" : "MANAGEMENT, MASONRY",
    "location" : {
      "id" : 6977,
      "name" : null,
      "latitude" : 43.56346,
      "longitude" : 4.126767
    },
    "openings" : {
      "start" : [ 10, 28 ],
      "end" : [ 15, 12 ]
    },
    "preferredSlots" : null,
    "doAfter" : null,
    "nbEmpRequired" : 1,
    "deadline" : [ 12, 4 ],
    "skills" : [ {
      "id" : 0,
      "name" : "MANAGEMENT",
      "level" : 2
    }, {
      "id" : 4,
      "name" : "MASONRY",
      "level" : 2
    } ],
    "duration" : 2700.000000000,
    "pause" : false
  }, {
    "id" : 306,
    "desc" : "ELECTRICIAN",
    "location" : {
      "id" : 3758,
      "name" : null,
      "latitude" : 43.918766,
      "longitude" : 4.189387
    },
    "openings" : {
      "start" : [ 10, 38 ],
      "end" : [ 16, 0 ]
    },
    "preferredSlots" : null,
    "doAfter" : null,
    "nbEmpRequired" : 1,
    "deadline" : [ 16, 17 ],
    "skills" : [ {
      "id" : 2,
      "name" : "ELECTRICIAN",
      "level" : 5
    } ],
    "duration" : 2700.000000000,
    "pause" : false
  }, {
    "id" : 718,
    "desc" : "IRONWORK, ELECTRICIAN",
    "location" : {
      "id" : 9779,
      "name" : null,
      "latitude" : 43.504753,
      "longitude" : 3.853147
    },
    "openings" : {
      "start" : [ 13, 38 ],
      "end" : [ 16, 25 ]
    },
    "preferredSlots" : null,
    "doAfter" : null,
    "nbEmpRequired" : 1,
    "deadline" : [ 17, 46 ],
    "skills" : [ {
      "id" : 8,
      "name" : "IRONWORK",
      "level" : 5
    }, {
      "id" : 2,
      "name" : "ELECTRICIAN",
      "level" : 1
    } ],
    "duration" : 5400.000000000,
    "pause" : false
  }, {
    "id" : 27,
    "desc" : "MANAGEMENT",
    "location" : {
      "id" : 5330,
      "name" : null,
      "latitude" : 43.75914,
      "longitude" : 4.1407256
    },
    "openings" : {
      "start" : [ 10, 11 ],
      "end" : [ 12, 20 ]
    },
    "preferredSlots" : null,
    "doAfter" : null,
    "nbEmpRequired" : 1,
    "deadline" : [ 9, 5 ],
    "skills" : [ {
      "id" : 0,
      "name" : "MANAGEMENT",
      "level" : 5
    } ],
    "duration" : 7200.000000000,
    "pause" : false
  }, {
    "id" : 801,
    "desc" : "IRONWORK, GLAZING",
    "location" : {
      "id" : 456,
      "name" : null,
      "latitude" : 43.831577,
      "longitude" : 3.7461267
    },
    "openings" : {
      "start" : [ 11, 41 ],
      "end" : [ 12, 9 ]
    },
    "preferredSlots" : null,
    "doAfter" : null,
    "nbEmpRequired" : 1,
    "deadline" : [ 11, 13 ],
    "skills" : [ {
      "id" : 8,
      "name" : "IRONWORK",
      "level" : 1
    }, {
      "id" : 5,
      "name" : "GLAZING",
      "level" : 4
    } ],
    "duration" : 2700.000000000,
    "pause" : false
  }, {
    "id" : 14,
    "desc" : "PAINTING, ENGINEER",
    "location" : {
      "id" : 6074,
      "name" : null,
      "latitude" : 43.91549,
      "longitude" : 3.7370994
    },
    "openings" : {
      "start" : [ 10, 21 ],
      "end" : [ 15, 46 ]
    },
    "preferredSlots" : null,
    "doAfter" : null,
    "nbEmpRequired" : 1,
    "deadline" : [ 17, 35 ],
    "skills" : [ {
      "id" : 7,
      "name" : "PAINTING",
      "level" : 3
    }, {
      "id" : 1,
      "name" : "ENGINEER",
      "level" : 4
    } ],
    "duration" : 1800.000000000,
    "pause" : false
  }, {
    "id" : 664,
    "desc" : "MANAGEMENT",
    "location" : {
      "id" : 5252,
      "name" : null,
      "latitude" : 43.759636,
      "longitude" : 4.283202
    },
    "openings" : {
      "start" : [ 11, 12 ],
      "end" : [ 13, 32 ]
    },
    "preferredSlots" : null,
    "doAfter" : null,
    "nbEmpRequired" : 1,
    "deadline" : [ 10, 37 ],
    "skills" : [ {
      "id" : 0,
      "name" : "MANAGEMENT",
      "level" : 1
    } ],
    "duration" : 2700.000000000,
    "pause" : false
  }, {
    "id" : 232,
    "desc" : "MASONRY, MANAGEMENT",
    "location" : {
      "id" : 9025,
      "name" : null,
      "latitude" : 44.06422,
      "longitude" : 3.869123
    },
    "openings" : {
      "start" : [ 9, 19 ],
      "end" : [ 14, 39 ]
    },
    "preferredSlots" : null,
    "doAfter" : null,
    "nbEmpRequired" : 1,
    "deadline" : [ 9, 46 ],
    "skills" : [ {
      "id" : 4,
      "name" : "MASONRY",
      "level" : 5
    }, {
      "id" : 0,
      "name" : "MANAGEMENT",
      "level" : 3
    } ],
    "duration" : 1800.000000000,
    "pause" : false
  }, {
    "id" : 730,
    "desc" : "MANAGEMENT, MASONRY",
    "location" : {
      "id" : 8172,
      "name" : null,
      "latitude" : 43.597595,
      "longitude" : 4.079123
    },
    "openings" : {
      "start" : [ 10, 58 ],
      "end" : [ 17, 57 ]
    },
    "preferredSlots" : null,
    "doAfter" : null,
    "nbEmpRequired" : 1,
    "deadline" : [ 13, 9 ],
    "skills" : [ {
      "id" : 0,
      "name" : "MANAGEMENT",
      "level" : 1
    }, {
      "id" : 4,
      "name" : "MASONRY",
      "level" : 5
    } ],
    "duration" : 2700.000000000,
    "pause" : false
  }, {
    "id" : 876,
    "desc" : "MASONRY, MANAGEMENT",
    "location" : {
      "id" : 1383,
      "name" : null,
      "latitude" : 43.486584,
      "longitude" : 4.1239376
    },
    "openings" : {
      "start" : [ 14, 17 ],
      "end" : [ 15, 34 ]
    },
    "preferredSlots" : null,
    "doAfter" : null,
    "nbEmpRequired" : 1,
    "deadline" : [ 15, 19 ],
    "skills" : [ {
      "id" : 4,
      "name" : "MASONRY",
      "level" : 3
    }, {
      "id" : 0,
      "name" : "MANAGEMENT",
      "level" : 2
    } ],
    "duration" : 5400.000000000,
    "pause" : false
  }, {
    "id" : 227,
    "desc" : "TILER",
    "location" : {
      "id" : 6758,
      "name" : null,
      "latitude" : 44.040123,
      "longitude" : 4.2245064
    },
    "openings" : {
      "start" : [ 12, 5 ],
      "end" : [ 14, 52 ]
    },
    "preferredSlots" : null,
    "doAfter" : null,
    "nbEmpRequired" : 1,
    "deadline" : [ 14, 49 ],
    "skills" : [ {
      "id" : 9,
      "name" : "TILER",
      "level" : 4
    } ],
    "duration" : 2700.000000000,
    "pause" : false
  }, {
    "id" : 397,
    "desc" : "CARPENTRY",
    "location" : {
      "id" : 4751,
      "name" : null,
      "latitude" : 43.75973,
      "longitude" : 4.203477
    },
    "openings" : {
      "start" : [ 10, 12 ],
      "end" : [ 13, 15 ]
    },
    "preferredSlots" : null,
    "doAfter" : null,
    "nbEmpRequired" : 1,
    "deadline" : [ 9, 22 ],
    "skills" : [ {
      "id" : 6,
      "name" : "CARPENTRY",
      "level" : 5
    } ],
    "duration" : 3600.000000000,
    "pause" : false
  }, {
    "id" : 564,
    "desc" : "TILER, PLUMBING",
    "location" : {
      "id" : 8553,
      "name" : null,
      "latitude" : 44.081314,
      "longitude" : 3.7348442
    },
    "openings" : {
      "start" : [ 12, 47 ],
      "end" : [ 16, 5 ]
    },
    "preferredSlots" : null,
    "doAfter" : null,
    "nbEmpRequired" : 1,
    "deadline" : [ 16, 50 ],
    "skills" : [ {
      "id" : 9,
      "name" : "TILER",
      "level" : 1
    }, {
      "id" : 3,
      "name" : "PLUMBING",
      "level" : 5
    } ],
    "duration" : 3600.000000000,
    "pause" : false
  }, {
    "id" : 816,
    "desc" : "ENGINEER",
    "location" : {
      "id" : 3205,
      "name" : null,
      "latitude" : 43.864803,
      "longitude" : 3.7677999
    },
    "openings" : {
      "start" : [ 11, 36 ],
      "end" : [ 16, 17 ]
    },
    "preferredSlots" : null,
    "doAfter" : null,
    "nbEmpRequired" : 1,
    "deadline" : [ 11, 34 ],
    "skills" : [ {
      "id" : 1,
      "name" : "ENGINEER",
      "level" : 5
    } ],
    "duration" : 2700.000000000,
    "pause" : false
  }, {
    "id" : 409,
    "desc" : "IRONWORK",
    "location" : {
      "id" : 3926,
      "name" : null,
      "latitude" : 43.405006,
      "longitude" : 4.175346
    },
    "openings" : {
      "start" : [ 13, 5 ],
      "end" : [ 13, 31 ]
    },
    "preferredSlots" : null,
    "doAfter" : null,
    "nbEmpRequired" : 1,
    "deadline" : [ 14, 47 ],
    "skills" : [ {
      "id" : 8,
      "name" : "IRONWORK",
      "level" : 4
    } ],
    "duration" : 3600.000000000,
    "pause" : false
  }, {
    "id" : 339,
    "desc" : "PLUMBING, CARPENTRY",
    "location" : {
      "id" : 6247,
      "name" : null,
      "latitude" : 43.527992,
      "longitude" : 4.2138805
    },
    "openings" : {
      "start" : [ 9, 23 ],
      "end" : [ 9, 48 ]
    },
    "preferredSlots" : null,
    "doAfter" : null,
    "nbEmpRequired" : 1,
    "deadline" : [ 15, 52 ],
    "skills" : [ {
      "id" : 3,
      "name" : "PLUMBING",
      "level" : 3
    }, {
      "id" : 6,
      "name" : "CARPENTRY",
      "level" : 5
    } ],
    "duration" : 1800.000000000,
    "pause" : false
  }, {
    "id" : 781,
    "desc" : "IRONWORK, GLAZING",
    "location" : {
      "id" : 730,
      "name" : null,
      "latitude" : 44.0335,
      "longitude" : 3.768938
    },
    "openings" : {
      "start" : [ 10, 46 ],
      "end" : [ 17, 50 ]
    },
    "preferredSlots" : null,
    "doAfter" : null,
    "nbEmpRequired" : 1,
    "deadline" : [ 12, 25 ],
    "skills" : [ {
      "id" : 8,
      "name" : "IRONWORK",
      "level" : 1
    }, {
      "id" : 5,
      "name" : "GLAZING",
      "level" : 1
    } ],
    "duration" : 3600.000000000,
    "pause" : false
  }, {
    "id" : 3,
    "desc" : "TILER, PLUMBING",
    "location" : {
      "id" : 6629,
      "name" : null,
      "latitude" : 44.080925,
      "longitude" : 4.081142
    },
    "openings" : {
      "start" : [ 11, 41 ],
      "end" : [ 13, 26 ]
    },
    "preferredSlots" : null,
    "doAfter" : null,
    "nbEmpRequired" : 1,
    "deadline" : [ 16, 1 ],
    "skills" : [ {
      "id" : 9,
      "name" : "TILER",
      "level" : 2
    }, {
      "id" : 3,
      "name" : "PLUMBING",
      "level" : 2
    } ],
    "duration" : 5400.000000000,
    "pause" : false
  }, {
    "id" : 779,
    "desc" : "PAINTING",
    "location" : {
      "id" : 3789,
      "name" : null,
      "latitude" : 44.02389,
      "longitude" : 3.978827
    },
    "openings" : {
      "start" : [ 9, 35 ],
      "end" : [ 10, 55 ]
    },
    "preferredSlots" : null,
    "doAfter" : null,
    "nbEmpRequired" : 1,
    "deadline" : [ 14, 21 ],
    "skills" : [ {
      "id" : 7,
      "name" : "PAINTING",
      "level" : 4
    } ],
    "duration" : 5400.000000000,
    "pause" : false
  }, {
    "id" : 816,
    "desc" : "MANAGEMENT",
    "location" : {
      "id" : 4838,
      "name" : null,
      "latitude" : 43.903458,
      "longitude" : 4.072009
    },
    "openings" : {
      "start" : [ 16, 27 ],
      "end" : [ 17, 28 ]
    },
    "preferredSlots" : null,
    "doAfter" : null,
    "nbEmpRequired" : 1,
    "deadline" : [ 15, 6 ],
    "skills" : [ {
      "id" : 0,
      "name" : "MANAGEMENT",
      "level" : 5
    } ],
    "duration" : 1800.000000000,
    "pause" : false
  }, {
    "id" : 105,
    "desc" : "ENGINEER, MANAGEMENT",
    "location" : {
      "id" : 407,
      "name" : null,
      "latitude" : 43.531345,
      "longitude" : 3.97166
    },
    "openings" : {
      "start" : [ 12, 33 ],
      "end" : [ 13, 55 ]
    },
    "preferredSlots" : null,
    "doAfter" : null,
    "nbEmpRequired" : 1,
    "deadline" : [ 15, 30 ],
    "skills" : [ {
      "id" : 1,
      "name" : "ENGINEER",
      "level" : 5
    }, {
      "id" : 0,
      "name" : "MANAGEMENT",
      "level" : 5
    } ],
    "duration" : 1800.000000000,
    "pause" : false
  }, {
    "id" : 4,
    "desc" : "MANAGEMENT, ENGINEER",
    "location" : {
      "id" : 6142,
      "name" : null,
      "latitude" : 44.067844,
      "longitude" : 4.2894945
    },
    "openings" : {
      "start" : [ 16, 1 ],
      "end" : [ 16, 52 ]
    },
    "preferredSlots" : null,
    "doAfter" : null,
    "nbEmpRequired" : 1,
    "deadline" : [ 12, 3 ],
    "skills" : [ {
      "id" : 0,
      "name" : "MANAGEMENT",
      "level" : 5
    }, {
      "id" : 1,
      "name" : "ENGINEER",
      "level" : 1
    } ],
    "duration" : 1800.000000000,
    "pause" : false
  }, {
    "id" : 91,
    "desc" : "GLAZING, TILER",
    "location" : {
      "id" : 5225,
      "name" : null,
      "latitude" : 43.630096,
      "longitude" : 4.1491427
    },
    "openings" : {
      "start" : [ 13, 41 ],
      "end" : [ 17, 13 ]
    },
    "preferredSlots" : null,
    "doAfter" : null,
    "nbEmpRequired" : 1,
    "deadline" : [ 14, 57 ],
    "skills" : [ {
      "id" : 5,
      "name" : "GLAZING",
      "level" : 5
    }, {
      "id" : 9,
      "name" : "TILER",
      "level" : 3
    } ],
    "duration" : 5400.000000000,
    "pause" : false
  }, {
    "id" : 752,
    "desc" : "PAINTING",
    "location" : {
      "id" : 5398,
      "name" : null,
      "latitude" : 43.699284,
      "longitude" : 3.752486
    },
    "openings" : {
      "start" : [ 9, 42 ],
      "end" : [ 12, 8 ]
    },
    "preferredSlots" : null,
    "doAfter" : null,
    "nbEmpRequired" : 1,
    "deadline" : [ 15, 14 ],
    "skills" : [ {
      "id" : 7,
      "name" : "PAINTING",
      "level" : 5
    } ],
    "duration" : 7200.000000000,
    "pause" : false
  }, {
    "id" : 981,
    "desc" : "TILER",
    "location" : {
      "id" : 1424,
      "name" : null,
      "latitude" : 43.669155,
      "longitude" : 4.0519657
    },
    "openings" : {
      "start" : [ 10, 10 ],
      "end" : [ 15, 17 ]
    },
    "preferredSlots" : null,
    "doAfter" : null,
    "nbEmpRequired" : 1,
    "deadline" : [ 17, 26 ],
    "skills" : [ {
      "id" : 9,
      "name" : "TILER",
      "level" : 5
    } ],
    "duration" : 3600.000000000,
    "pause" : false
  }, {
    "id" : 994,
    "desc" : "IRONWORK, PAINTING",
    "location" : {
      "id" : 8813,
      "name" : null,
      "latitude" : 43.431343,
      "longitude" : 3.7759774
    },
    "openings" : {
      "start" : [ 9, 27 ],
      "end" : [ 17, 34 ]
    },
    "preferredSlots" : null,
    "doAfter" : null,
    "nbEmpRequired" : 1,
    "deadline" : [ 17, 44 ],
    "skills" : [ {
      "id" : 8,
      "name" : "IRONWORK",
      "level" : 5
    }, {
      "id" : 7,
      "name" : "PAINTING",
      "level" : 1
    } ],
    "duration" : 2700.000000000,
    "pause" : false
  }, {
    "id" : 249,
    "desc" : "CARPENTRY",
    "location" : {
      "id" : 2996,
      "name" : null,
      "latitude" : 44.006737,
      "longitude" : 3.8513703
    },
    "openings" : {
      "start" : [ 9, 33 ],
      "end" : [ 16, 22 ]
    },
    "preferredSlots" : null,
    "doAfter" : null,
    "nbEmpRequired" : 1,
    "deadline" : [ 17, 29 ],
    "skills" : [ {
      "id" : 6,
      "name" : "CARPENTRY",
      "level" : 5
    } ],
    "duration" : 5400.000000000,
    "pause" : false
  }, {
    "id" : 329,
    "desc" : "CARPENTRY",
    "location" : {
      "id" : 6836,
      "name" : null,
      "latitude" : 43.72293,
      "longitude" : 3.761057
    },
    "openings" : {
      "start" : [ 9, 58 ],
      "end" : [ 17, 51 ]
    },
    "preferredSlots" : null,
    "doAfter" : null,
    "nbEmpRequired" : 1,
    "deadline" : [ 10, 42 ],
    "skills" : [ {
      "id" : 6,
      "name" : "CARPENTRY",
      "level" : 5
    } ],
    "duration" : 2700.000000000,
    "pause" : false
  }, {
    "id" : 984,
    "desc" : "CARPENTRY",
    "location" : {
      "id" : 502,
      "name" : null,
      "latitude" : 43.584866,
      "longitude" : 3.750594
    },
    "openings" : {
      "start" : [ 15, 57 ],
      "end" : [ 17, 25 ]
    },
    "preferredSlots" : null,
    "doAfter" : null,
    "nbEmpRequired" : 1,
    "deadline" : [ 13, 26 ],
    "skills" : [ {
      "id" : 6,
      "name" : "CARPENTRY",
      "level" : 5
    } ],
    "duration" : 7200.000000000,
    "pause" : false
  }, {
    "id" : 15,
    "desc" : "MANAGEMENT, CARPENTRY",
    "location" : {
      "id" : 2620,
      "name" : null,
      "latitude" : 43.418556,
      "longitude" : 3.7294421
    },
    "openings" : {
      "start" : [ 14, 36 ],
      "end" : [ 16, 20 ]
    },
    "preferredSlots" : null,
    "doAfter" : null,
    "nbEmpRequired" : 1,
    "deadline" : [ 9, 17 ],
    "skills" : [ {
      "id" : 0,
      "name" : "MANAGEMENT",
      "level" : 1
    }, {
      "id" : 6,
      "name" : "CARPENTRY",
      "level" : 2
    } ],
    "duration" : 1800.000000000,
    "pause" : false
  }, {
    "id" : 303,
    "desc" : "IRONWORK",
    "location" : {
      "id" : 7996,
      "name" : null,
      "latitude" : 43.424583,
      "longitude" : 4.136789
    },
    "openings" : {
      "start" : [ 11, 19 ],
      "end" : [ 14, 21 ]
    },
    "preferredSlots" : null,
    "doAfter" : null,
    "nbEmpRequired" : 1,
    "deadline" : [ 17, 19 ],
    "skills" : [ {
      "id" : 8,
      "name" : "IRONWORK",
      "level" : 3
    } ],
    "duration" : 2700.000000000,
    "pause" : false
  }, {
    "id" : 282,
    "desc" : "IRONWORK",
    "location" : {
      "id" : 4038,
      "name" : null,
      "latitude" : 43.632862,
      "longitude" : 3.768563
    },
    "openings" : {
      "start" : [ 13, 24 ],
      "end" : [ 15, 39 ]
    },
    "preferredSlots" : null,
    "doAfter" : null,
    "nbEmpRequired" : 1,
    "deadline" : [ 17, 44 ],
    "skills" : [ {
      "id" : 8,
      "name" : "IRONWORK",
      "level" : 2
    } ],
    "duration" : 1800.000000000,
    "pause" : false
  }, {
    "id" : 520,
    "desc" : "MASONRY, TILER",
    "location" : {
      "id" : 9230,
      "name" : null,
      "latitude" : 43.87191,
      "longitude" : 4.086755
    },
    "openings" : {
      "start" : [ 10, 16 ],
      "end" : [ 17, 22 ]
    },
    "preferredSlots" : null,
    "doAfter" : null,
    "nbEmpRequired" : 1,
    "deadline" : [ 14, 27 ],
    "skills" : [ {
      "id" : 4,
      "name" : "MASONRY",
      "level" : 3
    }, {
      "id" : 9,
      "name" : "TILER",
      "level" : 1
    } ],
    "duration" : 5400.000000000,
    "pause" : false
  }, {
    "id" : 21,
    "desc" : "PLUMBING",
    "location" : {
      "id" : 6668,
      "name" : null,
      "latitude" : 43.730007,
      "longitude" : 3.8513627
    },
    "openings" : {
      "start" : [ 11, 23 ],
      "end" : [ 14, 44 ]
    },
    "preferredSlots" : null,
    "doAfter" : null,
    "nbEmpRequired" : 1,
    "deadline" : [ 17, 55 ],
    "skills" : [ {
      "id" : 3,
      "name" : "PLUMBING",
      "level" : 4
    } ],
    "duration" : 3600.000000000,
    "pause" : false
  }, {
    "id" : 125,
    "desc" : "PLUMBING, MASONRY",
    "location" : {
      "id" : 4628,
      "name" : null,
      "latitude" : 43.690895,
      "longitude" : 3.760749
    },
    "openings" : {
      "start" : [ 9, 17 ],
      "end" : [ 13, 24 ]
    },
    "preferredSlots" : null,
    "doAfter" : null,
    "nbEmpRequired" : 1,
    "deadline" : [ 16, 37 ],
    "skills" : [ {
      "id" : 3,
      "name" : "PLUMBING",
      "level" : 3
    }, {
      "id" : 4,
      "name" : "MASONRY",
      "level" : 1
    } ],
    "duration" : 5400.000000000,
    "pause" : false
  }, {
    "id" : 188,
    "desc" : "CARPENTRY, ENGINEER",
    "location" : {
      "id" : 2697,
      "name" : null,
      "latitude" : 43.498123,
      "longitude" : 4.1434712
    },
    "openings" : {
      "start" : [ 16, 47 ],
      "end" : [ 17, 39 ]
    },
    "preferredSlots" : null,
    "doAfter" : null,
    "nbEmpRequired" : 1,
    "deadline" : [ 13, 27 ],
    "skills" : [ {
      "id" : 6,
      "name" : "CARPENTRY",
      "level" : 1
    }, {
      "id" : 1,
      "name" : "ENGINEER",
      "level" : 4
    } ],
    "duration" : 1800.000000000,
    "pause" : false
  }, {
    "id" : 791,
    "desc" : "CARPENTRY, PAINTING",
    "location" : {
      "id" : 4329,
      "name" : null,
      "latitude" : 43.426285,
      "longitude" : 3.92268
    },
    "openings" : {
      "start" : [ 10, 17 ],
      "end" : [ 13, 28 ]
    },
    "preferredSlots" : null,
    "doAfter" : null,
    "nbEmpRequired" : 1,
    "deadline" : [ 17, 3 ],
    "skills" : [ {
      "id" : 6,
      "name" : "CARPENTRY",
      "level" : 4
    }, {
      "id" : 7,
      "name" : "PAINTING",
      "level" : 2
    } ],
    "duration" : 1800.000000000,
    "pause" : false
  } ],
  "employees" : [ {
    "id" : 921,
    "name" : "921",
    "shifts" : [ {
      "start" : [ 9, 0 ],
      "end" : [ 12, 0 ]
    }, {
      "start" : [ 13, 0 ],
      "end" : [ 17, 0 ]
    } ],
    "prefSlots" : null,
    "startingLoc" : {
      "id" : 4899,
      "name" : null,
      "latitude" : 44.036835,
      "longitude" : 3.8512924
    },
    "skills" : [ {
      "id" : 2,
      "name" : "ELECTRICIAN",
      "level" : 1
    }, {
      "id" : 4,
      "name" : "MASONRY",
      "level" : 6
    }, {
      "id" : 0,
      "name" : "MANAGEMENT",
      "level" : 3
    }, {
      "id" : 9,
      "name" : "TILER",
      "level" : 1
    }, {
      "id" : 2,
      "name" : "ELECTRICIAN",
      "level" : 4
    }, {
      "id" : 4,
      "name" : "MASONRY",
      "level" : 3
    }, {
      "id" : 4,
      "name" : "MASONRY",
      "level" : 2
    }, {
      "id" : 2,
      "name" : "ELECTRICIAN",
      "level" : 10
    }, {
      "id" : 4,
      "name" : "MASONRY",
      "level" : 8
    } ]
  }, {
    "id" : 75,
    "name" : "75",
    "shifts" : [ {
      "start" : [ 9, 0 ],
      "end" : [ 12, 0 ]
    }, {
      "start" : [ 13, 0 ],
      "end" : [ 17, 0 ]
    } ],
    "prefSlots" : null,
    "startingLoc" : {
      "id" : 3041,
      "name" : null,
      "latitude" : 43.814568,
      "longitude" : 4.1081305
    },
    "skills" : [ {
      "id" : 4,
      "name" : "MASONRY",
      "level" : 5
    }, {
      "id" : 8,
      "name" : "IRONWORK",
      "level" : 2
    }, {
      "id" : 1,
      "name" : "ENGINEER",
      "level" : 5
    }, {
      "id" : 1,
      "name" : "ENGINEER",
      "level" : 9
    }, {
      "id" : 6,
      "name" : "CARPENTRY",
      "level" : 7
    }, {
      "id" : 6,
      "name" : "CARPENTRY",
      "level" : 6
    }, {
      "id" : 3,
      "name" : "PLUMBING",
      "level" : 2
    }, {
      "id" : 4,
      "name" : "MASONRY",
      "level" : 6
    } ]
  }, {
    "id" : 653,
    "name" : "653",
    "shifts" : [ {
      "start" : [ 9, 0 ],
      "end" : [ 12, 0 ]
    }, {
      "start" : [ 13, 0 ],
      "end" : [ 17, 0 ]
    } ],
    "prefSlots" : null,
    "startingLoc" : {
      "id" : 1973,
      "name" : null,
      "latitude" : 43.88977,
      "longitude" : 4.2605157
    },
    "skills" : [ {
      "id" : 3,
      "name" : "PLUMBING",
      "level" : 5
    } ]
  }, {
    "id" : 342,
    "name" : "342",
    "shifts" : [ {
      "start" : [ 9, 0 ],
      "end" : [ 12, 0 ]
    }, {
      "start" : [ 13, 0 ],
      "end" : [ 17, 0 ]
    } ],
    "prefSlots" : null,
    "startingLoc" : {
      "id" : 6682,
      "name" : null,
      "latitude" : 43.81835,
      "longitude" : 3.7626634
    },
    "skills" : [ {
      "id" : 1,
      "name" : "ENGINEER",
      "level" : 10
    }, {
      "id" : 2,
      "name" : "ELECTRICIAN",
      "level" : 3
    } ]
  }, {
    "id" : 10,
    "name" : "10",
    "shifts" : [ {
      "start" : [ 9, 0 ],
      "end" : [ 12, 0 ]
    }, {
      "start" : [ 13, 0 ],
      "end" : [ 17, 0 ]
    } ],
    "prefSlots" : null,
    "startingLoc" : {
      "id" : 9841,
      "name" : null,
      "latitude" : 43.773754,
      "longitude" : 4.013791
    },
    "skills" : [ {
      "id" : 6,
      "name" : "CARPENTRY",
      "level" : 1
    }, {
      "id" : 2,
      "name" : "ELECTRICIAN",
      "level" : 6
    }, {
      "id" : 8,
      "name" : "IRONWORK",
      "level" : 6
    }, {
      "id" : 2,
      "name" : "ELECTRICIAN",
      "level" : 7
    }, {
      "id" : 9,
      "name" : "TILER",
      "level" : 9
    } ]
  }, {
    "id" : 642,
    "name" : "642",
    "shifts" : [ {
      "start" : [ 9, 0 ],
      "end" : [ 12, 0 ]
    }, {
      "start" : [ 13, 0 ],
      "end" : [ 17, 0 ]
    } ],
    "prefSlots" : null,
    "startingLoc" : {
      "id" : 2118,
      "name" : null,
      "latitude" : 43.928123,
      "longitude" : 3.7109962
    },
    "skills" : [ {
      "id" : 4,
      "name" : "MASONRY",
      "level" : 8
    }, {
      "id" : 3,
      "name" : "PLUMBING",
      "level" : 5
    }, {
      "id" : 7,
      "name" : "PAINTING",
      "level" : 10
    }, {
      "id" : 7,
      "name" : "PAINTING",
      "level" : 10
    } ]
  }, {
    "id" : 984,
    "name" : "984",
    "shifts" : [ {
      "start" : [ 9, 0 ],
      "end" : [ 12, 0 ]
    }, {
      "start" : [ 13, 0 ],
      "end" : [ 17, 0 ]
    } ],
    "prefSlots" : null,
    "startingLoc" : {
      "id" : 9626,
      "name" : null,
      "latitude" : 43.518616,
      "longitude" : 4.057543
    },
    "skills" : [ {
      "id" : 4,
      "name" : "MASONRY",
      "level" : 5
    }, {
      "id" : 3,
      "name" : "PLUMBING",
      "level" : 8
    }, {
      "id" : 2,
      "name" : "ELECTRICIAN",
      "level" : 4
    }, {
      "id" : 4,
      "name" : "MASONRY",
      "level" : 3
    }, {
      "id" : 1,
      "name" : "ENGINEER",
      "level" : 3
    } ]
  }, {
    "id" : 444,
    "name" : "444",
    "shifts" : [ {
      "start" : [ 9, 0 ],
      "end" : [ 12, 0 ]
    }, {
      "start" : [ 13, 0 ],
      "end" : [ 17, 0 ]
    } ],
    "prefSlots" : null,
    "startingLoc" : {
      "id" : 9366,
      "name" : null,
      "latitude" : 44.036144,
      "longitude" : 3.9397979
    },
    "skills" : [ {
      "id" : 0,
      "name" : "MANAGEMENT",
      "level" : 2
    }, {
      "id" : 5,
      "name" : "GLAZING",
      "level" : 9
    }, {
      "id" : 0,
      "name" : "MANAGEMENT",
      "level" : 4
    }, {
      "id" : 4,
      "name" : "MASONRY",
      "level" : 10
    }, {
      "id" : 9,
      "name" : "TILER",
      "level" : 4
    }, {
      "id" : 2,
      "name" : "ELECTRICIAN",
      "level" : 9
    }, {
      "id" : 2,
      "name" : "ELECTRICIAN",
      "level" : 5
    }, {
      "id" : 7,
      "name" : "PAINTING",
      "level" : 8
    }, {
      "id" : 5,
      "name" : "GLAZING",
      "level" : 5
    } ]
  }, {
    "id" : 435,
    "name" : "435",
    "shifts" : [ {
      "start" : [ 9, 0 ],
      "end" : [ 12, 0 ]
    }, {
      "start" : [ 13, 0 ],
      "end" : [ 17, 0 ]
    } ],
    "prefSlots" : null,
    "startingLoc" : {
      "id" : 419,
      "name" : null,
      "latitude" : 43.687225,
      "longitude" : 3.8308444
    },
    "skills" : [ {
      "id" : 6,
      "name" : "CARPENTRY",
      "level" : 4
    }, {
      "id" : 7,
      "name" : "PAINTING",
      "level" : 7
    }, {
      "id" : 1,
      "name" : "ENGINEER",
      "level" : 10
    }, {
      "id" : 0,
      "name" : "MANAGEMENT",
      "level" : 10
    }, {
      "id" : 3,
      "name" : "PLUMBING",
      "level" : 4
    }, {
      "id" : 6,
      "name" : "CARPENTRY",
      "level" : 5
    }, {
      "id" : 4,
      "name" : "MASONRY",
      "level" : 3
    } ]
  }, {
    "id" : 718,
    "name" : "718",
    "shifts" : [ {
      "start" : [ 9, 0 ],
      "end" : [ 12, 0 ]
    }, {
      "start" : [ 13, 0 ],
      "end" : [ 17, 0 ]
    } ],
    "prefSlots" : null,
    "startingLoc" : {
      "id" : 2971,
      "name" : null,
      "latitude" : 43.616608,
      "longitude" : 3.7379653
    },
    "skills" : [ {
      "id" : 8,
      "name" : "IRONWORK",
      "level" : 3
    }, {
      "id" : 7,
      "name" : "PAINTING",
      "level" : 2
    }, {
      "id" : 8,
      "name" : "IRONWORK",
      "level" : 9
    }, {
      "id" : 8,
      "name" : "IRONWORK",
      "level" : 1
    }, {
      "id" : 4,
      "name" : "MASONRY",
      "level" : 4
    }, {
      "id" : 8,
      "name" : "IRONWORK",
      "level" : 6
    }, {
      "id" : 6,
      "name" : "CARPENTRY",
      "level" : 5
    }, {
      "id" : 7,
      "name" : "PAINTING",
      "level" : 8
    } ]
  }, {
    "id" : 140,
    "name" : "140",
    "shifts" : [ {
      "start" : [ 9, 0 ],
      "end" : [ 12, 0 ]
    }, {
      "start" : [ 13, 0 ],
      "end" : [ 17, 0 ]
    } ],
    "prefSlots" : null,
    "startingLoc" : {
      "id" : 5186,
      "name" : null,
      "latitude" : 43.630985,
      "longitude" : 4.1873207
    },
    "skills" : [ {
      "id" : 2,
      "name" : "ELECTRICIAN",
      "level" : 8
    }, {
      "id" : 1,
      "name" : "ENGINEER",
      "level" : 2
    }, {
      "id" : 5,
      "name" : "GLAZING",
      "level" : 5
    }, {
      "id" : 7,
      "name" : "PAINTING",
      "level" : 7
    }, {
      "id" : 0,
      "name" : "MANAGEMENT",
      "level" : 3
    }, {
      "id" : 2,
      "name" : "ELECTRICIAN",
      "level" : 8
    }, {
      "id" : 3,
      "name" : "PLUMBING",
      "level" : 4
    } ]
  }, {
    "id" : 215,
    "name" : "215",
    "shifts" : [ {
      "start" : [ 9, 0 ],
      "end" : [ 12, 0 ]
    }, {
      "start" : [ 13, 0 ],
      "end" : [ 17, 0 ]
    } ],
    "prefSlots" : null,
    "startingLoc" : {
      "id" : 5544,
      "name" : null,
      "latitude" : 43.83979,
      "longitude" : 3.758847
    },
    "skills" : [ {
      "id" : 4,
      "name" : "MASONRY",
      "level" : 8
    }, {
      "id" : 4,
      "name" : "MASONRY",
      "level" : 8
    }, {
      "id" : 7,
      "name" : "PAINTING",
      "level" : 6
    }, {
      "id" : 0,
      "name" : "MANAGEMENT",
      "level" : 5
    }, {
      "id" : 3,
      "name" : "PLUMBING",
      "level" : 4
    } ]
  }, {
    "id" : 101,
    "name" : "101",
    "shifts" : [ {
      "start" : [ 9, 0 ],
      "end" : [ 12, 0 ]
    }, {
      "start" : [ 13, 0 ],
      "end" : [ 17, 0 ]
    } ],
    "prefSlots" : null,
    "startingLoc" : {
      "id" : 822,
      "name" : null,
      "latitude" : 43.453835,
      "longitude" : 3.863018
    },
    "skills" : [ {
      "id" : 3,
      "name" : "PLUMBING",
      "level" : 3
    }, {
      "id" : 0,
      "name" : "MANAGEMENT",
      "level" : 7
    }, {
      "id" : 8,
      "name" : "IRONWORK",
      "level" : 1
    }, {
      "id" : 8,
      "name" : "IRONWORK",
      "level" : 3
    }, {
      "id" : 3,
      "name" : "PLUMBING",
      "level" : 7
    }, {
      "id" : 2,
      "name" : "ELECTRICIAN",
      "level" : 7
    }, {
      "id" : 5,
      "name" : "GLAZING",
      "level" : 5
    }, {
      "id" : 8,
      "name" : "IRONWORK",
      "level" : 9
    } ]
  }, {
    "id" : 595,
    "name" : "595",
    "shifts" : [ {
      "start" : [ 9, 0 ],
      "end" : [ 12, 0 ]
    }, {
      "start" : [ 13, 0 ],
      "end" : [ 17, 0 ]
    } ],
    "prefSlots" : null,
    "startingLoc" : {
      "id" : 1515,
      "name" : null,
      "latitude" : 43.98229,
      "longitude" : 4.0849214
    },
    "skills" : [ {
      "id" : 4,
      "name" : "MASONRY",
      "level" : 10
    }, {
      "id" : 8,
      "name" : "IRONWORK",
      "level" : 5
    }, {
      "id" : 6,
      "name" : "CARPENTRY",
      "level" : 1
    }, {
      "id" : 0,
      "name" : "MANAGEMENT",
      "level" : 9
    }, {
      "id" : 1,
      "name" : "ENGINEER",
      "level" : 6
    }, {
      "id" : 1,
      "name" : "ENGINEER",
      "level" : 7
    }, {
      "id" : 0,
      "name" : "MANAGEMENT",
      "level" : 6
    }, {
      "id" : 3,
      "name" : "PLUMBING",
      "level" : 6
    } ]
  }, {
    "id" : 399,
    "name" : "399",
    "shifts" : [ {
      "start" : [ 9, 0 ],
      "end" : [ 12, 0 ]
    }, {
      "start" : [ 13, 0 ],
      "end" : [ 17, 0 ]
    } ],
    "prefSlots" : null,
    "startingLoc" : {
      "id" : 5968,
      "name" : null,
      "latitude" : 43.61185,
      "longitude" : 4.004885
    },
    "skills" : [ {
      "id" : 4,
      "name" : "MASONRY",
      "level" : 6
    } ]
  }, {
    "id" : 812,
    "name" : "812",
    "shifts" : [ {
      "start" : [ 9, 0 ],
      "end" : [ 12, 0 ]
    }, {
      "start" : [ 13, 0 ],
      "end" : [ 17, 0 ]
    } ],
    "prefSlots" : null,
    "startingLoc" : {
      "id" : 1138,
      "name" : null,
      "latitude" : 43.761345,
      "longitude" : 3.8690362
    },
    "skills" : [ {
      "id" : 9,
      "name" : "TILER",
      "level" : 9
    } ]
  }, {
    "id" : 801,
    "name" : "801",
    "shifts" : [ {
      "start" : [ 9, 0 ],
      "end" : [ 12, 0 ]
    }, {
      "start" : [ 13, 0 ],
      "end" : [ 17, 0 ]
    } ],
    "prefSlots" : null,
    "startingLoc" : {
      "id" : 4207,
      "name" : null,
      "latitude" : 43.582287,
      "longitude" : 4.1161776
    },
    "skills" : [ {
      "id" : 4,
      "name" : "MASONRY",
      "level" : 5
    }, {
      "id" : 5,
      "name" : "GLAZING",
      "level" : 5
    }, {
      "id" : 3,
      "name" : "PLUMBING",
      "level" : 4
    }, {
      "id" : 1,
      "name" : "ENGINEER",
      "level" : 1
    }, {
      "id" : 0,
      "name" : "MANAGEMENT",
      "level" : 4
    }, {
      "id" : 2,
      "name" : "ELECTRICIAN",
      "level" : 9
    }, {
      "id" : 4,
      "name" : "MASONRY",
      "level" : 1
    }, {
      "id" : 6,
      "name" : "CARPENTRY",
      "level" : 7
    }, {
      "id" : 7,
      "name" : "PAINTING",
      "level" : 9
    } ]
  }, {
    "id" : 81,
    "name" : "81",
    "shifts" : [ {
      "start" : [ 9, 0 ],
      "end" : [ 12, 0 ]
    }, {
      "start" : [ 13, 0 ],
      "end" : [ 17, 0 ]
    } ],
    "prefSlots" : null,
    "startingLoc" : {
      "id" : 9731,
      "name" : null,
      "latitude" : 43.552673,
      "longitude" : 4.215515
    },
    "skills" : [ {
      "id" : 1,
      "name" : "ENGINEER",
      "level" : 2
    }, {
      "id" : 7,
      "name" : "PAINTING",
      "level" : 9
    }, {
      "id" : 9,
      "name" : "TILER",
      "level" : 1
    }, {
      "id" : 8,
      "name" : "IRONWORK",
      "level" : 3
    }, {
      "id" : 6,
      "name" : "CARPENTRY",
      "level" : 2
    }, {
      "id" : 8,
      "name" : "IRONWORK",
      "level" : 6
    }, {
      "id" : 8,
      "name" : "IRONWORK",
      "level" : 10
    }, {
      "id" : 7,
      "name" : "PAINTING",
      "level" : 9
    } ]
  }, {
    "id" : 318,
    "name" : "318",
    "shifts" : [ {
      "start" : [ 9, 0 ],
      "end" : [ 12, 0 ]
    }, {
      "start" : [ 13, 0 ],
      "end" : [ 17, 0 ]
    } ],
    "prefSlots" : null,
    "startingLoc" : {
      "id" : 6889,
      "name" : null,
      "latitude" : 43.829117,
      "longitude" : 4.1309614
    },
    "skills" : [ {
      "id" : 4,
      "name" : "MASONRY",
      "level" : 3
    }, {
      "id" : 3,
      "name" : "PLUMBING",
      "level" : 10
    } ]
  }, {
    "id" : 229,
    "name" : "229",
    "shifts" : [ {
      "start" : [ 9, 0 ],
      "end" : [ 12, 0 ]
    }, {
      "start" : [ 13, 0 ],
      "end" : [ 17, 0 ]
    } ],
    "prefSlots" : null,
    "startingLoc" : {
      "id" : 4221,
      "name" : null,
      "latitude" : 43.78338,
      "longitude" : 3.7333827
    },
    "skills" : [ {
      "id" : 4,
      "name" : "MASONRY",
      "level" : 5
    }, {
      "id" : 0,
      "name" : "MANAGEMENT",
      "level" : 6
    }, {
      "id" : 4,
      "name" : "MASONRY",
      "level" : 8
    }, {
      "id" : 4,
      "name" : "MASONRY",
      "level" : 3
    }, {
      "id" : 2,
      "name" : "ELECTRICIAN",
      "level" : 10
    }, {
      "id" : 5,
      "name" : "GLAZING",
      "level" : 3
    }, {
      "id" : 2,
      "name" : "ELECTRICIAN",
      "level" : 4
    }, {
      "id" : 9,
      "name" : "TILER",
      "level" : 7
    } ]
  } ],
  "appointments" : [ ]
}