{
  "jobs" : [ {
    "id" : 220,
    "desc" : "MASONRY, CARPENTRY",
    "location" : {
      "id" : 8667,
      "name" : null,
      "latitude" : 43.453316,
      "longitude" : 4.1395597
    },
    "openings" : {
      "start" : [ 10, 56 ],
      "end" : [ 14, 31 ]
    },
    "preferredSlots" : null,
    "doAfter" : null,
    "nbEmpRequired" : 1,
    "deadline" : [ 15, 21 ],
    "skills" : [ {
      "id" : 4,
      "name" : "MASONRY",
      "level" : 2
    }, {
      "id" : 6,
      "name" : "CARPENTRY",
      "level" : 4
    } ],
    "duration" : 3600.000000000,
    "pause" : false
  }, {
    "id" : 159,
    "desc" : "PLUMBING",
    "location" : {
      "id" : 6163,
      "name" : null,
      "latitude" : 43.951412,
      "longitude" : 3.7636077
    },
    "openings" : {
      "start" : [ 9, 52 ],
      "end" : [ 13, 41 ]
    },
    "preferredSlots" : null,
    "doAfter" : null,
    "nbEmpRequired" : 1,
    "deadline" : [ 13, 48 ],
    "skills" : [ {
      "id" : 3,
      "name" : "PLUMBING",
      "level" : 4
    } ],
    "duration" : 2700.000000000,
    "pause" : false
  }, {
    "id" : 923,
    "desc" : "ENGINEER, CARPENTRY",
    "location" : {
      "id" : 3718,
      "name" : null,
      "latitude" : 43.69936,
      "longitude" : 4.0430098
    },
    "openings" : {
      "start" : [ 9, 37 ],
      "end" : [ 16, 48 ]
    },
    "preferredSlots" : null,
    "doAfter" : null,
    "nbEmpRequired" : 1,
    "deadline" : [ 10, 38 ],
    "skills" : [ {
      "id" : 1,
      "name" : "ENGINEER",
      "level" : 1
    }, {
      "id" : 6,
      "name" : "CARPENTRY",
      "level" : 2
    } ],
    "duration" : 1800.000000000,
    "pause" : false
  }, {
    "id" : 543,
    "desc" : "GLAZING",
    "location" : {
      "id" : 3098,
      "name" : null,
      "latitude" : 43.78144,
      "longitude" : 3.8871727
    },
    "openings" : {
      "start" : [ 11, 21 ],
      "end" : [ 11, 49 ]
    },
    "preferredSlots" : null,
    "doAfter" : null,
    "nbEmpRequired" : 1,
    "deadline" : [ 10, 52 ],
    "skills" : [ {
      "id" : 5,
      "name" : "GLAZING",
      "level" : 1
    } ],
    "duration" : 2700.000000000,
    "pause" : false
  }, {
    "id" : 409,
    "desc" : "PAINTING, CARPENTRY",
    "location" : {
      "id" : 4213,
      "name" : null,
      "latitude" : 44.013863,
      "longitude" : 4.1082115
    },
    "openings" : {
      "start" : [ 12, 57 ],
      "end" : [ 16, 23 ]
    },
    "preferredSlots" : null,
    "doAfter" : null,
    "nbEmpRequired" : 1,
    "deadline" : [ 15, 23 ],
    "skills" : [ {
      "id" : 7,
      "name" : "PAINTING",
      "level" : 3
    }, {
      "id" : 6,
      "name" : "CARPENTRY",
      "level" : 5
    } ],
    "duration" : 1800.000000000,
    "pause" : false
  }, {
    "id" : 943,
    "desc" : "ELECTRICIAN, MASONRY",
    "location" : {
      "id" : 6982,
      "name" : null,
      "latitude" : 43.58153,
      "longitude" : 4.245379
    },
    "openings" : {
      "start" : [ 16, 3 ],
      "end" : [ 16, 28 ]
    },
    "preferredSlots" : null,
    "doAfter" : null,
    "nbEmpRequired" : 1,
    "deadline" : [ 13, 50 ],
    "skills" : [ {
      "id" : 2,
      "name" : "ELECTRICIAN",
      "level" : 5
    }, {
      "id" : 4,
      "name" : "MASONRY",
      "level" : 1
    } ],
    "duration" : 1800.000000000,
    "pause" : false
  }, {
    "id" : 273,
    "desc" : "TILER",
    "location" : {
      "id" : 4406,
      "name" : null,
      "latitude" : 43.796978,
      "longitude" : 3.7260125
    },
    "openings" : {
      "start" : [ 16, 36 ],
      "end" : [ 17, 8 ]
    },
    "preferredSlots" : null,
    "doAfter" : null,
    "nbEmpRequired" : 1,
    "deadline" : [ 17, 56 ],
    "skills" : [ {
      "id" : 9,
      "name" : "TILER",
      "level" : 2
    } ],
    "duration" : 7200.000000000,
    "pause" : false
  }, {
    "id" : 133,
    "desc" : "GLAZING, IRONWORK",
    "location" : {
      "id" : 4335,
      "name" : null,
      "latitude" : 44.000904,
      "longitude" : 4.12008
    },
    "openings" : {
      "start" : [ 13, 48 ],
      "end" : [ 13, 57 ]
    },
    "preferredSlots" : null,
    "doAfter" : null,
    "nbEmpRequired" : 1,
    "deadline" : [ 9, 25 ],
    "skills" : [ {
      "id" : 5,
      "name" : "GLAZING",
      "level" : 5
    }, {
      "id" : 8,
      "name" : "IRONWORK",
      "level" : 4
    } ],
    "duration" : 2700.000000000,
    "pause" : false
  }, {
    "id" : 849,
    "desc" : "PLUMBING",
    "location" : {
      "id" : 1369,
      "name" : null,
      "latitude" : 43.59446,
      "longitude" : 3.8523736
    },
    "openings" : {
      "start" : [ 14, 0 ],
      "end" : [ 17, 1 ]
    },
    "preferredSlots" : null,
    "doAfter" : null,
    "nbEmpRequired" : 1,
    "deadline" : [ 9, 11 ],
    "skills" : [ {
      "id" : 3,
      "name" : "PLUMBING",
      "level" : 1
    } ],
    "duration" : 1800.000000000,
    "pause" : false
  }, {
    "id" : 352,
    "desc" : "MASONRY",
    "location" : {
      "id" : 3744,
      "name" : null,
      "latitude" : 44.060345,
      "longitude" : 3.8885512
    },
    "openings" : {
      "start" : [ 11, 40 ],
      "end" : [ 12, 22 ]
    },
    "preferredSlots" : null,
    "doAfter" : null,
    "nbEmpRequired" : 1,
    "deadline" : [ 10, 9 ],
    "skills" : [ {
      "id" : 4,
      "name" : "MASONRY",
      "level" : 5
    } ],
    "duration" : 1800.000000000,
    "pause" : false
  }, {
    "id" : 92,
    "desc" : "ELECTRICIAN",
    "location" : {
      "id" : 3146,
      "name" : null,
      "latitude" : 44.091984,
      "longitude" : 3.841853
    },
    "openings" : {
      "start" : [ 12, 19 ],
      "end" : [ 15, 58 ]
    },
    "preferredSlots" : null,
    "doAfter" : null,
    "nbEmpRequired" : 1,
    "deadline" : [ 14, 4 ],
    "skills" : [ {
      "id" : 2,
      "name" : "ELECTRICIAN",
      "level" : 4
    } ],
    "duration" : 3600.000000000,
    "pause" : false
  }, {
    "id" : 416,
    "desc" : "MASONRY",
    "location" : {
      "id" : 4205,
      "name" : null,
      "latitude" : 43.922287,
      "longitude" : 3.9244487
    },
    "openings" : {
      "start" : [ 11, 4 ],
      "end" : [ 14, 5 ]
    },
    "preferredSlots" : null,
    "doAfter" : null,
    "nbEmpRequired" : 1,
    "deadline" : [ 10, 16 ],
    "skills" : [ {
      "id" : 4,
      "name" : "MASONRY",
      "level" : 2
    } ],
    "duration" : 5400.000000000,
    "pause" : false
  }, {
    "id" : 538,
    "desc" : "CARPENTRY, GLAZING",
    "location" : {
      "id" : 8992,
      "name" : null,
      "latitude" : 43.45565,
      "longitude" : 4.089179
    },
    "openings" : {
      "start" : [ 14, 25 ],
      "end" : [ 15, 43 ]
    },
    "preferredSlots" : null,
    "doAfter" : null,
    "nbEmpRequired" : 1,
    "deadline" : [ 11, 15 ],
    "skills" : [ {
      "id" : 6,
      "name" : "CARPENTRY",
      "level" : 2
    }, {
      "id" : 5,
      "name" : "GLAZING",
      "level" : 1
    } ],
    "duration" : 2700.000000000,
    "pause" : false
  }, {
    "id" : 75,
    "desc" : "ENGINEER, PAINTING",
    "location" : {
      "id" : 2433,
      "name" : null,
      "latitude" : 43.684067,
      "longitude" : 4.2443604
    },
    "openings" : {
      "start" : [ 13, 29 ],
      "end" : [ 14, 22 ]
    },
    "preferredSlots" : null,
    "doAfter" : null,
    "nbEmpRequired" : 1,
    "deadline" : [ 14, 36 ],
    "skills" : [ {
      "id" : 1,
      "name" : "ENGINEER",
      "level" : 4
    }, {
      "id" : 7,
      "name" : "PAINTING",
      "level" : 4
    } ],
    "duration" : 3600.000000000,
    "pause" : false
  }, {
    "id" : 595,
    "desc" : "ELECTRICIAN, IRONWORK",
    "location" : {
      "id" : 3939,
      "name" : null,
      "latitude" : 43.889908,
      "longitude" : 4.228528
    },
    "openings" : {
      "start" : [ 11, 18 ],
      "end" : [ 14, 28 ]
    },
    "preferredSlots" : null,
    "doAfter" : null,
    "nbEmpRequired" : 1,
    "deadline" : [ 11, 11 ],
    "skills" : [ {
      "id" : 2,
      "name" : "ELECTRICIAN",
      "level" : 3
    }, {
      "id" : 8,
      "name" : "IRONWORK",
      "level" : 3
    } ],
    "duration" : 2700.000000000,
    "pause" : false
  }, {
    "id" : 204,
    "desc" : "MANAGEMENT, IRONWORK",
    "location" : {
      "id" : 5662,
      "name" : null,
      "latitude" : 44.03901,
      "longitude" : 4.182184
    },
    "openings" : {
      "start" : [ 9, 20 ],
      "end" : [ 9, 41 ]
    },
    "preferredSlots" : null,
    "doAfter" : null,
    "nbEmpRequired" : 1,
    "deadline" : [ 14, 54 ],
    "skills" : [ {
      "id" : 0,
      "name" : "MANAGEMENT",
      "level" : 5
    }, {
      "id" : 8,
      "name" : "IRONWORK",
      "level" : 4
    } ],
    "duration" : 2700.000000000,
    "pause" : false
  }, {
    "id" : 80,
    "desc" : "ENGINEER",
    "location" : {
      "id" : 5682,
      "name" : null,
      "latitude" : 43.778244,
      "longitude" : 3.8182235
    },
    "openings" : {
      "start" : [ 11, 21 ],
      "end" : [ 15, 16 ]
    },
    "preferredSlots" : null,
    "doAfter" : null,
    "nbEmpRequired" : 1,
    "deadline" : [ 11, 58 ],
    "skills" : [ {
      "id" : 1,
      "name" : "ENGINEER",
      "level" : 5
    } ],
    "duration" : 1800.000000000,
    "pause" : false
  }, {
    "id" : 5,
    "desc" : "GLAZING",
    "location" : {
      "id" : 6483,
      "name" : null,
      "latitude" : 43.475918,
      "longitude" : 3.743752
    },
    "openings" : {
      "start" : [ 10, 52 ],
      "end" : [ 13, 51 ]
    },
    "preferredSlots" : null,
    "doAfter" : null,
    "nbEmpRequired" : 1,
    "deadline" : [ 15, 54 ],
    "skills" : [ {
      "id" : 5,
      "name" : "GLAZING",
      "level" : 2
    } ],
    "duration" : 5400.000000000,
    "pause" : false
  }, {
    "id" : 901,
    "desc" : "MASONRY, IRONWORK",
    "location" : {
      "id" : 8503,
      "name" : null,
      "latitude" : 43.574802,
      "longitude" : 3.7568855
    },
    "openings" : {
      "start" : [ 9, 11 ],
      "end" : [ 14, 17 ]
    },
    "preferredSlots" : null,
    "doAfter" : null,
    "nbEmpRequired" : 1,
    "deadline" : [ 17, 36 ],
    "skills" : [ {
      "id" : 4,
      "name" : "MASONRY",
      "level" : 3
    }, {
      "id" : 8,
      "name" : "IRONWORK",
      "level" : 2
    } ],
    "duration" : 3600.000000000,
    "pause" : false
  }, {
    "id" : 589,
    "desc" : "MASONRY",
    "location" : {
      "id" : 8582,
      "name" : null,
      "latitude" : 43.87368,
      "longitude" : 4.246707
    },
    "openings" : {
      "start" : [ 15, 30 ],
      "end" : [ 17, 46 ]
    },
    "preferredSlots" : null,
    "doAfter" : null,
    "nbEmpRequired" : 1,
    "deadline" : [ 10, 19 ],
    "skills" : [ {
      "id" : 4,
      "name" : "MASONRY",
      "level" : 1
    } ],
    "duration" : 3600.000000000,
    "pause" : false
  } ],
  "employees" : [ {
    "id" : 398,
    "name" : "398",
    "shifts" : [ {
      "start" : [ 9, 0 ],
      "end" : [ 12, 0 ]
    }, {
      "start" : [ 13, 0 ],
      "end" : [ 17, 0 ]
    } ],
    "prefSlots" : null,
    "startingLoc" : {
      "id" : 6278,
      "name" : null,
      "latitude" : 43.779213,
      "longitude" : 4.1229906
    },
    "skills" : [ {
      "id" : 1,
      "name" : "ENGINEER",
      "level" : 4
    }, {
      "id" : 9,
      "name" : "TILER",
      "level" : 7
    }, {
      "id" : 4,
      "name" : "MASONRY",
      "level" : 2
    }, {
      "id" : 6,
      "name" : "CARPENTRY",
      "level" : 10
    }, {
      "id" : 6,
      "name" : "CARPENTRY",
      "level" : 10
    }, {
      "id" : 8,
      "name" : "IRONWORK",
      "level" : 8
    }, {
      "id" : 3,
      "name" : "PLUMBING",
      "level" : 10
    }, {
      "id" : 0,
      "name" : "MANAGEMENT",
      "level" : 1
    } ]
  }, {
    "id" : 994,
    "name" : "994",
    "shifts" : [ {
      "start" : [ 9, 0 ],
      "end" : [ 12, 0 ]
    }, {
      "start" : [ 13, 0 ],
      "end" : [ 17, 0 ]
    } ],
    "prefSlots" : null,
    "startingLoc" : {
      "id" : 8505,
      "name" : null,
      "latitude" : 43.742516,
      "longitude" : 3.8638718
    },
    "skills" : [ {
      "id" : 9,
      "name" : "TILER",
      "level" : 9
    }, {
      "id" : 0,
      "name" : "MANAGEMENT",
      "level" : 5
    }, {
      "id" : 7,
      "name" : "PAINTING",
      "level" : 8
    }, {
      "id" : 5,
      "name" : "GLAZING",
      "level" : 9
    }, {
      "id" : 7,
      "name" : "PAINTING",
      "level" : 2
    }, {
      "id" : 8,
      "name" : "IRONWORK",
      "level" : 3
    }, {
      "id" : 9,
      "name" : "TILER",
      "level" : 10
    } ]
  }, {
    "id" : 137,
    "name" : "137",
    "shifts" : [ {
      "start" : [ 9, 0 ],
      "end" : [ 12, 0 ]
    }, {
      "start" : [ 13, 0 ],
      "end" : [ 17, 0 ]
    } ],
    "prefSlots" : null,
    "startingLoc" : {
      "id" : 7399,
      "name" : null,
      "latitude" : 43.852165,
      "longitude" : 3.8886147
    },
    "skills" : [ {
      "id" : 0,
      "name" : "MANAGEMENT",
      "level" : 4
    }, {
      "id" : 9,
      "name" : "TILER",
      "level" : 6
    }, {
      "id" : 4,
      "name" : "MASONRY",
      "level" : 9
    }, {
      "id" : 7,
      "name" : "PAINTING",
      "level" : 8
    }, {
      "id" : 3,
      "name" : "PLUMBING",
      "level" : 8
    }, {
      "id" : 9,
      "name" : "TILER",
      "level" : 1
    }, {
      "id" : 6,
      "name" : "CARPENTRY",
      "level" : 8
    } ]
  }, {
    "id" : 577,
    "name" : "577",
    "shifts" : [ {
      "start" : [ 9, 0 ],
      "end" : [ 12, 0 ]
    }, {
      "start" : [ 13, 0 ],
      "end" : [ 17, 0 ]
    } ],
    "prefSlots" : null,
    "startingLoc" : {
      "id" : 6820,
      "name" : null,
      "latitude" : 44.052967,
      "longitude" : 3.7631016
    },
    "skills" : [ {
      "id" : 8,
      "name" : "IRONWORK",
      "level" : 2
    }, {
      "id" : 6,
      "name" : "CARPENTRY",
      "level" : 2
    }, {
      "id" : 8,
      "name" : "IRONWORK",
      "level" : 9
    }, {
      "id" : 5,
      "name" : "GLAZING",
      "level" : 9
    }, {
      "id" : 4,
      "name" : "MASONRY",
      "level" : 4
    } ]
  }, {
    "id" : 495,
    "name" : "495",
    "shifts" : [ {
      "start" : [ 9, 0 ],
      "end" : [ 12, 0 ]
    }, {
      "start" : [ 13, 0 ],
      "end" : [ 17, 0 ]
    } ],
    "prefSlots" : null,
    "startingLoc" : {
      "id" : 5801,
      "name" : null,
      "latitude" : 44.08322,
      "longitude" : 4.070341
    },
    "skills" : [ {
      "id" : 8,
      "name" : "IRONWORK",
      "level" : 5
    } ]
  } ],
  "appointments" : [ ]
}