{
  "jobs" : [ {
    "id" : 514,
    "desc" : "MANAGEMENT",
    "location" : {
      "id" : 8789,
      "name" : null,
      "latitude" : 44.06941,
      "longitude" : 4.044738
    },
    "openings" : {
      "start" : [ 12, 27 ],
      "end" : [ 16, 57 ]
    },
    "preferredSlots" : null,
    "doAfter" : null,
    "nbEmpRequired" : 1,
    "deadline" : [ 16, 51 ],
    "skills" : [ {
      "id" : 0,
      "name" : "MANAGEMENT",
      "level" : 2
    } ],
    "duration" : 7200.000000000,
    "pause" : false
  }, {
    "id" : 383,
    "desc" : "ELECTRICIAN",
    "location" : {
      "id" : 3983,
      "name" : null,
      "latitude" : 44.06606,
      "longitude" : 3.9044929
    },
    "openings" : {
      "start" : [ 12, 24 ],
      "end" : [ 17, 30 ]
    },
    "preferredSlots" : null,
    "doAfter" : null,
    "nbEmpRequired" : 1,
    "deadline" : [ 10, 28 ],
    "skills" : [ {
      "id" : 2,
      "name" : "ELECTRICIAN",
      "level" : 5
    } ],
    "duration" : 3600.000000000,
    "pause" : false
  }, {
    "id" : 409,
    "desc" : "CARPENTRY",
    "location" : {
      "id" : 8231,
      "name" : null,
      "latitude" : 43.72295,
      "longitude" : 3.933152
    },
    "openings" : {
      "start" : [ 10, 12 ],
      "end" : [ 10, 47 ]
    },
    "preferredSlots" : null,
    "doAfter" : null,
    "nbEmpRequired" : 1,
    "deadline" : [ 11, 54 ],
    "skills" : [ {
      "id" : 6,
      "name" : "CARPENTRY",
      "level" : 1
    } ],
    "duration" : 5400.000000000,
    "pause" : false
  }, {
    "id" : 423,
    "desc" : "PAINTING",
    "location" : {
      "id" : 2999,
      "name" : null,
      "latitude" : 43.554176,
      "longitude" : 4.1575565
    },
    "openings" : {
      "start" : [ 10, 24 ],
      "end" : [ 11, 18 ]
    },
    "preferredSlots" : null,
    "doAfter" : null,
    "nbEmpRequired" : 1,
    "deadline" : [ 14, 14 ],
    "skills" : [ {
      "id" : 7,
      "name" : "PAINTING",
      "level" : 3
    } ],
    "duration" : 2700.000000000,
    "pause" : false
  }, {
    "id" : 548,
    "desc" : "ENGINEER, ELECTRICIAN",
    "location" : {
      "id" : 2145,
      "name" : null,
      "latitude" : 43.996887,
      "longitude" : 4.040206
    },
    "openings" : {
      "start" : [ 12, 23 ],
      "end" : [ 17, 42 ]
    },
    "preferredSlots" : null,
    "doAfter" : null,
    "nbEmpRequired" : 1,
    "deadline" : [ 11, 13 ],
    "skills" : [ {
      "id" : 1,
      "name" : "ENGINEER",
      "level" : 2
    }, {
      "id" : 2,
      "name" : "ELECTRICIAN",
      "level" : 3
    } ],
    "duration" : 3600.000000000,
    "pause" : false
  }, {
    "id" : 522,
    "desc" : "PAINTING, ENGINEER",
    "location" : {
      "id" : 3495,
      "name" : null,
      "latitude" : 44.064697,
      "longitude" : 3.769992
    },
    "openings" : {
      "start" : [ 9, 21 ],
      "end" : [ 13, 42 ]
    },
    "preferredSlots" : null,
    "doAfter" : null,
    "nbEmpRequired" : 1,
    "deadline" : [ 13, 40 ],
    "skills" : [ {
      "id" : 7,
      "name" : "PAINTING",
      "level" : 4
    }, {
      "id" : 1,
      "name" : "ENGINEER",
      "level" : 1
    } ],
    "duration" : 2700.000000000,
    "pause" : false
  }, {
    "id" : 494,
    "desc" : "ENGINEER, CARPENTRY",
    "location" : {
      "id" : 9414,
      "name" : null,
      "latitude" : 43.842094,
      "longitude" : 4.0188675
    },
    "openings" : {
      "start" : [ 10, 47 ],
      "end" : [ 11, 46 ]
    },
    "preferredSlots" : null,
    "doAfter" : null,
    "nbEmpRequired" : 1,
    "deadline" : [ 10, 7 ],
    "skills" : [ {
      "id" : 1,
      "name" : "ENGINEER",
      "level" : 2
    }, {
      "id" : 6,
      "name" : "CARPENTRY",
      "level" : 1
    } ],
    "duration" : 3600.000000000,
    "pause" : false
  }, {
    "id" : 981,
    "desc" : "PLUMBING",
    "location" : {
      "id" : 103,
      "name" : null,
      "latitude" : 43.95175,
      "longitude" : 3.984734
    },
    "openings" : {
      "start" : [ 11, 54 ],
      "end" : [ 14, 6 ]
    },
    "preferredSlots" : null,
    "doAfter" : null,
    "nbEmpRequired" : 1,
    "deadline" : [ 15, 46 ],
    "skills" : [ {
      "id" : 3,
      "name" : "PLUMBING",
      "level" : 4
    } ],
    "duration" : 1800.000000000,
    "pause" : false
  }, {
    "id" : 165,
    "desc" : "MASONRY, CARPENTRY",
    "location" : {
      "id" : 2080,
      "name" : null,
      "latitude" : 43.69397,
      "longitude" : 3.9047742
    },
    "openings" : {
      "start" : [ 9, 6 ],
      "end" : [ 13, 17 ]
    },
    "preferredSlots" : null,
    "doAfter" : null,
    "nbEmpRequired" : 1,
    "deadline" : [ 15, 43 ],
    "skills" : [ {
      "id" : 4,
      "name" : "MASONRY",
      "level" : 3
    }, {
      "id" : 6,
      "name" : "CARPENTRY",
      "level" : 5
    } ],
    "duration" : 1800.000000000,
    "pause" : false
  }, {
    "id" : 120,
    "desc" : "MASONRY",
    "location" : {
      "id" : 1003,
      "name" : null,
      "latitude" : 43.635303,
      "longitude" : 4.22618
    },
    "openings" : {
      "start" : [ 9, 24 ],
      "end" : [ 14, 58 ]
    },
    "preferredSlots" : null,
    "doAfter" : null,
    "nbEmpRequired" : 1,
    "deadline" : [ 9, 34 ],
    "skills" : [ {
      "id" : 4,
      "name" : "MASONRY",
      "level" : 2
    } ],
    "duration" : 3600.000000000,
    "pause" : false
  }, {
    "id" : 103,
    "desc" : "MANAGEMENT",
    "location" : {
      "id" : 9101,
      "name" : null,
      "latitude" : 43.59346,
      "longitude" : 4.076677
    },
    "openings" : {
      "start" : [ 15, 23 ],
      "end" : [ 15, 51 ]
    },
    "preferredSlots" : null,
    "doAfter" : null,
    "nbEmpRequired" : 1,
    "deadline" : [ 16, 54 ],
    "skills" : [ {
      "id" : 0,
      "name" : "MANAGEMENT",
      "level" : 4
    } ],
    "duration" : 5400.000000000,
    "pause" : false
  }, {
    "id" : 829,
    "desc" : "CARPENTRY, TILER",
    "location" : {
      "id" : 4882,
      "name" : null,
      "latitude" : 43.63699,
      "longitude" : 3.8942425
    },
    "openings" : {
      "start" : [ 15, 36 ],
      "end" : [ 16, 22 ]
    },
    "preferredSlots" : null,
    "doAfter" : null,
    "nbEmpRequired" : 1,
    "deadline" : [ 9, 12 ],
    "skills" : [ {
      "id" : 6,
      "name" : "CARPENTRY",
      "level" : 1
    }, {
      "id" : 9,
      "name" : "TILER",
      "level" : 3
    } ],
    "duration" : 1800.000000000,
    "pause" : false
  }, {
    "id" : 806,
    "desc" : "MASONRY, IRONWORK",
    "location" : {
      "id" : 3557,
      "name" : null,
      "latitude" : 44.04532,
      "longitude" : 3.799054
    },
    "openings" : {
      "start" : [ 12, 42 ],
      "end" : [ 16, 7 ]
    },
    "preferredSlots" : null,
    "doAfter" : null,
    "nbEmpRequired" : 1,
    "deadline" : [ 16, 29 ],
    "skills" : [ {
      "id" : 4,
      "name" : "MASONRY",
      "level" : 2
    }, {
      "id" : 8,
      "name" : "IRONWORK",
      "level" : 3
    } ],
    "duration" : 2700.000000000,
    "pause" : false
  }, {
    "id" : 616,
    "desc" : "IRONWORK, PLUMBING",
    "location" : {
      "id" : 4119,
      "name" : null,
      "latitude" : 43.905083,
      "longitude" : 3.7478645
    },
    "openings" : {
      "start" : [ 10, 4 ],
      "end" : [ 12, 16 ]
    },
    "preferredSlots" : null,
    "doAfter" : null,
    "nbEmpRequired" : 1,
    "deadline" : [ 10, 1 ],
    "skills" : [ {
      "id" : 8,
      "name" : "IRONWORK",
      "level" : 1
    }, {
      "id" : 3,
      "name" : "PLUMBING",
      "level" : 2
    } ],
    "duration" : 2700.000000000,
    "pause" : false
  }, {
    "id" : 280,
    "desc" : "ELECTRICIAN, MASONRY",
    "location" : {
      "id" : 1681,
      "name" : null,
      "latitude" : 43.833836,
      "longitude" : 4.2934775
    },
    "openings" : {
      "start" : [ 13, 48 ],
      "end" : [ 16, 18 ]
    },
    "preferredSlots" : null,
    "doAfter" : null,
    "nbEmpRequired" : 1,
    "deadline" : [ 11, 10 ],
    "skills" : [ {
      "id" : 2,
      "name" : "ELECTRICIAN",
      "level" : 4
    }, {
      "id" : 4,
      "name" : "MASONRY",
      "level" : 2
    } ],
    "duration" : 2700.000000000,
    "pause" : false
  }, {
    "id" : 720,
    "desc" : "PLUMBING",
    "location" : {
      "id" : 9086,
      "name" : null,
      "latitude" : 44.059883,
      "longitude" : 3.8173537
    },
    "openings" : {
      "start" : [ 11, 32 ],
      "end" : [ 16, 2 ]
    },
    "preferredSlots" : null,
    "doAfter" : null,
    "nbEmpRequired" : 1,
    "deadline" : [ 14, 54 ],
    "skills" : [ {
      "id" : 3,
      "name" : "PLUMBING",
      "level" : 5
    } ],
    "duration" : 2700.000000000,
    "pause" : false
  }, {
    "id" : 25,
    "desc" : "MANAGEMENT, PAINTING",
    "location" : {
      "id" : 7495,
      "name" : null,
      "latitude" : 43.904655,
      "longitude" : 3.731516
    },
    "openings" : {
      "start" : [ 11, 43 ],
      "end" : [ 15, 3 ]
    },
    "preferredSlots" : null,
    "doAfter" : null,
    "nbEmpRequired" : 1,
    "deadline" : [ 16, 36 ],
    "skills" : [ {
      "id" : 0,
      "name" : "MANAGEMENT",
      "level" : 1
    }, {
      "id" : 7,
      "name" : "PAINTING",
      "level" : 3
    } ],
    "duration" : 5400.000000000,
    "pause" : false
  }, {
    "id" : 750,
    "desc" : "PLUMBING, ELECTRICIAN",
    "location" : {
      "id" : 5247,
      "name" : null,
      "latitude" : 43.84562,
      "longitude" : 3.9354851
    },
    "openings" : {
      "start" : [ 15, 12 ],
      "end" : [ 16, 32 ]
    },
    "preferredSlots" : null,
    "doAfter" : null,
    "nbEmpRequired" : 1,
    "deadline" : [ 11, 16 ],
    "skills" : [ {
      "id" : 3,
      "name" : "PLUMBING",
      "level" : 5
    }, {
      "id" : 2,
      "name" : "ELECTRICIAN",
      "level" : 5
    } ],
    "duration" : 2700.000000000,
    "pause" : false
  }, {
    "id" : 695,
    "desc" : "PAINTING, MANAGEMENT",
    "location" : {
      "id" : 5752,
      "name" : null,
      "latitude" : 43.63602,
      "longitude" : 4.244561
    },
    "openings" : {
      "start" : [ 11, 28 ],
      "end" : [ 16, 53 ]
    },
    "preferredSlots" : null,
    "doAfter" : null,
    "nbEmpRequired" : 1,
    "deadline" : [ 10, 47 ],
    "skills" : [ {
      "id" : 7,
      "name" : "PAINTING",
      "level" : 1
    }, {
      "id" : 0,
      "name" : "MANAGEMENT",
      "level" : 3
    } ],
    "duration" : 5400.000000000,
    "pause" : false
  }, {
    "id" : 862,
    "desc" : "MANAGEMENT, PLUMBING",
    "location" : {
      "id" : 9371,
      "name" : null,
      "latitude" : 43.71334,
      "longitude" : 3.896668
    },
    "openings" : {
      "start" : [ 14, 3 ],
      "end" : [ 17, 1 ]
    },
    "preferredSlots" : null,
    "doAfter" : null,
    "nbEmpRequired" : 1,
    "deadline" : [ 12, 24 ],
    "skills" : [ {
      "id" : 0,
      "name" : "MANAGEMENT",
      "level" : 3
    }, {
      "id" : 3,
      "name" : "PLUMBING",
      "level" : 5
    } ],
    "duration" : 3600.000000000,
    "pause" : false
  }, {
    "id" : 580,
    "desc" : "PAINTING, GLAZING",
    "location" : {
      "id" : 2108,
      "name" : null,
      "latitude" : 43.571743,
      "longitude" : 3.9402301
    },
    "openings" : {
      "start" : [ 11, 20 ],
      "end" : [ 16, 25 ]
    },
    "preferredSlots" : null,
    "doAfter" : null,
    "nbEmpRequired" : 1,
    "deadline" : [ 15, 31 ],
    "skills" : [ {
      "id" : 7,
      "name" : "PAINTING",
      "level" : 2
    }, {
      "id" : 5,
      "name" : "GLAZING",
      "level" : 3
    } ],
    "duration" : 5400.000000000,
    "pause" : false
  }, {
    "id" : 595,
    "desc" : "ENGINEER",
    "location" : {
      "id" : 5937,
      "name" : null,
      "latitude" : 43.822594,
      "longitude" : 3.8086052
    },
    "openings" : {
      "start" : [ 12, 25 ],
      "end" : [ 17, 18 ]
    },
    "preferredSlots" : null,
    "doAfter" : null,
    "nbEmpRequired" : 1,
    "deadline" : [ 13, 17 ],
    "skills" : [ {
      "id" : 1,
      "name" : "ENGINEER",
      "level" : 2
    } ],
    "duration" : 3600.000000000,
    "pause" : false
  }, {
    "id" : 997,
    "desc" : "MANAGEMENT",
    "location" : {
      "id" : 6140,
      "name" : null,
      "latitude" : 43.495033,
      "longitude" : 3.8119416
    },
    "openings" : {
      "start" : [ 13, 41 ],
      "end" : [ 15, 41 ]
    },
    "preferredSlots" : null,
    "doAfter" : null,
    "nbEmpRequired" : 1,
    "deadline" : [ 11, 24 ],
    "skills" : [ {
      "id" : 0,
      "name" : "MANAGEMENT",
      "level" : 2
    } ],
    "duration" : 2700.000000000,
    "pause" : false
  }, {
    "id" : 728,
    "desc" : "GLAZING, MASONRY",
    "location" : {
      "id" : 3085,
      "name" : null,
      "latitude" : 43.682724,
      "longitude" : 4.2579546
    },
    "openings" : {
      "start" : [ 12, 31 ],
      "end" : [ 16, 54 ]
    },
    "preferredSlots" : null,
    "doAfter" : null,
    "nbEmpRequired" : 1,
    "deadline" : [ 17, 14 ],
    "skills" : [ {
      "id" : 5,
      "name" : "GLAZING",
      "level" : 5
    }, {
      "id" : 4,
      "name" : "MASONRY",
      "level" : 2
    } ],
    "duration" : 2700.000000000,
    "pause" : false
  }, {
    "id" : 783,
    "desc" : "ENGINEER",
    "location" : {
      "id" : 6559,
      "name" : null,
      "latitude" : 43.7168,
      "longitude" : 4.1588984
    },
    "openings" : {
      "start" : [ 11, 34 ],
      "end" : [ 17, 50 ]
    },
    "preferredSlots" : null,
    "doAfter" : null,
    "nbEmpRequired" : 1,
    "deadline" : [ 13, 41 ],
    "skills" : [ {
      "id" : 1,
      "name" : "ENGINEER",
      "level" : 3
    } ],
    "duration" : 7200.000000000,
    "pause" : false
  }, {
    "id" : 778,
    "desc" : "PAINTING, CARPENTRY",
    "location" : {
      "id" : 3978,
      "name" : null,
      "latitude" : 44.057594,
      "longitude" : 4.2424846
    },
    "openings" : {
      "start" : [ 14, 24 ],
      "end" : [ 14, 58 ]
    },
    "preferredSlots" : null,
    "doAfter" : null,
    "nbEmpRequired" : 1,
    "deadline" : [ 10, 18 ],
    "skills" : [ {
      "id" : 7,
      "name" : "PAINTING",
      "level" : 4
    }, {
      "id" : 6,
      "name" : "CARPENTRY",
      "level" : 4
    } ],
    "duration" : 3600.000000000,
    "pause" : false
  }, {
    "id" : 588,
    "desc" : "ENGINEER, MANAGEMENT",
    "location" : {
      "id" : 4513,
      "name" : null,
      "latitude" : 43.731346,
      "longitude" : 4.185925
    },
    "openings" : {
      "start" : [ 10, 17 ],
      "end" : [ 11, 39 ]
    },
    "preferredSlots" : null,
    "doAfter" : null,
    "nbEmpRequired" : 1,
    "deadline" : [ 13, 8 ],
    "skills" : [ {
      "id" : 1,
      "name" : "ENGINEER",
      "level" : 2
    }, {
      "id" : 0,
      "name" : "MANAGEMENT",
      "level" : 2
    } ],
    "duration" : 5400.000000000,
    "pause" : false
  }, {
    "id" : 115,
    "desc" : "CARPENTRY, MASONRY",
    "location" : {
      "id" : 4353,
      "name" : null,
      "latitude" : 43.89866,
      "longitude" : 3.8191094
    },
    "openings" : {
      "start" : [ 12, 30 ],
      "end" : [ 16, 10 ]
    },
    "preferredSlots" : null,
    "doAfter" : null,
    "nbEmpRequired" : 1,
    "deadline" : [ 10, 44 ],
    "skills" : [ {
      "id" : 6,
      "name" : "CARPENTRY",
      "level" : 5
    }, {
      "id" : 4,
      "name" : "MASONRY",
      "level" : 2
    } ],
    "duration" : 2700.000000000,
    "pause" : false
  }, {
    "id" : 162,
    "desc" : "MASONRY",
    "location" : {
      "id" : 3650,
      "name" : null,
      "latitude" : 43.94625,
      "longitude" : 4.164064
    },
    "openings" : {
      "start" : [ 13, 6 ],
      "end" : [ 15, 12 ]
    },
    "preferredSlots" : null,
    "doAfter" : null,
    "nbEmpRequired" : 1,
    "deadline" : [ 14, 14 ],
    "skills" : [ {
      "id" : 4,
      "name" : "MASONRY",
      "level" : 2
    } ],
    "duration" : 2700.000000000,
    "pause" : false
  }, {
    "id" : 698,
    "desc" : "GLAZING, IRONWORK",
    "location" : {
      "id" : 6633,
      "name" : null,
      "latitude" : 44.003372,
      "longitude" : 3.9946926
    },
    "openings" : {
      "start" : [ 13, 34 ],
      "end" : [ 14, 33 ]
    },
    "preferredSlots" : null,
    "doAfter" : null,
    "nbEmpRequired" : 1,
    "deadline" : [ 15, 38 ],
    "skills" : [ {
      "id" : 5,
      "name" : "GLAZING",
      "level" : 4
    }, {
      "id" : 8,
      "name" : "IRONWORK",
      "level" : 2
    } ],
    "duration" : 2700.000000000,
    "pause" : false
  }, {
    "id" : 4,
    "desc" : "PLUMBING, MANAGEMENT",
    "location" : {
      "id" : 5096,
      "name" : null,
      "latitude" : 43.932877,
      "longitude" : 4.2051353
    },
    "openings" : {
      "start" : [ 15, 49 ],
      "end" : [ 16, 40 ]
    },
    "preferredSlots" : null,
    "doAfter" : null,
    "nbEmpRequired" : 1,
    "deadline" : [ 12, 22 ],
    "skills" : [ {
      "id" : 3,
      "name" : "PLUMBING",
      "level" : 1
    }, {
      "id" : 0,
      "name" : "MANAGEMENT",
      "level" : 4
    } ],
    "duration" : 3600.000000000,
    "pause" : false
  }, {
    "id" : 347,
    "desc" : "IRONWORK, TILER",
    "location" : {
      "id" : 1367,
      "name" : null,
      "latitude" : 44.022602,
      "longitude" : 4.2964673
    },
    "openings" : {
      "start" : [ 9, 16 ],
      "end" : [ 10, 47 ]
    },
    "preferredSlots" : null,
    "doAfter" : null,
    "nbEmpRequired" : 1,
    "deadline" : [ 9, 5 ],
    "skills" : [ {
      "id" : 8,
      "name" : "IRONWORK",
      "level" : 1
    }, {
      "id" : 9,
      "name" : "TILER",
      "level" : 3
    } ],
    "duration" : 5400.000000000,
    "pause" : false
  }, {
    "id" : 678,
    "desc" : "MANAGEMENT",
    "location" : {
      "id" : 5864,
      "name" : null,
      "latitude" : 43.9405,
      "longitude" : 3.9933674
    },
    "openings" : {
      "start" : [ 9, 51 ],
      "end" : [ 11, 55 ]
    },
    "preferredSlots" : null,
    "doAfter" : null,
    "nbEmpRequired" : 1,
    "deadline" : [ 14, 23 ],
    "skills" : [ {
      "id" : 0,
      "name" : "MANAGEMENT",
      "level" : 3
    } ],
    "duration" : 3600.000000000,
    "pause" : false
  }, {
    "id" : 236,
    "desc" : "IRONWORK",
    "location" : {
      "id" : 1991,
      "name" : null,
      "latitude" : 43.65003,
      "longitude" : 4.12584
    },
    "openings" : {
      "start" : [ 13, 36 ],
      "end" : [ 17, 11 ]
    },
    "preferredSlots" : null,
    "doAfter" : null,
    "nbEmpRequired" : 1,
    "deadline" : [ 11, 37 ],
    "skills" : [ {
      "id" : 8,
      "name" : "IRONWORK",
      "level" : 4
    } ],
    "duration" : 3600.000000000,
    "pause" : false
  }, {
    "id" : 444,
    "desc" : "ENGINEER, ELECTRICIAN",
    "location" : {
      "id" : 4681,
      "name" : null,
      "latitude" : 43.723473,
      "longitude" : 3.7704415
    },
    "openings" : {
      "start" : [ 10, 25 ],
      "end" : [ 11, 39 ]
    },
    "preferredSlots" : null,
    "doAfter" : null,
    "nbEmpRequired" : 1,
    "deadline" : [ 14, 13 ],
    "skills" : [ {
      "id" : 1,
      "name" : "ENGINEER",
      "level" : 2
    }, {
      "id" : 2,
      "name" : "ELECTRICIAN",
      "level" : 1
    } ],
    "duration" : 2700.000000000,
    "pause" : false
  }, {
    "id" : 237,
    "desc" : "PLUMBING, MASONRY",
    "location" : {
      "id" : 7158,
      "name" : null,
      "latitude" : 43.82033,
      "longitude" : 3.9463143
    },
    "openings" : {
      "start" : [ 14, 12 ],
      "end" : [ 14, 49 ]
    },
    "preferredSlots" : null,
    "doAfter" : null,
    "nbEmpRequired" : 1,
    "deadline" : [ 10, 36 ],
    "skills" : [ {
      "id" : 3,
      "name" : "PLUMBING",
      "level" : 5
    }, {
      "id" : 4,
      "name" : "MASONRY",
      "level" : 3
    } ],
    "duration" : 2700.000000000,
    "pause" : false
  }, {
    "id" : 576,
    "desc" : "PLUMBING, IRONWORK",
    "location" : {
      "id" : 3894,
      "name" : null,
      "latitude" : 43.98465,
      "longitude" : 4.0441527
    },
    "openings" : {
      "start" : [ 13, 35 ],
      "end" : [ 17, 54 ]
    },
    "preferredSlots" : null,
    "doAfter" : null,
    "nbEmpRequired" : 1,
    "deadline" : [ 14, 3 ],
    "skills" : [ {
      "id" : 3,
      "name" : "PLUMBING",
      "level" : 3
    }, {
      "id" : 8,
      "name" : "IRONWORK",
      "level" : 4
    } ],
    "duration" : 2700.000000000,
    "pause" : false
  }, {
    "id" : 958,
    "desc" : "MANAGEMENT, ELECTRICIAN",
    "location" : {
      "id" : 9525,
      "name" : null,
      "latitude" : 44.09716,
      "longitude" : 3.7696373
    },
    "openings" : {
      "start" : [ 13, 27 ],
      "end" : [ 14, 27 ]
    },
    "preferredSlots" : null,
    "doAfter" : null,
    "nbEmpRequired" : 1,
    "deadline" : [ 17, 47 ],
    "skills" : [ {
      "id" : 0,
      "name" : "MANAGEMENT",
      "level" : 5
    }, {
      "id" : 2,
      "name" : "ELECTRICIAN",
      "level" : 3
    } ],
    "duration" : 2700.000000000,
    "pause" : false
  }, {
    "id" : 549,
    "desc" : "ENGINEER",
    "location" : {
      "id" : 6115,
      "name" : null,
      "latitude" : 43.6401,
      "longitude" : 4.1586337
    },
    "openings" : {
      "start" : [ 9, 24 ],
      "end" : [ 17, 46 ]
    },
    "preferredSlots" : null,
    "doAfter" : null,
    "nbEmpRequired" : 1,
    "deadline" : [ 11, 13 ],
    "skills" : [ {
      "id" : 1,
      "name" : "ENGINEER",
      "level" : 1
    } ],
    "duration" : 2700.000000000,
    "pause" : false
  }, {
    "id" : 816,
    "desc" : "ELECTRICIAN",
    "location" : {
      "id" : 4588,
      "name" : null,
      "latitude" : 43.81935,
      "longitude" : 4.247361
    },
    "openings" : {
      "start" : [ 9, 25 ],
      "end" : [ 12, 56 ]
    },
    "preferredSlots" : null,
    "doAfter" : null,
    "nbEmpRequired" : 1,
    "deadline" : [ 14, 39 ],
    "skills" : [ {
      "id" : 2,
      "name" : "ELECTRICIAN",
      "level" : 5
    } ],
    "duration" : 2700.000000000,
    "pause" : false
  }, {
    "id" : 41,
    "desc" : "IRONWORK",
    "location" : {
      "id" : 8872,
      "name" : null,
      "latitude" : 43.792,
      "longitude" : 3.9451613
    },
    "openings" : {
      "start" : [ 11, 59 ],
      "end" : [ 16, 1 ]
    },
    "preferredSlots" : null,
    "doAfter" : null,
    "nbEmpRequired" : 1,
    "deadline" : [ 10, 20 ],
    "skills" : [ {
      "id" : 8,
      "name" : "IRONWORK",
      "level" : 2
    } ],
    "duration" : 1800.000000000,
    "pause" : false
  }, {
    "id" : 626,
    "desc" : "ENGINEER",
    "location" : {
      "id" : 2613,
      "name" : null,
      "latitude" : 43.860413,
      "longitude" : 4.150979
    },
    "openings" : {
      "start" : [ 12, 31 ],
      "end" : [ 17, 6 ]
    },
    "preferredSlots" : null,
    "doAfter" : null,
    "nbEmpRequired" : 1,
    "deadline" : [ 13, 57 ],
    "skills" : [ {
      "id" : 1,
      "name" : "ENGINEER",
      "level" : 3
    } ],
    "duration" : 5400.000000000,
    "pause" : false
  }, {
    "id" : 738,
    "desc" : "MANAGEMENT, CARPENTRY",
    "location" : {
      "id" : 765,
      "name" : null,
      "latitude" : 43.736237,
      "longitude" : 3.9063141
    },
    "openings" : {
      "start" : [ 16, 8 ],
      "end" : [ 16, 42 ]
    },
    "preferredSlots" : null,
    "doAfter" : null,
    "nbEmpRequired" : 1,
    "deadline" : [ 13, 23 ],
    "skills" : [ {
      "id" : 0,
      "name" : "MANAGEMENT",
      "level" : 5
    }, {
      "id" : 6,
      "name" : "CARPENTRY",
      "level" : 5
    } ],
    "duration" : 3600.000000000,
    "pause" : false
  }, {
    "id" : 955,
    "desc" : "PAINTING, GLAZING",
    "location" : {
      "id" : 8598,
      "name" : null,
      "latitude" : 43.86344,
      "longitude" : 4.1896873
    },
    "openings" : {
      "start" : [ 9, 13 ],
      "end" : [ 9, 53 ]
    },
    "preferredSlots" : null,
    "doAfter" : null,
    "nbEmpRequired" : 1,
    "deadline" : [ 9, 35 ],
    "skills" : [ {
      "id" : 7,
      "name" : "PAINTING",
      "level" : 1
    }, {
      "id" : 5,
      "name" : "GLAZING",
      "level" : 3
    } ],
    "duration" : 3600.000000000,
    "pause" : false
  }, {
    "id" : 354,
    "desc" : "IRONWORK, CARPENTRY",
    "location" : {
      "id" : 8318,
      "name" : null,
      "latitude" : 44.019753,
      "longitude" : 3.9634757
    },
    "openings" : {
      "start" : [ 9, 0 ],
      "end" : [ 13, 38 ]
    },
    "preferredSlots" : null,
    "doAfter" : null,
    "nbEmpRequired" : 1,
    "deadline" : [ 9, 5 ],
    "skills" : [ {
      "id" : 8,
      "name" : "IRONWORK",
      "level" : 2
    }, {
      "id" : 6,
      "name" : "CARPENTRY",
      "level" : 3
    } ],
    "duration" : 1800.000000000,
    "pause" : false
  }, {
    "id" : 345,
    "desc" : "MANAGEMENT, IRONWORK",
    "location" : {
      "id" : 1284,
      "name" : null,
      "latitude" : 43.872738,
      "longitude" : 3.8227837
    },
    "openings" : {
      "start" : [ 14, 5 ],
      "end" : [ 16, 33 ]
    },
    "preferredSlots" : null,
    "doAfter" : null,
    "nbEmpRequired" : 1,
    "deadline" : [ 14, 15 ],
    "skills" : [ {
      "id" : 0,
      "name" : "MANAGEMENT",
      "level" : 5
    }, {
      "id" : 8,
      "name" : "IRONWORK",
      "level" : 5
    } ],
    "duration" : 5400.000000000,
    "pause" : false
  }, {
    "id" : 710,
    "desc" : "MASONRY, PLUMBING",
    "location" : {
      "id" : 919,
      "name" : null,
      "latitude" : 44.08604,
      "longitude" : 3.7619462
    },
    "openings" : {
      "start" : [ 12, 32 ],
      "end" : [ 16, 0 ]
    },
    "preferredSlots" : null,
    "doAfter" : null,
    "nbEmpRequired" : 1,
    "deadline" : [ 14, 14 ],
    "skills" : [ {
      "id" : 4,
      "name" : "MASONRY",
      "level" : 1
    }, {
      "id" : 3,
      "name" : "PLUMBING",
      "level" : 1
    } ],
    "duration" : 2700.000000000,
    "pause" : false
  }, {
    "id" : 801,
    "desc" : "TILER",
    "location" : {
      "id" : 3295,
      "name" : null,
      "latitude" : 43.607468,
      "longitude" : 3.9929898
    },
    "openings" : {
      "start" : [ 14, 58 ],
      "end" : [ 17, 23 ]
    },
    "preferredSlots" : null,
    "doAfter" : null,
    "nbEmpRequired" : 1,
    "deadline" : [ 16, 55 ],
    "skills" : [ {
      "id" : 9,
      "name" : "TILER",
      "level" : 5
    } ],
    "duration" : 5400.000000000,
    "pause" : false
  }, {
    "id" : 707,
    "desc" : "MANAGEMENT, PAINTING",
    "location" : {
      "id" : 1276,
      "name" : null,
      "latitude" : 43.935432,
      "longitude" : 4.191482
    },
    "openings" : {
      "start" : [ 10, 43 ],
      "end" : [ 17, 19 ]
    },
    "preferredSlots" : null,
    "doAfter" : null,
    "nbEmpRequired" : 1,
    "deadline" : [ 9, 8 ],
    "skills" : [ {
      "id" : 0,
      "name" : "MANAGEMENT",
      "level" : 5
    }, {
      "id" : 7,
      "name" : "PAINTING",
      "level" : 5
    } ],
    "duration" : 3600.000000000,
    "pause" : false
  }, {
    "id" : 92,
    "desc" : "IRONWORK, CARPENTRY",
    "location" : {
      "id" : 5847,
      "name" : null,
      "latitude" : 43.758865,
      "longitude" : 4.273938
    },
    "openings" : {
      "start" : [ 13, 27 ],
      "end" : [ 13, 58 ]
    },
    "preferredSlots" : null,
    "doAfter" : null,
    "nbEmpRequired" : 1,
    "deadline" : [ 11, 18 ],
    "skills" : [ {
      "id" : 8,
      "name" : "IRONWORK",
      "level" : 4
    }, {
      "id" : 6,
      "name" : "CARPENTRY",
      "level" : 1
    } ],
    "duration" : 2700.000000000,
    "pause" : false
  } ],
  "employees" : [ {
    "id" : 915,
    "name" : "915",
    "shifts" : [ {
      "start" : [ 9, 0 ],
      "end" : [ 12, 0 ]
    }, {
      "start" : [ 13, 0 ],
      "end" : [ 17, 0 ]
    } ],
    "prefSlots" : null,
    "startingLoc" : {
      "id" : 1578,
      "name" : null,
      "latitude" : 43.844967,
      "longitude" : 4.0777774
    },
    "skills" : [ {
      "id" : 6,
      "name" : "CARPENTRY",
      "level" : 1
    }, {
      "id" : 8,
      "name" : "IRONWORK",
      "level" : 9
    }, {
      "id" : 1,
      "name" : "ENGINEER",
      "level" : 7
    }, {
      "id" : 7,
      "name" : "PAINTING",
      "level" : 9
    }, {
      "id" : 5,
      "name" : "GLAZING",
      "level" : 9
    }, {
      "id" : 4,
      "name" : "MASONRY",
      "level" : 8
    } ]
  }, {
    "id" : 15,
    "name" : "15",
    "shifts" : [ {
      "start" : [ 9, 0 ],
      "end" : [ 12, 0 ]
    }, {
      "start" : [ 13, 0 ],
      "end" : [ 17, 0 ]
    } ],
    "prefSlots" : null,
    "startingLoc" : {
      "id" : 8983,
      "name" : null,
      "latitude" : 43.861412,
      "longitude" : 4.273401
    },
    "skills" : [ {
      "id" : 7,
      "name" : "PAINTING",
      "level" : 9
    }, {
      "id" : 6,
      "name" : "CARPENTRY",
      "level" : 7
    }, {
      "id" : 4,
      "name" : "MASONRY",
      "level" : 7
    }, {
      "id" : 8,
      "name" : "IRONWORK",
      "level" : 5
    }, {
      "id" : 6,
      "name" : "CARPENTRY",
      "level" : 9
    }, {
      "id" : 0,
      "name" : "MANAGEMENT",
      "level" : 8
    }, {
      "id" : 5,
      "name" : "GLAZING",
      "level" : 7
    }, {
      "id" : 8,
      "name" : "IRONWORK",
      "level" : 2
    }, {
      "id" : 0,
      "name" : "MANAGEMENT",
      "level" : 8
    } ]
  }, {
    "id" : 308,
    "name" : "308",
    "shifts" : [ {
      "start" : [ 9, 0 ],
      "end" : [ 12, 0 ]
    }, {
      "start" : [ 13, 0 ],
      "end" : [ 17, 0 ]
    } ],
    "prefSlots" : null,
    "startingLoc" : {
      "id" : 501,
      "name" : null,
      "latitude" : 43.961983,
      "longitude" : 3.737538
    },
    "skills" : [ {
      "id" : 2,
      "name" : "ELECTRICIAN",
      "level" : 5
    }, {
      "id" : 7,
      "name" : "PAINTING",
      "level" : 1
    }, {
      "id" : 5,
      "name" : "GLAZING",
      "level" : 6
    }, {
      "id" : 5,
      "name" : "GLAZING",
      "level" : 5
    }, {
      "id" : 1,
      "name" : "ENGINEER",
      "level" : 2
    }, {
      "id" : 9,
      "name" : "TILER",
      "level" : 7
    }, {
      "id" : 3,
      "name" : "PLUMBING",
      "level" : 9
    }, {
      "id" : 3,
      "name" : "PLUMBING",
      "level" : 2
    } ]
  }, {
    "id" : 186,
    "name" : "186",
    "shifts" : [ {
      "start" : [ 9, 0 ],
      "end" : [ 12, 0 ]
    }, {
      "start" : [ 13, 0 ],
      "end" : [ 17, 0 ]
    } ],
    "prefSlots" : null,
    "startingLoc" : {
      "id" : 3121,
      "name" : null,
      "latitude" : 43.921352,
      "longitude" : 3.9499462
    },
    "skills" : [ {
      "id" : 8,
      "name" : "IRONWORK",
      "level" : 5
    }, {
      "id" : 9,
      "name" : "TILER",
      "level" : 1
    } ]
  }, {
    "id" : 353,
    "name" : "353",
    "shifts" : [ {
      "start" : [ 9, 0 ],
      "end" : [ 12, 0 ]
    }, {
      "start" : [ 13, 0 ],
      "end" : [ 17, 0 ]
    } ],
    "prefSlots" : null,
    "startingLoc" : {
      "id" : 8466,
      "name" : null,
      "latitude" : 43.585335,
      "longitude" : 3.886891
    },
    "skills" : [ {
      "id" : 4,
      "name" : "MASONRY",
      "level" : 6
    }, {
      "id" : 3,
      "name" : "PLUMBING",
      "level" : 10
    }, {
      "id" : 0,
      "name" : "MANAGEMENT",
      "level" : 8
    }, {
      "id" : 5,
      "name" : "GLAZING",
      "level" : 8
    }, {
      "id" : 6,
      "name" : "CARPENTRY",
      "level" : 4
    }, {
      "id" : 7,
      "name" : "PAINTING",
      "level" : 6
    } ]
  }, {
    "id" : 794,
    "name" : "794",
    "shifts" : [ {
      "start" : [ 9, 0 ],
      "end" : [ 12, 0 ]
    }, {
      "start" : [ 13, 0 ],
      "end" : [ 17, 0 ]
    } ],
    "prefSlots" : null,
    "startingLoc" : {
      "id" : 3030,
      "name" : null,
      "latitude" : 43.79712,
      "longitude" : 4.1534514
    },
    "skills" : [ {
      "id" : 6,
      "name" : "CARPENTRY",
      "level" : 4
    }, {
      "id" : 0,
      "name" : "MANAGEMENT",
      "level" : 2
    }, {
      "id" : 3,
      "name" : "PLUMBING",
      "level" : 6
    }, {
      "id" : 9,
      "name" : "TILER",
      "level" : 1
    }, {
      "id" : 5,
      "name" : "GLAZING",
      "level" : 4
    } ]
  }, {
    "id" : 94,
    "name" : "94",
    "shifts" : [ {
      "start" : [ 9, 0 ],
      "end" : [ 12, 0 ]
    }, {
      "start" : [ 13, 0 ],
      "end" : [ 17, 0 ]
    } ],
    "prefSlots" : null,
    "startingLoc" : {
      "id" : 8435,
      "name" : null,
      "latitude" : 43.620094,
      "longitude" : 3.9231415
    },
    "skills" : [ {
      "id" : 5,
      "name" : "GLAZING",
      "level" : 9
    }, {
      "id" : 7,
      "name" : "PAINTING",
      "level" : 7
    }, {
      "id" : 6,
      "name" : "CARPENTRY",
      "level" : 10
    }, {
      "id" : 2,
      "name" : "ELECTRICIAN",
      "level" : 7
    } ]
  }, {
    "id" : 436,
    "name" : "436",
    "shifts" : [ {
      "start" : [ 9, 0 ],
      "end" : [ 12, 0 ]
    }, {
      "start" : [ 13, 0 ],
      "end" : [ 17, 0 ]
    } ],
    "prefSlots" : null,
    "startingLoc" : {
      "id" : 6014,
      "name" : null,
      "latitude" : 43.7442,
      "longitude" : 3.7730503
    },
    "skills" : [ {
      "id" : 5,
      "name" : "GLAZING",
      "level" : 7
    }, {
      "id" : 9,
      "name" : "TILER",
      "level" : 9
    }, {
      "id" : 4,
      "name" : "MASONRY",
      "level" : 2
    }, {
      "id" : 8,
      "name" : "IRONWORK",
      "level" : 3
    }, {
      "id" : 6,
      "name" : "CARPENTRY",
      "level" : 4
    }, {
      "id" : 0,
      "name" : "MANAGEMENT",
      "level" : 10
    }, {
      "id" : 3,
      "name" : "PLUMBING",
      "level" : 4
    } ]
  }, {
    "id" : 353,
    "name" : "353",
    "shifts" : [ {
      "start" : [ 9, 0 ],
      "end" : [ 12, 0 ]
    }, {
      "start" : [ 13, 0 ],
      "end" : [ 17, 0 ]
    } ],
    "prefSlots" : null,
    "startingLoc" : {
      "id" : 8612,
      "name" : null,
      "latitude" : 43.738384,
      "longitude" : 4.26042
    },
    "skills" : [ {
      "id" : 4,
      "name" : "MASONRY",
      "level" : 8
    } ]
  }, {
    "id" : 785,
    "name" : "785",
    "shifts" : [ {
      "start" : [ 9, 0 ],
      "end" : [ 12, 0 ]
    }, {
      "start" : [ 13, 0 ],
      "end" : [ 17, 0 ]
    } ],
    "prefSlots" : null,
    "startingLoc" : {
      "id" : 4653,
      "name" : null,
      "latitude" : 43.87284,
      "longitude" : 3.9371064
    },
    "skills" : [ {
      "id" : 8,
      "name" : "IRONWORK",
      "level" : 6
    }, {
      "id" : 5,
      "name" : "GLAZING",
      "level" : 10
    }, {
      "id" : 2,
      "name" : "ELECTRICIAN",
      "level" : 6
    }, {
      "id" : 1,
      "name" : "ENGINEER",
      "level" : 6
    }, {
      "id" : 4,
      "name" : "MASONRY",
      "level" : 2
    }, {
      "id" : 7,
      "name" : "PAINTING",
      "level" : 7
    }, {
      "id" : 0,
      "name" : "MANAGEMENT",
      "level" : 9
    } ]
  } ],
  "appointments" : [ {
    "job" : {
      "id" : 580,
      "desc" : "PAINTING, GLAZING",
      "location" : {
        "id" : 2108,
        "name" : null,
        "latitude" : 43.571743,
        "longitude" : 3.9402301
      },
      "openings" : {
        "start" : [ 11, 20 ],
        "end" : [ 16, 25 ]
      },
      "preferredSlots" : null,
      "doAfter" : null,
      "nbEmpRequired" : 1,
      "deadline" : [ 15, 31 ],
      "skills" : [ {
        "id" : 7,
        "name" : "PAINTING",
        "level" : 2
      }, {
        "id" : 5,
        "name" : "GLAZING",
        "level" : 3
      } ],
      "duration" : 5400.000000000,
      "pause" : false
    },
    "needed" : [ {
      "id" : 186,
      "name" : "186",
      "shifts" : [ {
        "start" : [ 9, 0 ],
        "end" : [ 12, 0 ]
      }, {
        "start" : [ 13, 0 ],
        "end" : [ 17, 0 ]
      } ],
      "prefSlots" : null,
      "startingLoc" : {
        "id" : 3121,
        "name" : null,
        "latitude" : 43.921352,
        "longitude" : 3.9499462
      },
      "skills" : [ {
        "id" : 8,
        "name" : "IRONWORK",
        "level" : 5
      }, {
        "id" : 9,
        "name" : "TILER",
        "level" : 1
      } ]
    }, {
      "id" : 15,
      "name" : "15",
      "shifts" : [ {
        "start" : [ 9, 0 ],
        "end" : [ 12, 0 ]
      }, {
        "start" : [ 13, 0 ],
        "end" : [ 17, 0 ]
      } ],
      "prefSlots" : null,
      "startingLoc" : {
        "id" : 8983,
        "name" : null,
        "latitude" : 43.861412,
        "longitude" : 4.273401
      },
      "skills" : [ {
        "id" : 7,
        "name" : "PAINTING",
        "level" : 9
      }, {
        "id" : 6,
        "name" : "CARPENTRY",
        "level" : 7
      }, {
        "id" : 4,
        "name" : "MASONRY",
        "level" : 7
      }, {
        "id" : 8,
        "name" : "IRONWORK",
        "level" : 5
      }, {
        "id" : 6,
        "name" : "CARPENTRY",
        "level" : 9
      }, {
        "id" : 0,
        "name" : "MANAGEMENT",
        "level" : 8
      }, {
        "id" : 5,
        "name" : "GLAZING",
        "level" : 7
      }, {
        "id" : 8,
        "name" : "IRONWORK",
        "level" : 2
      }, {
        "id" : 0,
        "name" : "MANAGEMENT",
        "level" : 8
      } ]
    }, {
      "id" : 308,
      "name" : "308",
      "shifts" : [ {
        "start" : [ 9, 0 ],
        "end" : [ 12, 0 ]
      }, {
        "start" : [ 13, 0 ],
        "end" : [ 17, 0 ]
      } ],
      "prefSlots" : null,
      "startingLoc" : {
        "id" : 501,
        "name" : null,
        "latitude" : 43.961983,
        "longitude" : 3.737538
      },
      "skills" : [ {
        "id" : 2,
        "name" : "ELECTRICIAN",
        "level" : 5
      }, {
        "id" : 7,
        "name" : "PAINTING",
        "level" : 1
      }, {
        "id" : 5,
        "name" : "GLAZING",
        "level" : 6
      }, {
        "id" : 5,
        "name" : "GLAZING",
        "level" : 5
      }, {
        "id" : 1,
        "name" : "ENGINEER",
        "level" : 2
      }, {
        "id" : 9,
        "name" : "TILER",
        "level" : 7
      }, {
        "id" : 3,
        "name" : "PLUMBING",
        "level" : 9
      }, {
        "id" : 3,
        "name" : "PLUMBING",
        "level" : 2
      } ]
    }, {
      "id" : 353,
      "name" : "353",
      "shifts" : [ {
        "start" : [ 9, 0 ],
        "end" : [ 12, 0 ]
      }, {
        "start" : [ 13, 0 ],
        "end" : [ 17, 0 ]
      } ],
      "prefSlots" : null,
      "startingLoc" : {
        "id" : 8612,
        "name" : null,
        "latitude" : 43.738384,
        "longitude" : 4.26042
      },
      "skills" : [ {
        "id" : 4,
        "name" : "MASONRY",
        "level" : 8
      } ]
    }, {
      "id" : 94,
      "name" : "94",
      "shifts" : [ {
        "start" : [ 9, 0 ],
        "end" : [ 12, 0 ]
      }, {
        "start" : [ 13, 0 ],
        "end" : [ 17, 0 ]
      } ],
      "prefSlots" : null,
      "startingLoc" : {
        "id" : 8435,
        "name" : null,
        "latitude" : 43.620094,
        "longitude" : 3.9231415
      },
      "skills" : [ {
        "id" : 5,
        "name" : "GLAZING",
        "level" : 9
      }, {
        "id" : 7,
        "name" : "PAINTING",
        "level" : 7
      }, {
        "id" : 6,
        "name" : "CARPENTRY",
        "level" : 10
      }, {
        "id" : 2,
        "name" : "ELECTRICIAN",
        "level" : 7
      } ]
    } ]
  }, {
    "job" : {
      "id" : 514,
      "desc" : "MANAGEMENT",
      "location" : {
        "id" : 8789,
        "name" : null,
        "latitude" : 44.06941,
        "longitude" : 4.044738
      },
      "openings" : {
        "start" : [ 12, 27 ],
        "end" : [ 16, 57 ]
      },
      "preferredSlots" : null,
      "doAfter" : null,
      "nbEmpRequired" : 1,
      "deadline" : [ 16, 51 ],
      "skills" : [ {
        "id" : 0,
        "name" : "MANAGEMENT",
        "level" : 2
      } ],
      "duration" : 7200.000000000,
      "pause" : false
    },
    "needed" : [ {
      "id" : 186,
      "name" : "186",
      "shifts" : [ {
        "start" : [ 9, 0 ],
        "end" : [ 12, 0 ]
      }, {
        "start" : [ 13, 0 ],
        "end" : [ 17, 0 ]
      } ],
      "prefSlots" : null,
      "startingLoc" : {
        "id" : 3121,
        "name" : null,
        "latitude" : 43.921352,
        "longitude" : 3.9499462
      },
      "skills" : [ {
        "id" : 8,
        "name" : "IRONWORK",
        "level" : 5
      }, {
        "id" : 9,
        "name" : "TILER",
        "level" : 1
      } ]
    }, {
      "id" : 353,
      "name" : "353",
      "shifts" : [ {
        "start" : [ 9, 0 ],
        "end" : [ 12, 0 ]
      }, {
        "start" : [ 13, 0 ],
        "end" : [ 17, 0 ]
      } ],
      "prefSlots" : null,
      "startingLoc" : {
        "id" : 8466,
        "name" : null,
        "latitude" : 43.585335,
        "longitude" : 3.886891
      },
      "skills" : [ {
        "id" : 4,
        "name" : "MASONRY",
        "level" : 6
      }, {
        "id" : 3,
        "name" : "PLUMBING",
        "level" : 10
      }, {
        "id" : 0,
        "name" : "MANAGEMENT",
        "level" : 8
      }, {
        "id" : 5,
        "name" : "GLAZING",
        "level" : 8
      }, {
        "id" : 6,
        "name" : "CARPENTRY",
        "level" : 4
      }, {
        "id" : 7,
        "name" : "PAINTING",
        "level" : 6
      } ]
    }, {
      "id" : 94,
      "name" : "94",
      "shifts" : [ {
        "start" : [ 9, 0 ],
        "end" : [ 12, 0 ]
      }, {
        "start" : [ 13, 0 ],
        "end" : [ 17, 0 ]
      } ],
      "prefSlots" : null,
      "startingLoc" : {
        "id" : 8435,
        "name" : null,
        "latitude" : 43.620094,
        "longitude" : 3.9231415
      },
      "skills" : [ {
        "id" : 5,
        "name" : "GLAZING",
        "level" : 9
      }, {
        "id" : 7,
        "name" : "PAINTING",
        "level" : 7
      }, {
        "id" : 6,
        "name" : "CARPENTRY",
        "level" : 10
      }, {
        "id" : 2,
        "name" : "ELECTRICIAN",
        "level" : 7
      } ]
    }, {
      "id" : 436,
      "name" : "436",
      "shifts" : [ {
        "start" : [ 9, 0 ],
        "end" : [ 12, 0 ]
      }, {
        "start" : [ 13, 0 ],
        "end" : [ 17, 0 ]
      } ],
      "prefSlots" : null,
      "startingLoc" : {
        "id" : 6014,
        "name" : null,
        "latitude" : 43.7442,
        "longitude" : 3.7730503
      },
      "skills" : [ {
        "id" : 5,
        "name" : "GLAZING",
        "level" : 7
      }, {
        "id" : 9,
        "name" : "TILER",
        "level" : 9
      }, {
        "id" : 4,
        "name" : "MASONRY",
        "level" : 2
      }, {
        "id" : 8,
        "name" : "IRONWORK",
        "level" : 3
      }, {
        "id" : 6,
        "name" : "CARPENTRY",
        "level" : 4
      }, {
        "id" : 0,
        "name" : "MANAGEMENT",
        "level" : 10
      }, {
        "id" : 3,
        "name" : "PLUMBING",
        "level" : 4
      } ]
    } ]
  }, {
    "job" : {
      "id" : 549,
      "desc" : "ENGINEER",
      "location" : {
        "id" : 6115,
        "name" : null,
        "latitude" : 43.6401,
        "longitude" : 4.1586337
      },
      "openings" : {
        "start" : [ 9, 24 ],
        "end" : [ 17, 46 ]
      },
      "preferredSlots" : null,
      "doAfter" : null,
      "nbEmpRequired" : 1,
      "deadline" : [ 11, 13 ],
      "skills" : [ {
        "id" : 1,
        "name" : "ENGINEER",
        "level" : 1
      } ],
      "duration" : 2700.000000000,
      "pause" : false
    },
    "needed" : [ {
      "id" : 15,
      "name" : "15",
      "shifts" : [ {
        "start" : [ 9, 0 ],
        "end" : [ 12, 0 ]
      }, {
        "start" : [ 13, 0 ],
        "end" : [ 17, 0 ]
      } ],
      "prefSlots" : null,
      "startingLoc" : {
        "id" : 8983,
        "name" : null,
        "latitude" : 43.861412,
        "longitude" : 4.273401
      },
      "skills" : [ {
        "id" : 7,
        "name" : "PAINTING",
        "level" : 9
      }, {
        "id" : 6,
        "name" : "CARPENTRY",
        "level" : 7
      }, {
        "id" : 4,
        "name" : "MASONRY",
        "level" : 7
      }, {
        "id" : 8,
        "name" : "IRONWORK",
        "level" : 5
      }, {
        "id" : 6,
        "name" : "CARPENTRY",
        "level" : 9
      }, {
        "id" : 0,
        "name" : "MANAGEMENT",
        "level" : 8
      }, {
        "id" : 5,
        "name" : "GLAZING",
        "level" : 7
      }, {
        "id" : 8,
        "name" : "IRONWORK",
        "level" : 2
      }, {
        "id" : 0,
        "name" : "MANAGEMENT",
        "level" : 8
      } ]
    }, {
      "id" : 186,
      "name" : "186",
      "shifts" : [ {
        "start" : [ 9, 0 ],
        "end" : [ 12, 0 ]
      }, {
        "start" : [ 13, 0 ],
        "end" : [ 17, 0 ]
      } ],
      "prefSlots" : null,
      "startingLoc" : {
        "id" : 3121,
        "name" : null,
        "latitude" : 43.921352,
        "longitude" : 3.9499462
      },
      "skills" : [ {
        "id" : 8,
        "name" : "IRONWORK",
        "level" : 5
      }, {
        "id" : 9,
        "name" : "TILER",
        "level" : 1
      } ]
    }, {
      "id" : 353,
      "name" : "353",
      "shifts" : [ {
        "start" : [ 9, 0 ],
        "end" : [ 12, 0 ]
      }, {
        "start" : [ 13, 0 ],
        "end" : [ 17, 0 ]
      } ],
      "prefSlots" : null,
      "startingLoc" : {
        "id" : 8612,
        "name" : null,
        "latitude" : 43.738384,
        "longitude" : 4.26042
      },
      "skills" : [ {
        "id" : 4,
        "name" : "MASONRY",
        "level" : 8
      } ]
    }, {
      "id" : 436,
      "name" : "436",
      "shifts" : [ {
        "start" : [ 9, 0 ],
        "end" : [ 12, 0 ]
      }, {
        "start" : [ 13, 0 ],
        "end" : [ 17, 0 ]
      } ],
      "prefSlots" : null,
      "startingLoc" : {
        "id" : 6014,
        "name" : null,
        "latitude" : 43.7442,
        "longitude" : 3.7730503
      },
      "skills" : [ {
        "id" : 5,
        "name" : "GLAZING",
        "level" : 7
      }, {
        "id" : 9,
        "name" : "TILER",
        "level" : 9
      }, {
        "id" : 4,
        "name" : "MASONRY",
        "level" : 2
      }, {
        "id" : 8,
        "name" : "IRONWORK",
        "level" : 3
      }, {
        "id" : 6,
        "name" : "CARPENTRY",
        "level" : 4
      }, {
        "id" : 0,
        "name" : "MANAGEMENT",
        "level" : 10
      }, {
        "id" : 3,
        "name" : "PLUMBING",
        "level" : 4
      } ]
    }, {
      "id" : 308,
      "name" : "308",
      "shifts" : [ {
        "start" : [ 9, 0 ],
        "end" : [ 12, 0 ]
      }, {
        "start" : [ 13, 0 ],
        "end" : [ 17, 0 ]
      } ],
      "prefSlots" : null,
      "startingLoc" : {
        "id" : 501,
        "name" : null,
        "latitude" : 43.961983,
        "longitude" : 3.737538
      },
      "skills" : [ {
        "id" : 2,
        "name" : "ELECTRICIAN",
        "level" : 5
      }, {
        "id" : 7,
        "name" : "PAINTING",
        "level" : 1
      }, {
        "id" : 5,
        "name" : "GLAZING",
        "level" : 6
      }, {
        "id" : 5,
        "name" : "GLAZING",
        "level" : 5
      }, {
        "id" : 1,
        "name" : "ENGINEER",
        "level" : 2
      }, {
        "id" : 9,
        "name" : "TILER",
        "level" : 7
      }, {
        "id" : 3,
        "name" : "PLUMBING",
        "level" : 9
      }, {
        "id" : 3,
        "name" : "PLUMBING",
        "level" : 2
      } ]
    }, {
      "id" : 94,
      "name" : "94",
      "shifts" : [ {
        "start" : [ 9, 0 ],
        "end" : [ 12, 0 ]
      }, {
        "start" : [ 13, 0 ],
        "end" : [ 17, 0 ]
      } ],
      "prefSlots" : null,
      "startingLoc" : {
        "id" : 8435,
        "name" : null,
        "latitude" : 43.620094,
        "longitude" : 3.9231415
      },
      "skills" : [ {
        "id" : 5,
        "name" : "GLAZING",
        "level" : 9
      }, {
        "id" : 7,
        "name" : "PAINTING",
        "level" : 7
      }, {
        "id" : 6,
        "name" : "CARPENTRY",
        "level" : 10
      }, {
        "id" : 2,
        "name" : "ELECTRICIAN",
        "level" : 7
      } ]
    } ]
  }, {
    "job" : {
      "id" : 981,
      "desc" : "PLUMBING",
      "location" : {
        "id" : 103,
        "name" : null,
        "latitude" : 43.95175,
        "longitude" : 3.984734
      },
      "openings" : {
        "start" : [ 11, 54 ],
        "end" : [ 14, 6 ]
      },
      "preferredSlots" : null,
      "doAfter" : null,
      "nbEmpRequired" : 1,
      "deadline" : [ 15, 46 ],
      "skills" : [ {
        "id" : 3,
        "name" : "PLUMBING",
        "level" : 4
      } ],
      "duration" : 1800.000000000,
      "pause" : false
    },
    "needed" : [ {
      "id" : 15,
      "name" : "15",
      "shifts" : [ {
        "start" : [ 9, 0 ],
        "end" : [ 12, 0 ]
      }, {
        "start" : [ 13, 0 ],
        "end" : [ 17, 0 ]
      } ],
      "prefSlots" : null,
      "startingLoc" : {
        "id" : 8983,
        "name" : null,
        "latitude" : 43.861412,
        "longitude" : 4.273401
      },
      "skills" : [ {
        "id" : 7,
        "name" : "PAINTING",
        "level" : 9
      }, {
        "id" : 6,
        "name" : "CARPENTRY",
        "level" : 7
      }, {
        "id" : 4,
        "name" : "MASONRY",
        "level" : 7
      }, {
        "id" : 8,
        "name" : "IRONWORK",
        "level" : 5
      }, {
        "id" : 6,
        "name" : "CARPENTRY",
        "level" : 9
      }, {
        "id" : 0,
        "name" : "MANAGEMENT",
        "level" : 8
      }, {
        "id" : 5,
        "name" : "GLAZING",
        "level" : 7
      }, {
        "id" : 8,
        "name" : "IRONWORK",
        "level" : 2
      }, {
        "id" : 0,
        "name" : "MANAGEMENT",
        "level" : 8
      } ]
    } ]
  }, {
    "job" : {
      "id" : 720,
      "desc" : "PLUMBING",
      "location" : {
        "id" : 9086,
        "name" : null,
        "latitude" : 44.059883,
        "longitude" : 3.8173537
      },
      "openings" : {
        "start" : [ 11, 32 ],
        "end" : [ 16, 2 ]
      },
      "preferredSlots" : null,
      "doAfter" : null,
      "nbEmpRequired" : 1,
      "deadline" : [ 14, 54 ],
      "skills" : [ {
        "id" : 3,
        "name" : "PLUMBING",
        "level" : 5
      } ],
      "duration" : 2700.000000000,
      "pause" : false
    },
    "needed" : [ {
      "id" : 15,
      "name" : "15",
      "shifts" : [ {
        "start" : [ 9, 0 ],
        "end" : [ 12, 0 ]
      }, {
        "start" : [ 13, 0 ],
        "end" : [ 17, 0 ]
      } ],
      "prefSlots" : null,
      "startingLoc" : {
        "id" : 8983,
        "name" : null,
        "latitude" : 43.861412,
        "longitude" : 4.273401
      },
      "skills" : [ {
        "id" : 7,
        "name" : "PAINTING",
        "level" : 9
      }, {
        "id" : 6,
        "name" : "CARPENTRY",
        "level" : 7
      }, {
        "id" : 4,
        "name" : "MASONRY",
        "level" : 7
      }, {
        "id" : 8,
        "name" : "IRONWORK",
        "level" : 5
      }, {
        "id" : 6,
        "name" : "CARPENTRY",
        "level" : 9
      }, {
        "id" : 0,
        "name" : "MANAGEMENT",
        "level" : 8
      }, {
        "id" : 5,
        "name" : "GLAZING",
        "level" : 7
      }, {
        "id" : 8,
        "name" : "IRONWORK",
        "level" : 2
      }, {
        "id" : 0,
        "name" : "MANAGEMENT",
        "level" : 8
      } ]
    }, {
      "id" : 915,
      "name" : "915",
      "shifts" : [ {
        "start" : [ 9, 0 ],
        "end" : [ 12, 0 ]
      }, {
        "start" : [ 13, 0 ],
        "end" : [ 17, 0 ]
      } ],
      "prefSlots" : null,
      "startingLoc" : {
        "id" : 1578,
        "name" : null,
        "latitude" : 43.844967,
        "longitude" : 4.0777774
      },
      "skills" : [ {
        "id" : 6,
        "name" : "CARPENTRY",
        "level" : 1
      }, {
        "id" : 8,
        "name" : "IRONWORK",
        "level" : 9
      }, {
        "id" : 1,
        "name" : "ENGINEER",
        "level" : 7
      }, {
        "id" : 7,
        "name" : "PAINTING",
        "level" : 9
      }, {
        "id" : 5,
        "name" : "GLAZING",
        "level" : 9
      }, {
        "id" : 4,
        "name" : "MASONRY",
        "level" : 8
      } ]
    }, {
      "id" : 94,
      "name" : "94",
      "shifts" : [ {
        "start" : [ 9, 0 ],
        "end" : [ 12, 0 ]
      }, {
        "start" : [ 13, 0 ],
        "end" : [ 17, 0 ]
      } ],
      "prefSlots" : null,
      "startingLoc" : {
        "id" : 8435,
        "name" : null,
        "latitude" : 43.620094,
        "longitude" : 3.9231415
      },
      "skills" : [ {
        "id" : 5,
        "name" : "GLAZING",
        "level" : 9
      }, {
        "id" : 7,
        "name" : "PAINTING",
        "level" : 7
      }, {
        "id" : 6,
        "name" : "CARPENTRY",
        "level" : 10
      }, {
        "id" : 2,
        "name" : "ELECTRICIAN",
        "level" : 7
      } ]
    }, {
      "id" : 436,
      "name" : "436",
      "shifts" : [ {
        "start" : [ 9, 0 ],
        "end" : [ 12, 0 ]
      }, {
        "start" : [ 13, 0 ],
        "end" : [ 17, 0 ]
      } ],
      "prefSlots" : null,
      "startingLoc" : {
        "id" : 6014,
        "name" : null,
        "latitude" : 43.7442,
        "longitude" : 3.7730503
      },
      "skills" : [ {
        "id" : 5,
        "name" : "GLAZING",
        "level" : 7
      }, {
        "id" : 9,
        "name" : "TILER",
        "level" : 9
      }, {
        "id" : 4,
        "name" : "MASONRY",
        "level" : 2
      }, {
        "id" : 8,
        "name" : "IRONWORK",
        "level" : 3
      }, {
        "id" : 6,
        "name" : "CARPENTRY",
        "level" : 4
      }, {
        "id" : 0,
        "name" : "MANAGEMENT",
        "level" : 10
      }, {
        "id" : 3,
        "name" : "PLUMBING",
        "level" : 4
      } ]
    } ]
  } ]
}