{
  "jobs" : [ {
    "id" : 651,
    "desc" : "GLAZING, MASONRY",
    "location" : {
      "id" : 8115,
      "name" : null,
      "latitude" : 43.864006,
      "longitude" : 4.1310606
    },
    "openings" : {
      "start" : [ 14, 57 ],
      "end" : [ 17, 50 ]
    },
    "preferredSlots" : null,
    "doAfter" : null,
    "nbEmpRequired" : 1,
    "deadline" : [ 15, 43 ],
    "skills" : [ {
      "id" : 5,
      "name" : "GLAZING",
      "level" : 4
    }, {
      "id" : 4,
      "name" : "MASONRY",
      "level" : 3
    } ],
    "duration" : 3600.000000000,
    "pause" : false
  }, {
    "id" : 613,
    "desc" : "CARPENTRY",
    "location" : {
      "id" : 3654,
      "name" : null,
      "latitude" : 43.596466,
      "longitude" : 3.7277417
    },
    "openings" : {
      "start" : [ 13, 1 ],
      "end" : [ 14, 49 ]
    },
    "preferredSlots" : null,
    "doAfter" : null,
    "nbEmpRequired" : 1,
    "deadline" : [ 17, 31 ],
    "skills" : [ {
      "id" : 6,
      "name" : "CARPENTRY",
      "level" : 4
    } ],
    "duration" : 2700.000000000,
    "pause" : false
  }, {
    "id" : 682,
    "desc" : "IRONWORK, ELECTRICIAN",
    "location" : {
      "id" : 9160,
      "name" : null,
      "latitude" : 43.46696,
      "longitude" : 3.7800548
    },
    "openings" : {
      "start" : [ 13, 6 ],
      "end" : [ 16, 17 ]
    },
    "preferredSlots" : null,
    "doAfter" : null,
    "nbEmpRequired" : 1,
    "deadline" : [ 13, 33 ],
    "skills" : [ {
      "id" : 8,
      "name" : "IRONWORK",
      "level" : 3
    }, {
      "id" : 2,
      "name" : "ELECTRICIAN",
      "level" : 1
    } ],
    "duration" : 2700.000000000,
    "pause" : false
  }, {
    "id" : 416,
    "desc" : "GLAZING, PLUMBING",
    "location" : {
      "id" : 4063,
      "name" : null,
      "latitude" : 43.926083,
      "longitude" : 4.187388
    },
    "openings" : {
      "start" : [ 12, 43 ],
      "end" : [ 14, 9 ]
    },
    "preferredSlots" : null,
    "doAfter" : null,
    "nbEmpRequired" : 1,
    "deadline" : [ 10, 33 ],
    "skills" : [ {
      "id" : 5,
      "name" : "GLAZING",
      "level" : 3
    }, {
      "id" : 3,
      "name" : "PLUMBING",
      "level" : 1
    } ],
    "duration" : 2700.000000000,
    "pause" : false
  }, {
    "id" : 879,
    "desc" : "ELECTRICIAN, GLAZING",
    "location" : {
      "id" : 2974,
      "name" : null,
      "latitude" : 43.739388,
      "longitude" : 3.7611928
    },
    "openings" : {
      "start" : [ 11, 15 ],
      "end" : [ 16, 29 ]
    },
    "preferredSlots" : null,
    "doAfter" : null,
    "nbEmpRequired" : 1,
    "deadline" : [ 9, 31 ],
    "skills" : [ {
      "id" : 2,
      "name" : "ELECTRICIAN",
      "level" : 4
    }, {
      "id" : 5,
      "name" : "GLAZING",
      "level" : 1
    } ],
    "duration" : 2700.000000000,
    "pause" : false
  }, {
    "id" : 697,
    "desc" : "ELECTRICIAN, IRONWORK",
    "location" : {
      "id" : 9787,
      "name" : null,
      "latitude" : 43.568707,
      "longitude" : 3.8863678
    },
    "openings" : {
      "start" : [ 10, 54 ],
      "end" : [ 14, 24 ]
    },
    "preferredSlots" : null,
    "doAfter" : null,
    "nbEmpRequired" : 1,
    "deadline" : [ 9, 51 ],
    "skills" : [ {
      "id" : 2,
      "name" : "ELECTRICIAN",
      "level" : 1
    }, {
      "id" : 8,
      "name" : "IRONWORK",
      "level" : 2
    } ],
    "duration" : 3600.000000000,
    "pause" : false
  }, {
    "id" : 206,
    "desc" : "TILER",
    "location" : {
      "id" : 2526,
      "name" : null,
      "latitude" : 43.44691,
      "longitude" : 3.8601913
    },
    "openings" : {
      "start" : [ 10, 37 ],
      "end" : [ 12, 7 ]
    },
    "preferredSlots" : null,
    "doAfter" : null,
    "nbEmpRequired" : 1,
    "deadline" : [ 16, 6 ],
    "skills" : [ {
      "id" : 9,
      "name" : "TILER",
      "level" : 2
    } ],
    "duration" : 7200.000000000,
    "pause" : false
  }, {
    "id" : 82,
    "desc" : "PAINTING, ENGINEER",
    "location" : {
      "id" : 5323,
      "name" : null,
      "latitude" : 43.708485,
      "longitude" : 4.071597
    },
    "openings" : {
      "start" : [ 12, 31 ],
      "end" : [ 15, 44 ]
    },
    "preferredSlots" : null,
    "doAfter" : null,
    "nbEmpRequired" : 1,
    "deadline" : [ 10, 15 ],
    "skills" : [ {
      "id" : 7,
      "name" : "PAINTING",
      "level" : 2
    }, {
      "id" : 1,
      "name" : "ENGINEER",
      "level" : 3
    } ],
    "duration" : 2700.000000000,
    "pause" : false
  }, {
    "id" : 934,
    "desc" : "TILER",
    "location" : {
      "id" : 5615,
      "name" : null,
      "latitude" : 43.988895,
      "longitude" : 4.28872
    },
    "openings" : {
      "start" : [ 13, 29 ],
      "end" : [ 15, 6 ]
    },
    "preferredSlots" : null,
    "doAfter" : null,
    "nbEmpRequired" : 1,
    "deadline" : [ 16, 47 ],
    "skills" : [ {
      "id" : 9,
      "name" : "TILER",
      "level" : 3
    } ],
    "duration" : 1800.000000000,
    "pause" : false
  }, {
    "id" : 875,
    "desc" : "MANAGEMENT, TILER",
    "location" : {
      "id" : 8079,
      "name" : null,
      "latitude" : 43.78446,
      "longitude" : 4.064528
    },
    "openings" : {
      "start" : [ 12, 6 ],
      "end" : [ 16, 48 ]
    },
    "preferredSlots" : null,
    "doAfter" : null,
    "nbEmpRequired" : 1,
    "deadline" : [ 11, 32 ],
    "skills" : [ {
      "id" : 0,
      "name" : "MANAGEMENT",
      "level" : 5
    }, {
      "id" : 9,
      "name" : "TILER",
      "level" : 3
    } ],
    "duration" : 1800.000000000,
    "pause" : false
  } ],
  "employees" : [ {
    "id" : 363,
    "name" : "363",
    "shifts" : [ {
      "start" : [ 9, 0 ],
      "end" : [ 12, 0 ]
    }, {
      "start" : [ 13, 0 ],
      "end" : [ 17, 0 ]
    } ],
    "prefSlots" : null,
    "startingLoc" : {
      "id" : 4086,
      "name" : null,
      "latitude" : 43.54708,
      "longitude" : 3.843038
    },
    "skills" : [ {
      "id" : 8,
      "name" : "IRONWORK",
      "level" : 9
    }, {
      "id" : 7,
      "name" : "PAINTING",
      "level" : 3
    }, {
      "id" : 0,
      "name" : "MANAGEMENT",
      "level" : 2
    }, {
      "id" : 7,
      "name" : "PAINTING",
      "level" : 2
    }, {
      "id" : 7,
      "name" : "PAINTING",
      "level" : 10
    }, {
      "id" : 9,
      "name" : "TILER",
      "level" : 9
    }, {
      "id" : 7,
      "name" : "PAINTING",
      "level" : 1
    }, {
      "id" : 3,
      "name" : "PLUMBING",
      "level" : 2
    } ]
  }, {
    "id" : 961,
    "name" : "961",
    "shifts" : [ {
      "start" : [ 9, 0 ],
      "end" : [ 12, 0 ]
    }, {
      "start" : [ 13, 0 ],
      "end" : [ 17, 0 ]
    } ],
    "prefSlots" : null,
    "startingLoc" : {
      "id" : 5125,
      "name" : null,
      "latitude" : 43.804375,
      "longitude" : 3.8996818
    },
    "skills" : [ {
      "id" : 8,
      "name" : "IRONWORK",
      "level" : 6
    }, {
      "id" : 6,
      "name" : "CARPENTRY",
      "level" : 4
    } ]
  }, {
    "id" : 868,
    "name" : "868",
    "shifts" : [ {
      "start" : [ 9, 0 ],
      "end" : [ 12, 0 ]
    }, {
      "start" : [ 13, 0 ],
      "end" : [ 17, 0 ]
    } ],
    "prefSlots" : null,
    "startingLoc" : {
      "id" : 5853,
      "name" : null,
      "latitude" : 43.582134,
      "longitude" : 4.2111745
    },
    "skills" : [ {
      "id" : 5,
      "name" : "GLAZING",
      "level" : 6
    }, {
      "id" : 6,
      "name" : "CARPENTRY",
      "level" : 1
    }, {
      "id" : 6,
      "name" : "CARPENTRY",
      "level" : 3
    }, {
      "id" : 6,
      "name" : "CARPENTRY",
      "level" : 5
    }, {
      "id" : 5,
      "name" : "GLAZING",
      "level" : 5
    }, {
      "id" : 6,
      "name" : "CARPENTRY",
      "level" : 9
    }, {
      "id" : 3,
      "name" : "PLUMBING",
      "level" : 6
    } ]
  }, {
    "id" : 359,
    "name" : "359",
    "shifts" : [ {
      "start" : [ 9, 0 ],
      "end" : [ 12, 0 ]
    }, {
      "start" : [ 13, 0 ],
      "end" : [ 17, 0 ]
    } ],
    "prefSlots" : null,
    "startingLoc" : {
      "id" : 5003,
      "name" : null,
      "latitude" : 43.713875,
      "longitude" : 3.9660964
    },
    "skills" : [ {
      "id" : 3,
      "name" : "PLUMBING",
      "level" : 1
    }, {
      "id" : 3,
      "name" : "PLUMBING",
      "level" : 2
    } ]
  }, {
    "id" : 8,
    "name" : "8",
    "shifts" : [ {
      "start" : [ 9, 0 ],
      "end" : [ 12, 0 ]
    }, {
      "start" : [ 13, 0 ],
      "end" : [ 17, 0 ]
    } ],
    "prefSlots" : null,
    "startingLoc" : {
      "id" : 5985,
      "name" : null,
      "latitude" : 43.581505,
      "longitude" : 3.8247032
    },
    "skills" : [ {
      "id" : 9,
      "name" : "TILER",
      "level" : 5
    }, {
      "id" : 2,
      "name" : "ELECTRICIAN",
      "level" : 3
    }, {
      "id" : 2,
      "name" : "ELECTRICIAN",
      "level" : 8
    }, {
      "id" : 9,
      "name" : "TILER",
      "level" : 2
    }, {
      "id" : 6,
      "name" : "CARPENTRY",
      "level" : 7
    }, {
      "id" : 5,
      "name" : "GLAZING",
      "level" : 8
    }, {
      "id" : 3,
      "name" : "PLUMBING",
      "level" : 6
    } ]
  }, {
    "id" : 489,
    "name" : "489",
    "shifts" : [ {
      "start" : [ 9, 0 ],
      "end" : [ 12, 0 ]
    }, {
      "start" : [ 13, 0 ],
      "end" : [ 17, 0 ]
    } ],
    "prefSlots" : null,
    "startingLoc" : {
      "id" : 6722,
      "name" : null,
      "latitude" : 43.94381,
      "longitude" : 4.022554
    },
    "skills" : [ {
      "id" : 4,
      "name" : "MASONRY",
      "level" : 6
    }, {
      "id" : 6,
      "name" : "CARPENTRY",
      "level" : 1
    }, {
      "id" : 7,
      "name" : "PAINTING",
      "level" : 2
    }, {
      "id" : 2,
      "name" : "ELECTRICIAN",
      "level" : 1
    }, {
      "id" : 6,
      "name" : "CARPENTRY",
      "level" : 3
    }, {
      "id" : 9,
      "name" : "TILER",
      "level" : 9
    }, {
      "id" : 7,
      "name" : "PAINTING",
      "level" : 1
    }, {
      "id" : 2,
      "name" : "ELECTRICIAN",
      "level" : 9
    }, {
      "id" : 7,
      "name" : "PAINTING",
      "level" : 9
    } ]
  }, {
    "id" : 963,
    "name" : "963",
    "shifts" : [ {
      "start" : [ 9, 0 ],
      "end" : [ 12, 0 ]
    }, {
      "start" : [ 13, 0 ],
      "end" : [ 17, 0 ]
    } ],
    "prefSlots" : null,
    "startingLoc" : {
      "id" : 5614,
      "name" : null,
      "latitude" : 43.857323,
      "longitude" : 3.9856312
    },
    "skills" : [ {
      "id" : 7,
      "name" : "PAINTING",
      "level" : 8
    }, {
      "id" : 8,
      "name" : "IRONWORK",
      "level" : 3
    }, {
      "id" : 1,
      "name" : "ENGINEER",
      "level" : 2
    }, {
      "id" : 6,
      "name" : "CARPENTRY",
      "level" : 1
    }, {
      "id" : 6,
      "name" : "CARPENTRY",
      "level" : 10
    }, {
      "id" : 1,
      "name" : "ENGINEER",
      "level" : 4
    } ]
  }, {
    "id" : 158,
    "name" : "158",
    "shifts" : [ {
      "start" : [ 9, 0 ],
      "end" : [ 12, 0 ]
    }, {
      "start" : [ 13, 0 ],
      "end" : [ 17, 0 ]
    } ],
    "prefSlots" : null,
    "startingLoc" : {
      "id" : 1510,
      "name" : null,
      "latitude" : 43.544964,
      "longitude" : 4.253993
    },
    "skills" : [ {
      "id" : 0,
      "name" : "MANAGEMENT",
      "level" : 2
    }, {
      "id" : 6,
      "name" : "CARPENTRY",
      "level" : 6
    }, {
      "id" : 1,
      "name" : "ENGINEER",
      "level" : 3
    } ]
  }, {
    "id" : 823,
    "name" : "823",
    "shifts" : [ {
      "start" : [ 9, 0 ],
      "end" : [ 12, 0 ]
    }, {
      "start" : [ 13, 0 ],
      "end" : [ 17, 0 ]
    } ],
    "prefSlots" : null,
    "startingLoc" : {
      "id" : 6651,
      "name" : null,
      "latitude" : 43.475803,
      "longitude" : 4.12133
    },
    "skills" : [ {
      "id" : 0,
      "name" : "MANAGEMENT",
      "level" : 8
    }, {
      "id" : 3,
      "name" : "PLUMBING",
      "level" : 5
    }, {
      "id" : 8,
      "name" : "IRONWORK",
      "level" : 9
    }, {
      "id" : 3,
      "name" : "PLUMBING",
      "level" : 2
    }, {
      "id" : 2,
      "name" : "ELECTRICIAN",
      "level" : 7
    }, {
      "id" : 7,
      "name" : "PAINTING",
      "level" : 3
    }, {
      "id" : 5,
      "name" : "GLAZING",
      "level" : 5
    }, {
      "id" : 4,
      "name" : "MASONRY",
      "level" : 2
    }, {
      "id" : 2,
      "name" : "ELECTRICIAN",
      "level" : 7
    } ]
  }, {
    "id" : 191,
    "name" : "191",
    "shifts" : [ {
      "start" : [ 9, 0 ],
      "end" : [ 12, 0 ]
    }, {
      "start" : [ 13, 0 ],
      "end" : [ 17, 0 ]
    } ],
    "prefSlots" : null,
    "startingLoc" : {
      "id" : 9749,
      "name" : null,
      "latitude" : 43.482967,
      "longitude" : 4.078826
    },
    "skills" : [ {
      "id" : 9,
      "name" : "TILER",
      "level" : 8
    } ]
  } ],
  "appointments" : [ {
    "job" : {
      "id" : 416,
      "desc" : "GLAZING, PLUMBING",
      "location" : {
        "id" : 4063,
        "name" : null,
        "latitude" : 43.926083,
        "longitude" : 4.187388
      },
      "openings" : {
        "start" : [ 12, 43 ],
        "end" : [ 14, 9 ]
      },
      "preferredSlots" : null,
      "doAfter" : null,
      "nbEmpRequired" : 1,
      "deadline" : [ 10, 33 ],
      "skills" : [ {
        "id" : 5,
        "name" : "GLAZING",
        "level" : 3
      }, {
        "id" : 3,
        "name" : "PLUMBING",
        "level" : 1
      } ],
      "duration" : 2700.000000000,
      "pause" : false
    },
    "needed" : [ {
      "id" : 823,
      "name" : "823",
      "shifts" : [ {
        "start" : [ 9, 0 ],
        "end" : [ 12, 0 ]
      }, {
        "start" : [ 13, 0 ],
        "end" : [ 17, 0 ]
      } ],
      "prefSlots" : null,
      "startingLoc" : {
        "id" : 6651,
        "name" : null,
        "latitude" : 43.475803,
        "longitude" : 4.12133
      },
      "skills" : [ {
        "id" : 0,
        "name" : "MANAGEMENT",
        "level" : 8
      }, {
        "id" : 3,
        "name" : "PLUMBING",
        "level" : 5
      }, {
        "id" : 8,
        "name" : "IRONWORK",
        "level" : 9
      }, {
        "id" : 3,
        "name" : "PLUMBING",
        "level" : 2
      }, {
        "id" : 2,
        "name" : "ELECTRICIAN",
        "level" : 7
      }, {
        "id" : 7,
        "name" : "PAINTING",
        "level" : 3
      }, {
        "id" : 5,
        "name" : "GLAZING",
        "level" : 5
      }, {
        "id" : 4,
        "name" : "MASONRY",
        "level" : 2
      }, {
        "id" : 2,
        "name" : "ELECTRICIAN",
        "level" : 7
      } ]
    } ]
  }, {
    "job" : {
      "id" : 613,
      "desc" : "CARPENTRY",
      "location" : {
        "id" : 3654,
        "name" : null,
        "latitude" : 43.596466,
        "longitude" : 3.7277417
      },
      "openings" : {
        "start" : [ 13, 1 ],
        "end" : [ 14, 49 ]
      },
      "preferredSlots" : null,
      "doAfter" : null,
      "nbEmpRequired" : 1,
      "deadline" : [ 17, 31 ],
      "skills" : [ {
        "id" : 6,
        "name" : "CARPENTRY",
        "level" : 4
      } ],
      "duration" : 2700.000000000,
      "pause" : false
    },
    "needed" : [ {
      "id" : 359,
      "name" : "359",
      "shifts" : [ {
        "start" : [ 9, 0 ],
        "end" : [ 12, 0 ]
      }, {
        "start" : [ 13, 0 ],
        "end" : [ 17, 0 ]
      } ],
      "prefSlots" : null,
      "startingLoc" : {
        "id" : 5003,
        "name" : null,
        "latitude" : 43.713875,
        "longitude" : 3.9660964
      },
      "skills" : [ {
        "id" : 3,
        "name" : "PLUMBING",
        "level" : 1
      }, {
        "id" : 3,
        "name" : "PLUMBING",
        "level" : 2
      } ]
    } ]
  }, {
    "job" : {
      "id" : 697,
      "desc" : "ELECTRICIAN, IRONWORK",
      "location" : {
        "id" : 9787,
        "name" : null,
        "latitude" : 43.568707,
        "longitude" : 3.8863678
      },
      "openings" : {
        "start" : [ 10, 54 ],
        "end" : [ 14, 24 ]
      },
      "preferredSlots" : null,
      "doAfter" : null,
      "nbEmpRequired" : 1,
      "deadline" : [ 9, 51 ],
      "skills" : [ {
        "id" : 2,
        "name" : "ELECTRICIAN",
        "level" : 1
      }, {
        "id" : 8,
        "name" : "IRONWORK",
        "level" : 2
      } ],
      "duration" : 3600.000000000,
      "pause" : false
    },
    "needed" : [ {
      "id" : 868,
      "name" : "868",
      "shifts" : [ {
        "start" : [ 9, 0 ],
        "end" : [ 12, 0 ]
      }, {
        "start" : [ 13, 0 ],
        "end" : [ 17, 0 ]
      } ],
      "prefSlots" : null,
      "startingLoc" : {
        "id" : 5853,
        "name" : null,
        "latitude" : 43.582134,
        "longitude" : 4.2111745
      },
      "skills" : [ {
        "id" : 5,
        "name" : "GLAZING",
        "level" : 6
      }, {
        "id" : 6,
        "name" : "CARPENTRY",
        "level" : 1
      }, {
        "id" : 6,
        "name" : "CARPENTRY",
        "level" : 3
      }, {
        "id" : 6,
        "name" : "CARPENTRY",
        "level" : 5
      }, {
        "id" : 5,
        "name" : "GLAZING",
        "level" : 5
      }, {
        "id" : 6,
        "name" : "CARPENTRY",
        "level" : 9
      }, {
        "id" : 3,
        "name" : "PLUMBING",
        "level" : 6
      } ]
    } ]
  }, {
    "job" : {
      "id" : 934,
      "desc" : "TILER",
      "location" : {
        "id" : 5615,
        "name" : null,
        "latitude" : 43.988895,
        "longitude" : 4.28872
      },
      "openings" : {
        "start" : [ 13, 29 ],
        "end" : [ 15, 6 ]
      },
      "preferredSlots" : null,
      "doAfter" : null,
      "nbEmpRequired" : 1,
      "deadline" : [ 16, 47 ],
      "skills" : [ {
        "id" : 9,
        "name" : "TILER",
        "level" : 3
      } ],
      "duration" : 1800.000000000,
      "pause" : false
    },
    "needed" : [ {
      "id" : 8,
      "name" : "8",
      "shifts" : [ {
        "start" : [ 9, 0 ],
        "end" : [ 12, 0 ]
      }, {
        "start" : [ 13, 0 ],
        "end" : [ 17, 0 ]
      } ],
      "prefSlots" : null,
      "startingLoc" : {
        "id" : 5985,
        "name" : null,
        "latitude" : 43.581505,
        "longitude" : 3.8247032
      },
      "skills" : [ {
        "id" : 9,
        "name" : "TILER",
        "level" : 5
      }, {
        "id" : 2,
        "name" : "ELECTRICIAN",
        "level" : 3
      }, {
        "id" : 2,
        "name" : "ELECTRICIAN",
        "level" : 8
      }, {
        "id" : 9,
        "name" : "TILER",
        "level" : 2
      }, {
        "id" : 6,
        "name" : "CARPENTRY",
        "level" : 7
      }, {
        "id" : 5,
        "name" : "GLAZING",
        "level" : 8
      }, {
        "id" : 3,
        "name" : "PLUMBING",
        "level" : 6
      } ]
    } ]
  }, {
    "job" : {
      "id" : 879,
      "desc" : "ELECTRICIAN, GLAZING",
      "location" : {
        "id" : 2974,
        "name" : null,
        "latitude" : 43.739388,
        "longitude" : 3.7611928
      },
      "openings" : {
        "start" : [ 11, 15 ],
        "end" : [ 16, 29 ]
      },
      "preferredSlots" : null,
      "doAfter" : null,
      "nbEmpRequired" : 1,
      "deadline" : [ 9, 31 ],
      "skills" : [ {
        "id" : 2,
        "name" : "ELECTRICIAN",
        "level" : 4
      }, {
        "id" : 5,
        "name" : "GLAZING",
        "level" : 1
      } ],
      "duration" : 2700.000000000,
      "pause" : false
    },
    "needed" : [ {
      "id" : 489,
      "name" : "489",
      "shifts" : [ {
        "start" : [ 9, 0 ],
        "end" : [ 12, 0 ]
      }, {
        "start" : [ 13, 0 ],
        "end" : [ 17, 0 ]
      } ],
      "prefSlots" : null,
      "startingLoc" : {
        "id" : 6722,
        "name" : null,
        "latitude" : 43.94381,
        "longitude" : 4.022554
      },
      "skills" : [ {
        "id" : 4,
        "name" : "MASONRY",
        "level" : 6
      }, {
        "id" : 6,
        "name" : "CARPENTRY",
        "level" : 1
      }, {
        "id" : 7,
        "name" : "PAINTING",
        "level" : 2
      }, {
        "id" : 2,
        "name" : "ELECTRICIAN",
        "level" : 1
      }, {
        "id" : 6,
        "name" : "CARPENTRY",
        "level" : 3
      }, {
        "id" : 9,
        "name" : "TILER",
        "level" : 9
      }, {
        "id" : 7,
        "name" : "PAINTING",
        "level" : 1
      }, {
        "id" : 2,
        "name" : "ELECTRICIAN",
        "level" : 9
      }, {
        "id" : 7,
        "name" : "PAINTING",
        "level" : 9
      } ]
    } ]
  }, {
    "job" : {
      "id" : 697,
      "desc" : "ELECTRICIAN, IRONWORK",
      "location" : {
        "id" : 9787,
        "name" : null,
        "latitude" : 43.568707,
        "longitude" : 3.8863678
      },
      "openings" : {
        "start" : [ 10, 54 ],
        "end" : [ 14, 24 ]
      },
      "preferredSlots" : null,
      "doAfter" : null,
      "nbEmpRequired" : 1,
      "deadline" : [ 9, 51 ],
      "skills" : [ {
        "id" : 2,
        "name" : "ELECTRICIAN",
        "level" : 1
      }, {
        "id" : 8,
        "name" : "IRONWORK",
        "level" : 2
      } ],
      "duration" : 3600.000000000,
      "pause" : false
    },
    "needed" : [ {
      "id" : 363,
      "name" : "363",
      "shifts" : [ {
        "start" : [ 9, 0 ],
        "end" : [ 12, 0 ]
      }, {
        "start" : [ 13, 0 ],
        "end" : [ 17, 0 ]
      } ],
      "prefSlots" : null,
      "startingLoc" : {
        "id" : 4086,
        "name" : null,
        "latitude" : 43.54708,
        "longitude" : 3.843038
      },
      "skills" : [ {
        "id" : 8,
        "name" : "IRONWORK",
        "level" : 9
      }, {
        "id" : 7,
        "name" : "PAINTING",
        "level" : 3
      }, {
        "id" : 0,
        "name" : "MANAGEMENT",
        "level" : 2
      }, {
        "id" : 7,
        "name" : "PAINTING",
        "level" : 2
      }, {
        "id" : 7,
        "name" : "PAINTING",
        "level" : 10
      }, {
        "id" : 9,
        "name" : "TILER",
        "level" : 9
      }, {
        "id" : 7,
        "name" : "PAINTING",
        "level" : 1
      }, {
        "id" : 3,
        "name" : "PLUMBING",
        "level" : 2
      } ]
    } ]
  }, {
    "job" : {
      "id" : 82,
      "desc" : "PAINTING, ENGINEER",
      "location" : {
        "id" : 5323,
        "name" : null,
        "latitude" : 43.708485,
        "longitude" : 4.071597
      },
      "openings" : {
        "start" : [ 12, 31 ],
        "end" : [ 15, 44 ]
      },
      "preferredSlots" : null,
      "doAfter" : null,
      "nbEmpRequired" : 1,
      "deadline" : [ 10, 15 ],
      "skills" : [ {
        "id" : 7,
        "name" : "PAINTING",
        "level" : 2
      }, {
        "id" : 1,
        "name" : "ENGINEER",
        "level" : 3
      } ],
      "duration" : 2700.000000000,
      "pause" : false
    },
    "needed" : [ {
      "id" : 363,
      "name" : "363",
      "shifts" : [ {
        "start" : [ 9, 0 ],
        "end" : [ 12, 0 ]
      }, {
        "start" : [ 13, 0 ],
        "end" : [ 17, 0 ]
      } ],
      "prefSlots" : null,
      "startingLoc" : {
        "id" : 4086,
        "name" : null,
        "latitude" : 43.54708,
        "longitude" : 3.843038
      },
      "skills" : [ {
        "id" : 8,
        "name" : "IRONWORK",
        "level" : 9
      }, {
        "id" : 7,
        "name" : "PAINTING",
        "level" : 3
      }, {
        "id" : 0,
        "name" : "MANAGEMENT",
        "level" : 2
      }, {
        "id" : 7,
        "name" : "PAINTING",
        "level" : 2
      }, {
        "id" : 7,
        "name" : "PAINTING",
        "level" : 10
      }, {
        "id" : 9,
        "name" : "TILER",
        "level" : 9
      }, {
        "id" : 7,
        "name" : "PAINTING",
        "level" : 1
      }, {
        "id" : 3,
        "name" : "PLUMBING",
        "level" : 2
      } ]
    } ]
  }, {
    "job" : {
      "id" : 934,
      "desc" : "TILER",
      "location" : {
        "id" : 5615,
        "name" : null,
        "latitude" : 43.988895,
        "longitude" : 4.28872
      },
      "openings" : {
        "start" : [ 13, 29 ],
        "end" : [ 15, 6 ]
      },
      "preferredSlots" : null,
      "doAfter" : null,
      "nbEmpRequired" : 1,
      "deadline" : [ 16, 47 ],
      "skills" : [ {
        "id" : 9,
        "name" : "TILER",
        "level" : 3
      } ],
      "duration" : 1800.000000000,
      "pause" : false
    },
    "needed" : [ {
      "id" : 158,
      "name" : "158",
      "shifts" : [ {
        "start" : [ 9, 0 ],
        "end" : [ 12, 0 ]
      }, {
        "start" : [ 13, 0 ],
        "end" : [ 17, 0 ]
      } ],
      "prefSlots" : null,
      "startingLoc" : {
        "id" : 1510,
        "name" : null,
        "latitude" : 43.544964,
        "longitude" : 4.253993
      },
      "skills" : [ {
        "id" : 0,
        "name" : "MANAGEMENT",
        "level" : 2
      }, {
        "id" : 6,
        "name" : "CARPENTRY",
        "level" : 6
      }, {
        "id" : 1,
        "name" : "ENGINEER",
        "level" : 3
      } ]
    } ]
  }, {
    "job" : {
      "id" : 697,
      "desc" : "ELECTRICIAN, IRONWORK",
      "location" : {
        "id" : 9787,
        "name" : null,
        "latitude" : 43.568707,
        "longitude" : 3.8863678
      },
      "openings" : {
        "start" : [ 10, 54 ],
        "end" : [ 14, 24 ]
      },
      "preferredSlots" : null,
      "doAfter" : null,
      "nbEmpRequired" : 1,
      "deadline" : [ 9, 51 ],
      "skills" : [ {
        "id" : 2,
        "name" : "ELECTRICIAN",
        "level" : 1
      }, {
        "id" : 8,
        "name" : "IRONWORK",
        "level" : 2
      } ],
      "duration" : 3600.000000000,
      "pause" : false
    },
    "needed" : [ {
      "id" : 823,
      "name" : "823",
      "shifts" : [ {
        "start" : [ 9, 0 ],
        "end" : [ 12, 0 ]
      }, {
        "start" : [ 13, 0 ],
        "end" : [ 17, 0 ]
      } ],
      "prefSlots" : null,
      "startingLoc" : {
        "id" : 6651,
        "name" : null,
        "latitude" : 43.475803,
        "longitude" : 4.12133
      },
      "skills" : [ {
        "id" : 0,
        "name" : "MANAGEMENT",
        "level" : 8
      }, {
        "id" : 3,
        "name" : "PLUMBING",
        "level" : 5
      }, {
        "id" : 8,
        "name" : "IRONWORK",
        "level" : 9
      }, {
        "id" : 3,
        "name" : "PLUMBING",
        "level" : 2
      }, {
        "id" : 2,
        "name" : "ELECTRICIAN",
        "level" : 7
      }, {
        "id" : 7,
        "name" : "PAINTING",
        "level" : 3
      }, {
        "id" : 5,
        "name" : "GLAZING",
        "level" : 5
      }, {
        "id" : 4,
        "name" : "MASONRY",
        "level" : 2
      }, {
        "id" : 2,
        "name" : "ELECTRICIAN",
        "level" : 7
      } ]
    } ]
  }, {
    "job" : {
      "id" : 206,
      "desc" : "TILER",
      "location" : {
        "id" : 2526,
        "name" : null,
        "latitude" : 43.44691,
        "longitude" : 3.8601913
      },
      "openings" : {
        "start" : [ 10, 37 ],
        "end" : [ 12, 7 ]
      },
      "preferredSlots" : null,
      "doAfter" : null,
      "nbEmpRequired" : 1,
      "deadline" : [ 16, 6 ],
      "skills" : [ {
        "id" : 9,
        "name" : "TILER",
        "level" : 2
      } ],
      "duration" : 7200.000000000,
      "pause" : false
    },
    "needed" : [ {
      "id" : 963,
      "name" : "963",
      "shifts" : [ {
        "start" : [ 9, 0 ],
        "end" : [ 12, 0 ]
      }, {
        "start" : [ 13, 0 ],
        "end" : [ 17, 0 ]
      } ],
      "prefSlots" : null,
      "startingLoc" : {
        "id" : 5614,
        "name" : null,
        "latitude" : 43.857323,
        "longitude" : 3.9856312
      },
      "skills" : [ {
        "id" : 7,
        "name" : "PAINTING",
        "level" : 8
      }, {
        "id" : 8,
        "name" : "IRONWORK",
        "level" : 3
      }, {
        "id" : 1,
        "name" : "ENGINEER",
        "level" : 2
      }, {
        "id" : 6,
        "name" : "CARPENTRY",
        "level" : 1
      }, {
        "id" : 6,
        "name" : "CARPENTRY",
        "level" : 10
      }, {
        "id" : 1,
        "name" : "ENGINEER",
        "level" : 4
      } ]
    } ]
  } ]
}