{
  "listEdt" : [ {
    "emp" : {
      "id" : 816,
      "name" : "816",
      "shifts" : [ {
        "start" : [ 9, 0 ],
        "end" : [ 12, 0 ]
      }, {
        "start" : [ 13, 0 ],
        "end" : [ 17, 0 ]
      } ],
      "prefSlots" : null,
      "startingLoc" : {
        "id" : 3464,
        "name" : null,
        "latitude" : 43.87629,
        "longitude" : 3.9173272
      },
      "skills" : [ {
        "id" : 7,
        "name" : "PAINTING",
        "level" : 8
      }, {
        "id" : 9,
        "name" : "TILER",
        "level" : 5
      }, {
        "id" : 3,
        "name" : "PLUMBING",
        "level" : 1
      }, {
        "id" : 2,
        "name" : "ELECTRICIAN",
        "level" : 7
      }, {
        "id" : 5,
        "name" : "GLAZING",
        "level" : 2
      } ]
    },
    "planning" : [ {
      "job" : {
        "id" : -1,
        "desc" : "Home",
        "location" : {
          "id" : 3464,
          "name" : null,
          "latitude" : 43.87629,
          "longitude" : 3.9173272
        },
        "openings" : null,
        "preferredSlots" : null,
        "doAfter" : null,
        "nbEmpRequired" : 1,
        "deadline" : null,
        "skills" : [ ],
        "duration" : null,
        "pause" : true
      },
      "window" : {
        "start" : [ 9, 0 ],
        "end" : [ 9, 0 ]
      }
    }, {
      "job" : {
        "id" : 69,
        "desc" : "TILER, PAINTING",
        "location" : {
          "id" : 8244,
          "name" : null,
          "latitude" : 43.779816,
          "longitude" : 3.7111957
        },
        "openings" : {
          "start" : [ 10, 13 ],
          "end" : [ 13, 24 ]
        },
        "preferredSlots" : null,
        "doAfter" : null,
        "nbEmpRequired" : 1,
        "deadline" : [ 17, 52 ],
        "skills" : [ {
          "id" : 9,
          "name" : "TILER",
          "level" : 1
        }, {
          "id" : 7,
          "name" : "PAINTING",
          "level" : 3
        } ],
        "duration" : 5400.000000000,
        "pause" : false
      },
      "window" : {
        "start" : [ 9, 20 ],
        "end" : [ 10, 50 ]
      }
    }, {
      "job" : {
        "id" : -1,
        "desc" : "Pause",
        "location" : {
          "id" : 8244,
          "name" : null,
          "latitude" : 43.779816,
          "longitude" : 3.7111957
        },
        "openings" : {
          "start" : [ 10, 13 ],
          "end" : [ 13, 24 ]
        },
        "preferredSlots" : null,
        "doAfter" : null,
        "nbEmpRequired" : 1,
        "deadline" : [ 17, 52 ],
        "skills" : [ {
          "id" : 9,
          "name" : "TILER",
          "level" : 1
        }, {
          "id" : 7,
          "name" : "PAINTING",
          "level" : 3
        } ],
        "duration" : 5400.000000000,
        "pause" : true
      },
      "window" : {
        "start" : [ 10, 51 ],
        "end" : [ 13, 0 ]
      }
    }, {
      "job" : {
        "id" : 166,
        "desc" : "GLAZING",
        "location" : {
          "id" : 6308,
          "name" : null,
          "latitude" : 43.54685,
          "longitude" : 4.0566707
        },
        "openings" : {
          "start" : [ 12, 25 ],
          "end" : [ 15, 34 ]
        },
        "preferredSlots" : null,
        "doAfter" : null,
        "nbEmpRequired" : 1,
        "deadline" : [ 13, 28 ],
        "skills" : [ {
          "id" : 5,
          "name" : "GLAZING",
          "level" : 1
        } ],
        "duration" : 3600.000000000,
        "pause" : false
      },
      "window" : {
        "start" : [ 13, 38 ],
        "end" : [ 14, 38 ]
      }
    } ],
    "driving" : 3480.000000000,
    "valid" : true
  }, {
    "emp" : {
      "id" : 208,
      "name" : "208",
      "shifts" : [ {
        "start" : [ 9, 0 ],
        "end" : [ 12, 0 ]
      }, {
        "start" : [ 13, 0 ],
        "end" : [ 17, 0 ]
      } ],
      "prefSlots" : null,
      "startingLoc" : {
        "id" : 8338,
        "name" : null,
        "latitude" : 43.846745,
        "longitude" : 3.935287
      },
      "skills" : [ {
        "id" : 0,
        "name" : "MANAGEMENT",
        "level" : 5
      } ]
    },
    "planning" : [ {
      "job" : {
        "id" : -1,
        "desc" : "Home",
        "location" : {
          "id" : 8338,
          "name" : null,
          "latitude" : 43.846745,
          "longitude" : 3.935287
        },
        "openings" : null,
        "preferredSlots" : null,
        "doAfter" : null,
        "nbEmpRequired" : 1,
        "deadline" : null,
        "skills" : [ ],
        "duration" : null,
        "pause" : true
      },
      "window" : {
        "start" : [ 9, 0 ],
        "end" : [ 9, 0 ]
      }
    }, {
      "job" : {
        "id" : 286,
        "desc" : "MANAGEMENT",
        "location" : {
          "id" : 2962,
          "name" : null,
          "latitude" : 44.01358,
          "longitude" : 3.7215686
        },
        "openings" : {
          "start" : [ 15, 3 ],
          "end" : [ 17, 4 ]
        },
        "preferredSlots" : null,
        "doAfter" : null,
        "nbEmpRequired" : 1,
        "deadline" : [ 11, 20 ],
        "skills" : [ {
          "id" : 0,
          "name" : "MANAGEMENT",
          "level" : 5
        } ],
        "duration" : 3600.000000000,
        "pause" : false
      },
      "window" : {
        "start" : [ 9, 26 ],
        "end" : [ 10, 26 ]
      }
    }, {
      "job" : {
        "id" : -1,
        "desc" : "Pause",
        "location" : {
          "id" : 2962,
          "name" : null,
          "latitude" : 44.01358,
          "longitude" : 3.7215686
        },
        "openings" : {
          "start" : [ 15, 3 ],
          "end" : [ 17, 4 ]
        },
        "preferredSlots" : null,
        "doAfter" : null,
        "nbEmpRequired" : 1,
        "deadline" : [ 11, 20 ],
        "skills" : [ {
          "id" : 0,
          "name" : "MANAGEMENT",
          "level" : 5
        } ],
        "duration" : 3600.000000000,
        "pause" : true
      },
      "window" : {
        "start" : [ 10, 27 ],
        "end" : [ 13, 0 ]
      }
    } ],
    "driving" : 1560.000000000,
    "valid" : true
  }, {
    "emp" : {
      "id" : 383,
      "name" : "383",
      "shifts" : [ {
        "start" : [ 9, 0 ],
        "end" : [ 12, 0 ]
      }, {
        "start" : [ 13, 0 ],
        "end" : [ 17, 0 ]
      } ],
      "prefSlots" : null,
      "startingLoc" : {
        "id" : 9260,
        "name" : null,
        "latitude" : 43.428253,
        "longitude" : 3.8794525
      },
      "skills" : [ {
        "id" : 0,
        "name" : "MANAGEMENT",
        "level" : 3
      }, {
        "id" : 2,
        "name" : "ELECTRICIAN",
        "level" : 7
      } ]
    },
    "planning" : [ {
      "job" : {
        "id" : -1,
        "desc" : "Home",
        "location" : {
          "id" : 9260,
          "name" : null,
          "latitude" : 43.428253,
          "longitude" : 3.8794525
        },
        "openings" : null,
        "preferredSlots" : null,
        "doAfter" : null,
        "nbEmpRequired" : 1,
        "deadline" : null,
        "skills" : [ ],
        "duration" : null,
        "pause" : true
      },
      "window" : {
        "start" : [ 9, 0 ],
        "end" : [ 9, 0 ]
      }
    }, {
      "job" : {
        "id" : -1,
        "desc" : "Pause",
        "location" : {
          "id" : 9260,
          "name" : null,
          "latitude" : 43.428253,
          "longitude" : 3.8794525
        },
        "openings" : null,
        "preferredSlots" : null,
        "doAfter" : null,
        "nbEmpRequired" : 1,
        "deadline" : null,
        "skills" : [ ],
        "duration" : null,
        "pause" : true
      },
      "window" : {
        "start" : [ 9, 1 ],
        "end" : [ 13, 0 ]
      }
    } ],
    "driving" : 0.0,
    "valid" : true
  }, {
    "emp" : {
      "id" : 854,
      "name" : "854",
      "shifts" : [ {
        "start" : [ 9, 0 ],
        "end" : [ 12, 0 ]
      }, {
        "start" : [ 13, 0 ],
        "end" : [ 17, 0 ]
      } ],
      "prefSlots" : null,
      "startingLoc" : {
        "id" : 4726,
        "name" : null,
        "latitude" : 43.777145,
        "longitude" : 4.008254
      },
      "skills" : [ {
        "id" : 5,
        "name" : "GLAZING",
        "level" : 8
      }, {
        "id" : 2,
        "name" : "ELECTRICIAN",
        "level" : 1
      }, {
        "id" : 6,
        "name" : "CARPENTRY",
        "level" : 3
      }, {
        "id" : 1,
        "name" : "ENGINEER",
        "level" : 8
      }, {
        "id" : 0,
        "name" : "MANAGEMENT",
        "level" : 1
      }, {
        "id" : 6,
        "name" : "CARPENTRY",
        "level" : 1
      }, {
        "id" : 4,
        "name" : "MASONRY",
        "level" : 2
      }, {
        "id" : 2,
        "name" : "ELECTRICIAN",
        "level" : 5
      }, {
        "id" : 9,
        "name" : "TILER",
        "level" : 5
      } ]
    },
    "planning" : [ {
      "job" : {
        "id" : -1,
        "desc" : "Home",
        "location" : {
          "id" : 4726,
          "name" : null,
          "latitude" : 43.777145,
          "longitude" : 4.008254
        },
        "openings" : null,
        "preferredSlots" : null,
        "doAfter" : null,
        "nbEmpRequired" : 1,
        "deadline" : null,
        "skills" : [ ],
        "duration" : null,
        "pause" : true
      },
      "window" : {
        "start" : [ 9, 0 ],
        "end" : [ 9, 0 ]
      }
    }, {
      "job" : {
        "id" : 326,
        "desc" : "MANAGEMENT, ENGINEER",
        "location" : {
          "id" : 2001,
          "name" : null,
          "latitude" : 43.82376,
          "longitude" : 3.7109752
        },
        "openings" : {
          "start" : [ 14, 0 ],
          "end" : [ 16, 58 ]
        },
        "preferredSlots" : null,
        "doAfter" : null,
        "nbEmpRequired" : 1,
        "deadline" : [ 14, 11 ],
        "skills" : [ {
          "id" : 0,
          "name" : "MANAGEMENT",
          "level" : 1
        }, {
          "id" : 1,
          "name" : "ENGINEER",
          "level" : 1
        } ],
        "duration" : 2700.000000000,
        "pause" : false
      },
      "window" : {
        "start" : [ 9, 25 ],
        "end" : [ 10, 10 ]
      }
    }, {
      "job" : {
        "id" : 260,
        "desc" : "GLAZING",
        "location" : {
          "id" : 853,
          "name" : null,
          "latitude" : 43.698925,
          "longitude" : 4.1565723
        },
        "openings" : {
          "start" : [ 13, 28 ],
          "end" : [ 15, 51 ]
        },
        "preferredSlots" : null,
        "doAfter" : null,
        "nbEmpRequired" : 1,
        "deadline" : [ 15, 2 ],
        "skills" : [ {
          "id" : 5,
          "name" : "GLAZING",
          "level" : 5
        } ],
        "duration" : 1800.000000000,
        "pause" : false
      },
      "window" : {
        "start" : [ 10, 49 ],
        "end" : [ 11, 19 ]
      }
    }, {
      "job" : {
        "id" : -1,
        "desc" : "Pause",
        "location" : {
          "id" : 853,
          "name" : null,
          "latitude" : 43.698925,
          "longitude" : 4.1565723
        },
        "openings" : {
          "start" : [ 13, 28 ],
          "end" : [ 15, 51 ]
        },
        "preferredSlots" : null,
        "doAfter" : null,
        "nbEmpRequired" : 1,
        "deadline" : [ 15, 2 ],
        "skills" : [ {
          "id" : 5,
          "name" : "GLAZING",
          "level" : 5
        } ],
        "duration" : 1800.000000000,
        "pause" : true
      },
      "window" : {
        "start" : [ 11, 20 ],
        "end" : [ 13, 0 ]
      }
    }, {
      "job" : {
        "id" : 125,
        "desc" : "ENGINEER",
        "location" : {
          "id" : 92,
          "name" : null,
          "latitude" : 43.475914,
          "longitude" : 3.7706847
        },
        "openings" : {
          "start" : [ 11, 40 ],
          "end" : [ 15, 19 ]
        },
        "preferredSlots" : null,
        "doAfter" : null,
        "nbEmpRequired" : 1,
        "deadline" : [ 17, 54 ],
        "skills" : [ {
          "id" : 1,
          "name" : "ENGINEER",
          "level" : 5
        } ],
        "duration" : 5400.000000000,
        "pause" : false
      },
      "window" : {
        "start" : [ 13, 40 ],
        "end" : [ 15, 10 ]
      }
    }, {
      "job" : {
        "id" : 782,
        "desc" : "ENGINEER",
        "location" : {
          "id" : 2042,
          "name" : null,
          "latitude" : 43.710884,
          "longitude" : 3.8343272
        },
        "openings" : {
          "start" : [ 14, 0 ],
          "end" : [ 16, 5 ]
        },
        "preferredSlots" : null,
        "doAfter" : null,
        "nbEmpRequired" : 1,
        "deadline" : [ 10, 19 ],
        "skills" : [ {
          "id" : 1,
          "name" : "ENGINEER",
          "level" : 2
        } ],
        "duration" : 3600.000000000,
        "pause" : false
      },
      "window" : {
        "start" : [ 15, 37 ],
        "end" : [ 16, 37 ]
      }
    } ],
    "driving" : 7860.000000000,
    "valid" : true
  }, {
    "emp" : {
      "id" : 820,
      "name" : "820",
      "shifts" : [ {
        "start" : [ 9, 0 ],
        "end" : [ 12, 0 ]
      }, {
        "start" : [ 13, 0 ],
        "end" : [ 17, 0 ]
      } ],
      "prefSlots" : null,
      "startingLoc" : {
        "id" : 1280,
        "name" : null,
        "latitude" : 43.721622,
        "longitude" : 3.7964358
      },
      "skills" : [ {
        "id" : 9,
        "name" : "TILER",
        "level" : 10
      }, {
        "id" : 2,
        "name" : "ELECTRICIAN",
        "level" : 7
      }, {
        "id" : 9,
        "name" : "TILER",
        "level" : 2
      }, {
        "id" : 7,
        "name" : "PAINTING",
        "level" : 3
      }, {
        "id" : 2,
        "name" : "ELECTRICIAN",
        "level" : 2
      }, {
        "id" : 8,
        "name" : "IRONWORK",
        "level" : 4
      }, {
        "id" : 5,
        "name" : "GLAZING",
        "level" : 2
      }, {
        "id" : 1,
        "name" : "ENGINEER",
        "level" : 4
      }, {
        "id" : 1,
        "name" : "ENGINEER",
        "level" : 5
      } ]
    },
    "planning" : [ {
      "job" : {
        "id" : -1,
        "desc" : "Home",
        "location" : {
          "id" : 1280,
          "name" : null,
          "latitude" : 43.721622,
          "longitude" : 3.7964358
        },
        "openings" : null,
        "preferredSlots" : null,
        "doAfter" : null,
        "nbEmpRequired" : 1,
        "deadline" : null,
        "skills" : [ ],
        "duration" : null,
        "pause" : true
      },
      "window" : {
        "start" : [ 9, 0 ],
        "end" : [ 9, 0 ]
      }
    }, {
      "job" : {
        "id" : 897,
        "desc" : "ENGINEER",
        "location" : {
          "id" : 8312,
          "name" : null,
          "latitude" : 43.869568,
          "longitude" : 3.722327
        },
        "openings" : {
          "start" : [ 16, 55 ],
          "end" : [ 17, 7 ]
        },
        "preferredSlots" : null,
        "doAfter" : null,
        "nbEmpRequired" : 1,
        "deadline" : [ 14, 23 ],
        "skills" : [ {
          "id" : 1,
          "name" : "ENGINEER",
          "level" : 5
        } ],
        "duration" : 7200.000000000,
        "pause" : false
      },
      "window" : {
        "start" : [ 9, 18 ],
        "end" : [ 11, 18 ]
      }
    }, {
      "job" : {
        "id" : -1,
        "desc" : "Pause",
        "location" : {
          "id" : 8312,
          "name" : null,
          "latitude" : 43.869568,
          "longitude" : 3.722327
        },
        "openings" : {
          "start" : [ 16, 55 ],
          "end" : [ 17, 7 ]
        },
        "preferredSlots" : null,
        "doAfter" : null,
        "nbEmpRequired" : 1,
        "deadline" : [ 14, 23 ],
        "skills" : [ {
          "id" : 1,
          "name" : "ENGINEER",
          "level" : 5
        } ],
        "duration" : 7200.000000000,
        "pause" : true
      },
      "window" : {
        "start" : [ 11, 19 ],
        "end" : [ 13, 0 ]
      }
    }, {
      "job" : {
        "id" : 118,
        "desc" : "ENGINEER",
        "location" : {
          "id" : 547,
          "name" : null,
          "latitude" : 43.49436,
          "longitude" : 4.2891765
        },
        "openings" : {
          "start" : [ 15, 28 ],
          "end" : [ 16, 3 ]
        },
        "preferredSlots" : null,
        "doAfter" : null,
        "nbEmpRequired" : 1,
        "deadline" : [ 15, 45 ],
        "skills" : [ {
          "id" : 1,
          "name" : "ENGINEER",
          "level" : 1
        } ],
        "duration" : 5400.000000000,
        "pause" : false
      },
      "window" : {
        "start" : [ 14, 2 ],
        "end" : [ 15, 32 ]
      }
    } ],
    "driving" : 4800.000000000,
    "valid" : true
  }, {
    "emp" : {
      "id" : 592,
      "name" : "592",
      "shifts" : [ {
        "start" : [ 9, 0 ],
        "end" : [ 12, 0 ]
      }, {
        "start" : [ 13, 0 ],
        "end" : [ 17, 0 ]
      } ],
      "prefSlots" : null,
      "startingLoc" : {
        "id" : 6586,
        "name" : null,
        "latitude" : 43.72787,
        "longitude" : 3.7274437
      },
      "skills" : [ {
        "id" : 6,
        "name" : "CARPENTRY",
        "level" : 8
      }, {
        "id" : 8,
        "name" : "IRONWORK",
        "level" : 5
      }, {
        "id" : 8,
        "name" : "IRONWORK",
        "level" : 8
      }, {
        "id" : 4,
        "name" : "MASONRY",
        "level" : 7
      }, {
        "id" : 2,
        "name" : "ELECTRICIAN",
        "level" : 6
      }, {
        "id" : 4,
        "name" : "MASONRY",
        "level" : 1
      } ]
    },
    "planning" : [ {
      "job" : {
        "id" : -1,
        "desc" : "Home",
        "location" : {
          "id" : 6586,
          "name" : null,
          "latitude" : 43.72787,
          "longitude" : 3.7274437
        },
        "openings" : null,
        "preferredSlots" : null,
        "doAfter" : null,
        "nbEmpRequired" : 1,
        "deadline" : null,
        "skills" : [ ],
        "duration" : null,
        "pause" : true
      },
      "window" : {
        "start" : [ 9, 0 ],
        "end" : [ 9, 0 ]
      }
    }, {
      "job" : {
        "id" : 983,
        "desc" : "ELECTRICIAN, CARPENTRY",
        "location" : {
          "id" : 8679,
          "name" : null,
          "latitude" : 43.812607,
          "longitude" : 3.8044982
        },
        "openings" : {
          "start" : [ 12, 31 ],
          "end" : [ 16, 42 ]
        },
        "preferredSlots" : null,
        "doAfter" : null,
        "nbEmpRequired" : 1,
        "deadline" : [ 14, 56 ],
        "skills" : [ {
          "id" : 2,
          "name" : "ELECTRICIAN",
          "level" : 5
        }, {
          "id" : 6,
          "name" : "CARPENTRY",
          "level" : 4
        } ],
        "duration" : 7200.000000000,
        "pause" : false
      },
      "window" : {
        "start" : [ 9, 12 ],
        "end" : [ 11, 12 ]
      }
    }, {
      "job" : {
        "id" : -1,
        "desc" : "Pause",
        "location" : {
          "id" : 8679,
          "name" : null,
          "latitude" : 43.812607,
          "longitude" : 3.8044982
        },
        "openings" : {
          "start" : [ 12, 31 ],
          "end" : [ 16, 42 ]
        },
        "preferredSlots" : null,
        "doAfter" : null,
        "nbEmpRequired" : 1,
        "deadline" : [ 14, 56 ],
        "skills" : [ {
          "id" : 2,
          "name" : "ELECTRICIAN",
          "level" : 5
        }, {
          "id" : 6,
          "name" : "CARPENTRY",
          "level" : 4
        } ],
        "duration" : 7200.000000000,
        "pause" : true
      },
      "window" : {
        "start" : [ 11, 13 ],
        "end" : [ 13, 0 ]
      }
    }, {
      "job" : {
        "id" : 226,
        "desc" : "ELECTRICIAN, IRONWORK",
        "location" : {
          "id" : 3863,
          "name" : null,
          "latitude" : 43.87489,
          "longitude" : 3.7576096
        },
        "openings" : {
          "start" : [ 14, 34 ],
          "end" : [ 16, 34 ]
        },
        "preferredSlots" : null,
        "doAfter" : null,
        "nbEmpRequired" : 1,
        "deadline" : [ 15, 38 ],
        "skills" : [ {
          "id" : 2,
          "name" : "ELECTRICIAN",
          "level" : 3
        }, {
          "id" : 8,
          "name" : "IRONWORK",
          "level" : 5
        } ],
        "duration" : 3600.000000000,
        "pause" : false
      },
      "window" : {
        "start" : [ 13, 8 ],
        "end" : [ 14, 8 ]
      }
    }, {
      "job" : {
        "id" : 64,
        "desc" : "MASONRY, IRONWORK",
        "location" : {
          "id" : 8595,
          "name" : null,
          "latitude" : 43.447407,
          "longitude" : 4.179603
        },
        "openings" : {
          "start" : [ 9, 22 ],
          "end" : [ 10, 40 ]
        },
        "preferredSlots" : null,
        "doAfter" : null,
        "nbEmpRequired" : 1,
        "deadline" : [ 16, 3 ],
        "skills" : [ {
          "id" : 4,
          "name" : "MASONRY",
          "level" : 1
        }, {
          "id" : 8,
          "name" : "IRONWORK",
          "level" : 1
        } ],
        "duration" : 2700.000000000,
        "pause" : false
      },
      "window" : {
        "start" : [ 15, 7 ],
        "end" : [ 15, 52 ]
      }
    }, {
      "job" : {
        "id" : 626,
        "desc" : "CARPENTRY",
        "location" : {
          "id" : 7422,
          "name" : null,
          "latitude" : 43.601307,
          "longitude" : 4.202111
        },
        "openings" : {
          "start" : [ 16, 36 ],
          "end" : [ 17, 8 ]
        },
        "preferredSlots" : null,
        "doAfter" : null,
        "nbEmpRequired" : 1,
        "deadline" : [ 9, 29 ],
        "skills" : [ {
          "id" : 6,
          "name" : "CARPENTRY",
          "level" : 1
        } ],
        "duration" : 1800.000000000,
        "pause" : false
      },
      "window" : {
        "start" : [ 16, 10 ],
        "end" : [ 16, 40 ]
      }
    } ],
    "driving" : 5820.000000000,
    "valid" : true
  }, {
    "emp" : {
      "id" : 167,
      "name" : "167",
      "shifts" : [ {
        "start" : [ 9, 0 ],
        "end" : [ 12, 0 ]
      }, {
        "start" : [ 13, 0 ],
        "end" : [ 17, 0 ]
      } ],
      "prefSlots" : null,
      "startingLoc" : {
        "id" : 7871,
        "name" : null,
        "latitude" : 43.87164,
        "longitude" : 3.8992488
      },
      "skills" : [ {
        "id" : 7,
        "name" : "PAINTING",
        "level" : 1
      }, {
        "id" : 1,
        "name" : "ENGINEER",
        "level" : 3
      }, {
        "id" : 4,
        "name" : "MASONRY",
        "level" : 8
      }, {
        "id" : 3,
        "name" : "PLUMBING",
        "level" : 5
      } ]
    },
    "planning" : [ {
      "job" : {
        "id" : -1,
        "desc" : "Home",
        "location" : {
          "id" : 7871,
          "name" : null,
          "latitude" : 43.87164,
          "longitude" : 3.8992488
        },
        "openings" : null,
        "preferredSlots" : null,
        "doAfter" : null,
        "nbEmpRequired" : 1,
        "deadline" : null,
        "skills" : [ ],
        "duration" : null,
        "pause" : true
      },
      "window" : {
        "start" : [ 9, 0 ],
        "end" : [ 9, 0 ]
      }
    }, {
      "job" : {
        "id" : 841,
        "desc" : "MASONRY",
        "location" : {
          "id" : 1338,
          "name" : null,
          "latitude" : 44.08473,
          "longitude" : 3.7417445
        },
        "openings" : {
          "start" : [ 9, 37 ],
          "end" : [ 11, 51 ]
        },
        "preferredSlots" : null,
        "doAfter" : null,
        "nbEmpRequired" : 1,
        "deadline" : [ 17, 0 ],
        "skills" : [ {
          "id" : 4,
          "name" : "MASONRY",
          "level" : 5
        } ],
        "duration" : 5400.000000000,
        "pause" : false
      },
      "window" : {
        "start" : [ 9, 27 ],
        "end" : [ 10, 57 ]
      }
    }, {
      "job" : {
        "id" : -1,
        "desc" : "Pause",
        "location" : {
          "id" : 1338,
          "name" : null,
          "latitude" : 44.08473,
          "longitude" : 3.7417445
        },
        "openings" : {
          "start" : [ 9, 37 ],
          "end" : [ 11, 51 ]
        },
        "preferredSlots" : null,
        "doAfter" : null,
        "nbEmpRequired" : 1,
        "deadline" : [ 17, 0 ],
        "skills" : [ {
          "id" : 4,
          "name" : "MASONRY",
          "level" : 5
        } ],
        "duration" : 5400.000000000,
        "pause" : true
      },
      "window" : {
        "start" : [ 10, 58 ],
        "end" : [ 13, 0 ]
      }
    }, {
      "job" : {
        "id" : 592,
        "desc" : "PLUMBING",
        "location" : {
          "id" : 7173,
          "name" : null,
          "latitude" : 43.826378,
          "longitude" : 4.1589966
        },
        "openings" : {
          "start" : [ 10, 59 ],
          "end" : [ 16, 32 ]
        },
        "preferredSlots" : null,
        "doAfter" : null,
        "nbEmpRequired" : 1,
        "deadline" : [ 9, 32 ],
        "skills" : [ {
          "id" : 3,
          "name" : "PLUMBING",
          "level" : 4
        } ],
        "duration" : 2700.000000000,
        "pause" : false
      },
      "window" : {
        "start" : [ 13, 45 ],
        "end" : [ 14, 30 ]
      }
    }, {
      "job" : {
        "id" : 978,
        "desc" : "PLUMBING",
        "location" : {
          "id" : 1411,
          "name" : null,
          "latitude" : 43.674816,
          "longitude" : 4.0960107
        },
        "openings" : {
          "start" : [ 11, 0 ],
          "end" : [ 13, 43 ]
        },
        "preferredSlots" : null,
        "doAfter" : null,
        "nbEmpRequired" : 1,
        "deadline" : [ 11, 26 ],
        "skills" : [ {
          "id" : 3,
          "name" : "PLUMBING",
          "level" : 2
        } ],
        "duration" : 3600.000000000,
        "pause" : false
      },
      "window" : {
        "start" : [ 14, 48 ],
        "end" : [ 15, 48 ]
      }
    } ],
    "driving" : 5400.000000000,
    "valid" : true
  }, {
    "emp" : {
      "id" : 512,
      "name" : "512",
      "shifts" : [ {
        "start" : [ 9, 0 ],
        "end" : [ 12, 0 ]
      }, {
        "start" : [ 13, 0 ],
        "end" : [ 17, 0 ]
      } ],
      "prefSlots" : null,
      "startingLoc" : {
        "id" : 8654,
        "name" : null,
        "latitude" : 43.94672,
        "longitude" : 4.01008
      },
      "skills" : [ {
        "id" : 0,
        "name" : "MANAGEMENT",
        "level" : 5
      }, {
        "id" : 1,
        "name" : "ENGINEER",
        "level" : 8
      }, {
        "id" : 2,
        "name" : "ELECTRICIAN",
        "level" : 8
      }, {
        "id" : 5,
        "name" : "GLAZING",
        "level" : 10
      }, {
        "id" : 1,
        "name" : "ENGINEER",
        "level" : 6
      } ]
    },
    "planning" : [ {
      "job" : {
        "id" : -1,
        "desc" : "Home",
        "location" : {
          "id" : 8654,
          "name" : null,
          "latitude" : 43.94672,
          "longitude" : 4.01008
        },
        "openings" : null,
        "preferredSlots" : null,
        "doAfter" : null,
        "nbEmpRequired" : 1,
        "deadline" : null,
        "skills" : [ ],
        "duration" : null,
        "pause" : true
      },
      "window" : {
        "start" : [ 9, 0 ],
        "end" : [ 9, 0 ]
      }
    }, {
      "job" : {
        "id" : -1,
        "desc" : "Pause",
        "location" : {
          "id" : 8654,
          "name" : null,
          "latitude" : 43.94672,
          "longitude" : 4.01008
        },
        "openings" : null,
        "preferredSlots" : null,
        "doAfter" : null,
        "nbEmpRequired" : 1,
        "deadline" : null,
        "skills" : [ ],
        "duration" : null,
        "pause" : true
      },
      "window" : {
        "start" : [ 9, 1 ],
        "end" : [ 13, 0 ]
      }
    } ],
    "driving" : 0.0,
    "valid" : true
  }, {
    "emp" : {
      "id" : 994,
      "name" : "994",
      "shifts" : [ {
        "start" : [ 9, 0 ],
        "end" : [ 12, 0 ]
      }, {
        "start" : [ 13, 0 ],
        "end" : [ 17, 0 ]
      } ],
      "prefSlots" : null,
      "startingLoc" : {
        "id" : 9374,
        "name" : null,
        "latitude" : 43.743168,
        "longitude" : 4.0866838
      },
      "skills" : [ {
        "id" : 5,
        "name" : "GLAZING",
        "level" : 9
      }, {
        "id" : 6,
        "name" : "CARPENTRY",
        "level" : 1
      } ]
    },
    "planning" : [ {
      "job" : {
        "id" : -1,
        "desc" : "Home",
        "location" : {
          "id" : 9374,
          "name" : null,
          "latitude" : 43.743168,
          "longitude" : 4.0866838
        },
        "openings" : null,
        "preferredSlots" : null,
        "doAfter" : null,
        "nbEmpRequired" : 1,
        "deadline" : null,
        "skills" : [ ],
        "duration" : null,
        "pause" : true
      },
      "window" : {
        "start" : [ 9, 0 ],
        "end" : [ 9, 0 ]
      }
    }, {
      "job" : {
        "id" : -1,
        "desc" : "Pause",
        "location" : {
          "id" : 9374,
          "name" : null,
          "latitude" : 43.743168,
          "longitude" : 4.0866838
        },
        "openings" : null,
        "preferredSlots" : null,
        "doAfter" : null,
        "nbEmpRequired" : 1,
        "deadline" : null,
        "skills" : [ ],
        "duration" : null,
        "pause" : true
      },
      "window" : {
        "start" : [ 9, 1 ],
        "end" : [ 13, 0 ]
      }
    } ],
    "driving" : 0.0,
    "valid" : true
  }, {
    "emp" : {
      "id" : 636,
      "name" : "636",
      "shifts" : [ {
        "start" : [ 9, 0 ],
        "end" : [ 12, 0 ]
      }, {
        "start" : [ 13, 0 ],
        "end" : [ 17, 0 ]
      } ],
      "prefSlots" : null,
      "startingLoc" : {
        "id" : 4302,
        "name" : null,
        "latitude" : 43.620987,
        "longitude" : 4.2975407
      },
      "skills" : [ {
        "id" : 4,
        "name" : "MASONRY",
        "level" : 6
      }, {
        "id" : 1,
        "name" : "ENGINEER",
        "level" : 2
      } ]
    },
    "planning" : [ {
      "job" : {
        "id" : -1,
        "desc" : "Home",
        "location" : {
          "id" : 4302,
          "name" : null,
          "latitude" : 43.620987,
          "longitude" : 4.2975407
        },
        "openings" : null,
        "preferredSlots" : null,
        "doAfter" : null,
        "nbEmpRequired" : 1,
        "deadline" : null,
        "skills" : [ ],
        "duration" : null,
        "pause" : true
      },
      "window" : {
        "start" : [ 9, 0 ],
        "end" : [ 9, 0 ]
      }
    }, {
      "job" : {
        "id" : -1,
        "desc" : "Pause",
        "location" : {
          "id" : 4302,
          "name" : null,
          "latitude" : 43.620987,
          "longitude" : 4.2975407
        },
        "openings" : null,
        "preferredSlots" : null,
        "doAfter" : null,
        "nbEmpRequired" : 1,
        "deadline" : null,
        "skills" : [ ],
        "duration" : null,
        "pause" : true
      },
      "window" : {
        "start" : [ 9, 1 ],
        "end" : [ 13, 0 ]
      }
    } ],
    "driving" : 0.0,
    "valid" : true
  } ],
  "unassigned" : [ {
    "id" : 977,
    "desc" : "MANAGEMENT, PAINTING",
    "location" : {
      "id" : 9069,
      "name" : null,
      "latitude" : 43.76491,
      "longitude" : 3.7161758
    },
    "openings" : {
      "start" : [ 9, 2 ],
      "end" : [ 9, 56 ]
    },
    "preferredSlots" : null,
    "doAfter" : null,
    "nbEmpRequired" : 1,
    "deadline" : [ 11, 29 ],
    "skills" : [ {
      "id" : 0,
      "name" : "MANAGEMENT",
      "level" : 5
    }, {
      "id" : 7,
      "name" : "PAINTING",
      "level" : 4
    } ],
    "duration" : 1800.000000000,
    "pause" : false
  }, {
    "id" : 45,
    "desc" : "TILER, MANAGEMENT",
    "location" : {
      "id" : 5155,
      "name" : null,
      "latitude" : 43.759735,
      "longitude" : 3.9533238
    },
    "openings" : {
      "start" : [ 10, 14 ],
      "end" : [ 17, 50 ]
    },
    "preferredSlots" : null,
    "doAfter" : null,
    "nbEmpRequired" : 1,
    "deadline" : [ 15, 37 ],
    "skills" : [ {
      "id" : 9,
      "name" : "TILER",
      "level" : 4
    }, {
      "id" : 0,
      "name" : "MANAGEMENT",
      "level" : 3
    } ],
    "duration" : 1800.000000000,
    "pause" : false
  }, {
    "id" : 105,
    "desc" : "PAINTING, PLUMBING",
    "location" : {
      "id" : 9514,
      "name" : null,
      "latitude" : 43.939754,
      "longitude" : 4.119233
    },
    "openings" : {
      "start" : [ 14, 5 ],
      "end" : [ 15, 20 ]
    },
    "preferredSlots" : null,
    "doAfter" : null,
    "nbEmpRequired" : 1,
    "deadline" : [ 14, 25 ],
    "skills" : [ {
      "id" : 7,
      "name" : "PAINTING",
      "level" : 2
    }, {
      "id" : 3,
      "name" : "PLUMBING",
      "level" : 2
    } ],
    "duration" : 3600.000000000,
    "pause" : false
  }, {
    "id" : 428,
    "desc" : "CARPENTRY",
    "location" : {
      "id" : 7509,
      "name" : null,
      "latitude" : 43.77606,
      "longitude" : 3.7208886
    },
    "openings" : {
      "start" : [ 11, 41 ],
      "end" : [ 11, 55 ]
    },
    "preferredSlots" : null,
    "doAfter" : null,
    "nbEmpRequired" : 1,
    "deadline" : [ 15, 45 ],
    "skills" : [ {
      "id" : 6,
      "name" : "CARPENTRY",
      "level" : 2
    } ],
    "duration" : 2700.000000000,
    "pause" : false
  } ],
  "valid" : true
}