{
  "listEdt" : [ {
    "emp" : {
      "id" : 163,
      "name" : "163",
      "shifts" : [ {
        "start" : [ 9, 0 ],
        "end" : [ 12, 0 ]
      }, {
        "start" : [ 13, 0 ],
        "end" : [ 17, 0 ]
      } ],
      "prefSlots" : null,
      "startingLoc" : {
        "id" : 6166,
        "name" : null,
        "latitude" : 43.99502,
        "longitude" : 4.241113
      },
      "skills" : [ {
        "id" : 8,
        "name" : "IRONWORK",
        "level" : 1
      }, {
        "id" : 2,
        "name" : "ELECTRICIAN",
        "level" : 5
      }, {
        "id" : 7,
        "name" : "PAINTING",
        "level" : 10
      }, {
        "id" : 8,
        "name" : "IRONWORK",
        "level" : 3
      }, {
        "id" : 6,
        "name" : "CARPENTRY",
        "level" : 5
      }, {
        "id" : 9,
        "name" : "TILER",
        "level" : 1
      }, {
        "id" : 7,
        "name" : "PAINTING",
        "level" : 4
      }, {
        "id" : 4,
        "name" : "MASONRY",
        "level" : 1
      } ]
    },
    "planning" : [ {
      "job" : {
        "id" : -1,
        "desc" : "Home",
        "location" : {
          "id" : 6166,
          "name" : null,
          "latitude" : 43.99502,
          "longitude" : 4.241113
        },
        "openings" : null,
        "preferredSlots" : null,
        "doAfter" : null,
        "nbEmpRequired" : 1,
        "deadline" : null,
        "skills" : [ ],
        "duration" : null,
        "pause" : true
      },
      "window" : {
        "start" : [ 9, 0 ],
        "end" : [ 9, 0 ]
      }
    }, {
      "job" : {
        "id" : 168,
        "desc" : "ELECTRICIAN, IRONWORK",
        "location" : {
          "id" : 5482,
          "name" : null,
          "latitude" : 43.658592,
          "longitude" : 4.004973
        },
        "openings" : {
          "start" : [ 15, 42 ],
          "end" : [ 17, 17 ]
        },
        "preferredSlots" : null,
        "doAfter" : null,
        "nbEmpRequired" : 1,
        "deadline" : [ 16, 48 ],
        "skills" : [ {
          "id" : 2,
          "name" : "ELECTRICIAN",
          "level" : 2
        }, {
          "id" : 8,
          "name" : "IRONWORK",
          "level" : 1
        } ],
        "duration" : 2700.000000000,
        "pause" : false
      },
      "window" : {
        "start" : [ 9, 42 ],
        "end" : [ 10, 27 ]
      }
    }, {
      "job" : {
        "id" : 959,
        "desc" : "ELECTRICIAN",
        "location" : {
          "id" : 5176,
          "name" : null,
          "latitude" : 43.578274,
          "longitude" : 3.9511962
        },
        "openings" : {
          "start" : [ 10, 22 ],
          "end" : [ 16, 21 ]
        },
        "preferredSlots" : null,
        "doAfter" : null,
        "nbEmpRequired" : 1,
        "deadline" : [ 12, 19 ],
        "skills" : [ {
          "id" : 2,
          "name" : "ELECTRICIAN",
          "level" : 2
        } ],
        "duration" : 2700.000000000,
        "pause" : false
      },
      "window" : {
        "start" : [ 10, 37 ],
        "end" : [ 11, 22 ]
      }
    }, {
      "job" : {
        "id" : -1,
        "desc" : "Pause",
        "location" : {
          "id" : 5176,
          "name" : null,
          "latitude" : 43.578274,
          "longitude" : 3.9511962
        },
        "openings" : {
          "start" : [ 10, 22 ],
          "end" : [ 16, 21 ]
        },
        "preferredSlots" : null,
        "doAfter" : null,
        "nbEmpRequired" : 1,
        "deadline" : [ 12, 19 ],
        "skills" : [ {
          "id" : 2,
          "name" : "ELECTRICIAN",
          "level" : 2
        } ],
        "duration" : 2700.000000000,
        "pause" : true
      },
      "window" : {
        "start" : [ 11, 23 ],
        "end" : [ 13, 0 ]
      }
    }, {
      "job" : {
        "id" : 805,
        "desc" : "MASONRY",
        "location" : {
          "id" : 6472,
          "name" : null,
          "latitude" : 43.79032,
          "longitude" : 4.2557793
        },
        "openings" : {
          "start" : [ 10, 9 ],
          "end" : [ 12, 11 ]
        },
        "preferredSlots" : null,
        "doAfter" : null,
        "nbEmpRequired" : 1,
        "deadline" : [ 9, 51 ],
        "skills" : [ {
          "id" : 4,
          "name" : "MASONRY",
          "level" : 1
        } ],
        "duration" : 7200.000000000,
        "pause" : false
      },
      "window" : {
        "start" : [ 13, 34 ],
        "end" : [ 15, 34 ]
      }
    } ],
    "driving" : 5160.000000000,
    "valid" : true
  }, {
    "emp" : {
      "id" : 252,
      "name" : "252",
      "shifts" : [ {
        "start" : [ 9, 0 ],
        "end" : [ 12, 0 ]
      }, {
        "start" : [ 13, 0 ],
        "end" : [ 17, 0 ]
      } ],
      "prefSlots" : null,
      "startingLoc" : {
        "id" : 7481,
        "name" : null,
        "latitude" : 43.749184,
        "longitude" : 4.0874753
      },
      "skills" : [ {
        "id" : 7,
        "name" : "PAINTING",
        "level" : 9
      }, {
        "id" : 6,
        "name" : "CARPENTRY",
        "level" : 3
      }, {
        "id" : 4,
        "name" : "MASONRY",
        "level" : 6
      }, {
        "id" : 2,
        "name" : "ELECTRICIAN",
        "level" : 10
      }, {
        "id" : 4,
        "name" : "MASONRY",
        "level" : 1
      }, {
        "id" : 1,
        "name" : "ENGINEER",
        "level" : 1
      }, {
        "id" : 7,
        "name" : "PAINTING",
        "level" : 8
      }, {
        "id" : 8,
        "name" : "IRONWORK",
        "level" : 2
      }, {
        "id" : 1,
        "name" : "ENGINEER",
        "level" : 4
      }, {
        "id" : 1,
        "name" : "ENGINEER",
        "level" : 7
      } ]
    },
    "planning" : [ {
      "job" : {
        "id" : -1,
        "desc" : "Home",
        "location" : {
          "id" : 7481,
          "name" : null,
          "latitude" : 43.749184,
          "longitude" : 4.0874753
        },
        "openings" : null,
        "preferredSlots" : null,
        "doAfter" : null,
        "nbEmpRequired" : 1,
        "deadline" : null,
        "skills" : [ ],
        "duration" : null,
        "pause" : true
      },
      "window" : {
        "start" : [ 9, 0 ],
        "end" : [ 9, 0 ]
      }
    }, {
      "job" : {
        "id" : 221,
        "desc" : "ENGINEER",
        "location" : {
          "id" : 4653,
          "name" : null,
          "latitude" : 43.70368,
          "longitude" : 3.992577
        },
        "openings" : {
          "start" : [ 14, 44 ],
          "end" : [ 15, 9 ]
        },
        "preferredSlots" : null,
        "doAfter" : null,
        "nbEmpRequired" : 1,
        "deadline" : [ 11, 2 ],
        "skills" : [ {
          "id" : 1,
          "name" : "ENGINEER",
          "level" : 5
        } ],
        "duration" : 1800.000000000,
        "pause" : false
      },
      "window" : {
        "start" : [ 9, 10 ],
        "end" : [ 9, 40 ]
      }
    }, {
      "job" : {
        "id" : -1,
        "desc" : "Pause",
        "location" : {
          "id" : 4653,
          "name" : null,
          "latitude" : 43.70368,
          "longitude" : 3.992577
        },
        "openings" : {
          "start" : [ 14, 44 ],
          "end" : [ 15, 9 ]
        },
        "preferredSlots" : null,
        "doAfter" : null,
        "nbEmpRequired" : 1,
        "deadline" : [ 11, 2 ],
        "skills" : [ {
          "id" : 1,
          "name" : "ENGINEER",
          "level" : 5
        } ],
        "duration" : 1800.000000000,
        "pause" : true
      },
      "window" : {
        "start" : [ 9, 41 ],
        "end" : [ 13, 0 ]
      }
    } ],
    "driving" : 600.000000000,
    "valid" : true
  } ],
  "unassigned" : [ {
    "id" : 846,
    "desc" : "CARPENTRY, TILER",
    "location" : {
      "id" : 3852,
      "name" : null,
      "latitude" : 43.40112,
      "longitude" : 4.1994343
    },
    "openings" : {
      "start" : [ 13, 31 ],
      "end" : [ 15, 14 ]
    },
    "preferredSlots" : null,
    "doAfter" : null,
    "nbEmpRequired" : 1,
    "deadline" : [ 17, 8 ],
    "skills" : [ {
      "id" : 6,
      "name" : "CARPENTRY",
      "level" : 5
    }, {
      "id" : 9,
      "name" : "TILER",
      "level" : 5
    } ],
    "duration" : 5400.000000000,
    "pause" : false
  }, {
    "id" : 181,
    "desc" : "MANAGEMENT, ENGINEER",
    "location" : {
      "id" : 9052,
      "name" : null,
      "latitude" : 43.75028,
      "longitude" : 4.084426
    },
    "openings" : {
      "start" : [ 12, 30 ],
      "end" : [ 15, 48 ]
    },
    "preferredSlots" : null,
    "doAfter" : null,
    "nbEmpRequired" : 1,
    "deadline" : [ 9, 37 ],
    "skills" : [ {
      "id" : 0,
      "name" : "MANAGEMENT",
      "level" : 5
    }, {
      "id" : 1,
      "name" : "ENGINEER",
      "level" : 5
    } ],
    "duration" : 3600.000000000,
    "pause" : false
  }, {
    "id" : 0,
    "desc" : "ENGINEER, TILER",
    "location" : {
      "id" : 8573,
      "name" : null,
      "latitude" : 44.04946,
      "longitude" : 3.956911
    },
    "openings" : {
      "start" : [ 11, 0 ],
      "end" : [ 17, 32 ]
    },
    "preferredSlots" : null,
    "doAfter" : null,
    "nbEmpRequired" : 1,
    "deadline" : [ 9, 21 ],
    "skills" : [ {
      "id" : 1,
      "name" : "ENGINEER",
      "level" : 5
    }, {
      "id" : 9,
      "name" : "TILER",
      "level" : 5
    } ],
    "duration" : 5400.000000000,
    "pause" : false
  }, {
    "id" : 575,
    "desc" : "ELECTRICIAN, PLUMBING",
    "location" : {
      "id" : 2281,
      "name" : null,
      "latitude" : 43.88564,
      "longitude" : 4.1744595
    },
    "openings" : {
      "start" : [ 12, 48 ],
      "end" : [ 16, 26 ]
    },
    "preferredSlots" : null,
    "doAfter" : null,
    "nbEmpRequired" : 1,
    "deadline" : [ 17, 44 ],
    "skills" : [ {
      "id" : 2,
      "name" : "ELECTRICIAN",
      "level" : 2
    }, {
      "id" : 3,
      "name" : "PLUMBING",
      "level" : 5
    } ],
    "duration" : 3600.000000000,
    "pause" : false
  }, {
    "id" : 461,
    "desc" : "MASONRY, TILER",
    "location" : {
      "id" : 7121,
      "name" : null,
      "latitude" : 43.986885,
      "longitude" : 4.131322
    },
    "openings" : {
      "start" : [ 14, 36 ],
      "end" : [ 14, 48 ]
    },
    "preferredSlots" : null,
    "doAfter" : null,
    "nbEmpRequired" : 1,
    "deadline" : [ 10, 13 ],
    "skills" : [ {
      "id" : 4,
      "name" : "MASONRY",
      "level" : 5
    }, {
      "id" : 9,
      "name" : "TILER",
      "level" : 2
    } ],
    "duration" : 1800.000000000,
    "pause" : false
  }, {
    "id" : 313,
    "desc" : "CARPENTRY, IRONWORK",
    "location" : {
      "id" : 7316,
      "name" : null,
      "latitude" : 44.06063,
      "longitude" : 3.9492946
    },
    "openings" : {
      "start" : [ 11, 0 ],
      "end" : [ 14, 47 ]
    },
    "preferredSlots" : null,
    "doAfter" : null,
    "nbEmpRequired" : 1,
    "deadline" : [ 15, 25 ],
    "skills" : [ {
      "id" : 6,
      "name" : "CARPENTRY",
      "level" : 2
    }, {
      "id" : 8,
      "name" : "IRONWORK",
      "level" : 4
    } ],
    "duration" : 1800.000000000,
    "pause" : false
  }, {
    "id" : 464,
    "desc" : "MASONRY, TILER",
    "location" : {
      "id" : 404,
      "name" : null,
      "latitude" : 44.069588,
      "longitude" : 3.8152003
    },
    "openings" : {
      "start" : [ 11, 42 ],
      "end" : [ 15, 0 ]
    },
    "preferredSlots" : null,
    "doAfter" : null,
    "nbEmpRequired" : 1,
    "deadline" : [ 13, 44 ],
    "skills" : [ {
      "id" : 4,
      "name" : "MASONRY",
      "level" : 4
    }, {
      "id" : 9,
      "name" : "TILER",
      "level" : 2
    } ],
    "duration" : 1800.000000000,
    "pause" : false
  }, {
    "id" : 304,
    "desc" : "TILER, MASONRY",
    "location" : {
      "id" : 7686,
      "name" : null,
      "latitude" : 43.722904,
      "longitude" : 4.158519
    },
    "openings" : {
      "start" : [ 16, 19 ],
      "end" : [ 16, 27 ]
    },
    "preferredSlots" : null,
    "doAfter" : null,
    "nbEmpRequired" : 1,
    "deadline" : [ 14, 52 ],
    "skills" : [ {
      "id" : 9,
      "name" : "TILER",
      "level" : 3
    }, {
      "id" : 4,
      "name" : "MASONRY",
      "level" : 3
    } ],
    "duration" : 7200.000000000,
    "pause" : false
  }, {
    "id" : 605,
    "desc" : "MANAGEMENT, IRONWORK",
    "location" : {
      "id" : 7069,
      "name" : null,
      "latitude" : 43.550983,
      "longitude" : 4.136761
    },
    "openings" : {
      "start" : [ 9, 48 ],
      "end" : [ 17, 49 ]
    },
    "preferredSlots" : null,
    "doAfter" : null,
    "nbEmpRequired" : 1,
    "deadline" : [ 12, 5 ],
    "skills" : [ {
      "id" : 0,
      "name" : "MANAGEMENT",
      "level" : 5
    }, {
      "id" : 8,
      "name" : "IRONWORK",
      "level" : 1
    } ],
    "duration" : 3600.000000000,
    "pause" : false
  }, {
    "id" : 804,
    "desc" : "TILER, IRONWORK",
    "location" : {
      "id" : 8543,
      "name" : null,
      "latitude" : 43.818085,
      "longitude" : 4.1097465
    },
    "openings" : {
      "start" : [ 11, 36 ],
      "end" : [ 17, 13 ]
    },
    "preferredSlots" : null,
    "doAfter" : null,
    "nbEmpRequired" : 1,
    "deadline" : [ 15, 56 ],
    "skills" : [ {
      "id" : 9,
      "name" : "TILER",
      "level" : 1
    }, {
      "id" : 8,
      "name" : "IRONWORK",
      "level" : 4
    } ],
    "duration" : 1800.000000000,
    "pause" : false
  }, {
    "id" : 946,
    "desc" : "PLUMBING, IRONWORK",
    "location" : {
      "id" : 2078,
      "name" : null,
      "latitude" : 43.62989,
      "longitude" : 4.1110253
    },
    "openings" : {
      "start" : [ 14, 49 ],
      "end" : [ 16, 12 ]
    },
    "preferredSlots" : null,
    "doAfter" : null,
    "nbEmpRequired" : 1,
    "deadline" : [ 17, 9 ],
    "skills" : [ {
      "id" : 3,
      "name" : "PLUMBING",
      "level" : 3
    }, {
      "id" : 8,
      "name" : "IRONWORK",
      "level" : 2
    } ],
    "duration" : 1800.000000000,
    "pause" : false
  }, {
    "id" : 963,
    "desc" : "GLAZING, PAINTING",
    "location" : {
      "id" : 5937,
      "name" : null,
      "latitude" : 43.467064,
      "longitude" : 3.7340374
    },
    "openings" : {
      "start" : [ 12, 3 ],
      "end" : [ 17, 11 ]
    },
    "preferredSlots" : null,
    "doAfter" : null,
    "nbEmpRequired" : 1,
    "deadline" : [ 14, 56 ],
    "skills" : [ {
      "id" : 5,
      "name" : "GLAZING",
      "level" : 1
    }, {
      "id" : 7,
      "name" : "PAINTING",
      "level" : 1
    } ],
    "duration" : 2700.000000000,
    "pause" : false
  }, {
    "id" : 401,
    "desc" : "MANAGEMENT",
    "location" : {
      "id" : 3261,
      "name" : null,
      "latitude" : 43.68208,
      "longitude" : 3.798371
    },
    "openings" : {
      "start" : [ 12, 7 ],
      "end" : [ 16, 16 ]
    },
    "preferredSlots" : null,
    "doAfter" : null,
    "nbEmpRequired" : 1,
    "deadline" : [ 16, 37 ],
    "skills" : [ {
      "id" : 0,
      "name" : "MANAGEMENT",
      "level" : 4
    } ],
    "duration" : 3600.000000000,
    "pause" : false
  }, {
    "id" : 723,
    "desc" : "PLUMBING",
    "location" : {
      "id" : 5528,
      "name" : null,
      "latitude" : 43.41493,
      "longitude" : 4.1807847
    },
    "openings" : {
      "start" : [ 9, 4 ],
      "end" : [ 14, 30 ]
    },
    "preferredSlots" : null,
    "doAfter" : null,
    "nbEmpRequired" : 1,
    "deadline" : [ 12, 21 ],
    "skills" : [ {
      "id" : 3,
      "name" : "PLUMBING",
      "level" : 3
    } ],
    "duration" : 1800.000000000,
    "pause" : false
  }, {
    "id" : 11,
    "desc" : "TILER",
    "location" : {
      "id" : 4045,
      "name" : null,
      "latitude" : 43.589096,
      "longitude" : 4.1843405
    },
    "openings" : {
      "start" : [ 12, 58 ],
      "end" : [ 15, 29 ]
    },
    "preferredSlots" : null,
    "doAfter" : null,
    "nbEmpRequired" : 1,
    "deadline" : [ 17, 38 ],
    "skills" : [ {
      "id" : 9,
      "name" : "TILER",
      "level" : 2
    } ],
    "duration" : 2700.000000000,
    "pause" : false
  }, {
    "id" : 34,
    "desc" : "GLAZING",
    "location" : {
      "id" : 5877,
      "name" : null,
      "latitude" : 43.60536,
      "longitude" : 4.004563
    },
    "openings" : {
      "start" : [ 9, 55 ],
      "end" : [ 15, 50 ]
    },
    "preferredSlots" : null,
    "doAfter" : null,
    "nbEmpRequired" : 1,
    "deadline" : [ 12, 52 ],
    "skills" : [ {
      "id" : 5,
      "name" : "GLAZING",
      "level" : 1
    } ],
    "duration" : 2700.000000000,
    "pause" : false
  } ],
  "valid" : true
}