{
  "listEdt" : [ {
    "emp" : {
      "id" : 935,
      "name" : "935",
      "shifts" : [ {
        "start" : [ 9, 0 ],
        "end" : [ 12, 0 ]
      }, {
        "start" : [ 13, 0 ],
        "end" : [ 17, 0 ]
      } ],
      "prefSlots" : null,
      "startingLoc" : {
        "id" : 5212,
        "name" : null,
        "latitude" : 43.489845,
        "longitude" : 3.788341
      },
      "skills" : [ {
        "id" : 1,
        "name" : "ENGINEER",
        "level" : 5
      }, {
        "id" : 2,
        "name" : "ELECTRICIAN",
        "level" : 3
      }, {
        "id" : 2,
        "name" : "ELECTRICIAN",
        "level" : 8
      }, {
        "id" : 8,
        "name" : "IRONWORK",
        "level" : 9
      }, {
        "id" : 1,
        "name" : "ENGINEER",
        "level" : 1
      } ]
    },
    "planning" : [ {
      "job" : {
        "id" : -1,
        "desc" : "Home",
        "location" : {
          "id" : 5212,
          "name" : null,
          "latitude" : 43.489845,
          "longitude" : 3.788341
        },
        "openings" : null,
        "preferredSlots" : null,
        "doAfter" : null,
        "nbEmpRequired" : 1,
        "deadline" : null,
        "skills" : [ ],
        "duration" : null,
        "pause" : true
      },
      "window" : {
        "start" : [ 9, 0 ],
        "end" : [ 9, 0 ]
      }
    }, {
      "job" : {
        "id" : 99,
        "desc" : "ELECTRICIAN, IRONWORK",
        "location" : {
          "id" : 5061,
          "name" : null,
          "latitude" : 43.841507,
          "longitude" : 4.103924
        },
        "openings" : {
          "start" : [ 11, 1 ],
          "end" : [ 15, 5 ]
        },
        "preferredSlots" : null,
        "doAfter" : null,
        "nbEmpRequired" : 1,
        "deadline" : [ 10, 7 ],
        "skills" : [ {
          "id" : 2,
          "name" : "ELECTRICIAN",
          "level" : 5
        }, {
          "id" : 8,
          "name" : "IRONWORK",
          "level" : 1
        } ],
        "duration" : 1800.000000000,
        "pause" : false
      },
      "window" : {
        "start" : [ 9, 47 ],
        "end" : [ 10, 17 ]
      }
    }, {
      "job" : {
        "id" : 681,
        "desc" : "ENGINEER, IRONWORK",
        "location" : {
          "id" : 5185,
          "name" : null,
          "latitude" : 43.70444,
          "longitude" : 4.036769
        },
        "openings" : {
          "start" : [ 11, 59 ],
          "end" : [ 13, 32 ]
        },
        "preferredSlots" : null,
        "doAfter" : null,
        "nbEmpRequired" : 1,
        "deadline" : [ 13, 41 ],
        "skills" : [ {
          "id" : 1,
          "name" : "ENGINEER",
          "level" : 2
        }, {
          "id" : 8,
          "name" : "IRONWORK",
          "level" : 3
        } ],
        "duration" : 3600.000000000,
        "pause" : false
      },
      "window" : {
        "start" : [ 10, 34 ],
        "end" : [ 11, 34 ]
      }
    }, {
      "job" : {
        "id" : -1,
        "desc" : "Pause",
        "location" : {
          "id" : 5185,
          "name" : null,
          "latitude" : 43.70444,
          "longitude" : 4.036769
        },
        "openings" : {
          "start" : [ 11, 59 ],
          "end" : [ 13, 32 ]
        },
        "preferredSlots" : null,
        "doAfter" : null,
        "nbEmpRequired" : 1,
        "deadline" : [ 13, 41 ],
        "skills" : [ {
          "id" : 1,
          "name" : "ENGINEER",
          "level" : 2
        }, {
          "id" : 8,
          "name" : "IRONWORK",
          "level" : 3
        } ],
        "duration" : 3600.000000000,
        "pause" : true
      },
      "window" : {
        "start" : [ 11, 35 ],
        "end" : [ 13, 0 ]
      }
    }, {
      "job" : {
        "id" : 879,
        "desc" : "ELECTRICIAN",
        "location" : {
          "id" : 3921,
          "name" : null,
          "latitude" : 43.73978,
          "longitude" : 3.8222923
        },
        "openings" : {
          "start" : [ 11, 12 ],
          "end" : [ 13, 37 ]
        },
        "preferredSlots" : null,
        "doAfter" : null,
        "nbEmpRequired" : 1,
        "deadline" : [ 10, 0 ],
        "skills" : [ {
          "id" : 2,
          "name" : "ELECTRICIAN",
          "level" : 4
        } ],
        "duration" : 2700.000000000,
        "pause" : false
      },
      "window" : {
        "start" : [ 13, 18 ],
        "end" : [ 14, 3 ]
      }
    }, {
      "job" : {
        "id" : 582,
        "desc" : "IRONWORK",
        "location" : {
          "id" : 5768,
          "name" : null,
          "latitude" : 43.53523,
          "longitude" : 4.1272736
        },
        "openings" : {
          "start" : [ 9, 38 ],
          "end" : [ 15, 44 ]
        },
        "preferredSlots" : null,
        "doAfter" : null,
        "nbEmpRequired" : 1,
        "deadline" : [ 14, 53 ],
        "skills" : [ {
          "id" : 8,
          "name" : "IRONWORK",
          "level" : 4
        } ],
        "duration" : 1800.000000000,
        "pause" : false
      },
      "window" : {
        "start" : [ 14, 37 ],
        "end" : [ 15, 7 ]
      }
    }, {
      "job" : {
        "id" : 361,
        "desc" : "IRONWORK",
        "location" : {
          "id" : 1210,
          "name" : null,
          "latitude" : 43.939957,
          "longitude" : 3.961124
        },
        "openings" : {
          "start" : [ 9, 39 ],
          "end" : [ 13, 56 ]
        },
        "preferredSlots" : null,
        "doAfter" : null,
        "nbEmpRequired" : 1,
        "deadline" : [ 11, 48 ],
        "skills" : [ {
          "id" : 8,
          "name" : "IRONWORK",
          "level" : 4
        } ],
        "duration" : 2700.000000000,
        "pause" : false
      },
      "window" : {
        "start" : [ 15, 54 ],
        "end" : [ 16, 39 ]
      }
    } ],
    "driving" : 9780.000000000,
    "valid" : true
  }, {
    "emp" : {
      "id" : 813,
      "name" : "813",
      "shifts" : [ {
        "start" : [ 9, 0 ],
        "end" : [ 12, 0 ]
      }, {
        "start" : [ 13, 0 ],
        "end" : [ 17, 0 ]
      } ],
      "prefSlots" : null,
      "startingLoc" : {
        "id" : 773,
        "name" : null,
        "latitude" : 43.88758,
        "longitude" : 4.0585914
      },
      "skills" : [ {
        "id" : 5,
        "name" : "GLAZING",
        "level" : 9
      }, {
        "id" : 5,
        "name" : "GLAZING",
        "level" : 10
      }, {
        "id" : 1,
        "name" : "ENGINEER",
        "level" : 3
      } ]
    },
    "planning" : [ {
      "job" : {
        "id" : -1,
        "desc" : "Home",
        "location" : {
          "id" : 773,
          "name" : null,
          "latitude" : 43.88758,
          "longitude" : 4.0585914
        },
        "openings" : null,
        "preferredSlots" : null,
        "doAfter" : null,
        "nbEmpRequired" : 1,
        "deadline" : null,
        "skills" : [ ],
        "duration" : null,
        "pause" : true
      },
      "window" : {
        "start" : [ 9, 0 ],
        "end" : [ 9, 0 ]
      }
    }, {
      "job" : {
        "id" : 868,
        "desc" : "GLAZING",
        "location" : {
          "id" : 4937,
          "name" : null,
          "latitude" : 43.683617,
          "longitude" : 3.8873715
        },
        "openings" : {
          "start" : [ 13, 3 ],
          "end" : [ 16, 10 ]
        },
        "preferredSlots" : null,
        "doAfter" : null,
        "nbEmpRequired" : 1,
        "deadline" : [ 9, 56 ],
        "skills" : [ {
          "id" : 5,
          "name" : "GLAZING",
          "level" : 5
        } ],
        "duration" : 7200.000000000,
        "pause" : false
      },
      "window" : {
        "start" : [ 9, 27 ],
        "end" : [ 11, 27 ]
      }
    }, {
      "job" : {
        "id" : -1,
        "desc" : "Pause",
        "location" : {
          "id" : 4937,
          "name" : null,
          "latitude" : 43.683617,
          "longitude" : 3.8873715
        },
        "openings" : {
          "start" : [ 13, 3 ],
          "end" : [ 16, 10 ]
        },
        "preferredSlots" : null,
        "doAfter" : null,
        "nbEmpRequired" : 1,
        "deadline" : [ 9, 56 ],
        "skills" : [ {
          "id" : 5,
          "name" : "GLAZING",
          "level" : 5
        } ],
        "duration" : 7200.000000000,
        "pause" : true
      },
      "window" : {
        "start" : [ 11, 28 ],
        "end" : [ 13, 0 ]
      }
    }, {
      "job" : {
        "id" : 231,
        "desc" : "GLAZING",
        "location" : {
          "id" : 6930,
          "name" : null,
          "latitude" : 43.973442,
          "longitude" : 3.8997872
        },
        "openings" : {
          "start" : [ 11, 34 ],
          "end" : [ 16, 21 ]
        },
        "preferredSlots" : null,
        "doAfter" : null,
        "nbEmpRequired" : 1,
        "deadline" : [ 12, 43 ],
        "skills" : [ {
          "id" : 5,
          "name" : "GLAZING",
          "level" : 5
        } ],
        "duration" : 3600.000000000,
        "pause" : false
      },
      "window" : {
        "start" : [ 13, 33 ],
        "end" : [ 14, 33 ]
      }
    }, {
      "job" : {
        "id" : 825,
        "desc" : "GLAZING",
        "location" : {
          "id" : 3039,
          "name" : null,
          "latitude" : 44.062542,
          "longitude" : 4.129066
        },
        "openings" : {
          "start" : [ 9, 17 ],
          "end" : [ 17, 31 ]
        },
        "preferredSlots" : null,
        "doAfter" : null,
        "nbEmpRequired" : 1,
        "deadline" : [ 12, 43 ],
        "skills" : [ {
          "id" : 5,
          "name" : "GLAZING",
          "level" : 4
        } ],
        "duration" : 3600.000000000,
        "pause" : false
      },
      "window" : {
        "start" : [ 14, 54 ],
        "end" : [ 15, 54 ]
      }
    }, {
      "job" : {
        "id" : 140,
        "desc" : "GLAZING",
        "location" : {
          "id" : 4366,
          "name" : null,
          "latitude" : 44.06275,
          "longitude" : 4.2527747
        },
        "openings" : {
          "start" : [ 11, 0 ],
          "end" : [ 16, 27 ]
        },
        "preferredSlots" : null,
        "doAfter" : null,
        "nbEmpRequired" : 1,
        "deadline" : [ 16, 51 ],
        "skills" : [ {
          "id" : 5,
          "name" : "GLAZING",
          "level" : 4
        } ],
        "duration" : 2700.000000000,
        "pause" : false
      },
      "window" : {
        "start" : [ 16, 4 ],
        "end" : [ 16, 49 ]
      }
    } ],
    "driving" : 5460.000000000,
    "valid" : true
  }, {
    "emp" : {
      "id" : 181,
      "name" : "181",
      "shifts" : [ {
        "start" : [ 9, 0 ],
        "end" : [ 12, 0 ]
      }, {
        "start" : [ 13, 0 ],
        "end" : [ 17, 0 ]
      } ],
      "prefSlots" : null,
      "startingLoc" : {
        "id" : 5534,
        "name" : null,
        "latitude" : 43.866867,
        "longitude" : 3.9824104
      },
      "skills" : [ {
        "id" : 2,
        "name" : "ELECTRICIAN",
        "level" : 9
      }, {
        "id" : 4,
        "name" : "MASONRY",
        "level" : 6
      }, {
        "id" : 1,
        "name" : "ENGINEER",
        "level" : 3
      }, {
        "id" : 8,
        "name" : "IRONWORK",
        "level" : 6
      }, {
        "id" : 4,
        "name" : "MASONRY",
        "level" : 5
      }, {
        "id" : 5,
        "name" : "GLAZING",
        "level" : 4
      } ]
    },
    "planning" : [ {
      "job" : {
        "id" : -1,
        "desc" : "Home",
        "location" : {
          "id" : 5534,
          "name" : null,
          "latitude" : 43.866867,
          "longitude" : 3.9824104
        },
        "openings" : null,
        "preferredSlots" : null,
        "doAfter" : null,
        "nbEmpRequired" : 1,
        "deadline" : null,
        "skills" : [ ],
        "duration" : null,
        "pause" : true
      },
      "window" : {
        "start" : [ 9, 0 ],
        "end" : [ 9, 0 ]
      }
    }, {
      "job" : {
        "id" : 4,
        "desc" : "MASONRY, ENGINEER",
        "location" : {
          "id" : 7181,
          "name" : null,
          "latitude" : 43.770046,
          "longitude" : 4.017511
        },
        "openings" : {
          "start" : [ 11, 41 ],
          "end" : [ 12, 38 ]
        },
        "preferredSlots" : null,
        "doAfter" : null,
        "nbEmpRequired" : 1,
        "deadline" : [ 15, 13 ],
        "skills" : [ {
          "id" : 4,
          "name" : "MASONRY",
          "level" : 3
        }, {
          "id" : 1,
          "name" : "ENGINEER",
          "level" : 3
        } ],
        "duration" : 2700.000000000,
        "pause" : false
      },
      "window" : {
        "start" : [ 9, 12 ],
        "end" : [ 9, 57 ]
      }
    }, {
      "job" : {
        "id" : 514,
        "desc" : "MASONRY, GLAZING",
        "location" : {
          "id" : 1627,
          "name" : null,
          "latitude" : 43.55514,
          "longitude" : 3.959137
        },
        "openings" : {
          "start" : [ 13, 0 ],
          "end" : [ 13, 26 ]
        },
        "preferredSlots" : null,
        "doAfter" : null,
        "nbEmpRequired" : 1,
        "deadline" : [ 13, 56 ],
        "skills" : [ {
          "id" : 4,
          "name" : "MASONRY",
          "level" : 1
        }, {
          "id" : 5,
          "name" : "GLAZING",
          "level" : 4
        } ],
        "duration" : 2700.000000000,
        "pause" : false
      },
      "window" : {
        "start" : [ 10, 22 ],
        "end" : [ 11, 7 ]
      }
    }, {
      "job" : {
        "id" : 160,
        "desc" : "GLAZING",
        "location" : {
          "id" : 811,
          "name" : null,
          "latitude" : 43.670082,
          "longitude" : 4.1072683
        },
        "openings" : {
          "start" : [ 11, 15 ],
          "end" : [ 17, 59 ]
        },
        "preferredSlots" : null,
        "doAfter" : null,
        "nbEmpRequired" : 1,
        "deadline" : [ 14, 37 ],
        "skills" : [ {
          "id" : 5,
          "name" : "GLAZING",
          "level" : 4
        } ],
        "duration" : 1800.000000000,
        "pause" : false
      },
      "window" : {
        "start" : [ 11, 25 ],
        "end" : [ 11, 55 ]
      }
    }, {
      "job" : {
        "id" : -1,
        "desc" : "Pause",
        "location" : {
          "id" : 811,
          "name" : null,
          "latitude" : 43.670082,
          "longitude" : 4.1072683
        },
        "openings" : {
          "start" : [ 11, 15 ],
          "end" : [ 17, 59 ]
        },
        "preferredSlots" : null,
        "doAfter" : null,
        "nbEmpRequired" : 1,
        "deadline" : [ 14, 37 ],
        "skills" : [ {
          "id" : 5,
          "name" : "GLAZING",
          "level" : 4
        } ],
        "duration" : 1800.000000000,
        "pause" : true
      },
      "window" : {
        "start" : [ 11, 56 ],
        "end" : [ 13, 0 ]
      }
    }, {
      "job" : {
        "id" : 575,
        "desc" : "GLAZING, ELECTRICIAN",
        "location" : {
          "id" : 7573,
          "name" : null,
          "latitude" : 43.758106,
          "longitude" : 3.7481837
        },
        "openings" : {
          "start" : [ 15, 7 ],
          "end" : [ 17, 15 ]
        },
        "preferredSlots" : null,
        "doAfter" : null,
        "nbEmpRequired" : 1,
        "deadline" : [ 9, 30 ],
        "skills" : [ {
          "id" : 5,
          "name" : "GLAZING",
          "level" : 4
        }, {
          "id" : 2,
          "name" : "ELECTRICIAN",
          "level" : 1
        } ],
        "duration" : 7200.000000000,
        "pause" : false
      },
      "window" : {
        "start" : [ 13, 31 ],
        "end" : [ 15, 31 ]
      }
    }, {
      "job" : {
        "id" : 498,
        "desc" : "ELECTRICIAN, GLAZING",
        "location" : {
          "id" : 7998,
          "name" : null,
          "latitude" : 43.86802,
          "longitude" : 4.1228614
        },
        "openings" : {
          "start" : [ 11, 52 ],
          "end" : [ 14, 29 ]
        },
        "preferredSlots" : null,
        "doAfter" : null,
        "nbEmpRequired" : 1,
        "deadline" : [ 15, 43 ],
        "skills" : [ {
          "id" : 2,
          "name" : "ELECTRICIAN",
          "level" : 4
        }, {
          "id" : 5,
          "name" : "GLAZING",
          "level" : 1
        } ],
        "duration" : 2700.000000000,
        "pause" : false
      },
      "window" : {
        "start" : [ 16, 4 ],
        "end" : [ 16, 49 ]
      }
    } ],
    "driving" : 7140.000000000,
    "valid" : true
  }, {
    "emp" : {
      "id" : 381,
      "name" : "381",
      "shifts" : [ {
        "start" : [ 9, 0 ],
        "end" : [ 12, 0 ]
      }, {
        "start" : [ 13, 0 ],
        "end" : [ 17, 0 ]
      } ],
      "prefSlots" : null,
      "startingLoc" : {
        "id" : 7751,
        "name" : null,
        "latitude" : 44.011833,
        "longitude" : 3.8912761
      },
      "skills" : [ {
        "id" : 5,
        "name" : "GLAZING",
        "level" : 10
      }, {
        "id" : 5,
        "name" : "GLAZING",
        "level" : 1
      }, {
        "id" : 6,
        "name" : "CARPENTRY",
        "level" : 1
      }, {
        "id" : 1,
        "name" : "ENGINEER",
        "level" : 8
      }, {
        "id" : 3,
        "name" : "PLUMBING",
        "level" : 8
      }, {
        "id" : 3,
        "name" : "PLUMBING",
        "level" : 5
      }, {
        "id" : 2,
        "name" : "ELECTRICIAN",
        "level" : 6
      }, {
        "id" : 8,
        "name" : "IRONWORK",
        "level" : 8
      }, {
        "id" : 6,
        "name" : "CARPENTRY",
        "level" : 8
      }, {
        "id" : 4,
        "name" : "MASONRY",
        "level" : 8
      } ]
    },
    "planning" : [ {
      "job" : {
        "id" : -1,
        "desc" : "Home",
        "location" : {
          "id" : 7751,
          "name" : null,
          "latitude" : 44.011833,
          "longitude" : 3.8912761
        },
        "openings" : null,
        "preferredSlots" : null,
        "doAfter" : null,
        "nbEmpRequired" : 1,
        "deadline" : null,
        "skills" : [ ],
        "duration" : null,
        "pause" : true
      },
      "window" : {
        "start" : [ 9, 0 ],
        "end" : [ 9, 0 ]
      }
    }, {
      "job" : {
        "id" : 909,
        "desc" : "CARPENTRY, ELECTRICIAN",
        "location" : {
          "id" : 115,
          "name" : null,
          "latitude" : 43.70054,
          "longitude" : 4.145615
        },
        "openings" : {
          "start" : [ 14, 23 ],
          "end" : [ 16, 28 ]
        },
        "preferredSlots" : null,
        "doAfter" : null,
        "nbEmpRequired" : 1,
        "deadline" : [ 10, 9 ],
        "skills" : [ {
          "id" : 6,
          "name" : "CARPENTRY",
          "level" : 5
        }, {
          "id" : 2,
          "name" : "ELECTRICIAN",
          "level" : 4
        } ],
        "duration" : 2700.000000000,
        "pause" : false
      },
      "window" : {
        "start" : [ 9, 41 ],
        "end" : [ 10, 26 ]
      }
    }, {
      "job" : {
        "id" : 514,
        "desc" : "GLAZING, CARPENTRY",
        "location" : {
          "id" : 4646,
          "name" : null,
          "latitude" : 43.81117,
          "longitude" : 4.156328
        },
        "openings" : {
          "start" : [ 16, 25 ],
          "end" : [ 17, 8 ]
        },
        "preferredSlots" : null,
        "doAfter" : null,
        "nbEmpRequired" : 1,
        "deadline" : [ 12, 5 ],
        "skills" : [ {
          "id" : 5,
          "name" : "GLAZING",
          "level" : 5
        }, {
          "id" : 6,
          "name" : "CARPENTRY",
          "level" : 3
        } ],
        "duration" : 3600.000000000,
        "pause" : false
      },
      "window" : {
        "start" : [ 10, 39 ],
        "end" : [ 11, 39 ]
      }
    }, {
      "job" : {
        "id" : -1,
        "desc" : "Pause",
        "location" : {
          "id" : 4646,
          "name" : null,
          "latitude" : 43.81117,
          "longitude" : 4.156328
        },
        "openings" : {
          "start" : [ 16, 25 ],
          "end" : [ 17, 8 ]
        },
        "preferredSlots" : null,
        "doAfter" : null,
        "nbEmpRequired" : 1,
        "deadline" : [ 12, 5 ],
        "skills" : [ {
          "id" : 5,
          "name" : "GLAZING",
          "level" : 5
        }, {
          "id" : 6,
          "name" : "CARPENTRY",
          "level" : 3
        } ],
        "duration" : 3600.000000000,
        "pause" : true
      },
      "window" : {
        "start" : [ 11, 40 ],
        "end" : [ 13, 0 ]
      }
    }, {
      "job" : {
        "id" : 732,
        "desc" : "GLAZING, CARPENTRY",
        "location" : {
          "id" : 7551,
          "name" : null,
          "latitude" : 43.80429,
          "longitude" : 4.14901
        },
        "openings" : {
          "start" : [ 10, 26 ],
          "end" : [ 11, 14 ]
        },
        "preferredSlots" : null,
        "doAfter" : null,
        "nbEmpRequired" : 1,
        "deadline" : [ 14, 6 ],
        "skills" : [ {
          "id" : 5,
          "name" : "GLAZING",
          "level" : 5
        }, {
          "id" : 6,
          "name" : "CARPENTRY",
          "level" : 3
        } ],
        "duration" : 5400.000000000,
        "pause" : false
      },
      "window" : {
        "start" : [ 13, 1 ],
        "end" : [ 14, 31 ]
      }
    }, {
      "job" : {
        "id" : 905,
        "desc" : "ELECTRICIAN, PLUMBING",
        "location" : {
          "id" : 5653,
          "name" : null,
          "latitude" : 43.63198,
          "longitude" : 3.9920998
        },
        "openings" : {
          "start" : [ 11, 31 ],
          "end" : [ 13, 41 ]
        },
        "preferredSlots" : null,
        "doAfter" : null,
        "nbEmpRequired" : 1,
        "deadline" : [ 14, 28 ],
        "skills" : [ {
          "id" : 2,
          "name" : "ELECTRICIAN",
          "level" : 3
        }, {
          "id" : 3,
          "name" : "PLUMBING",
          "level" : 5
        } ],
        "duration" : 1800.000000000,
        "pause" : false
      },
      "window" : {
        "start" : [ 14, 54 ],
        "end" : [ 15, 24 ]
      }
    }, {
      "job" : {
        "id" : 781,
        "desc" : "PLUMBING, GLAZING",
        "location" : {
          "id" : 8043,
          "name" : null,
          "latitude" : 43.602627,
          "longitude" : 3.7755146
        },
        "openings" : {
          "start" : [ 11, 9 ],
          "end" : [ 14, 7 ]
        },
        "preferredSlots" : null,
        "doAfter" : null,
        "nbEmpRequired" : 1,
        "deadline" : [ 14, 13 ],
        "skills" : [ {
          "id" : 3,
          "name" : "PLUMBING",
          "level" : 4
        }, {
          "id" : 5,
          "name" : "GLAZING",
          "level" : 3
        } ],
        "duration" : 3600.000000000,
        "pause" : false
      },
      "window" : {
        "start" : [ 15, 42 ],
        "end" : [ 16, 42 ]
      }
    } ],
    "driving" : 5760.000000000,
    "valid" : true
  }, {
    "emp" : {
      "id" : 525,
      "name" : "525",
      "shifts" : [ {
        "start" : [ 9, 0 ],
        "end" : [ 12, 0 ]
      }, {
        "start" : [ 13, 0 ],
        "end" : [ 17, 0 ]
      } ],
      "prefSlots" : null,
      "startingLoc" : {
        "id" : 1396,
        "name" : null,
        "latitude" : 43.79511,
        "longitude" : 3.8371391
      },
      "skills" : [ {
        "id" : 9,
        "name" : "TILER",
        "level" : 6
      }, {
        "id" : 8,
        "name" : "IRONWORK",
        "level" : 8
      }, {
        "id" : 8,
        "name" : "IRONWORK",
        "level" : 1
      }, {
        "id" : 1,
        "name" : "ENGINEER",
        "level" : 7
      }, {
        "id" : 1,
        "name" : "ENGINEER",
        "level" : 3
      } ]
    },
    "planning" : [ {
      "job" : {
        "id" : -1,
        "desc" : "Home",
        "location" : {
          "id" : 1396,
          "name" : null,
          "latitude" : 43.79511,
          "longitude" : 3.8371391
        },
        "openings" : null,
        "preferredSlots" : null,
        "doAfter" : null,
        "nbEmpRequired" : 1,
        "deadline" : null,
        "skills" : [ ],
        "duration" : null,
        "pause" : true
      },
      "window" : {
        "start" : [ 9, 0 ],
        "end" : [ 9, 0 ]
      }
    }, {
      "job" : {
        "id" : 110,
        "desc" : "TILER, ENGINEER",
        "location" : {
          "id" : 3645,
          "name" : null,
          "latitude" : 43.445274,
          "longitude" : 4.2910523
        },
        "openings" : {
          "start" : [ 9, 29 ],
          "end" : [ 11, 23 ]
        },
        "preferredSlots" : null,
        "doAfter" : null,
        "nbEmpRequired" : 1,
        "deadline" : [ 16, 27 ],
        "skills" : [ {
          "id" : 9,
          "name" : "TILER",
          "level" : 4
        }, {
          "id" : 1,
          "name" : "ENGINEER",
          "level" : 5
        } ],
        "duration" : 2700.000000000,
        "pause" : false
      },
      "window" : {
        "start" : [ 9, 54 ],
        "end" : [ 10, 39 ]
      }
    }, {
      "job" : {
        "id" : 572,
        "desc" : "IRONWORK",
        "location" : {
          "id" : 1699,
          "name" : null,
          "latitude" : 43.408085,
          "longitude" : 4.150383
        },
        "openings" : {
          "start" : [ 9, 14 ],
          "end" : [ 16, 53 ]
        },
        "preferredSlots" : null,
        "doAfter" : null,
        "nbEmpRequired" : 1,
        "deadline" : [ 9, 53 ],
        "skills" : [ {
          "id" : 8,
          "name" : "IRONWORK",
          "level" : 3
        } ],
        "duration" : 3600.000000000,
        "pause" : false
      },
      "window" : {
        "start" : [ 10, 52 ],
        "end" : [ 11, 52 ]
      }
    }, {
      "job" : {
        "id" : -1,
        "desc" : "Pause",
        "location" : {
          "id" : 1699,
          "name" : null,
          "latitude" : 43.408085,
          "longitude" : 4.150383
        },
        "openings" : {
          "start" : [ 9, 14 ],
          "end" : [ 16, 53 ]
        },
        "preferredSlots" : null,
        "doAfter" : null,
        "nbEmpRequired" : 1,
        "deadline" : [ 9, 53 ],
        "skills" : [ {
          "id" : 8,
          "name" : "IRONWORK",
          "level" : 3
        } ],
        "duration" : 3600.000000000,
        "pause" : true
      },
      "window" : {
        "start" : [ 11, 53 ],
        "end" : [ 13, 0 ]
      }
    }, {
      "job" : {
        "id" : 456,
        "desc" : "IRONWORK, TILER",
        "location" : {
          "id" : 4567,
          "name" : null,
          "latitude" : 43.72395,
          "longitude" : 3.7603576
        },
        "openings" : {
          "start" : [ 13, 22 ],
          "end" : [ 14, 48 ]
        },
        "preferredSlots" : null,
        "doAfter" : null,
        "nbEmpRequired" : 1,
        "deadline" : [ 15, 50 ],
        "skills" : [ {
          "id" : 8,
          "name" : "IRONWORK",
          "level" : 4
        }, {
          "id" : 9,
          "name" : "TILER",
          "level" : 2
        } ],
        "duration" : 2700.000000000,
        "pause" : false
      },
      "window" : {
        "start" : [ 13, 48 ],
        "end" : [ 14, 33 ]
      }
    }, {
      "job" : {
        "id" : 607,
        "desc" : "TILER, IRONWORK",
        "location" : {
          "id" : 6450,
          "name" : null,
          "latitude" : 43.40889,
          "longitude" : 3.8000531
        },
        "openings" : {
          "start" : [ 15, 46 ],
          "end" : [ 15, 49 ]
        },
        "preferredSlots" : null,
        "doAfter" : null,
        "nbEmpRequired" : 1,
        "deadline" : [ 17, 20 ],
        "skills" : [ {
          "id" : 9,
          "name" : "TILER",
          "level" : 2
        }, {
          "id" : 8,
          "name" : "IRONWORK",
          "level" : 1
        } ],
        "duration" : 2700.000000000,
        "pause" : false
      },
      "window" : {
        "start" : [ 15, 9 ],
        "end" : [ 15, 54 ]
      }
    }, {
      "job" : {
        "id" : 57,
        "desc" : "IRONWORK",
        "location" : {
          "id" : 8303,
          "name" : null,
          "latitude" : 43.61716,
          "longitude" : 4.10158
        },
        "openings" : {
          "start" : [ 11, 42 ],
          "end" : [ 15, 15 ]
        },
        "preferredSlots" : null,
        "doAfter" : null,
        "nbEmpRequired" : 1,
        "deadline" : [ 14, 39 ],
        "skills" : [ {
          "id" : 8,
          "name" : "IRONWORK",
          "level" : 3
        } ],
        "duration" : 1800.000000000,
        "pause" : false
      },
      "window" : {
        "start" : [ 16, 28 ],
        "end" : [ 16, 58 ]
      }
    } ],
    "driving" : 11100.000000000,
    "valid" : true
  }, {
    "emp" : {
      "id" : 253,
      "name" : "253",
      "shifts" : [ {
        "start" : [ 9, 0 ],
        "end" : [ 12, 0 ]
      }, {
        "start" : [ 13, 0 ],
        "end" : [ 17, 0 ]
      } ],
      "prefSlots" : null,
      "startingLoc" : {
        "id" : 7736,
        "name" : null,
        "latitude" : 43.760506,
        "longitude" : 4.2579474
      },
      "skills" : [ {
        "id" : 8,
        "name" : "IRONWORK",
        "level" : 5
      }, {
        "id" : 7,
        "name" : "PAINTING",
        "level" : 7
      }, {
        "id" : 0,
        "name" : "MANAGEMENT",
        "level" : 9
      }, {
        "id" : 2,
        "name" : "ELECTRICIAN",
        "level" : 3
      }, {
        "id" : 6,
        "name" : "CARPENTRY",
        "level" : 4
      }, {
        "id" : 9,
        "name" : "TILER",
        "level" : 8
      }, {
        "id" : 2,
        "name" : "ELECTRICIAN",
        "level" : 8
      }, {
        "id" : 4,
        "name" : "MASONRY",
        "level" : 2
      }, {
        "id" : 6,
        "name" : "CARPENTRY",
        "level" : 8
      }, {
        "id" : 1,
        "name" : "ENGINEER",
        "level" : 6
      } ]
    },
    "planning" : [ {
      "job" : {
        "id" : -1,
        "desc" : "Home",
        "location" : {
          "id" : 7736,
          "name" : null,
          "latitude" : 43.760506,
          "longitude" : 4.2579474
        },
        "openings" : null,
        "preferredSlots" : null,
        "doAfter" : null,
        "nbEmpRequired" : 1,
        "deadline" : null,
        "skills" : [ ],
        "duration" : null,
        "pause" : true
      },
      "window" : {
        "start" : [ 9, 0 ],
        "end" : [ 9, 0 ]
      }
    }, {
      "job" : {
        "id" : 398,
        "desc" : "MANAGEMENT, ELECTRICIAN",
        "location" : {
          "id" : 9572,
          "name" : null,
          "latitude" : 43.707256,
          "longitude" : 3.9963841
        },
        "openings" : {
          "start" : [ 12, 14 ],
          "end" : [ 12, 31 ]
        },
        "preferredSlots" : null,
        "doAfter" : null,
        "nbEmpRequired" : 1,
        "deadline" : [ 16, 12 ],
        "skills" : [ {
          "id" : 0,
          "name" : "MANAGEMENT",
          "level" : 5
        }, {
          "id" : 2,
          "name" : "ELECTRICIAN",
          "level" : 5
        } ],
        "duration" : 2700.000000000,
        "pause" : false
      },
      "window" : {
        "start" : [ 9, 22 ],
        "end" : [ 10, 7 ]
      }
    }, {
      "job" : {
        "id" : 457,
        "desc" : "PAINTING, MANAGEMENT",
        "location" : {
          "id" : 1313,
          "name" : null,
          "latitude" : 43.699677,
          "longitude" : 3.977811
        },
        "openings" : {
          "start" : [ 10, 6 ],
          "end" : [ 17, 2 ]
        },
        "preferredSlots" : null,
        "doAfter" : null,
        "nbEmpRequired" : 1,
        "deadline" : [ 12, 7 ],
        "skills" : [ {
          "id" : 7,
          "name" : "PAINTING",
          "level" : 4
        }, {
          "id" : 0,
          "name" : "MANAGEMENT",
          "level" : 5
        } ],
        "duration" : 1800.000000000,
        "pause" : false
      },
      "window" : {
        "start" : [ 10, 9 ],
        "end" : [ 10, 39 ]
      }
    }, {
      "job" : {
        "id" : 91,
        "desc" : "CARPENTRY, ENGINEER",
        "location" : {
          "id" : 6865,
          "name" : null,
          "latitude" : 43.780224,
          "longitude" : 4.123599
        },
        "openings" : {
          "start" : [ 12, 48 ],
          "end" : [ 16, 52 ]
        },
        "preferredSlots" : null,
        "doAfter" : null,
        "nbEmpRequired" : 1,
        "deadline" : [ 12, 26 ],
        "skills" : [ {
          "id" : 6,
          "name" : "CARPENTRY",
          "level" : 3
        }, {
          "id" : 1,
          "name" : "ENGINEER",
          "level" : 4
        } ],
        "duration" : 3600.000000000,
        "pause" : false
      },
      "window" : {
        "start" : [ 10, 54 ],
        "end" : [ 11, 54 ]
      }
    }, {
      "job" : {
        "id" : -1,
        "desc" : "Pause",
        "location" : {
          "id" : 6865,
          "name" : null,
          "latitude" : 43.780224,
          "longitude" : 4.123599
        },
        "openings" : {
          "start" : [ 12, 48 ],
          "end" : [ 16, 52 ]
        },
        "preferredSlots" : null,
        "doAfter" : null,
        "nbEmpRequired" : 1,
        "deadline" : [ 12, 26 ],
        "skills" : [ {
          "id" : 6,
          "name" : "CARPENTRY",
          "level" : 3
        }, {
          "id" : 1,
          "name" : "ENGINEER",
          "level" : 4
        } ],
        "duration" : 3600.000000000,
        "pause" : true
      },
      "window" : {
        "start" : [ 11, 55 ],
        "end" : [ 13, 0 ]
      }
    }, {
      "job" : {
        "id" : 404,
        "desc" : "TILER, ELECTRICIAN",
        "location" : {
          "id" : 9623,
          "name" : null,
          "latitude" : 43.605396,
          "longitude" : 3.8138187
        },
        "openings" : {
          "start" : [ 10, 36 ],
          "end" : [ 16, 15 ]
        },
        "preferredSlots" : null,
        "doAfter" : null,
        "nbEmpRequired" : 1,
        "deadline" : [ 13, 41 ],
        "skills" : [ {
          "id" : 9,
          "name" : "TILER",
          "level" : 3
        }, {
          "id" : 2,
          "name" : "ELECTRICIAN",
          "level" : 4
        } ],
        "duration" : 7200.000000000,
        "pause" : false
      },
      "window" : {
        "start" : [ 13, 32 ],
        "end" : [ 15, 32 ]
      }
    }, {
      "job" : {
        "id" : 123,
        "desc" : "IRONWORK, CARPENTRY",
        "location" : {
          "id" : 5391,
          "name" : null,
          "latitude" : 44.08317,
          "longitude" : 3.8316388
        },
        "openings" : {
          "start" : [ 13, 42 ],
          "end" : [ 14, 43 ]
        },
        "preferredSlots" : null,
        "doAfter" : null,
        "nbEmpRequired" : 1,
        "deadline" : [ 17, 14 ],
        "skills" : [ {
          "id" : 8,
          "name" : "IRONWORK",
          "level" : 5
        }, {
          "id" : 6,
          "name" : "CARPENTRY",
          "level" : 1
        } ],
        "duration" : 1800.000000000,
        "pause" : false
      },
      "window" : {
        "start" : [ 16, 26 ],
        "end" : [ 16, 56 ]
      }
    } ],
    "driving" : 7500.000000000,
    "valid" : true
  }, {
    "emp" : {
      "id" : 907,
      "name" : "907",
      "shifts" : [ {
        "start" : [ 9, 0 ],
        "end" : [ 12, 0 ]
      }, {
        "start" : [ 13, 0 ],
        "end" : [ 17, 0 ]
      } ],
      "prefSlots" : null,
      "startingLoc" : {
        "id" : 5913,
        "name" : null,
        "latitude" : 43.6615,
        "longitude" : 3.9765236
      },
      "skills" : [ {
        "id" : 6,
        "name" : "CARPENTRY",
        "level" : 3
      }, {
        "id" : 3,
        "name" : "PLUMBING",
        "level" : 2
      }, {
        "id" : 6,
        "name" : "CARPENTRY",
        "level" : 4
      }, {
        "id" : 3,
        "name" : "PLUMBING",
        "level" : 8
      }, {
        "id" : 9,
        "name" : "TILER",
        "level" : 10
      } ]
    },
    "planning" : [ {
      "job" : {
        "id" : -1,
        "desc" : "Home",
        "location" : {
          "id" : 5913,
          "name" : null,
          "latitude" : 43.6615,
          "longitude" : 3.9765236
        },
        "openings" : null,
        "preferredSlots" : null,
        "doAfter" : null,
        "nbEmpRequired" : 1,
        "deadline" : null,
        "skills" : [ ],
        "duration" : null,
        "pause" : true
      },
      "window" : {
        "start" : [ 9, 0 ],
        "end" : [ 9, 0 ]
      }
    }, {
      "job" : {
        "id" : 115,
        "desc" : "CARPENTRY, PLUMBING",
        "location" : {
          "id" : 3092,
          "name" : null,
          "latitude" : 43.527092,
          "longitude" : 3.8551376
        },
        "openings" : {
          "start" : [ 9, 46 ],
          "end" : [ 13, 26 ]
        },
        "preferredSlots" : null,
        "doAfter" : null,
        "nbEmpRequired" : 1,
        "deadline" : [ 13, 59 ],
        "skills" : [ {
          "id" : 6,
          "name" : "CARPENTRY",
          "level" : 2
        }, {
          "id" : 3,
          "name" : "PLUMBING",
          "level" : 3
        } ],
        "duration" : 2700.000000000,
        "pause" : false
      },
      "window" : {
        "start" : [ 9, 18 ],
        "end" : [ 10, 3 ]
      }
    }, {
      "job" : {
        "id" : 221,
        "desc" : "TILER, CARPENTRY",
        "location" : {
          "id" : 1845,
          "name" : null,
          "latitude" : 43.920944,
          "longitude" : 4.244653
        },
        "openings" : {
          "start" : [ 12, 55 ],
          "end" : [ 14, 17 ]
        },
        "preferredSlots" : null,
        "doAfter" : null,
        "nbEmpRequired" : 1,
        "deadline" : [ 9, 14 ],
        "skills" : [ {
          "id" : 9,
          "name" : "TILER",
          "level" : 2
        }, {
          "id" : 6,
          "name" : "CARPENTRY",
          "level" : 2
        } ],
        "duration" : 2700.000000000,
        "pause" : false
      },
      "window" : {
        "start" : [ 10, 57 ],
        "end" : [ 11, 42 ]
      }
    }, {
      "job" : {
        "id" : -1,
        "desc" : "Pause",
        "location" : {
          "id" : 1845,
          "name" : null,
          "latitude" : 43.920944,
          "longitude" : 4.244653
        },
        "openings" : {
          "start" : [ 12, 55 ],
          "end" : [ 14, 17 ]
        },
        "preferredSlots" : null,
        "doAfter" : null,
        "nbEmpRequired" : 1,
        "deadline" : [ 9, 14 ],
        "skills" : [ {
          "id" : 9,
          "name" : "TILER",
          "level" : 2
        }, {
          "id" : 6,
          "name" : "CARPENTRY",
          "level" : 2
        } ],
        "duration" : 2700.000000000,
        "pause" : true
      },
      "window" : {
        "start" : [ 11, 43 ],
        "end" : [ 13, 0 ]
      }
    }, {
      "job" : {
        "id" : 132,
        "desc" : "PLUMBING",
        "location" : {
          "id" : 1115,
          "name" : null,
          "latitude" : 43.52957,
          "longitude" : 4.186497
        },
        "openings" : {
          "start" : [ 9, 32 ],
          "end" : [ 10, 6 ]
        },
        "preferredSlots" : null,
        "doAfter" : null,
        "nbEmpRequired" : 1,
        "deadline" : [ 17, 56 ],
        "skills" : [ {
          "id" : 3,
          "name" : "PLUMBING",
          "level" : 5
        } ],
        "duration" : 5400.000000000,
        "pause" : false
      },
      "window" : {
        "start" : [ 13, 44 ],
        "end" : [ 15, 14 ]
      }
    }, {
      "job" : {
        "id" : 324,
        "desc" : "CARPENTRY",
        "location" : {
          "id" : 1616,
          "name" : null,
          "latitude" : 43.77999,
          "longitude" : 3.7953591
        },
        "openings" : {
          "start" : [ 13, 37 ],
          "end" : [ 16, 2 ]
        },
        "preferredSlots" : null,
        "doAfter" : null,
        "nbEmpRequired" : 1,
        "deadline" : [ 11, 24 ],
        "skills" : [ {
          "id" : 6,
          "name" : "CARPENTRY",
          "level" : 4
        } ],
        "duration" : 1800.000000000,
        "pause" : false
      },
      "window" : {
        "start" : [ 15, 57 ],
        "end" : [ 16, 27 ]
      }
    } ],
    "driving" : 9540.000000000,
    "valid" : true
  }, {
    "emp" : {
      "id" : 470,
      "name" : "470",
      "shifts" : [ {
        "start" : [ 9, 0 ],
        "end" : [ 12, 0 ]
      }, {
        "start" : [ 13, 0 ],
        "end" : [ 17, 0 ]
      } ],
      "prefSlots" : null,
      "startingLoc" : {
        "id" : 4618,
        "name" : null,
        "latitude" : 43.538628,
        "longitude" : 3.9338481
      },
      "skills" : [ {
        "id" : 4,
        "name" : "MASONRY",
        "level" : 2
      }, {
        "id" : 5,
        "name" : "GLAZING",
        "level" : 9
      }, {
        "id" : 1,
        "name" : "ENGINEER",
        "level" : 4
      }, {
        "id" : 8,
        "name" : "IRONWORK",
        "level" : 6
      }, {
        "id" : 5,
        "name" : "GLAZING",
        "level" : 10
      }, {
        "id" : 4,
        "name" : "MASONRY",
        "level" : 8
      }, {
        "id" : 6,
        "name" : "CARPENTRY",
        "level" : 4
      }, {
        "id" : 4,
        "name" : "MASONRY",
        "level" : 3
      }, {
        "id" : 8,
        "name" : "IRONWORK",
        "level" : 5
      }, {
        "id" : 6,
        "name" : "CARPENTRY",
        "level" : 4
      } ]
    },
    "planning" : [ {
      "job" : {
        "id" : -1,
        "desc" : "Home",
        "location" : {
          "id" : 4618,
          "name" : null,
          "latitude" : 43.538628,
          "longitude" : 3.9338481
        },
        "openings" : null,
        "preferredSlots" : null,
        "doAfter" : null,
        "nbEmpRequired" : 1,
        "deadline" : null,
        "skills" : [ ],
        "duration" : null,
        "pause" : true
      },
      "window" : {
        "start" : [ 9, 0 ],
        "end" : [ 9, 0 ]
      }
    }, {
      "job" : {
        "id" : 641,
        "desc" : "ENGINEER, GLAZING",
        "location" : {
          "id" : 5084,
          "name" : null,
          "latitude" : 43.510967,
          "longitude" : 3.9563496
        },
        "openings" : {
          "start" : [ 9, 51 ],
          "end" : [ 10, 14 ]
        },
        "preferredSlots" : null,
        "doAfter" : null,
        "nbEmpRequired" : 1,
        "deadline" : [ 17, 12 ],
        "skills" : [ {
          "id" : 1,
          "name" : "ENGINEER",
          "level" : 4
        }, {
          "id" : 5,
          "name" : "GLAZING",
          "level" : 4
        } ],
        "duration" : 5400.000000000,
        "pause" : false
      },
      "window" : {
        "start" : [ 9, 4 ],
        "end" : [ 10, 34 ]
      }
    }, {
      "job" : {
        "id" : 15,
        "desc" : "ENGINEER, CARPENTRY",
        "location" : {
          "id" : 9174,
          "name" : null,
          "latitude" : 43.997723,
          "longitude" : 3.8090737
        },
        "openings" : {
          "start" : [ 9, 38 ],
          "end" : [ 9, 55 ]
        },
        "preferredSlots" : null,
        "doAfter" : null,
        "nbEmpRequired" : 1,
        "deadline" : [ 17, 58 ],
        "skills" : [ {
          "id" : 1,
          "name" : "ENGINEER",
          "level" : 3
        }, {
          "id" : 6,
          "name" : "CARPENTRY",
          "level" : 3
        } ],
        "duration" : 1800.000000000,
        "pause" : false
      },
      "window" : {
        "start" : [ 11, 30 ],
        "end" : [ 12, 0 ]
      }
    }, {
      "job" : {
        "id" : -1,
        "desc" : "Pause",
        "location" : {
          "id" : 9174,
          "name" : null,
          "latitude" : 43.997723,
          "longitude" : 3.8090737
        },
        "openings" : {
          "start" : [ 9, 38 ],
          "end" : [ 9, 55 ]
        },
        "preferredSlots" : null,
        "doAfter" : null,
        "nbEmpRequired" : 1,
        "deadline" : [ 17, 58 ],
        "skills" : [ {
          "id" : 1,
          "name" : "ENGINEER",
          "level" : 3
        }, {
          "id" : 6,
          "name" : "CARPENTRY",
          "level" : 3
        } ],
        "duration" : 1800.000000000,
        "pause" : true
      },
      "window" : {
        "start" : [ 12, 1 ],
        "end" : [ 13, 0 ]
      }
    }, {
      "job" : {
        "id" : 503,
        "desc" : "GLAZING, CARPENTRY",
        "location" : {
          "id" : 4078,
          "name" : null,
          "latitude" : 43.9519,
          "longitude" : 3.7927253
        },
        "openings" : {
          "start" : [ 11, 10 ],
          "end" : [ 11, 57 ]
        },
        "preferredSlots" : null,
        "doAfter" : null,
        "nbEmpRequired" : 1,
        "deadline" : [ 13, 41 ],
        "skills" : [ {
          "id" : 5,
          "name" : "GLAZING",
          "level" : 2
        }, {
          "id" : 6,
          "name" : "CARPENTRY",
          "level" : 4
        } ],
        "duration" : 3600.000000000,
        "pause" : false
      },
      "window" : {
        "start" : [ 13, 6 ],
        "end" : [ 14, 6 ]
      }
    }, {
      "job" : {
        "id" : 341,
        "desc" : "IRONWORK, GLAZING",
        "location" : {
          "id" : 152,
          "name" : null,
          "latitude" : 43.629433,
          "longitude" : 4.060475
        },
        "openings" : {
          "start" : [ 15, 28 ],
          "end" : [ 17, 33 ]
        },
        "preferredSlots" : null,
        "doAfter" : null,
        "nbEmpRequired" : 1,
        "deadline" : [ 10, 40 ],
        "skills" : [ {
          "id" : 8,
          "name" : "IRONWORK",
          "level" : 2
        }, {
          "id" : 5,
          "name" : "GLAZING",
          "level" : 2
        } ],
        "duration" : 3600.000000000,
        "pause" : false
      },
      "window" : {
        "start" : [ 14, 48 ],
        "end" : [ 15, 48 ]
      }
    }, {
      "job" : {
        "id" : 241,
        "desc" : "MASONRY, IRONWORK",
        "location" : {
          "id" : 1725,
          "name" : null,
          "latitude" : 43.71524,
          "longitude" : 4.2463074
        },
        "openings" : {
          "start" : [ 9, 43 ],
          "end" : [ 10, 44 ]
        },
        "preferredSlots" : null,
        "doAfter" : null,
        "nbEmpRequired" : 1,
        "deadline" : [ 10, 0 ],
        "skills" : [ {
          "id" : 4,
          "name" : "MASONRY",
          "level" : 2
        }, {
          "id" : 8,
          "name" : "IRONWORK",
          "level" : 2
        } ],
        "duration" : 1800.000000000,
        "pause" : false
      },
      "window" : {
        "start" : [ 16, 6 ],
        "end" : [ 16, 36 ]
      }
    } ],
    "driving" : 7560.000000000,
    "valid" : true
  }, {
    "emp" : {
      "id" : 74,
      "name" : "74",
      "shifts" : [ {
        "start" : [ 9, 0 ],
        "end" : [ 12, 0 ]
      }, {
        "start" : [ 13, 0 ],
        "end" : [ 17, 0 ]
      } ],
      "prefSlots" : null,
      "startingLoc" : {
        "id" : 513,
        "name" : null,
        "latitude" : 43.75654,
        "longitude" : 4.2996373
      },
      "skills" : [ {
        "id" : 9,
        "name" : "TILER",
        "level" : 5
      }, {
        "id" : 8,
        "name" : "IRONWORK",
        "level" : 1
      }, {
        "id" : 3,
        "name" : "PLUMBING",
        "level" : 4
      }, {
        "id" : 0,
        "name" : "MANAGEMENT",
        "level" : 6
      }, {
        "id" : 4,
        "name" : "MASONRY",
        "level" : 6
      } ]
    },
    "planning" : [ {
      "job" : {
        "id" : -1,
        "desc" : "Home",
        "location" : {
          "id" : 513,
          "name" : null,
          "latitude" : 43.75654,
          "longitude" : 4.2996373
        },
        "openings" : null,
        "preferredSlots" : null,
        "doAfter" : null,
        "nbEmpRequired" : 1,
        "deadline" : null,
        "skills" : [ ],
        "duration" : null,
        "pause" : true
      },
      "window" : {
        "start" : [ 9, 0 ],
        "end" : [ 9, 0 ]
      }
    }, {
      "job" : {
        "id" : 882,
        "desc" : "MANAGEMENT, PLUMBING",
        "location" : {
          "id" : 3620,
          "name" : null,
          "latitude" : 43.50591,
          "longitude" : 4.0373797
        },
        "openings" : {
          "start" : [ 14, 41 ],
          "end" : [ 15, 49 ]
        },
        "preferredSlots" : null,
        "doAfter" : null,
        "nbEmpRequired" : 1,
        "deadline" : [ 16, 24 ],
        "skills" : [ {
          "id" : 0,
          "name" : "MANAGEMENT",
          "level" : 5
        }, {
          "id" : 3,
          "name" : "PLUMBING",
          "level" : 1
        } ],
        "duration" : 2700.000000000,
        "pause" : false
      },
      "window" : {
        "start" : [ 9, 35 ],
        "end" : [ 10, 20 ]
      }
    }, {
      "job" : {
        "id" : 668,
        "desc" : "PLUMBING, MASONRY",
        "location" : {
          "id" : 8093,
          "name" : null,
          "latitude" : 44.079395,
          "longitude" : 4.107809
        },
        "openings" : {
          "start" : [ 13, 24 ],
          "end" : [ 14, 51 ]
        },
        "preferredSlots" : null,
        "doAfter" : null,
        "nbEmpRequired" : 1,
        "deadline" : [ 17, 47 ],
        "skills" : [ {
          "id" : 3,
          "name" : "PLUMBING",
          "level" : 1
        }, {
          "id" : 4,
          "name" : "MASONRY",
          "level" : 4
        } ],
        "duration" : 1800.000000000,
        "pause" : false
      },
      "window" : {
        "start" : [ 11, 25 ],
        "end" : [ 11, 55 ]
      }
    }, {
      "job" : {
        "id" : -1,
        "desc" : "Pause",
        "location" : {
          "id" : 8093,
          "name" : null,
          "latitude" : 44.079395,
          "longitude" : 4.107809
        },
        "openings" : {
          "start" : [ 13, 24 ],
          "end" : [ 14, 51 ]
        },
        "preferredSlots" : null,
        "doAfter" : null,
        "nbEmpRequired" : 1,
        "deadline" : [ 17, 47 ],
        "skills" : [ {
          "id" : 3,
          "name" : "PLUMBING",
          "level" : 1
        }, {
          "id" : 4,
          "name" : "MASONRY",
          "level" : 4
        } ],
        "duration" : 1800.000000000,
        "pause" : true
      },
      "window" : {
        "start" : [ 11, 56 ],
        "end" : [ 13, 0 ]
      }
    }, {
      "job" : {
        "id" : 382,
        "desc" : "MANAGEMENT, IRONWORK",
        "location" : {
          "id" : 8052,
          "name" : null,
          "latitude" : 43.584106,
          "longitude" : 3.9994583
        },
        "openings" : {
          "start" : [ 14, 12 ],
          "end" : [ 17, 31 ]
        },
        "preferredSlots" : null,
        "doAfter" : null,
        "nbEmpRequired" : 1,
        "deadline" : [ 17, 4 ],
        "skills" : [ {
          "id" : 0,
          "name" : "MANAGEMENT",
          "level" : 3
        }, {
          "id" : 8,
          "name" : "IRONWORK",
          "level" : 1
        } ],
        "duration" : 2700.000000000,
        "pause" : false
      },
      "window" : {
        "start" : [ 13, 56 ],
        "end" : [ 14, 41 ]
      }
    }, {
      "job" : {
        "id" : 212,
        "desc" : "MANAGEMENT",
        "location" : {
          "id" : 9232,
          "name" : null,
          "latitude" : 43.91922,
          "longitude" : 4.195092
        },
        "openings" : {
          "start" : [ 12, 52 ],
          "end" : [ 16, 46 ]
        },
        "preferredSlots" : null,
        "doAfter" : null,
        "nbEmpRequired" : 1,
        "deadline" : [ 17, 56 ],
        "skills" : [ {
          "id" : 0,
          "name" : "MANAGEMENT",
          "level" : 5
        } ],
        "duration" : 5400.000000000,
        "pause" : false
      },
      "window" : {
        "start" : [ 15, 22 ],
        "end" : [ 16, 52 ]
      }
    } ],
    "driving" : 11820.000000000,
    "valid" : true
  }, {
    "emp" : {
      "id" : 925,
      "name" : "925",
      "shifts" : [ {
        "start" : [ 9, 0 ],
        "end" : [ 12, 0 ]
      }, {
        "start" : [ 13, 0 ],
        "end" : [ 17, 0 ]
      } ],
      "prefSlots" : null,
      "startingLoc" : {
        "id" : 1343,
        "name" : null,
        "latitude" : 43.987396,
        "longitude" : 4.2418795
      },
      "skills" : [ {
        "id" : 9,
        "name" : "TILER",
        "level" : 9
      } ]
    },
    "planning" : [ {
      "job" : {
        "id" : -1,
        "desc" : "Home",
        "location" : {
          "id" : 1343,
          "name" : null,
          "latitude" : 43.987396,
          "longitude" : 4.2418795
        },
        "openings" : null,
        "preferredSlots" : null,
        "doAfter" : null,
        "nbEmpRequired" : 1,
        "deadline" : null,
        "skills" : [ ],
        "duration" : null,
        "pause" : true
      },
      "window" : {
        "start" : [ 9, 0 ],
        "end" : [ 9, 0 ]
      }
    }, {
      "job" : {
        "id" : 127,
        "desc" : "TILER",
        "location" : {
          "id" : 989,
          "name" : null,
          "latitude" : 43.45391,
          "longitude" : 4.289489
        },
        "openings" : {
          "start" : [ 10, 27 ],
          "end" : [ 16, 40 ]
        },
        "preferredSlots" : null,
        "doAfter" : null,
        "nbEmpRequired" : 1,
        "deadline" : [ 10, 9 ],
        "skills" : [ {
          "id" : 9,
          "name" : "TILER",
          "level" : 3
        } ],
        "duration" : 3600.000000000,
        "pause" : false
      },
      "window" : {
        "start" : [ 10, 0 ],
        "end" : [ 11, 0 ]
      }
    }, {
      "job" : {
        "id" : -1,
        "desc" : "Pause",
        "location" : {
          "id" : 989,
          "name" : null,
          "latitude" : 43.45391,
          "longitude" : 4.289489
        },
        "openings" : {
          "start" : [ 10, 27 ],
          "end" : [ 16, 40 ]
        },
        "preferredSlots" : null,
        "doAfter" : null,
        "nbEmpRequired" : 1,
        "deadline" : [ 10, 9 ],
        "skills" : [ {
          "id" : 9,
          "name" : "TILER",
          "level" : 3
        } ],
        "duration" : 3600.000000000,
        "pause" : true
      },
      "window" : {
        "start" : [ 11, 1 ],
        "end" : [ 13, 0 ]
      }
    }, {
      "job" : {
        "id" : 783,
        "desc" : "TILER",
        "location" : {
          "id" : 6609,
          "name" : null,
          "latitude" : 43.949574,
          "longitude" : 4.2651043
        },
        "openings" : {
          "start" : [ 13, 16 ],
          "end" : [ 14, 46 ]
        },
        "preferredSlots" : null,
        "doAfter" : null,
        "nbEmpRequired" : 1,
        "deadline" : [ 13, 6 ],
        "skills" : [ {
          "id" : 9,
          "name" : "TILER",
          "level" : 1
        } ],
        "duration" : 5400.000000000,
        "pause" : false
      },
      "window" : {
        "start" : [ 13, 56 ],
        "end" : [ 15, 26 ]
      }
    } ],
    "driving" : 6960.000000000,
    "valid" : true
  } ],
  "unassigned" : [ {
    "id" : 172,
    "desc" : "GLAZING, PAINTING",
    "location" : {
      "id" : 6340,
      "name" : null,
      "latitude" : 43.893604,
      "longitude" : 3.7287488
    },
    "openings" : {
      "start" : [ 13, 39 ],
      "end" : [ 13, 48 ]
    },
    "preferredSlots" : null,
    "doAfter" : null,
    "nbEmpRequired" : 1,
    "deadline" : [ 16, 0 ],
    "skills" : [ {
      "id" : 5,
      "name" : "GLAZING",
      "level" : 3
    }, {
      "id" : 7,
      "name" : "PAINTING",
      "level" : 5
    } ],
    "duration" : 7200.000000000,
    "pause" : false
  }, {
    "id" : 247,
    "desc" : "IRONWORK, PLUMBING",
    "location" : {
      "id" : 4689,
      "name" : null,
      "latitude" : 44.09235,
      "longitude" : 4.2024374
    },
    "openings" : {
      "start" : [ 12, 10 ],
      "end" : [ 12, 49 ]
    },
    "preferredSlots" : null,
    "doAfter" : null,
    "nbEmpRequired" : 1,
    "deadline" : [ 16, 43 ],
    "skills" : [ {
      "id" : 8,
      "name" : "IRONWORK",
      "level" : 5
    }, {
      "id" : 3,
      "name" : "PLUMBING",
      "level" : 2
    } ],
    "duration" : 3600.000000000,
    "pause" : false
  }, {
    "id" : 75,
    "desc" : "MANAGEMENT, ELECTRICIAN",
    "location" : {
      "id" : 6541,
      "name" : null,
      "latitude" : 43.4255,
      "longitude" : 4.1714764
    },
    "openings" : {
      "start" : [ 15, 52 ],
      "end" : [ 17, 17 ]
    },
    "preferredSlots" : null,
    "doAfter" : null,
    "nbEmpRequired" : 1,
    "deadline" : [ 9, 17 ],
    "skills" : [ {
      "id" : 0,
      "name" : "MANAGEMENT",
      "level" : 2
    }, {
      "id" : 2,
      "name" : "ELECTRICIAN",
      "level" : 4
    } ],
    "duration" : 2700.000000000,
    "pause" : false
  }, {
    "id" : 685,
    "desc" : "GLAZING, MANAGEMENT",
    "location" : {
      "id" : 6457,
      "name" : null,
      "latitude" : 43.566677,
      "longitude" : 3.7068143
    },
    "openings" : {
      "start" : [ 10, 48 ],
      "end" : [ 16, 1 ]
    },
    "preferredSlots" : null,
    "doAfter" : null,
    "nbEmpRequired" : 1,
    "deadline" : [ 11, 49 ],
    "skills" : [ {
      "id" : 5,
      "name" : "GLAZING",
      "level" : 1
    }, {
      "id" : 0,
      "name" : "MANAGEMENT",
      "level" : 5
    } ],
    "duration" : 3600.000000000,
    "pause" : false
  }, {
    "id" : 666,
    "desc" : "MASONRY, PAINTING",
    "location" : {
      "id" : 9010,
      "name" : null,
      "latitude" : 44.07008,
      "longitude" : 3.8440654
    },
    "openings" : {
      "start" : [ 9, 33 ],
      "end" : [ 15, 2 ]
    },
    "preferredSlots" : null,
    "doAfter" : null,
    "nbEmpRequired" : 1,
    "deadline" : [ 12, 21 ],
    "skills" : [ {
      "id" : 4,
      "name" : "MASONRY",
      "level" : 1
    }, {
      "id" : 7,
      "name" : "PAINTING",
      "level" : 5
    } ],
    "duration" : 3600.000000000,
    "pause" : false
  }, {
    "id" : 143,
    "desc" : "ENGINEER, PLUMBING",
    "location" : {
      "id" : 3944,
      "name" : null,
      "latitude" : 43.86802,
      "longitude" : 4.2013125
    },
    "openings" : {
      "start" : [ 12, 27 ],
      "end" : [ 13, 35 ]
    },
    "preferredSlots" : null,
    "doAfter" : null,
    "nbEmpRequired" : 1,
    "deadline" : [ 17, 46 ],
    "skills" : [ {
      "id" : 1,
      "name" : "ENGINEER",
      "level" : 1
    }, {
      "id" : 3,
      "name" : "PLUMBING",
      "level" : 4
    } ],
    "duration" : 7200.000000000,
    "pause" : false
  }, {
    "id" : 548,
    "desc" : "IRONWORK, PAINTING",
    "location" : {
      "id" : 5532,
      "name" : null,
      "latitude" : 43.75052,
      "longitude" : 3.9496498
    },
    "openings" : {
      "start" : [ 13, 14 ],
      "end" : [ 17, 7 ]
    },
    "preferredSlots" : null,
    "doAfter" : null,
    "nbEmpRequired" : 1,
    "deadline" : [ 10, 20 ],
    "skills" : [ {
      "id" : 8,
      "name" : "IRONWORK",
      "level" : 4
    }, {
      "id" : 7,
      "name" : "PAINTING",
      "level" : 1
    } ],
    "duration" : 1800.000000000,
    "pause" : false
  }, {
    "id" : 531,
    "desc" : "GLAZING, PAINTING",
    "location" : {
      "id" : 835,
      "name" : null,
      "latitude" : 43.549187,
      "longitude" : 3.9482715
    },
    "openings" : {
      "start" : [ 9, 16 ],
      "end" : [ 9, 50 ]
    },
    "preferredSlots" : null,
    "doAfter" : null,
    "nbEmpRequired" : 1,
    "deadline" : [ 13, 38 ],
    "skills" : [ {
      "id" : 5,
      "name" : "GLAZING",
      "level" : 1
    }, {
      "id" : 7,
      "name" : "PAINTING",
      "level" : 4
    } ],
    "duration" : 3600.000000000,
    "pause" : false
  }, {
    "id" : 604,
    "desc" : "MASONRY, ELECTRICIAN",
    "location" : {
      "id" : 7734,
      "name" : null,
      "latitude" : 43.829536,
      "longitude" : 3.8658452
    },
    "openings" : {
      "start" : [ 10, 35 ],
      "end" : [ 13, 13 ]
    },
    "preferredSlots" : null,
    "doAfter" : null,
    "nbEmpRequired" : 1,
    "deadline" : [ 10, 35 ],
    "skills" : [ {
      "id" : 4,
      "name" : "MASONRY",
      "level" : 1
    }, {
      "id" : 2,
      "name" : "ELECTRICIAN",
      "level" : 4
    } ],
    "duration" : 2700.000000000,
    "pause" : false
  }, {
    "id" : 273,
    "desc" : "MASONRY, ELECTRICIAN",
    "location" : {
      "id" : 772,
      "name" : null,
      "latitude" : 43.995686,
      "longitude" : 3.9423718
    },
    "openings" : {
      "start" : [ 12, 43 ],
      "end" : [ 15, 56 ]
    },
    "preferredSlots" : null,
    "doAfter" : null,
    "nbEmpRequired" : 1,
    "deadline" : [ 16, 3 ],
    "skills" : [ {
      "id" : 4,
      "name" : "MASONRY",
      "level" : 2
    }, {
      "id" : 2,
      "name" : "ELECTRICIAN",
      "level" : 2
    } ],
    "duration" : 3600.000000000,
    "pause" : false
  }, {
    "id" : 898,
    "desc" : "CARPENTRY, PAINTING",
    "location" : {
      "id" : 4547,
      "name" : null,
      "latitude" : 43.669167,
      "longitude" : 3.7278228
    },
    "openings" : {
      "start" : [ 15, 19 ],
      "end" : [ 16, 43 ]
    },
    "preferredSlots" : null,
    "doAfter" : null,
    "nbEmpRequired" : 1,
    "deadline" : [ 14, 40 ],
    "skills" : [ {
      "id" : 6,
      "name" : "CARPENTRY",
      "level" : 2
    }, {
      "id" : 7,
      "name" : "PAINTING",
      "level" : 2
    } ],
    "duration" : 1800.000000000,
    "pause" : false
  }, {
    "id" : 513,
    "desc" : "IRONWORK, PLUMBING",
    "location" : {
      "id" : 2048,
      "name" : null,
      "latitude" : 43.51235,
      "longitude" : 4.1156683
    },
    "openings" : {
      "start" : [ 13, 36 ],
      "end" : [ 13, 48 ]
    },
    "preferredSlots" : null,
    "doAfter" : null,
    "nbEmpRequired" : 1,
    "deadline" : [ 14, 14 ],
    "skills" : [ {
      "id" : 8,
      "name" : "IRONWORK",
      "level" : 2
    }, {
      "id" : 3,
      "name" : "PLUMBING",
      "level" : 2
    } ],
    "duration" : 2700.000000000,
    "pause" : false
  }, {
    "id" : 237,
    "desc" : "MANAGEMENT, PAINTING",
    "location" : {
      "id" : 7264,
      "name" : null,
      "latitude" : 43.407265,
      "longitude" : 3.9305472
    },
    "openings" : {
      "start" : [ 13, 33 ],
      "end" : [ 14, 3 ]
    },
    "preferredSlots" : null,
    "doAfter" : null,
    "nbEmpRequired" : 1,
    "deadline" : [ 11, 52 ],
    "skills" : [ {
      "id" : 0,
      "name" : "MANAGEMENT",
      "level" : 3
    }, {
      "id" : 7,
      "name" : "PAINTING",
      "level" : 1
    } ],
    "duration" : 1800.000000000,
    "pause" : false
  }, {
    "id" : 922,
    "desc" : "CARPENTRY, ELECTRICIAN",
    "location" : {
      "id" : 4069,
      "name" : null,
      "latitude" : 43.820915,
      "longitude" : 4.119981
    },
    "openings" : {
      "start" : [ 14, 3 ],
      "end" : [ 16, 43 ]
    },
    "preferredSlots" : null,
    "doAfter" : null,
    "nbEmpRequired" : 1,
    "deadline" : [ 10, 57 ],
    "skills" : [ {
      "id" : 6,
      "name" : "CARPENTRY",
      "level" : 1
    }, {
      "id" : 2,
      "name" : "ELECTRICIAN",
      "level" : 2
    } ],
    "duration" : 5400.000000000,
    "pause" : false
  }, {
    "id" : 892,
    "desc" : "CARPENTRY, ELECTRICIAN",
    "location" : {
      "id" : 9261,
      "name" : null,
      "latitude" : 44.042336,
      "longitude" : 3.945086
    },
    "openings" : {
      "start" : [ 10, 29 ],
      "end" : [ 13, 27 ]
    },
    "preferredSlots" : null,
    "doAfter" : null,
    "nbEmpRequired" : 1,
    "deadline" : [ 13, 48 ],
    "skills" : [ {
      "id" : 6,
      "name" : "CARPENTRY",
      "level" : 2
    }, {
      "id" : 2,
      "name" : "ELECTRICIAN",
      "level" : 1
    } ],
    "duration" : 2700.000000000,
    "pause" : false
  }, {
    "id" : 643,
    "desc" : "CARPENTRY, GLAZING",
    "location" : {
      "id" : 9662,
      "name" : null,
      "latitude" : 43.565025,
      "longitude" : 3.922583
    },
    "openings" : {
      "start" : [ 9, 32 ],
      "end" : [ 11, 34 ]
    },
    "preferredSlots" : null,
    "doAfter" : null,
    "nbEmpRequired" : 1,
    "deadline" : [ 10, 58 ],
    "skills" : [ {
      "id" : 6,
      "name" : "CARPENTRY",
      "level" : 1
    }, {
      "id" : 5,
      "name" : "GLAZING",
      "level" : 1
    } ],
    "duration" : 3600.000000000,
    "pause" : false
  }, {
    "id" : 887,
    "desc" : "CARPENTRY",
    "location" : {
      "id" : 1802,
      "name" : null,
      "latitude" : 44.001335,
      "longitude" : 4.036115
    },
    "openings" : {
      "start" : [ 11, 0 ],
      "end" : [ 12, 2 ]
    },
    "preferredSlots" : null,
    "doAfter" : null,
    "nbEmpRequired" : 1,
    "deadline" : [ 10, 4 ],
    "skills" : [ {
      "id" : 6,
      "name" : "CARPENTRY",
      "level" : 5
    } ],
    "duration" : 5400.000000000,
    "pause" : false
  }, {
    "id" : 75,
    "desc" : "MANAGEMENT",
    "location" : {
      "id" : 8368,
      "name" : null,
      "latitude" : 44.027725,
      "longitude" : 4.2675495
    },
    "openings" : {
      "start" : [ 12, 30 ],
      "end" : [ 16, 7 ]
    },
    "preferredSlots" : null,
    "doAfter" : null,
    "nbEmpRequired" : 1,
    "deadline" : [ 16, 33 ],
    "skills" : [ {
      "id" : 0,
      "name" : "MANAGEMENT",
      "level" : 5
    } ],
    "duration" : 2700.000000000,
    "pause" : false
  }, {
    "id" : 163,
    "desc" : "MASONRY",
    "location" : {
      "id" : 599,
      "name" : null,
      "latitude" : 44.02479,
      "longitude" : 4.274143
    },
    "openings" : {
      "start" : [ 13, 54 ],
      "end" : [ 14, 42 ]
    },
    "preferredSlots" : null,
    "doAfter" : null,
    "nbEmpRequired" : 1,
    "deadline" : [ 14, 44 ],
    "skills" : [ {
      "id" : 4,
      "name" : "MASONRY",
      "level" : 4
    } ],
    "duration" : 3600.000000000,
    "pause" : false
  }, {
    "id" : 484,
    "desc" : "MANAGEMENT",
    "location" : {
      "id" : 2232,
      "name" : null,
      "latitude" : 43.854107,
      "longitude" : 3.8781133
    },
    "openings" : {
      "start" : [ 12, 23 ],
      "end" : [ 16, 59 ]
    },
    "preferredSlots" : null,
    "doAfter" : null,
    "nbEmpRequired" : 1,
    "deadline" : [ 12, 17 ],
    "skills" : [ {
      "id" : 0,
      "name" : "MANAGEMENT",
      "level" : 4
    } ],
    "duration" : 5400.000000000,
    "pause" : false
  }, {
    "id" : 645,
    "desc" : "ENGINEER",
    "location" : {
      "id" : 89,
      "name" : null,
      "latitude" : 43.618404,
      "longitude" : 3.7520084
    },
    "openings" : {
      "start" : [ 9, 8 ],
      "end" : [ 13, 22 ]
    },
    "preferredSlots" : null,
    "doAfter" : null,
    "nbEmpRequired" : 1,
    "deadline" : [ 9, 25 ],
    "skills" : [ {
      "id" : 1,
      "name" : "ENGINEER",
      "level" : 4
    } ],
    "duration" : 5400.000000000,
    "pause" : false
  }, {
    "id" : 437,
    "desc" : "CARPENTRY",
    "location" : {
      "id" : 2327,
      "name" : null,
      "latitude" : 43.826912,
      "longitude" : 4.256034
    },
    "openings" : {
      "start" : [ 15, 38 ],
      "end" : [ 17, 24 ]
    },
    "preferredSlots" : null,
    "doAfter" : null,
    "nbEmpRequired" : 1,
    "deadline" : [ 15, 30 ],
    "skills" : [ {
      "id" : 6,
      "name" : "CARPENTRY",
      "level" : 4
    } ],
    "duration" : 2700.000000000,
    "pause" : false
  }, {
    "id" : 776,
    "desc" : "GLAZING",
    "location" : {
      "id" : 2532,
      "name" : null,
      "latitude" : 44.003635,
      "longitude" : 4.113566
    },
    "openings" : {
      "start" : [ 10, 46 ],
      "end" : [ 15, 45 ]
    },
    "preferredSlots" : null,
    "doAfter" : null,
    "nbEmpRequired" : 1,
    "deadline" : [ 11, 26 ],
    "skills" : [ {
      "id" : 5,
      "name" : "GLAZING",
      "level" : 4
    } ],
    "duration" : 1800.000000000,
    "pause" : false
  }, {
    "id" : 205,
    "desc" : "GLAZING",
    "location" : {
      "id" : 6042,
      "name" : null,
      "latitude" : 43.614105,
      "longitude" : 3.920953
    },
    "openings" : {
      "start" : [ 9, 21 ],
      "end" : [ 15, 51 ]
    },
    "preferredSlots" : null,
    "doAfter" : null,
    "nbEmpRequired" : 1,
    "deadline" : [ 16, 27 ],
    "skills" : [ {
      "id" : 5,
      "name" : "GLAZING",
      "level" : 4
    } ],
    "duration" : 2700.000000000,
    "pause" : false
  }, {
    "id" : 123,
    "desc" : "MASONRY",
    "location" : {
      "id" : 2259,
      "name" : null,
      "latitude" : 43.601624,
      "longitude" : 4.198652
    },
    "openings" : {
      "start" : [ 12, 48 ],
      "end" : [ 15, 40 ]
    },
    "preferredSlots" : null,
    "doAfter" : null,
    "nbEmpRequired" : 1,
    "deadline" : [ 11, 24 ],
    "skills" : [ {
      "id" : 4,
      "name" : "MASONRY",
      "level" : 4
    } ],
    "duration" : 1800.000000000,
    "pause" : false
  }, {
    "id" : 661,
    "desc" : "PAINTING",
    "location" : {
      "id" : 6328,
      "name" : null,
      "latitude" : 43.446644,
      "longitude" : 4.1918015
    },
    "openings" : {
      "start" : [ 13, 59 ],
      "end" : [ 14, 54 ]
    },
    "preferredSlots" : null,
    "doAfter" : null,
    "nbEmpRequired" : 1,
    "deadline" : [ 15, 6 ],
    "skills" : [ {
      "id" : 7,
      "name" : "PAINTING",
      "level" : 4
    } ],
    "duration" : 5400.000000000,
    "pause" : false
  }, {
    "id" : 543,
    "desc" : "CARPENTRY",
    "location" : {
      "id" : 4232,
      "name" : null,
      "latitude" : 43.97425,
      "longitude" : 4.092034
    },
    "openings" : {
      "start" : [ 16, 6 ],
      "end" : [ 16, 24 ]
    },
    "preferredSlots" : null,
    "doAfter" : null,
    "nbEmpRequired" : 1,
    "deadline" : [ 13, 17 ],
    "skills" : [ {
      "id" : 6,
      "name" : "CARPENTRY",
      "level" : 4
    } ],
    "duration" : 1800.000000000,
    "pause" : false
  }, {
    "id" : 639,
    "desc" : "PLUMBING",
    "location" : {
      "id" : 4526,
      "name" : null,
      "latitude" : 43.479683,
      "longitude" : 4.0835834
    },
    "openings" : {
      "start" : [ 10, 42 ],
      "end" : [ 13, 7 ]
    },
    "preferredSlots" : null,
    "doAfter" : null,
    "nbEmpRequired" : 1,
    "deadline" : [ 17, 40 ],
    "skills" : [ {
      "id" : 3,
      "name" : "PLUMBING",
      "level" : 4
    } ],
    "duration" : 1800.000000000,
    "pause" : false
  }, {
    "id" : 967,
    "desc" : "IRONWORK",
    "location" : {
      "id" : 7523,
      "name" : null,
      "latitude" : 43.89734,
      "longitude" : 3.7679005
    },
    "openings" : {
      "start" : [ 11, 45 ],
      "end" : [ 17, 33 ]
    },
    "preferredSlots" : null,
    "doAfter" : null,
    "nbEmpRequired" : 1,
    "deadline" : [ 11, 14 ],
    "skills" : [ {
      "id" : 8,
      "name" : "IRONWORK",
      "level" : 4
    } ],
    "duration" : 1800.000000000,
    "pause" : false
  }, {
    "id" : 670,
    "desc" : "CARPENTRY",
    "location" : {
      "id" : 2547,
      "name" : null,
      "latitude" : 43.527283,
      "longitude" : 3.879018
    },
    "openings" : {
      "start" : [ 9, 59 ],
      "end" : [ 15, 10 ]
    },
    "preferredSlots" : null,
    "doAfter" : null,
    "nbEmpRequired" : 1,
    "deadline" : [ 10, 39 ],
    "skills" : [ {
      "id" : 6,
      "name" : "CARPENTRY",
      "level" : 3
    } ],
    "duration" : 2700.000000000,
    "pause" : false
  }, {
    "id" : 863,
    "desc" : "PLUMBING",
    "location" : {
      "id" : 2703,
      "name" : null,
      "latitude" : 43.77299,
      "longitude" : 3.8904605
    },
    "openings" : {
      "start" : [ 12, 44 ],
      "end" : [ 12, 56 ]
    },
    "preferredSlots" : null,
    "doAfter" : null,
    "nbEmpRequired" : 1,
    "deadline" : [ 12, 25 ],
    "skills" : [ {
      "id" : 3,
      "name" : "PLUMBING",
      "level" : 3
    } ],
    "duration" : 5400.000000000,
    "pause" : false
  }, {
    "id" : 325,
    "desc" : "MASONRY",
    "location" : {
      "id" : 7944,
      "name" : null,
      "latitude" : 44.084576,
      "longitude" : 3.7701364
    },
    "openings" : {
      "start" : [ 9, 6 ],
      "end" : [ 17, 3 ]
    },
    "preferredSlots" : null,
    "doAfter" : null,
    "nbEmpRequired" : 1,
    "deadline" : [ 10, 27 ],
    "skills" : [ {
      "id" : 4,
      "name" : "MASONRY",
      "level" : 3
    } ],
    "duration" : 2700.000000000,
    "pause" : false
  }, {
    "id" : 481,
    "desc" : "GLAZING",
    "location" : {
      "id" : 7043,
      "name" : null,
      "latitude" : 43.596783,
      "longitude" : 4.298593
    },
    "openings" : {
      "start" : [ 14, 58 ],
      "end" : [ 17, 55 ]
    },
    "preferredSlots" : null,
    "doAfter" : null,
    "nbEmpRequired" : 1,
    "deadline" : [ 11, 6 ],
    "skills" : [ {
      "id" : 5,
      "name" : "GLAZING",
      "level" : 3
    } ],
    "duration" : 3600.000000000,
    "pause" : false
  }, {
    "id" : 704,
    "desc" : "IRONWORK",
    "location" : {
      "id" : 9786,
      "name" : null,
      "latitude" : 43.78985,
      "longitude" : 3.9969585
    },
    "openings" : {
      "start" : [ 10, 21 ],
      "end" : [ 16, 20 ]
    },
    "preferredSlots" : null,
    "doAfter" : null,
    "nbEmpRequired" : 1,
    "deadline" : [ 13, 23 ],
    "skills" : [ {
      "id" : 8,
      "name" : "IRONWORK",
      "level" : 3
    } ],
    "duration" : 2700.000000000,
    "pause" : false
  }, {
    "id" : 836,
    "desc" : "CARPENTRY",
    "location" : {
      "id" : 6809,
      "name" : null,
      "latitude" : 43.702282,
      "longitude" : 3.9222953
    },
    "openings" : {
      "start" : [ 14, 26 ],
      "end" : [ 14, 42 ]
    },
    "preferredSlots" : null,
    "doAfter" : null,
    "nbEmpRequired" : 1,
    "deadline" : [ 10, 37 ],
    "skills" : [ {
      "id" : 6,
      "name" : "CARPENTRY",
      "level" : 3
    } ],
    "duration" : 3600.000000000,
    "pause" : false
  }, {
    "id" : 713,
    "desc" : "MANAGEMENT",
    "location" : {
      "id" : 99,
      "name" : null,
      "latitude" : 43.84516,
      "longitude" : 3.807312
    },
    "openings" : {
      "start" : [ 11, 3 ],
      "end" : [ 12, 31 ]
    },
    "preferredSlots" : null,
    "doAfter" : null,
    "nbEmpRequired" : 1,
    "deadline" : [ 16, 55 ],
    "skills" : [ {
      "id" : 0,
      "name" : "MANAGEMENT",
      "level" : 3
    } ],
    "duration" : 1800.000000000,
    "pause" : false
  }, {
    "id" : 837,
    "desc" : "CARPENTRY",
    "location" : {
      "id" : 2179,
      "name" : null,
      "latitude" : 43.930855,
      "longitude" : 3.7073643
    },
    "openings" : {
      "start" : [ 10, 45 ],
      "end" : [ 13, 20 ]
    },
    "preferredSlots" : null,
    "doAfter" : null,
    "nbEmpRequired" : 1,
    "deadline" : [ 10, 18 ],
    "skills" : [ {
      "id" : 6,
      "name" : "CARPENTRY",
      "level" : 3
    } ],
    "duration" : 2700.000000000,
    "pause" : false
  }, {
    "id" : 323,
    "desc" : "PAINTING",
    "location" : {
      "id" : 6910,
      "name" : null,
      "latitude" : 43.62259,
      "longitude" : 4.2314744
    },
    "openings" : {
      "start" : [ 10, 3 ],
      "end" : [ 14, 41 ]
    },
    "preferredSlots" : null,
    "doAfter" : null,
    "nbEmpRequired" : 1,
    "deadline" : [ 10, 45 ],
    "skills" : [ {
      "id" : 7,
      "name" : "PAINTING",
      "level" : 3
    } ],
    "duration" : 5400.000000000,
    "pause" : false
  }, {
    "id" : 477,
    "desc" : "MASONRY",
    "location" : {
      "id" : 5545,
      "name" : null,
      "latitude" : 43.707638,
      "longitude" : 4.217804
    },
    "openings" : {
      "start" : [ 14, 8 ],
      "end" : [ 14, 49 ]
    },
    "preferredSlots" : null,
    "doAfter" : null,
    "nbEmpRequired" : 1,
    "deadline" : [ 12, 1 ],
    "skills" : [ {
      "id" : 4,
      "name" : "MASONRY",
      "level" : 3
    } ],
    "duration" : 7200.000000000,
    "pause" : false
  }, {
    "id" : 712,
    "desc" : "PLUMBING",
    "location" : {
      "id" : 8923,
      "name" : null,
      "latitude" : 43.853523,
      "longitude" : 4.144725
    },
    "openings" : {
      "start" : [ 13, 6 ],
      "end" : [ 15, 13 ]
    },
    "preferredSlots" : null,
    "doAfter" : null,
    "nbEmpRequired" : 1,
    "deadline" : [ 17, 31 ],
    "skills" : [ {
      "id" : 3,
      "name" : "PLUMBING",
      "level" : 3
    } ],
    "duration" : 5400.000000000,
    "pause" : false
  }, {
    "id" : 532,
    "desc" : "IRONWORK",
    "location" : {
      "id" : 2300,
      "name" : null,
      "latitude" : 44.079002,
      "longitude" : 3.7919106
    },
    "openings" : {
      "start" : [ 12, 35 ],
      "end" : [ 16, 16 ]
    },
    "preferredSlots" : null,
    "doAfter" : null,
    "nbEmpRequired" : 1,
    "deadline" : [ 9, 48 ],
    "skills" : [ {
      "id" : 8,
      "name" : "IRONWORK",
      "level" : 2
    } ],
    "duration" : 3600.000000000,
    "pause" : false
  }, {
    "id" : 553,
    "desc" : "MANAGEMENT",
    "location" : {
      "id" : 433,
      "name" : null,
      "latitude" : 43.531944,
      "longitude" : 4.23028
    },
    "openings" : {
      "start" : [ 11, 39 ],
      "end" : [ 14, 54 ]
    },
    "preferredSlots" : null,
    "doAfter" : null,
    "nbEmpRequired" : 1,
    "deadline" : [ 17, 51 ],
    "skills" : [ {
      "id" : 0,
      "name" : "MANAGEMENT",
      "level" : 2
    } ],
    "duration" : 7200.000000000,
    "pause" : false
  }, {
    "id" : 926,
    "desc" : "PAINTING",
    "location" : {
      "id" : 7959,
      "name" : null,
      "latitude" : 43.871742,
      "longitude" : 4.2097354
    },
    "openings" : {
      "start" : [ 12, 51 ],
      "end" : [ 15, 53 ]
    },
    "preferredSlots" : null,
    "doAfter" : null,
    "nbEmpRequired" : 1,
    "deadline" : [ 17, 28 ],
    "skills" : [ {
      "id" : 7,
      "name" : "PAINTING",
      "level" : 2
    } ],
    "duration" : 2700.000000000,
    "pause" : false
  }, {
    "id" : 41,
    "desc" : "ELECTRICIAN",
    "location" : {
      "id" : 6834,
      "name" : null,
      "latitude" : 43.54766,
      "longitude" : 3.9582515
    },
    "openings" : {
      "start" : [ 12, 20 ],
      "end" : [ 13, 21 ]
    },
    "preferredSlots" : null,
    "doAfter" : null,
    "nbEmpRequired" : 1,
    "deadline" : [ 12, 28 ],
    "skills" : [ {
      "id" : 2,
      "name" : "ELECTRICIAN",
      "level" : 2
    } ],
    "duration" : 2700.000000000,
    "pause" : false
  }, {
    "id" : 93,
    "desc" : "ELECTRICIAN",
    "location" : {
      "id" : 5574,
      "name" : null,
      "latitude" : 43.676777,
      "longitude" : 3.950766
    },
    "openings" : {
      "start" : [ 9, 42 ],
      "end" : [ 10, 0 ]
    },
    "preferredSlots" : null,
    "doAfter" : null,
    "nbEmpRequired" : 1,
    "deadline" : [ 11, 29 ],
    "skills" : [ {
      "id" : 2,
      "name" : "ELECTRICIAN",
      "level" : 2
    } ],
    "duration" : 1800.000000000,
    "pause" : false
  }, {
    "id" : 33,
    "desc" : "IRONWORK",
    "location" : {
      "id" : 9103,
      "name" : null,
      "latitude" : 43.515053,
      "longitude" : 4.2355585
    },
    "openings" : {
      "start" : [ 10, 45 ],
      "end" : [ 11, 41 ]
    },
    "preferredSlots" : null,
    "doAfter" : null,
    "nbEmpRequired" : 1,
    "deadline" : [ 16, 15 ],
    "skills" : [ {
      "id" : 8,
      "name" : "IRONWORK",
      "level" : 2
    } ],
    "duration" : 5400.000000000,
    "pause" : false
  }, {
    "id" : 585,
    "desc" : "ELECTRICIAN",
    "location" : {
      "id" : 6593,
      "name" : null,
      "latitude" : 44.08273,
      "longitude" : 4.184467
    },
    "openings" : {
      "start" : [ 9, 19 ],
      "end" : [ 17, 28 ]
    },
    "preferredSlots" : null,
    "doAfter" : null,
    "nbEmpRequired" : 1,
    "deadline" : [ 10, 1 ],
    "skills" : [ {
      "id" : 2,
      "name" : "ELECTRICIAN",
      "level" : 2
    } ],
    "duration" : 2700.000000000,
    "pause" : false
  }, {
    "id" : 363,
    "desc" : "ENGINEER",
    "location" : {
      "id" : 6641,
      "name" : null,
      "latitude" : 43.731033,
      "longitude" : 3.906789
    },
    "openings" : {
      "start" : [ 13, 52 ],
      "end" : [ 17, 50 ]
    },
    "preferredSlots" : null,
    "doAfter" : null,
    "nbEmpRequired" : 1,
    "deadline" : [ 15, 31 ],
    "skills" : [ {
      "id" : 1,
      "name" : "ENGINEER",
      "level" : 1
    } ],
    "duration" : 2700.000000000,
    "pause" : false
  }, {
    "id" : 622,
    "desc" : "PLUMBING",
    "location" : {
      "id" : 199,
      "name" : null,
      "latitude" : 44.079548,
      "longitude" : 4.0457335
    },
    "openings" : {
      "start" : [ 12, 53 ],
      "end" : [ 15, 6 ]
    },
    "preferredSlots" : null,
    "doAfter" : null,
    "nbEmpRequired" : 1,
    "deadline" : [ 11, 28 ],
    "skills" : [ {
      "id" : 3,
      "name" : "PLUMBING",
      "level" : 1
    } ],
    "duration" : 3600.000000000,
    "pause" : false
  }, {
    "id" : 766,
    "desc" : "ENGINEER",
    "location" : {
      "id" : 7665,
      "name" : null,
      "latitude" : 43.827038,
      "longitude" : 4.2962713
    },
    "openings" : {
      "start" : [ 9, 55 ],
      "end" : [ 13, 42 ]
    },
    "preferredSlots" : null,
    "doAfter" : null,
    "nbEmpRequired" : 1,
    "deadline" : [ 9, 15 ],
    "skills" : [ {
      "id" : 1,
      "name" : "ENGINEER",
      "level" : 1
    } ],
    "duration" : 5400.000000000,
    "pause" : false
  }, {
    "id" : 883,
    "desc" : "MASONRY",
    "location" : {
      "id" : 7687,
      "name" : null,
      "latitude" : 44.02563,
      "longitude" : 4.19731
    },
    "openings" : {
      "start" : [ 9, 44 ],
      "end" : [ 17, 33 ]
    },
    "preferredSlots" : null,
    "doAfter" : null,
    "nbEmpRequired" : 1,
    "deadline" : [ 13, 49 ],
    "skills" : [ {
      "id" : 4,
      "name" : "MASONRY",
      "level" : 1
    } ],
    "duration" : 2700.000000000,
    "pause" : false
  }, {
    "id" : 426,
    "desc" : "ELECTRICIAN",
    "location" : {
      "id" : 6361,
      "name" : null,
      "latitude" : 43.522835,
      "longitude" : 3.7355678
    },
    "openings" : {
      "start" : [ 11, 35 ],
      "end" : [ 17, 54 ]
    },
    "preferredSlots" : null,
    "doAfter" : null,
    "nbEmpRequired" : 1,
    "deadline" : [ 14, 57 ],
    "skills" : [ {
      "id" : 2,
      "name" : "ELECTRICIAN",
      "level" : 1
    } ],
    "duration" : 2700.000000000,
    "pause" : false
  }, {
    "id" : 469,
    "desc" : "ENGINEER",
    "location" : {
      "id" : 3706,
      "name" : null,
      "latitude" : 44.0853,
      "longitude" : 4.265956
    },
    "openings" : {
      "start" : [ 12, 27 ],
      "end" : [ 13, 50 ]
    },
    "preferredSlots" : null,
    "doAfter" : null,
    "nbEmpRequired" : 1,
    "deadline" : [ 14, 26 ],
    "skills" : [ {
      "id" : 1,
      "name" : "ENGINEER",
      "level" : 1
    } ],
    "duration" : 3600.000000000,
    "pause" : false
  }, {
    "id" : 185,
    "desc" : "MASONRY",
    "location" : {
      "id" : 5358,
      "name" : null,
      "latitude" : 43.545013,
      "longitude" : 3.968216
    },
    "openings" : {
      "start" : [ 15, 9 ],
      "end" : [ 16, 31 ]
    },
    "preferredSlots" : null,
    "doAfter" : null,
    "nbEmpRequired" : 1,
    "deadline" : [ 13, 59 ],
    "skills" : [ {
      "id" : 4,
      "name" : "MASONRY",
      "level" : 1
    } ],
    "duration" : 3600.000000000,
    "pause" : false
  }, {
    "id" : 338,
    "desc" : "MANAGEMENT",
    "location" : {
      "id" : 7384,
      "name" : null,
      "latitude" : 43.69613,
      "longitude" : 3.8515446
    },
    "openings" : {
      "start" : [ 14, 28 ],
      "end" : [ 15, 41 ]
    },
    "preferredSlots" : null,
    "doAfter" : null,
    "nbEmpRequired" : 1,
    "deadline" : [ 13, 24 ],
    "skills" : [ {
      "id" : 0,
      "name" : "MANAGEMENT",
      "level" : 1
    } ],
    "duration" : 5400.000000000,
    "pause" : false
  }, {
    "id" : 497,
    "desc" : "CARPENTRY",
    "location" : {
      "id" : 8223,
      "name" : null,
      "latitude" : 43.73072,
      "longitude" : 3.9634457
    },
    "openings" : {
      "start" : [ 13, 45 ],
      "end" : [ 16, 49 ]
    },
    "preferredSlots" : null,
    "doAfter" : null,
    "nbEmpRequired" : 1,
    "deadline" : [ 15, 55 ],
    "skills" : [ {
      "id" : 6,
      "name" : "CARPENTRY",
      "level" : 1
    } ],
    "duration" : 3600.000000000,
    "pause" : false
  } ],
  "valid" : true
}