{
  "listEdt" : [ {
    "emp" : {
      "id" : 299,
      "name" : "299",
      "shifts" : [ {
        "start" : [ 9, 0 ],
        "end" : [ 12, 0 ]
      }, {
        "start" : [ 13, 0 ],
        "end" : [ 17, 0 ]
      } ],
      "prefSlots" : null,
      "startingLoc" : {
        "id" : 1676,
        "name" : null,
        "latitude" : 43.775375,
        "longitude" : 4.058584
      },
      "skills" : [ {
        "id" : 3,
        "name" : "PLUMBING",
        "level" : 6
      }, {
        "id" : 5,
        "name" : "GLAZING",
        "level" : 10
      }, {
        "id" : 4,
        "name" : "MASONRY",
        "level" : 8
      }, {
        "id" : 5,
        "name" : "GLAZING",
        "level" : 5
      }, {
        "id" : 9,
        "name" : "TILER",
        "level" : 3
      }, {
        "id" : 9,
        "name" : "TILER",
        "level" : 3
      }, {
        "id" : 5,
        "name" : "GLAZING",
        "level" : 3
      }, {
        "id" : 2,
        "name" : "ELECTRICIAN",
        "level" : 5
      }, {
        "id" : 8,
        "name" : "IRONWORK",
        "level" : 8
      } ]
    },
    "planning" : [ {
      "job" : {
        "id" : -1,
        "desc" : "Home",
        "location" : {
          "id" : 1676,
          "name" : null,
          "latitude" : 43.775375,
          "longitude" : 4.058584
        },
        "openings" : null,
        "preferredSlots" : null,
        "doAfter" : null,
        "nbEmpRequired" : 1,
        "deadline" : null,
        "skills" : [ ],
        "duration" : null,
        "pause" : true
      },
      "window" : {
        "start" : [ 9, 0 ],
        "end" : [ 9, 0 ]
      }
    }, {
      "job" : {
        "id" : 899,
        "desc" : "PLUMBING, IRONWORK",
        "location" : {
          "id" : 8703,
          "name" : null,
          "latitude" : 43.567238,
          "longitude" : 4.1292143
        },
        "openings" : {
          "start" : [ 9, 34 ],
          "end" : [ 17, 21 ]
        },
        "preferredSlots" : null,
        "doAfter" : null,
        "nbEmpRequired" : 1,
        "deadline" : [ 10, 32 ],
        "skills" : [ {
          "id" : 3,
          "name" : "PLUMBING",
          "level" : 5
        }, {
          "id" : 8,
          "name" : "IRONWORK",
          "level" : 5
        } ],
        "duration" : 1800.000000000,
        "pause" : false
      },
      "window" : {
        "start" : [ 9, 24 ],
        "end" : [ 9, 54 ]
      }
    }, {
      "job" : {
        "id" : 813,
        "desc" : "GLAZING, PLUMBING",
        "location" : {
          "id" : 6275,
          "name" : null,
          "latitude" : 43.865417,
          "longitude" : 4.0567875
        },
        "openings" : {
          "start" : [ 10, 8 ],
          "end" : [ 14, 47 ]
        },
        "preferredSlots" : null,
        "doAfter" : null,
        "nbEmpRequired" : 1,
        "deadline" : [ 17, 15 ],
        "skills" : [ {
          "id" : 5,
          "name" : "GLAZING",
          "level" : 4
        }, {
          "id" : 3,
          "name" : "PLUMBING",
          "level" : 5
        } ],
        "duration" : 1800.000000000,
        "pause" : false
      },
      "window" : {
        "start" : [ 10, 28 ],
        "end" : [ 10, 58 ]
      }
    }, {
      "job" : {
        "id" : 409,
        "desc" : "PLUMBING, IRONWORK",
        "location" : {
          "id" : 59,
          "name" : null,
          "latitude" : 43.896404,
          "longitude" : 4.143429
        },
        "openings" : {
          "start" : [ 16, 54 ],
          "end" : [ 17, 26 ]
        },
        "preferredSlots" : null,
        "doAfter" : null,
        "nbEmpRequired" : 1,
        "deadline" : [ 12, 54 ],
        "skills" : [ {
          "id" : 3,
          "name" : "PLUMBING",
          "level" : 2
        }, {
          "id" : 8,
          "name" : "IRONWORK",
          "level" : 3
        } ],
        "duration" : 2700.000000000,
        "pause" : false
      },
      "window" : {
        "start" : [ 11, 6 ],
        "end" : [ 11, 51 ]
      }
    }, {
      "job" : {
        "id" : -1,
        "desc" : "Pause",
        "location" : {
          "id" : 59,
          "name" : null,
          "latitude" : 43.896404,
          "longitude" : 4.143429
        },
        "openings" : {
          "start" : [ 16, 54 ],
          "end" : [ 17, 26 ]
        },
        "preferredSlots" : null,
        "doAfter" : null,
        "nbEmpRequired" : 1,
        "deadline" : [ 12, 54 ],
        "skills" : [ {
          "id" : 3,
          "name" : "PLUMBING",
          "level" : 2
        }, {
          "id" : 8,
          "name" : "IRONWORK",
          "level" : 3
        } ],
        "duration" : 2700.000000000,
        "pause" : true
      },
      "window" : {
        "start" : [ 11, 52 ],
        "end" : [ 13, 0 ]
      }
    }, {
      "job" : {
        "id" : 782,
        "desc" : "PLUMBING, IRONWORK",
        "location" : {
          "id" : 2050,
          "name" : null,
          "latitude" : 43.82086,
          "longitude" : 3.9468427
        },
        "openings" : {
          "start" : [ 9, 49 ],
          "end" : [ 11, 25 ]
        },
        "preferredSlots" : null,
        "doAfter" : null,
        "nbEmpRequired" : 1,
        "deadline" : [ 16, 25 ],
        "skills" : [ {
          "id" : 3,
          "name" : "PLUMBING",
          "level" : 5
        }, {
          "id" : 8,
          "name" : "IRONWORK",
          "level" : 4
        } ],
        "duration" : 7200.000000000,
        "pause" : false
      },
      "window" : {
        "start" : [ 13, 18 ],
        "end" : [ 15, 18 ]
      }
    }, {
      "job" : {
        "id" : 798,
        "desc" : "MASONRY, PLUMBING",
        "location" : {
          "id" : 9163,
          "name" : null,
          "latitude" : 43.535137,
          "longitude" : 4.0942636
        },
        "openings" : {
          "start" : [ 12, 5 ],
          "end" : [ 13, 30 ]
        },
        "preferredSlots" : null,
        "doAfter" : null,
        "nbEmpRequired" : 1,
        "deadline" : [ 11, 40 ],
        "skills" : [ {
          "id" : 4,
          "name" : "MASONRY",
          "level" : 3
        }, {
          "id" : 3,
          "name" : "PLUMBING",
          "level" : 4
        } ],
        "duration" : 3600.000000000,
        "pause" : false
      },
      "window" : {
        "start" : [ 15, 52 ],
        "end" : [ 16, 52 ]
      }
    } ],
    "driving" : 7080.000000000,
    "valid" : true
  }, {
    "emp" : {
      "id" : 101,
      "name" : "101",
      "shifts" : [ {
        "start" : [ 9, 0 ],
        "end" : [ 12, 0 ]
      }, {
        "start" : [ 13, 0 ],
        "end" : [ 17, 0 ]
      } ],
      "prefSlots" : null,
      "startingLoc" : {
        "id" : 3261,
        "name" : null,
        "latitude" : 43.612507,
        "longitude" : 4.2373304
      },
      "skills" : [ {
        "id" : 3,
        "name" : "PLUMBING",
        "level" : 8
      }, {
        "id" : 8,
        "name" : "IRONWORK",
        "level" : 5
      }, {
        "id" : 5,
        "name" : "GLAZING",
        "level" : 6
      }, {
        "id" : 8,
        "name" : "IRONWORK",
        "level" : 5
      }, {
        "id" : 6,
        "name" : "CARPENTRY",
        "level" : 2
      }, {
        "id" : 3,
        "name" : "PLUMBING",
        "level" : 2
      }, {
        "id" : 0,
        "name" : "MANAGEMENT",
        "level" : 6
      }, {
        "id" : 4,
        "name" : "MASONRY",
        "level" : 4
      }, {
        "id" : 4,
        "name" : "MASONRY",
        "level" : 9
      }, {
        "id" : 3,
        "name" : "PLUMBING",
        "level" : 1
      } ]
    },
    "planning" : [ {
      "job" : {
        "id" : -1,
        "desc" : "Home",
        "location" : {
          "id" : 3261,
          "name" : null,
          "latitude" : 43.612507,
          "longitude" : 4.2373304
        },
        "openings" : null,
        "preferredSlots" : null,
        "doAfter" : null,
        "nbEmpRequired" : 1,
        "deadline" : null,
        "skills" : [ ],
        "duration" : null,
        "pause" : true
      },
      "window" : {
        "start" : [ 9, 0 ],
        "end" : [ 9, 0 ]
      }
    }, {
      "job" : {
        "id" : 107,
        "desc" : "PLUMBING, GLAZING",
        "location" : {
          "id" : 5392,
          "name" : null,
          "latitude" : 43.50254,
          "longitude" : 4.196805
        },
        "openings" : {
          "start" : [ 12, 16 ],
          "end" : [ 13, 50 ]
        },
        "preferredSlots" : null,
        "doAfter" : null,
        "nbEmpRequired" : 1,
        "deadline" : [ 17, 58 ],
        "skills" : [ {
          "id" : 3,
          "name" : "PLUMBING",
          "level" : 4
        }, {
          "id" : 5,
          "name" : "GLAZING",
          "level" : 4
        } ],
        "duration" : 7200.000000000,
        "pause" : false
      },
      "window" : {
        "start" : [ 9, 13 ],
        "end" : [ 11, 13 ]
      }
    }, {
      "job" : {
        "id" : 886,
        "desc" : "GLAZING",
        "location" : {
          "id" : 7795,
          "name" : null,
          "latitude" : 43.423363,
          "longitude" : 4.247269
        },
        "openings" : {
          "start" : [ 9, 29 ],
          "end" : [ 16, 58 ]
        },
        "preferredSlots" : null,
        "doAfter" : null,
        "nbEmpRequired" : 1,
        "deadline" : [ 17, 5 ],
        "skills" : [ {
          "id" : 5,
          "name" : "GLAZING",
          "level" : 1
        } ],
        "duration" : 1800.000000000,
        "pause" : false
      },
      "window" : {
        "start" : [ 11, 23 ],
        "end" : [ 11, 53 ]
      }
    }, {
      "job" : {
        "id" : -1,
        "desc" : "Pause",
        "location" : {
          "id" : 7795,
          "name" : null,
          "latitude" : 43.423363,
          "longitude" : 4.247269
        },
        "openings" : {
          "start" : [ 9, 29 ],
          "end" : [ 16, 58 ]
        },
        "preferredSlots" : null,
        "doAfter" : null,
        "nbEmpRequired" : 1,
        "deadline" : [ 17, 5 ],
        "skills" : [ {
          "id" : 5,
          "name" : "GLAZING",
          "level" : 1
        } ],
        "duration" : 1800.000000000,
        "pause" : true
      },
      "window" : {
        "start" : [ 11, 54 ],
        "end" : [ 13, 0 ]
      }
    }, {
      "job" : {
        "id" : 178,
        "desc" : "PLUMBING, MANAGEMENT",
        "location" : {
          "id" : 9195,
          "name" : null,
          "latitude" : 43.85182,
          "longitude" : 3.7753043
        },
        "openings" : {
          "start" : [ 12, 39 ],
          "end" : [ 17, 49 ]
        },
        "preferredSlots" : null,
        "doAfter" : null,
        "nbEmpRequired" : 1,
        "deadline" : [ 11, 13 ],
        "skills" : [ {
          "id" : 3,
          "name" : "PLUMBING",
          "level" : 4
        }, {
          "id" : 0,
          "name" : "MANAGEMENT",
          "level" : 2
        } ],
        "duration" : 3600.000000000,
        "pause" : false
      },
      "window" : {
        "start" : [ 14, 1 ],
        "end" : [ 15, 1 ]
      }
    }, {
      "job" : {
        "id" : 924,
        "desc" : "PLUMBING, GLAZING",
        "location" : {
          "id" : 8832,
          "name" : null,
          "latitude" : 43.98067,
          "longitude" : 3.716407
        },
        "openings" : {
          "start" : [ 11, 29 ],
          "end" : [ 16, 51 ]
        },
        "preferredSlots" : null,
        "doAfter" : null,
        "nbEmpRequired" : 1,
        "deadline" : [ 9, 50 ],
        "skills" : [ {
          "id" : 3,
          "name" : "PLUMBING",
          "level" : 1
        }, {
          "id" : 5,
          "name" : "GLAZING",
          "level" : 5
        } ],
        "duration" : 3600.000000000,
        "pause" : false
      },
      "window" : {
        "start" : [ 15, 17 ],
        "end" : [ 16, 17 ]
      }
    }, {
      "job" : {
        "id" : 124,
        "desc" : "MANAGEMENT",
        "location" : {
          "id" : 9284,
          "name" : null,
          "latitude" : 43.997734,
          "longitude" : 3.8442578
        },
        "openings" : {
          "start" : [ 15, 9 ],
          "end" : [ 16, 44 ]
        },
        "preferredSlots" : null,
        "doAfter" : null,
        "nbEmpRequired" : 1,
        "deadline" : [ 15, 22 ],
        "skills" : [ {
          "id" : 0,
          "name" : "MANAGEMENT",
          "level" : 1
        } ],
        "duration" : 1800.000000000,
        "pause" : false
      },
      "window" : {
        "start" : [ 16, 28 ],
        "end" : [ 16, 58 ]
      }
    } ],
    "driving" : 6660.000000000,
    "valid" : true
  }, {
    "emp" : {
      "id" : 230,
      "name" : "230",
      "shifts" : [ {
        "start" : [ 9, 0 ],
        "end" : [ 12, 0 ]
      }, {
        "start" : [ 13, 0 ],
        "end" : [ 17, 0 ]
      } ],
      "prefSlots" : null,
      "startingLoc" : {
        "id" : 2637,
        "name" : null,
        "latitude" : 43.95236,
        "longitude" : 3.8967233
      },
      "skills" : [ {
        "id" : 2,
        "name" : "ELECTRICIAN",
        "level" : 5
      }, {
        "id" : 3,
        "name" : "PLUMBING",
        "level" : 9
      }, {
        "id" : 5,
        "name" : "GLAZING",
        "level" : 8
      }, {
        "id" : 0,
        "name" : "MANAGEMENT",
        "level" : 7
      }, {
        "id" : 4,
        "name" : "MASONRY",
        "level" : 2
      }, {
        "id" : 7,
        "name" : "PAINTING",
        "level" : 4
      } ]
    },
    "planning" : [ {
      "job" : {
        "id" : -1,
        "desc" : "Home",
        "location" : {
          "id" : 2637,
          "name" : null,
          "latitude" : 43.95236,
          "longitude" : 3.8967233
        },
        "openings" : null,
        "preferredSlots" : null,
        "doAfter" : null,
        "nbEmpRequired" : 1,
        "deadline" : null,
        "skills" : [ ],
        "duration" : null,
        "pause" : true
      },
      "window" : {
        "start" : [ 9, 0 ],
        "end" : [ 9, 0 ]
      }
    }, {
      "job" : {
        "id" : 52,
        "desc" : "PAINTING, MANAGEMENT",
        "location" : {
          "id" : 5567,
          "name" : null,
          "latitude" : 43.831085,
          "longitude" : 4.257573
        },
        "openings" : {
          "start" : [ 15, 39 ],
          "end" : [ 16, 7 ]
        },
        "preferredSlots" : null,
        "doAfter" : null,
        "nbEmpRequired" : 1,
        "deadline" : [ 15, 41 ],
        "skills" : [ {
          "id" : 7,
          "name" : "PAINTING",
          "level" : 3
        }, {
          "id" : 0,
          "name" : "MANAGEMENT",
          "level" : 5
        } ],
        "duration" : 2700.000000000,
        "pause" : false
      },
      "window" : {
        "start" : [ 9, 32 ],
        "end" : [ 10, 17 ]
      }
    }, {
      "job" : {
        "id" : 233,
        "desc" : "MANAGEMENT, PAINTING",
        "location" : {
          "id" : 7795,
          "name" : null,
          "latitude" : 43.651695,
          "longitude" : 3.9096272
        },
        "openings" : {
          "start" : [ 12, 32 ],
          "end" : [ 13, 26 ]
        },
        "preferredSlots" : null,
        "doAfter" : null,
        "nbEmpRequired" : 1,
        "deadline" : [ 11, 11 ],
        "skills" : [ {
          "id" : 0,
          "name" : "MANAGEMENT",
          "level" : 3
        }, {
          "id" : 7,
          "name" : "PAINTING",
          "level" : 4
        } ],
        "duration" : 2700.000000000,
        "pause" : false
      },
      "window" : {
        "start" : [ 10, 52 ],
        "end" : [ 11, 37 ]
      }
    }, {
      "job" : {
        "id" : -1,
        "desc" : "Pause",
        "location" : {
          "id" : 7795,
          "name" : null,
          "latitude" : 43.651695,
          "longitude" : 3.9096272
        },
        "openings" : {
          "start" : [ 12, 32 ],
          "end" : [ 13, 26 ]
        },
        "preferredSlots" : null,
        "doAfter" : null,
        "nbEmpRequired" : 1,
        "deadline" : [ 11, 11 ],
        "skills" : [ {
          "id" : 0,
          "name" : "MANAGEMENT",
          "level" : 3
        }, {
          "id" : 7,
          "name" : "PAINTING",
          "level" : 4
        } ],
        "duration" : 2700.000000000,
        "pause" : true
      },
      "window" : {
        "start" : [ 11, 38 ],
        "end" : [ 13, 0 ]
      }
    }, {
      "job" : {
        "id" : 894,
        "desc" : "GLAZING, PAINTING",
        "location" : {
          "id" : 9832,
          "name" : null,
          "latitude" : 43.751503,
          "longitude" : 3.9274688
        },
        "openings" : {
          "start" : [ 14, 40 ],
          "end" : [ 17, 22 ]
        },
        "preferredSlots" : null,
        "doAfter" : null,
        "nbEmpRequired" : 1,
        "deadline" : [ 17, 56 ],
        "skills" : [ {
          "id" : 5,
          "name" : "GLAZING",
          "level" : 5
        }, {
          "id" : 7,
          "name" : "PAINTING",
          "level" : 3
        } ],
        "duration" : 5400.000000000,
        "pause" : false
      },
      "window" : {
        "start" : [ 13, 12 ],
        "end" : [ 14, 42 ]
      }
    }, {
      "job" : {
        "id" : 201,
        "desc" : "MANAGEMENT, PAINTING",
        "location" : {
          "id" : 2753,
          "name" : null,
          "latitude" : 43.601994,
          "longitude" : 4.194626
        },
        "openings" : {
          "start" : [ 14, 26 ],
          "end" : [ 16, 47 ]
        },
        "preferredSlots" : null,
        "doAfter" : null,
        "nbEmpRequired" : 1,
        "deadline" : [ 11, 51 ],
        "skills" : [ {
          "id" : 0,
          "name" : "MANAGEMENT",
          "level" : 4
        }, {
          "id" : 7,
          "name" : "PAINTING",
          "level" : 1
        } ],
        "duration" : 1800.000000000,
        "pause" : false
      },
      "window" : {
        "start" : [ 15, 10 ],
        "end" : [ 15, 40 ]
      }
    }, {
      "job" : {
        "id" : 200,
        "desc" : "GLAZING, MASONRY",
        "location" : {
          "id" : 2867,
          "name" : null,
          "latitude" : 43.58359,
          "longitude" : 4.2281647
        },
        "openings" : {
          "start" : [ 12, 29 ],
          "end" : [ 13, 44 ]
        },
        "preferredSlots" : null,
        "doAfter" : null,
        "nbEmpRequired" : 1,
        "deadline" : [ 17, 54 ],
        "skills" : [ {
          "id" : 5,
          "name" : "GLAZING",
          "level" : 1
        }, {
          "id" : 4,
          "name" : "MASONRY",
          "level" : 1
        } ],
        "duration" : 2700.000000000,
        "pause" : false
      },
      "window" : {
        "start" : [ 15, 44 ],
        "end" : [ 16, 29 ]
      }
    } ],
    "driving" : 6660.000000000,
    "valid" : true
  }, {
    "emp" : {
      "id" : 237,
      "name" : "237",
      "shifts" : [ {
        "start" : [ 9, 0 ],
        "end" : [ 12, 0 ]
      }, {
        "start" : [ 13, 0 ],
        "end" : [ 17, 0 ]
      } ],
      "prefSlots" : null,
      "startingLoc" : {
        "id" : 3778,
        "name" : null,
        "latitude" : 43.490936,
        "longitude" : 3.7849107
      },
      "skills" : [ {
        "id" : 8,
        "name" : "IRONWORK",
        "level" : 3
      } ]
    },
    "planning" : [ {
      "job" : {
        "id" : -1,
        "desc" : "Home",
        "location" : {
          "id" : 3778,
          "name" : null,
          "latitude" : 43.490936,
          "longitude" : 3.7849107
        },
        "openings" : null,
        "preferredSlots" : null,
        "doAfter" : null,
        "nbEmpRequired" : 1,
        "deadline" : null,
        "skills" : [ ],
        "duration" : null,
        "pause" : true
      },
      "window" : {
        "start" : [ 9, 0 ],
        "end" : [ 9, 0 ]
      }
    }, {
      "job" : {
        "id" : 850,
        "desc" : "IRONWORK",
        "location" : {
          "id" : 3293,
          "name" : null,
          "latitude" : 43.526436,
          "longitude" : 3.9629245
        },
        "openings" : {
          "start" : [ 16, 4 ],
          "end" : [ 17, 15 ]
        },
        "preferredSlots" : null,
        "doAfter" : null,
        "nbEmpRequired" : 1,
        "deadline" : [ 14, 4 ],
        "skills" : [ {
          "id" : 8,
          "name" : "IRONWORK",
          "level" : 3
        } ],
        "duration" : 5400.000000000,
        "pause" : false
      },
      "window" : {
        "start" : [ 9, 15 ],
        "end" : [ 10, 45 ]
      }
    }, {
      "job" : {
        "id" : -1,
        "desc" : "Pause",
        "location" : {
          "id" : 3293,
          "name" : null,
          "latitude" : 43.526436,
          "longitude" : 3.9629245
        },
        "openings" : {
          "start" : [ 16, 4 ],
          "end" : [ 17, 15 ]
        },
        "preferredSlots" : null,
        "doAfter" : null,
        "nbEmpRequired" : 1,
        "deadline" : [ 14, 4 ],
        "skills" : [ {
          "id" : 8,
          "name" : "IRONWORK",
          "level" : 3
        } ],
        "duration" : 5400.000000000,
        "pause" : true
      },
      "window" : {
        "start" : [ 10, 46 ],
        "end" : [ 13, 0 ]
      }
    } ],
    "driving" : 900.000000000,
    "valid" : true
  }, {
    "emp" : {
      "id" : 650,
      "name" : "650",
      "shifts" : [ {
        "start" : [ 9, 0 ],
        "end" : [ 12, 0 ]
      }, {
        "start" : [ 13, 0 ],
        "end" : [ 17, 0 ]
      } ],
      "prefSlots" : null,
      "startingLoc" : {
        "id" : 8902,
        "name" : null,
        "latitude" : 43.52546,
        "longitude" : 3.9628062
      },
      "skills" : [ {
        "id" : 2,
        "name" : "ELECTRICIAN",
        "level" : 9
      }, {
        "id" : 3,
        "name" : "PLUMBING",
        "level" : 8
      }, {
        "id" : 8,
        "name" : "IRONWORK",
        "level" : 2
      } ]
    },
    "planning" : [ {
      "job" : {
        "id" : -1,
        "desc" : "Home",
        "location" : {
          "id" : 8902,
          "name" : null,
          "latitude" : 43.52546,
          "longitude" : 3.9628062
        },
        "openings" : null,
        "preferredSlots" : null,
        "doAfter" : null,
        "nbEmpRequired" : 1,
        "deadline" : null,
        "skills" : [ ],
        "duration" : null,
        "pause" : true
      },
      "window" : {
        "start" : [ 9, 0 ],
        "end" : [ 9, 0 ]
      }
    }, {
      "job" : {
        "id" : 487,
        "desc" : "ELECTRICIAN, PLUMBING",
        "location" : {
          "id" : 9887,
          "name" : null,
          "latitude" : 43.939796,
          "longitude" : 3.766147
        },
        "openings" : {
          "start" : [ 9, 45 ],
          "end" : [ 12, 38 ]
        },
        "preferredSlots" : null,
        "doAfter" : null,
        "nbEmpRequired" : 1,
        "deadline" : [ 13, 56 ],
        "skills" : [ {
          "id" : 2,
          "name" : "ELECTRICIAN",
          "level" : 1
        }, {
          "id" : 3,
          "name" : "PLUMBING",
          "level" : 3
        } ],
        "duration" : 2700.000000000,
        "pause" : false
      },
      "window" : {
        "start" : [ 9, 49 ],
        "end" : [ 10, 34 ]
      }
    }, {
      "job" : {
        "id" : 59,
        "desc" : "ELECTRICIAN",
        "location" : {
          "id" : 4520,
          "name" : null,
          "latitude" : 43.784126,
          "longitude" : 4.213672
        },
        "openings" : {
          "start" : [ 9, 51 ],
          "end" : [ 16, 3 ]
        },
        "preferredSlots" : null,
        "doAfter" : null,
        "nbEmpRequired" : 1,
        "deadline" : [ 11, 39 ],
        "skills" : [ {
          "id" : 2,
          "name" : "ELECTRICIAN",
          "level" : 4
        } ],
        "duration" : 1800.000000000,
        "pause" : false
      },
      "window" : {
        "start" : [ 11, 14 ],
        "end" : [ 11, 44 ]
      }
    }, {
      "job" : {
        "id" : -1,
        "desc" : "Pause",
        "location" : {
          "id" : 4520,
          "name" : null,
          "latitude" : 43.784126,
          "longitude" : 4.213672
        },
        "openings" : {
          "start" : [ 9, 51 ],
          "end" : [ 16, 3 ]
        },
        "preferredSlots" : null,
        "doAfter" : null,
        "nbEmpRequired" : 1,
        "deadline" : [ 11, 39 ],
        "skills" : [ {
          "id" : 2,
          "name" : "ELECTRICIAN",
          "level" : 4
        } ],
        "duration" : 1800.000000000,
        "pause" : true
      },
      "window" : {
        "start" : [ 11, 45 ],
        "end" : [ 13, 0 ]
      }
    }, {
      "job" : {
        "id" : 622,
        "desc" : "ELECTRICIAN",
        "location" : {
          "id" : 3156,
          "name" : null,
          "latitude" : 43.470562,
          "longitude" : 3.9083648
        },
        "openings" : {
          "start" : [ 10, 18 ],
          "end" : [ 15, 28 ]
        },
        "preferredSlots" : null,
        "doAfter" : null,
        "nbEmpRequired" : 1,
        "deadline" : [ 10, 48 ],
        "skills" : [ {
          "id" : 2,
          "name" : "ELECTRICIAN",
          "level" : 3
        } ],
        "duration" : 1800.000000000,
        "pause" : false
      },
      "window" : {
        "start" : [ 13, 43 ],
        "end" : [ 14, 13 ]
      }
    }, {
      "job" : {
        "id" : 136,
        "desc" : "ELECTRICIAN",
        "location" : {
          "id" : 3846,
          "name" : null,
          "latitude" : 43.98829,
          "longitude" : 4.1588964
        },
        "openings" : {
          "start" : [ 9, 56 ],
          "end" : [ 13, 0 ]
        },
        "preferredSlots" : null,
        "doAfter" : null,
        "nbEmpRequired" : 1,
        "deadline" : [ 17, 30 ],
        "skills" : [ {
          "id" : 2,
          "name" : "ELECTRICIAN",
          "level" : 3
        } ],
        "duration" : 1800.000000000,
        "pause" : false
      },
      "window" : {
        "start" : [ 15, 14 ],
        "end" : [ 15, 44 ]
      }
    }, {
      "job" : {
        "id" : 959,
        "desc" : "ELECTRICIAN",
        "location" : {
          "id" : 8879,
          "name" : null,
          "latitude" : 43.973602,
          "longitude" : 4.0203013
        },
        "openings" : {
          "start" : [ 9, 51 ],
          "end" : [ 15, 9 ]
        },
        "preferredSlots" : null,
        "doAfter" : null,
        "nbEmpRequired" : 1,
        "deadline" : [ 9, 29 ],
        "skills" : [ {
          "id" : 2,
          "name" : "ELECTRICIAN",
          "level" : 3
        } ],
        "duration" : 3600.000000000,
        "pause" : false
      },
      "window" : {
        "start" : [ 15, 56 ],
        "end" : [ 16, 56 ]
      }
    } ],
    "driving" : 12300.000000000,
    "valid" : true
  } ],
  "unassigned" : [ {
    "id" : 457,
    "desc" : "CARPENTRY, PLUMBING",
    "location" : {
      "id" : 2867,
      "name" : null,
      "latitude" : 43.96061,
      "longitude" : 4.014953
    },
    "openings" : {
      "start" : [ 10, 46 ],
      "end" : [ 13, 59 ]
    },
    "preferredSlots" : null,
    "doAfter" : null,
    "nbEmpRequired" : 1,
    "deadline" : [ 10, 19 ],
    "skills" : [ {
      "id" : 6,
      "name" : "CARPENTRY",
      "level" : 5
    }, {
      "id" : 3,
      "name" : "PLUMBING",
      "level" : 5
    } ],
    "duration" : 1800.000000000,
    "pause" : false
  }, {
    "id" : 866,
    "desc" : "ENGINEER, MASONRY",
    "location" : {
      "id" : 4130,
      "name" : null,
      "latitude" : 43.740593,
      "longitude" : 3.8747425
    },
    "openings" : {
      "start" : [ 11, 17 ],
      "end" : [ 16, 50 ]
    },
    "preferredSlots" : null,
    "doAfter" : null,
    "nbEmpRequired" : 1,
    "deadline" : [ 16, 37 ],
    "skills" : [ {
      "id" : 1,
      "name" : "ENGINEER",
      "level" : 5
    }, {
      "id" : 4,
      "name" : "MASONRY",
      "level" : 5
    } ],
    "duration" : 2700.000000000,
    "pause" : false
  }, {
    "id" : 297,
    "desc" : "CARPENTRY, GLAZING",
    "location" : {
      "id" : 6648,
      "name" : null,
      "latitude" : 43.522606,
      "longitude" : 4.1131964
    },
    "openings" : {
      "start" : [ 16, 49 ],
      "end" : [ 17, 55 ]
    },
    "preferredSlots" : null,
    "doAfter" : null,
    "nbEmpRequired" : 1,
    "deadline" : [ 16, 54 ],
    "skills" : [ {
      "id" : 6,
      "name" : "CARPENTRY",
      "level" : 5
    }, {
      "id" : 5,
      "name" : "GLAZING",
      "level" : 5
    } ],
    "duration" : 1800.000000000,
    "pause" : false
  }, {
    "id" : 910,
    "desc" : "ENGINEER, GLAZING",
    "location" : {
      "id" : 3427,
      "name" : null,
      "latitude" : 43.48172,
      "longitude" : 3.732708
    },
    "openings" : {
      "start" : [ 9, 5 ],
      "end" : [ 10, 13 ]
    },
    "preferredSlots" : null,
    "doAfter" : null,
    "nbEmpRequired" : 1,
    "deadline" : [ 15, 20 ],
    "skills" : [ {
      "id" : 1,
      "name" : "ENGINEER",
      "level" : 5
    }, {
      "id" : 5,
      "name" : "GLAZING",
      "level" : 4
    } ],
    "duration" : 1800.000000000,
    "pause" : false
  }, {
    "id" : 587,
    "desc" : "ENGINEER, IRONWORK",
    "location" : {
      "id" : 6789,
      "name" : null,
      "latitude" : 43.699074,
      "longitude" : 4.1216407
    },
    "openings" : {
      "start" : [ 11, 8 ],
      "end" : [ 17, 56 ]
    },
    "preferredSlots" : null,
    "doAfter" : null,
    "nbEmpRequired" : 1,
    "deadline" : [ 17, 44 ],
    "skills" : [ {
      "id" : 1,
      "name" : "ENGINEER",
      "level" : 5
    }, {
      "id" : 8,
      "name" : "IRONWORK",
      "level" : 4
    } ],
    "duration" : 5400.000000000,
    "pause" : false
  }, {
    "id" : 671,
    "desc" : "TILER, CARPENTRY",
    "location" : {
      "id" : 2777,
      "name" : null,
      "latitude" : 43.86929,
      "longitude" : 3.8537178
    },
    "openings" : {
      "start" : [ 11, 28 ],
      "end" : [ 17, 2 ]
    },
    "preferredSlots" : null,
    "doAfter" : null,
    "nbEmpRequired" : 1,
    "deadline" : [ 17, 44 ],
    "skills" : [ {
      "id" : 9,
      "name" : "TILER",
      "level" : 4
    }, {
      "id" : 6,
      "name" : "CARPENTRY",
      "level" : 5
    } ],
    "duration" : 2700.000000000,
    "pause" : false
  }, {
    "id" : 702,
    "desc" : "MASONRY, ELECTRICIAN",
    "location" : {
      "id" : 2288,
      "name" : null,
      "latitude" : 43.799812,
      "longitude" : 4.221695
    },
    "openings" : {
      "start" : [ 12, 26 ],
      "end" : [ 17, 56 ]
    },
    "preferredSlots" : null,
    "doAfter" : null,
    "nbEmpRequired" : 1,
    "deadline" : [ 12, 26 ],
    "skills" : [ {
      "id" : 4,
      "name" : "MASONRY",
      "level" : 4
    }, {
      "id" : 2,
      "name" : "ELECTRICIAN",
      "level" : 4
    } ],
    "duration" : 5400.000000000,
    "pause" : false
  }, {
    "id" : 473,
    "desc" : "IRONWORK, CARPENTRY",
    "location" : {
      "id" : 1035,
      "name" : null,
      "latitude" : 43.44629,
      "longitude" : 4.213438
    },
    "openings" : {
      "start" : [ 9, 18 ],
      "end" : [ 17, 50 ]
    },
    "preferredSlots" : null,
    "doAfter" : null,
    "nbEmpRequired" : 1,
    "deadline" : [ 10, 34 ],
    "skills" : [ {
      "id" : 8,
      "name" : "IRONWORK",
      "level" : 3
    }, {
      "id" : 6,
      "name" : "CARPENTRY",
      "level" : 5
    } ],
    "duration" : 2700.000000000,
    "pause" : false
  }, {
    "id" : 74,
    "desc" : "TILER, IRONWORK",
    "location" : {
      "id" : 3794,
      "name" : null,
      "latitude" : 43.98045,
      "longitude" : 4.0973315
    },
    "openings" : {
      "start" : [ 9, 58 ],
      "end" : [ 12, 32 ]
    },
    "preferredSlots" : null,
    "doAfter" : null,
    "nbEmpRequired" : 1,
    "deadline" : [ 14, 57 ],
    "skills" : [ {
      "id" : 9,
      "name" : "TILER",
      "level" : 5
    }, {
      "id" : 8,
      "name" : "IRONWORK",
      "level" : 3
    } ],
    "duration" : 7200.000000000,
    "pause" : false
  }, {
    "id" : 132,
    "desc" : "IRONWORK, PAINTING",
    "location" : {
      "id" : 2151,
      "name" : null,
      "latitude" : 43.539173,
      "longitude" : 3.9601626
    },
    "openings" : {
      "start" : [ 14, 21 ],
      "end" : [ 14, 45 ]
    },
    "preferredSlots" : null,
    "doAfter" : null,
    "nbEmpRequired" : 1,
    "deadline" : [ 17, 15 ],
    "skills" : [ {
      "id" : 8,
      "name" : "IRONWORK",
      "level" : 3
    }, {
      "id" : 7,
      "name" : "PAINTING",
      "level" : 5
    } ],
    "duration" : 3600.000000000,
    "pause" : false
  }, {
    "id" : 376,
    "desc" : "TILER, ENGINEER",
    "location" : {
      "id" : 9612,
      "name" : null,
      "latitude" : 43.440742,
      "longitude" : 3.9740918
    },
    "openings" : {
      "start" : [ 11, 1 ],
      "end" : [ 11, 23 ]
    },
    "preferredSlots" : null,
    "doAfter" : null,
    "nbEmpRequired" : 1,
    "deadline" : [ 16, 57 ],
    "skills" : [ {
      "id" : 9,
      "name" : "TILER",
      "level" : 4
    }, {
      "id" : 1,
      "name" : "ENGINEER",
      "level" : 4
    } ],
    "duration" : 2700.000000000,
    "pause" : false
  }, {
    "id" : 466,
    "desc" : "CARPENTRY, PLUMBING",
    "location" : {
      "id" : 3754,
      "name" : null,
      "latitude" : 43.650017,
      "longitude" : 3.914502
    },
    "openings" : {
      "start" : [ 10, 56 ],
      "end" : [ 13, 56 ]
    },
    "preferredSlots" : null,
    "doAfter" : null,
    "nbEmpRequired" : 1,
    "deadline" : [ 12, 51 ],
    "skills" : [ {
      "id" : 6,
      "name" : "CARPENTRY",
      "level" : 4
    }, {
      "id" : 3,
      "name" : "PLUMBING",
      "level" : 3
    } ],
    "duration" : 1800.000000000,
    "pause" : false
  }, {
    "id" : 688,
    "desc" : "ENGINEER, IRONWORK",
    "location" : {
      "id" : 5703,
      "name" : null,
      "latitude" : 43.473694,
      "longitude" : 4.057473
    },
    "openings" : {
      "start" : [ 16, 13 ],
      "end" : [ 17, 40 ]
    },
    "preferredSlots" : null,
    "doAfter" : null,
    "nbEmpRequired" : 1,
    "deadline" : [ 15, 38 ],
    "skills" : [ {
      "id" : 1,
      "name" : "ENGINEER",
      "level" : 2
    }, {
      "id" : 8,
      "name" : "IRONWORK",
      "level" : 4
    } ],
    "duration" : 2700.000000000,
    "pause" : false
  }, {
    "id" : 253,
    "desc" : "TILER, CARPENTRY",
    "location" : {
      "id" : 424,
      "name" : null,
      "latitude" : 43.961494,
      "longitude" : 4.006329
    },
    "openings" : {
      "start" : [ 15, 22 ],
      "end" : [ 15, 23 ]
    },
    "preferredSlots" : null,
    "doAfter" : null,
    "nbEmpRequired" : 1,
    "deadline" : [ 14, 49 ],
    "skills" : [ {
      "id" : 9,
      "name" : "TILER",
      "level" : 4
    }, {
      "id" : 6,
      "name" : "CARPENTRY",
      "level" : 2
    } ],
    "duration" : 2700.000000000,
    "pause" : false
  }, {
    "id" : 380,
    "desc" : "MANAGEMENT, CARPENTRY",
    "location" : {
      "id" : 1427,
      "name" : null,
      "latitude" : 43.886215,
      "longitude" : 3.7082314
    },
    "openings" : {
      "start" : [ 10, 24 ],
      "end" : [ 10, 28 ]
    },
    "preferredSlots" : null,
    "doAfter" : null,
    "nbEmpRequired" : 1,
    "deadline" : [ 11, 14 ],
    "skills" : [ {
      "id" : 0,
      "name" : "MANAGEMENT",
      "level" : 2
    }, {
      "id" : 6,
      "name" : "CARPENTRY",
      "level" : 4
    } ],
    "duration" : 2700.000000000,
    "pause" : false
  }, {
    "id" : 700,
    "desc" : "CARPENTRY, TILER",
    "location" : {
      "id" : 6674,
      "name" : null,
      "latitude" : 43.471344,
      "longitude" : 3.763451
    },
    "openings" : {
      "start" : [ 10, 21 ],
      "end" : [ 15, 9 ]
    },
    "preferredSlots" : null,
    "doAfter" : null,
    "nbEmpRequired" : 1,
    "deadline" : [ 10, 27 ],
    "skills" : [ {
      "id" : 6,
      "name" : "CARPENTRY",
      "level" : 5
    }, {
      "id" : 9,
      "name" : "TILER",
      "level" : 1
    } ],
    "duration" : 1800.000000000,
    "pause" : false
  }, {
    "id" : 284,
    "desc" : "MASONRY, CARPENTRY",
    "location" : {
      "id" : 9361,
      "name" : null,
      "latitude" : 43.946632,
      "longitude" : 3.8319225
    },
    "openings" : {
      "start" : [ 12, 17 ],
      "end" : [ 16, 8 ]
    },
    "preferredSlots" : null,
    "doAfter" : null,
    "nbEmpRequired" : 1,
    "deadline" : [ 15, 48 ],
    "skills" : [ {
      "id" : 4,
      "name" : "MASONRY",
      "level" : 1
    }, {
      "id" : 6,
      "name" : "CARPENTRY",
      "level" : 4
    } ],
    "duration" : 2700.000000000,
    "pause" : false
  }, {
    "id" : 135,
    "desc" : "ENGINEER, TILER",
    "location" : {
      "id" : 1488,
      "name" : null,
      "latitude" : 43.86036,
      "longitude" : 4.1066656
    },
    "openings" : {
      "start" : [ 13, 17 ],
      "end" : [ 16, 48 ]
    },
    "preferredSlots" : null,
    "doAfter" : null,
    "nbEmpRequired" : 1,
    "deadline" : [ 13, 17 ],
    "skills" : [ {
      "id" : 1,
      "name" : "ENGINEER",
      "level" : 2
    }, {
      "id" : 9,
      "name" : "TILER",
      "level" : 3
    } ],
    "duration" : 1800.000000000,
    "pause" : false
  }, {
    "id" : 324,
    "desc" : "PAINTING, MASONRY",
    "location" : {
      "id" : 6801,
      "name" : null,
      "latitude" : 43.925533,
      "longitude" : 3.9210887
    },
    "openings" : {
      "start" : [ 10, 24 ],
      "end" : [ 11, 7 ]
    },
    "preferredSlots" : null,
    "doAfter" : null,
    "nbEmpRequired" : 1,
    "deadline" : [ 11, 41 ],
    "skills" : [ {
      "id" : 7,
      "name" : "PAINTING",
      "level" : 2
    }, {
      "id" : 4,
      "name" : "MASONRY",
      "level" : 3
    } ],
    "duration" : 1800.000000000,
    "pause" : false
  }, {
    "id" : 795,
    "desc" : "PLUMBING, MASONRY",
    "location" : {
      "id" : 2705,
      "name" : null,
      "latitude" : 43.865025,
      "longitude" : 3.8483195
    },
    "openings" : {
      "start" : [ 16, 41 ],
      "end" : [ 16, 42 ]
    },
    "preferredSlots" : null,
    "doAfter" : null,
    "nbEmpRequired" : 1,
    "deadline" : [ 9, 45 ],
    "skills" : [ {
      "id" : 3,
      "name" : "PLUMBING",
      "level" : 4
    }, {
      "id" : 4,
      "name" : "MASONRY",
      "level" : 1
    } ],
    "duration" : 5400.000000000,
    "pause" : false
  }, {
    "id" : 627,
    "desc" : "TILER, CARPENTRY",
    "location" : {
      "id" : 1828,
      "name" : null,
      "latitude" : 43.40981,
      "longitude" : 3.713855
    },
    "openings" : {
      "start" : [ 10, 49 ],
      "end" : [ 16, 47 ]
    },
    "preferredSlots" : null,
    "doAfter" : null,
    "nbEmpRequired" : 1,
    "deadline" : [ 13, 55 ],
    "skills" : [ {
      "id" : 9,
      "name" : "TILER",
      "level" : 1
    }, {
      "id" : 6,
      "name" : "CARPENTRY",
      "level" : 4
    } ],
    "duration" : 3600.000000000,
    "pause" : false
  }, {
    "id" : 977,
    "desc" : "MASONRY, PLUMBING",
    "location" : {
      "id" : 9144,
      "name" : null,
      "latitude" : 43.914574,
      "longitude" : 3.932321
    },
    "openings" : {
      "start" : [ 14, 21 ],
      "end" : [ 15, 25 ]
    },
    "preferredSlots" : null,
    "doAfter" : null,
    "nbEmpRequired" : 1,
    "deadline" : [ 13, 22 ],
    "skills" : [ {
      "id" : 4,
      "name" : "MASONRY",
      "level" : 4
    }, {
      "id" : 3,
      "name" : "PLUMBING",
      "level" : 1
    } ],
    "duration" : 3600.000000000,
    "pause" : false
  }, {
    "id" : 152,
    "desc" : "IRONWORK, MANAGEMENT",
    "location" : {
      "id" : 548,
      "name" : null,
      "latitude" : 43.94538,
      "longitude" : 3.9634757
    },
    "openings" : {
      "start" : [ 16, 13 ],
      "end" : [ 16, 56 ]
    },
    "preferredSlots" : null,
    "doAfter" : null,
    "nbEmpRequired" : 1,
    "deadline" : [ 10, 22 ],
    "skills" : [ {
      "id" : 8,
      "name" : "IRONWORK",
      "level" : 3
    }, {
      "id" : 0,
      "name" : "MANAGEMENT",
      "level" : 2
    } ],
    "duration" : 2700.000000000,
    "pause" : false
  }, {
    "id" : 263,
    "desc" : "GLAZING, IRONWORK",
    "location" : {
      "id" : 8899,
      "name" : null,
      "latitude" : 43.782475,
      "longitude" : 4.0743923
    },
    "openings" : {
      "start" : [ 10, 19 ],
      "end" : [ 14, 7 ]
    },
    "preferredSlots" : null,
    "doAfter" : null,
    "nbEmpRequired" : 1,
    "deadline" : [ 14, 11 ],
    "skills" : [ {
      "id" : 5,
      "name" : "GLAZING",
      "level" : 1
    }, {
      "id" : 8,
      "name" : "IRONWORK",
      "level" : 4
    } ],
    "duration" : 1800.000000000,
    "pause" : false
  }, {
    "id" : 282,
    "desc" : "ENGINEER, TILER",
    "location" : {
      "id" : 6309,
      "name" : null,
      "latitude" : 43.735832,
      "longitude" : 4.0895767
    },
    "openings" : {
      "start" : [ 9, 43 ],
      "end" : [ 13, 7 ]
    },
    "preferredSlots" : null,
    "doAfter" : null,
    "nbEmpRequired" : 1,
    "deadline" : [ 15, 30 ],
    "skills" : [ {
      "id" : 1,
      "name" : "ENGINEER",
      "level" : 3
    }, {
      "id" : 9,
      "name" : "TILER",
      "level" : 2
    } ],
    "duration" : 3600.000000000,
    "pause" : false
  }, {
    "id" : 242,
    "desc" : "TILER, ENGINEER",
    "location" : {
      "id" : 9829,
      "name" : null,
      "latitude" : 43.92524,
      "longitude" : 4.070905
    },
    "openings" : {
      "start" : [ 11, 8 ],
      "end" : [ 15, 2 ]
    },
    "preferredSlots" : null,
    "doAfter" : null,
    "nbEmpRequired" : 1,
    "deadline" : [ 15, 28 ],
    "skills" : [ {
      "id" : 9,
      "name" : "TILER",
      "level" : 1
    }, {
      "id" : 1,
      "name" : "ENGINEER",
      "level" : 3
    } ],
    "duration" : 2700.000000000,
    "pause" : false
  }, {
    "id" : 254,
    "desc" : "IRONWORK, TILER",
    "location" : {
      "id" : 4570,
      "name" : null,
      "latitude" : 43.569855,
      "longitude" : 3.7880116
    },
    "openings" : {
      "start" : [ 10, 48 ],
      "end" : [ 11, 56 ]
    },
    "preferredSlots" : null,
    "doAfter" : null,
    "nbEmpRequired" : 1,
    "deadline" : [ 13, 53 ],
    "skills" : [ {
      "id" : 8,
      "name" : "IRONWORK",
      "level" : 2
    }, {
      "id" : 9,
      "name" : "TILER",
      "level" : 2
    } ],
    "duration" : 3600.000000000,
    "pause" : false
  }, {
    "id" : 924,
    "desc" : "MASONRY, TILER",
    "location" : {
      "id" : 9630,
      "name" : null,
      "latitude" : 43.923973,
      "longitude" : 3.8495827
    },
    "openings" : {
      "start" : [ 10, 12 ],
      "end" : [ 11, 26 ]
    },
    "preferredSlots" : null,
    "doAfter" : null,
    "nbEmpRequired" : 1,
    "deadline" : [ 13, 34 ],
    "skills" : [ {
      "id" : 4,
      "name" : "MASONRY",
      "level" : 3
    }, {
      "id" : 9,
      "name" : "TILER",
      "level" : 1
    } ],
    "duration" : 2700.000000000,
    "pause" : false
  }, {
    "id" : 435,
    "desc" : "MASONRY, PLUMBING",
    "location" : {
      "id" : 5380,
      "name" : null,
      "latitude" : 43.82875,
      "longitude" : 3.7319903
    },
    "openings" : {
      "start" : [ 12, 15 ],
      "end" : [ 15, 37 ]
    },
    "preferredSlots" : null,
    "doAfter" : null,
    "nbEmpRequired" : 1,
    "deadline" : [ 13, 58 ],
    "skills" : [ {
      "id" : 4,
      "name" : "MASONRY",
      "level" : 1
    }, {
      "id" : 3,
      "name" : "PLUMBING",
      "level" : 3
    } ],
    "duration" : 2700.000000000,
    "pause" : false
  }, {
    "id" : 842,
    "desc" : "ENGINEER, TILER",
    "location" : {
      "id" : 2082,
      "name" : null,
      "latitude" : 44.08904,
      "longitude" : 4.134511
    },
    "openings" : {
      "start" : [ 14, 58 ],
      "end" : [ 15, 40 ]
    },
    "preferredSlots" : null,
    "doAfter" : null,
    "nbEmpRequired" : 1,
    "deadline" : [ 13, 35 ],
    "skills" : [ {
      "id" : 1,
      "name" : "ENGINEER",
      "level" : 3
    }, {
      "id" : 9,
      "name" : "TILER",
      "level" : 1
    } ],
    "duration" : 1800.000000000,
    "pause" : false
  }, {
    "id" : 919,
    "desc" : "TILER, MANAGEMENT",
    "location" : {
      "id" : 5289,
      "name" : null,
      "latitude" : 43.831825,
      "longitude" : 4.1001368
    },
    "openings" : {
      "start" : [ 15, 14 ],
      "end" : [ 16, 47 ]
    },
    "preferredSlots" : null,
    "doAfter" : null,
    "nbEmpRequired" : 1,
    "deadline" : [ 10, 9 ],
    "skills" : [ {
      "id" : 9,
      "name" : "TILER",
      "level" : 3
    }, {
      "id" : 0,
      "name" : "MANAGEMENT",
      "level" : 1
    } ],
    "duration" : 1800.000000000,
    "pause" : false
  }, {
    "id" : 962,
    "desc" : "ENGINEER, TILER",
    "location" : {
      "id" : 7905,
      "name" : null,
      "latitude" : 44.058342,
      "longitude" : 3.9094226
    },
    "openings" : {
      "start" : [ 10, 53 ],
      "end" : [ 13, 32 ]
    },
    "preferredSlots" : null,
    "doAfter" : null,
    "nbEmpRequired" : 1,
    "deadline" : [ 9, 30 ],
    "skills" : [ {
      "id" : 1,
      "name" : "ENGINEER",
      "level" : 1
    }, {
      "id" : 9,
      "name" : "TILER",
      "level" : 2
    } ],
    "duration" : 7200.000000000,
    "pause" : false
  }, {
    "id" : 438,
    "desc" : "PLUMBING, CARPENTRY",
    "location" : {
      "id" : 8213,
      "name" : null,
      "latitude" : 44.078804,
      "longitude" : 4.295161
    },
    "openings" : {
      "start" : [ 13, 37 ],
      "end" : [ 14, 2 ]
    },
    "preferredSlots" : null,
    "doAfter" : null,
    "nbEmpRequired" : 1,
    "deadline" : [ 15, 56 ],
    "skills" : [ {
      "id" : 3,
      "name" : "PLUMBING",
      "level" : 2
    }, {
      "id" : 6,
      "name" : "CARPENTRY",
      "level" : 1
    } ],
    "duration" : 3600.000000000,
    "pause" : false
  }, {
    "id" : 619,
    "desc" : "ENGINEER, GLAZING",
    "location" : {
      "id" : 994,
      "name" : null,
      "latitude" : 43.653175,
      "longitude" : 3.9243245
    },
    "openings" : {
      "start" : [ 12, 57 ],
      "end" : [ 14, 33 ]
    },
    "preferredSlots" : null,
    "doAfter" : null,
    "nbEmpRequired" : 1,
    "deadline" : [ 16, 33 ],
    "skills" : [ {
      "id" : 1,
      "name" : "ENGINEER",
      "level" : 1
    }, {
      "id" : 5,
      "name" : "GLAZING",
      "level" : 2
    } ],
    "duration" : 3600.000000000,
    "pause" : false
  }, {
    "id" : 472,
    "desc" : "PAINTING, MANAGEMENT",
    "location" : {
      "id" : 6240,
      "name" : null,
      "latitude" : 43.807274,
      "longitude" : 3.7420998
    },
    "openings" : {
      "start" : [ 9, 26 ],
      "end" : [ 16, 24 ]
    },
    "preferredSlots" : null,
    "doAfter" : null,
    "nbEmpRequired" : 1,
    "deadline" : [ 13, 57 ],
    "skills" : [ {
      "id" : 7,
      "name" : "PAINTING",
      "level" : 1
    }, {
      "id" : 0,
      "name" : "MANAGEMENT",
      "level" : 1
    } ],
    "duration" : 3600.000000000,
    "pause" : false
  }, {
    "id" : 441,
    "desc" : "ENGINEER, MANAGEMENT",
    "location" : {
      "id" : 1449,
      "name" : null,
      "latitude" : 43.597664,
      "longitude" : 4.1982794
    },
    "openings" : {
      "start" : [ 9, 55 ],
      "end" : [ 10, 38 ]
    },
    "preferredSlots" : null,
    "doAfter" : null,
    "nbEmpRequired" : 1,
    "deadline" : [ 13, 55 ],
    "skills" : [ {
      "id" : 1,
      "name" : "ENGINEER",
      "level" : 1
    }, {
      "id" : 0,
      "name" : "MANAGEMENT",
      "level" : 1
    } ],
    "duration" : 1800.000000000,
    "pause" : false
  }, {
    "id" : 928,
    "desc" : "PLUMBING, MASONRY",
    "location" : {
      "id" : 7088,
      "name" : null,
      "latitude" : 43.861343,
      "longitude" : 3.8582458
    },
    "openings" : {
      "start" : [ 13, 56 ],
      "end" : [ 17, 6 ]
    },
    "preferredSlots" : null,
    "doAfter" : null,
    "nbEmpRequired" : 1,
    "deadline" : [ 15, 43 ],
    "skills" : [ {
      "id" : 3,
      "name" : "PLUMBING",
      "level" : 1
    }, {
      "id" : 4,
      "name" : "MASONRY",
      "level" : 1
    } ],
    "duration" : 7200.000000000,
    "pause" : false
  }, {
    "id" : 676,
    "desc" : "GLAZING",
    "location" : {
      "id" : 1000,
      "name" : null,
      "latitude" : 43.698814,
      "longitude" : 3.7213848
    },
    "openings" : {
      "start" : [ 12, 52 ],
      "end" : [ 15, 2 ]
    },
    "preferredSlots" : null,
    "doAfter" : null,
    "nbEmpRequired" : 1,
    "deadline" : [ 14, 35 ],
    "skills" : [ {
      "id" : 5,
      "name" : "GLAZING",
      "level" : 5
    } ],
    "duration" : 2700.000000000,
    "pause" : false
  }, {
    "id" : 771,
    "desc" : "MASONRY",
    "location" : {
      "id" : 4822,
      "name" : null,
      "latitude" : 43.857918,
      "longitude" : 4.259587
    },
    "openings" : {
      "start" : [ 12, 40 ],
      "end" : [ 13, 31 ]
    },
    "preferredSlots" : null,
    "doAfter" : null,
    "nbEmpRequired" : 1,
    "deadline" : [ 14, 4 ],
    "skills" : [ {
      "id" : 4,
      "name" : "MASONRY",
      "level" : 5
    } ],
    "duration" : 5400.000000000,
    "pause" : false
  }, {
    "id" : 258,
    "desc" : "PAINTING",
    "location" : {
      "id" : 1717,
      "name" : null,
      "latitude" : 43.578854,
      "longitude" : 3.823161
    },
    "openings" : {
      "start" : [ 11, 26 ],
      "end" : [ 16, 7 ]
    },
    "preferredSlots" : null,
    "doAfter" : null,
    "nbEmpRequired" : 1,
    "deadline" : [ 16, 11 ],
    "skills" : [ {
      "id" : 7,
      "name" : "PAINTING",
      "level" : 5
    } ],
    "duration" : 2700.000000000,
    "pause" : false
  }, {
    "id" : 90,
    "desc" : "MANAGEMENT",
    "location" : {
      "id" : 6224,
      "name" : null,
      "latitude" : 43.705833,
      "longitude" : 4.060029
    },
    "openings" : {
      "start" : [ 11, 10 ],
      "end" : [ 16, 49 ]
    },
    "preferredSlots" : null,
    "doAfter" : null,
    "nbEmpRequired" : 1,
    "deadline" : [ 16, 8 ],
    "skills" : [ {
      "id" : 0,
      "name" : "MANAGEMENT",
      "level" : 5
    } ],
    "duration" : 2700.000000000,
    "pause" : false
  }, {
    "id" : 494,
    "desc" : "CARPENTRY",
    "location" : {
      "id" : 3381,
      "name" : null,
      "latitude" : 43.686974,
      "longitude" : 3.9256668
    },
    "openings" : {
      "start" : [ 9, 7 ],
      "end" : [ 11, 8 ]
    },
    "preferredSlots" : null,
    "doAfter" : null,
    "nbEmpRequired" : 1,
    "deadline" : [ 17, 19 ],
    "skills" : [ {
      "id" : 6,
      "name" : "CARPENTRY",
      "level" : 5
    } ],
    "duration" : 5400.000000000,
    "pause" : false
  }, {
    "id" : 134,
    "desc" : "ENGINEER",
    "location" : {
      "id" : 3663,
      "name" : null,
      "latitude" : 43.946304,
      "longitude" : 3.7545066
    },
    "openings" : {
      "start" : [ 11, 33 ],
      "end" : [ 16, 45 ]
    },
    "preferredSlots" : null,
    "doAfter" : null,
    "nbEmpRequired" : 1,
    "deadline" : [ 9, 47 ],
    "skills" : [ {
      "id" : 1,
      "name" : "ENGINEER",
      "level" : 4
    } ],
    "duration" : 3600.000000000,
    "pause" : false
  }, {
    "id" : 862,
    "desc" : "MANAGEMENT",
    "location" : {
      "id" : 78,
      "name" : null,
      "latitude" : 43.930676,
      "longitude" : 3.769225
    },
    "openings" : {
      "start" : [ 13, 1 ],
      "end" : [ 15, 1 ]
    },
    "preferredSlots" : null,
    "doAfter" : null,
    "nbEmpRequired" : 1,
    "deadline" : [ 9, 41 ],
    "skills" : [ {
      "id" : 0,
      "name" : "MANAGEMENT",
      "level" : 4
    } ],
    "duration" : 5400.000000000,
    "pause" : false
  }, {
    "id" : 451,
    "desc" : "PAINTING",
    "location" : {
      "id" : 2393,
      "name" : null,
      "latitude" : 43.788464,
      "longitude" : 3.7910252
    },
    "openings" : {
      "start" : [ 10, 56 ],
      "end" : [ 17, 3 ]
    },
    "preferredSlots" : null,
    "doAfter" : null,
    "nbEmpRequired" : 1,
    "deadline" : [ 15, 46 ],
    "skills" : [ {
      "id" : 7,
      "name" : "PAINTING",
      "level" : 4
    } ],
    "duration" : 3600.000000000,
    "pause" : false
  }, {
    "id" : 715,
    "desc" : "TILER",
    "location" : {
      "id" : 3733,
      "name" : null,
      "latitude" : 43.484184,
      "longitude" : 4.2646
    },
    "openings" : {
      "start" : [ 9, 47 ],
      "end" : [ 17, 10 ]
    },
    "preferredSlots" : null,
    "doAfter" : null,
    "nbEmpRequired" : 1,
    "deadline" : [ 13, 16 ],
    "skills" : [ {
      "id" : 9,
      "name" : "TILER",
      "level" : 4
    } ],
    "duration" : 1800.000000000,
    "pause" : false
  }, {
    "id" : 138,
    "desc" : "TILER",
    "location" : {
      "id" : 7491,
      "name" : null,
      "latitude" : 44.090622,
      "longitude" : 4.2746234
    },
    "openings" : {
      "start" : [ 10, 0 ],
      "end" : [ 14, 34 ]
    },
    "preferredSlots" : null,
    "doAfter" : null,
    "nbEmpRequired" : 1,
    "deadline" : [ 10, 49 ],
    "skills" : [ {
      "id" : 9,
      "name" : "TILER",
      "level" : 4
    } ],
    "duration" : 3600.000000000,
    "pause" : false
  }, {
    "id" : 279,
    "desc" : "TILER",
    "location" : {
      "id" : 2181,
      "name" : null,
      "latitude" : 43.940895,
      "longitude" : 3.7692413
    },
    "openings" : {
      "start" : [ 12, 33 ],
      "end" : [ 16, 56 ]
    },
    "preferredSlots" : null,
    "doAfter" : null,
    "nbEmpRequired" : 1,
    "deadline" : [ 16, 30 ],
    "skills" : [ {
      "id" : 9,
      "name" : "TILER",
      "level" : 4
    } ],
    "duration" : 2700.000000000,
    "pause" : false
  }, {
    "id" : 459,
    "desc" : "MANAGEMENT",
    "location" : {
      "id" : 1957,
      "name" : null,
      "latitude" : 43.7092,
      "longitude" : 4.0825195
    },
    "openings" : {
      "start" : [ 9, 27 ],
      "end" : [ 13, 10 ]
    },
    "preferredSlots" : null,
    "doAfter" : null,
    "nbEmpRequired" : 1,
    "deadline" : [ 12, 21 ],
    "skills" : [ {
      "id" : 0,
      "name" : "MANAGEMENT",
      "level" : 4
    } ],
    "duration" : 7200.000000000,
    "pause" : false
  }, {
    "id" : 445,
    "desc" : "CARPENTRY",
    "location" : {
      "id" : 7367,
      "name" : null,
      "latitude" : 43.48024,
      "longitude" : 3.7332962
    },
    "openings" : {
      "start" : [ 14, 12 ],
      "end" : [ 14, 20 ]
    },
    "preferredSlots" : null,
    "doAfter" : null,
    "nbEmpRequired" : 1,
    "deadline" : [ 13, 55 ],
    "skills" : [ {
      "id" : 6,
      "name" : "CARPENTRY",
      "level" : 4
    } ],
    "duration" : 2700.000000000,
    "pause" : false
  }, {
    "id" : 424,
    "desc" : "MANAGEMENT",
    "location" : {
      "id" : 1603,
      "name" : null,
      "latitude" : 43.59956,
      "longitude" : 3.8142228
    },
    "openings" : {
      "start" : [ 12, 35 ],
      "end" : [ 14, 29 ]
    },
    "preferredSlots" : null,
    "doAfter" : null,
    "nbEmpRequired" : 1,
    "deadline" : [ 12, 52 ],
    "skills" : [ {
      "id" : 0,
      "name" : "MANAGEMENT",
      "level" : 4
    } ],
    "duration" : 5400.000000000,
    "pause" : false
  }, {
    "id" : 392,
    "desc" : "PAINTING",
    "location" : {
      "id" : 9873,
      "name" : null,
      "latitude" : 43.868702,
      "longitude" : 4.100691
    },
    "openings" : {
      "start" : [ 10, 38 ],
      "end" : [ 13, 44 ]
    },
    "preferredSlots" : null,
    "doAfter" : null,
    "nbEmpRequired" : 1,
    "deadline" : [ 14, 15 ],
    "skills" : [ {
      "id" : 7,
      "name" : "PAINTING",
      "level" : 4
    } ],
    "duration" : 2700.000000000,
    "pause" : false
  }, {
    "id" : 692,
    "desc" : "GLAZING",
    "location" : {
      "id" : 6960,
      "name" : null,
      "latitude" : 43.997433,
      "longitude" : 4.127688
    },
    "openings" : {
      "start" : [ 9, 32 ],
      "end" : [ 9, 50 ]
    },
    "preferredSlots" : null,
    "doAfter" : null,
    "nbEmpRequired" : 1,
    "deadline" : [ 12, 19 ],
    "skills" : [ {
      "id" : 5,
      "name" : "GLAZING",
      "level" : 4
    } ],
    "duration" : 2700.000000000,
    "pause" : false
  }, {
    "id" : 125,
    "desc" : "GLAZING",
    "location" : {
      "id" : 2375,
      "name" : null,
      "latitude" : 43.532417,
      "longitude" : 3.9112878
    },
    "openings" : {
      "start" : [ 9, 57 ],
      "end" : [ 10, 17 ]
    },
    "preferredSlots" : null,
    "doAfter" : null,
    "nbEmpRequired" : 1,
    "deadline" : [ 12, 15 ],
    "skills" : [ {
      "id" : 5,
      "name" : "GLAZING",
      "level" : 3
    } ],
    "duration" : 1800.000000000,
    "pause" : false
  }, {
    "id" : 356,
    "desc" : "TILER",
    "location" : {
      "id" : 6042,
      "name" : null,
      "latitude" : 43.62851,
      "longitude" : 4.2205224
    },
    "openings" : {
      "start" : [ 12, 52 ],
      "end" : [ 16, 42 ]
    },
    "preferredSlots" : null,
    "doAfter" : null,
    "nbEmpRequired" : 1,
    "deadline" : [ 10, 43 ],
    "skills" : [ {
      "id" : 9,
      "name" : "TILER",
      "level" : 3
    } ],
    "duration" : 7200.000000000,
    "pause" : false
  }, {
    "id" : 724,
    "desc" : "MASONRY",
    "location" : {
      "id" : 5887,
      "name" : null,
      "latitude" : 43.698566,
      "longitude" : 3.7901263
    },
    "openings" : {
      "start" : [ 15, 33 ],
      "end" : [ 17, 57 ]
    },
    "preferredSlots" : null,
    "doAfter" : null,
    "nbEmpRequired" : 1,
    "deadline" : [ 16, 16 ],
    "skills" : [ {
      "id" : 4,
      "name" : "MASONRY",
      "level" : 3
    } ],
    "duration" : 2700.000000000,
    "pause" : false
  }, {
    "id" : 44,
    "desc" : "MANAGEMENT",
    "location" : {
      "id" : 228,
      "name" : null,
      "latitude" : 43.477806,
      "longitude" : 3.8953717
    },
    "openings" : {
      "start" : [ 11, 31 ],
      "end" : [ 16, 22 ]
    },
    "preferredSlots" : null,
    "doAfter" : null,
    "nbEmpRequired" : 1,
    "deadline" : [ 16, 52 ],
    "skills" : [ {
      "id" : 0,
      "name" : "MANAGEMENT",
      "level" : 3
    } ],
    "duration" : 1800.000000000,
    "pause" : false
  }, {
    "id" : 824,
    "desc" : "TILER",
    "location" : {
      "id" : 7786,
      "name" : null,
      "latitude" : 43.7527,
      "longitude" : 3.923102
    },
    "openings" : {
      "start" : [ 16, 0 ],
      "end" : [ 17, 41 ]
    },
    "preferredSlots" : null,
    "doAfter" : null,
    "nbEmpRequired" : 1,
    "deadline" : [ 17, 6 ],
    "skills" : [ {
      "id" : 9,
      "name" : "TILER",
      "level" : 3
    } ],
    "duration" : 5400.000000000,
    "pause" : false
  }, {
    "id" : 831,
    "desc" : "GLAZING",
    "location" : {
      "id" : 1846,
      "name" : null,
      "latitude" : 43.74762,
      "longitude" : 3.7367752
    },
    "openings" : {
      "start" : [ 13, 33 ],
      "end" : [ 17, 53 ]
    },
    "preferredSlots" : null,
    "doAfter" : null,
    "nbEmpRequired" : 1,
    "deadline" : [ 10, 9 ],
    "skills" : [ {
      "id" : 5,
      "name" : "GLAZING",
      "level" : 3
    } ],
    "duration" : 1800.000000000,
    "pause" : false
  }, {
    "id" : 550,
    "desc" : "PAINTING",
    "location" : {
      "id" : 3225,
      "name" : null,
      "latitude" : 43.952183,
      "longitude" : 3.8065212
    },
    "openings" : {
      "start" : [ 13, 38 ],
      "end" : [ 13, 58 ]
    },
    "preferredSlots" : null,
    "doAfter" : null,
    "nbEmpRequired" : 1,
    "deadline" : [ 17, 41 ],
    "skills" : [ {
      "id" : 7,
      "name" : "PAINTING",
      "level" : 3
    } ],
    "duration" : 2700.000000000,
    "pause" : false
  }, {
    "id" : 628,
    "desc" : "MASONRY",
    "location" : {
      "id" : 3816,
      "name" : null,
      "latitude" : 43.891914,
      "longitude" : 3.8648982
    },
    "openings" : {
      "start" : [ 12, 40 ],
      "end" : [ 14, 15 ]
    },
    "preferredSlots" : null,
    "doAfter" : null,
    "nbEmpRequired" : 1,
    "deadline" : [ 14, 3 ],
    "skills" : [ {
      "id" : 4,
      "name" : "MASONRY",
      "level" : 3
    } ],
    "duration" : 2700.000000000,
    "pause" : false
  }, {
    "id" : 52,
    "desc" : "GLAZING",
    "location" : {
      "id" : 5298,
      "name" : null,
      "latitude" : 43.954063,
      "longitude" : 4.005114
    },
    "openings" : {
      "start" : [ 13, 48 ],
      "end" : [ 16, 56 ]
    },
    "preferredSlots" : null,
    "doAfter" : null,
    "nbEmpRequired" : 1,
    "deadline" : [ 10, 40 ],
    "skills" : [ {
      "id" : 5,
      "name" : "GLAZING",
      "level" : 3
    } ],
    "duration" : 2700.000000000,
    "pause" : false
  }, {
    "id" : 590,
    "desc" : "GLAZING",
    "location" : {
      "id" : 5166,
      "name" : null,
      "latitude" : 43.482323,
      "longitude" : 3.9745152
    },
    "openings" : {
      "start" : [ 9, 23 ],
      "end" : [ 13, 25 ]
    },
    "preferredSlots" : null,
    "doAfter" : null,
    "nbEmpRequired" : 1,
    "deadline" : [ 17, 20 ],
    "skills" : [ {
      "id" : 5,
      "name" : "GLAZING",
      "level" : 3
    } ],
    "duration" : 1800.000000000,
    "pause" : false
  }, {
    "id" : 186,
    "desc" : "ELECTRICIAN",
    "location" : {
      "id" : 3635,
      "name" : null,
      "latitude" : 43.453655,
      "longitude" : 3.7275085
    },
    "openings" : {
      "start" : [ 12, 50 ],
      "end" : [ 16, 21 ]
    },
    "preferredSlots" : null,
    "doAfter" : null,
    "nbEmpRequired" : 1,
    "deadline" : [ 12, 15 ],
    "skills" : [ {
      "id" : 2,
      "name" : "ELECTRICIAN",
      "level" : 3
    } ],
    "duration" : 5400.000000000,
    "pause" : false
  }, {
    "id" : 406,
    "desc" : "GLAZING",
    "location" : {
      "id" : 2532,
      "name" : null,
      "latitude" : 43.48044,
      "longitude" : 3.7052186
    },
    "openings" : {
      "start" : [ 10, 28 ],
      "end" : [ 11, 41 ]
    },
    "preferredSlots" : null,
    "doAfter" : null,
    "nbEmpRequired" : 1,
    "deadline" : [ 16, 56 ],
    "skills" : [ {
      "id" : 5,
      "name" : "GLAZING",
      "level" : 3
    } ],
    "duration" : 3600.000000000,
    "pause" : false
  }, {
    "id" : 893,
    "desc" : "PLUMBING",
    "location" : {
      "id" : 6013,
      "name" : null,
      "latitude" : 43.583504,
      "longitude" : 4.1304536
    },
    "openings" : {
      "start" : [ 11, 40 ],
      "end" : [ 16, 38 ]
    },
    "preferredSlots" : null,
    "doAfter" : null,
    "nbEmpRequired" : 1,
    "deadline" : [ 9, 41 ],
    "skills" : [ {
      "id" : 3,
      "name" : "PLUMBING",
      "level" : 2
    } ],
    "duration" : 2700.000000000,
    "pause" : false
  }, {
    "id" : 228,
    "desc" : "ELECTRICIAN",
    "location" : {
      "id" : 9838,
      "name" : null,
      "latitude" : 43.57165,
      "longitude" : 3.9289372
    },
    "openings" : {
      "start" : [ 12, 17 ],
      "end" : [ 15, 56 ]
    },
    "preferredSlots" : null,
    "doAfter" : null,
    "nbEmpRequired" : 1,
    "deadline" : [ 10, 10 ],
    "skills" : [ {
      "id" : 2,
      "name" : "ELECTRICIAN",
      "level" : 2
    } ],
    "duration" : 5400.000000000,
    "pause" : false
  }, {
    "id" : 552,
    "desc" : "CARPENTRY",
    "location" : {
      "id" : 7608,
      "name" : null,
      "latitude" : 43.7867,
      "longitude" : 3.891074
    },
    "openings" : {
      "start" : [ 10, 4 ],
      "end" : [ 16, 3 ]
    },
    "preferredSlots" : null,
    "doAfter" : null,
    "nbEmpRequired" : 1,
    "deadline" : [ 11, 10 ],
    "skills" : [ {
      "id" : 6,
      "name" : "CARPENTRY",
      "level" : 2
    } ],
    "duration" : 2700.000000000,
    "pause" : false
  }, {
    "id" : 653,
    "desc" : "PLUMBING",
    "location" : {
      "id" : 3484,
      "name" : null,
      "latitude" : 43.87017,
      "longitude" : 4.0489583
    },
    "openings" : {
      "start" : [ 13, 29 ],
      "end" : [ 17, 1 ]
    },
    "preferredSlots" : null,
    "doAfter" : null,
    "nbEmpRequired" : 1,
    "deadline" : [ 13, 22 ],
    "skills" : [ {
      "id" : 3,
      "name" : "PLUMBING",
      "level" : 2
    } ],
    "duration" : 7200.000000000,
    "pause" : false
  }, {
    "id" : 673,
    "desc" : "ELECTRICIAN",
    "location" : {
      "id" : 6470,
      "name" : null,
      "latitude" : 44.02063,
      "longitude" : 4.2400966
    },
    "openings" : {
      "start" : [ 9, 4 ],
      "end" : [ 13, 45 ]
    },
    "preferredSlots" : null,
    "doAfter" : null,
    "nbEmpRequired" : 1,
    "deadline" : [ 15, 9 ],
    "skills" : [ {
      "id" : 2,
      "name" : "ELECTRICIAN",
      "level" : 2
    } ],
    "duration" : 5400.000000000,
    "pause" : false
  }, {
    "id" : 159,
    "desc" : "MANAGEMENT",
    "location" : {
      "id" : 1238,
      "name" : null,
      "latitude" : 43.559437,
      "longitude" : 4.0616875
    },
    "openings" : {
      "start" : [ 12, 23 ],
      "end" : [ 17, 57 ]
    },
    "preferredSlots" : null,
    "doAfter" : null,
    "nbEmpRequired" : 1,
    "deadline" : [ 9, 13 ],
    "skills" : [ {
      "id" : 0,
      "name" : "MANAGEMENT",
      "level" : 2
    } ],
    "duration" : 3600.000000000,
    "pause" : false
  }, {
    "id" : 707,
    "desc" : "MANAGEMENT",
    "location" : {
      "id" : 7939,
      "name" : null,
      "latitude" : 44.08693,
      "longitude" : 3.9509206
    },
    "openings" : {
      "start" : [ 9, 46 ],
      "end" : [ 12, 8 ]
    },
    "preferredSlots" : null,
    "doAfter" : null,
    "nbEmpRequired" : 1,
    "deadline" : [ 12, 5 ],
    "skills" : [ {
      "id" : 0,
      "name" : "MANAGEMENT",
      "level" : 2
    } ],
    "duration" : 3600.000000000,
    "pause" : false
  }, {
    "id" : 280,
    "desc" : "TILER",
    "location" : {
      "id" : 936,
      "name" : null,
      "latitude" : 43.87461,
      "longitude" : 3.784058
    },
    "openings" : {
      "start" : [ 9, 42 ],
      "end" : [ 10, 3 ]
    },
    "preferredSlots" : null,
    "doAfter" : null,
    "nbEmpRequired" : 1,
    "deadline" : [ 9, 14 ],
    "skills" : [ {
      "id" : 9,
      "name" : "TILER",
      "level" : 2
    } ],
    "duration" : 2700.000000000,
    "pause" : false
  }, {
    "id" : 21,
    "desc" : "TILER",
    "location" : {
      "id" : 1054,
      "name" : null,
      "latitude" : 44.070915,
      "longitude" : 3.8893304
    },
    "openings" : {
      "start" : [ 15, 44 ],
      "end" : [ 16, 51 ]
    },
    "preferredSlots" : null,
    "doAfter" : null,
    "nbEmpRequired" : 1,
    "deadline" : [ 17, 20 ],
    "skills" : [ {
      "id" : 9,
      "name" : "TILER",
      "level" : 2
    } ],
    "duration" : 3600.000000000,
    "pause" : false
  }, {
    "id" : 234,
    "desc" : "PAINTING",
    "location" : {
      "id" : 5070,
      "name" : null,
      "latitude" : 43.97964,
      "longitude" : 3.9853954
    },
    "openings" : {
      "start" : [ 15, 3 ],
      "end" : [ 16, 31 ]
    },
    "preferredSlots" : null,
    "doAfter" : null,
    "nbEmpRequired" : 1,
    "deadline" : [ 17, 22 ],
    "skills" : [ {
      "id" : 7,
      "name" : "PAINTING",
      "level" : 1
    } ],
    "duration" : 5400.000000000,
    "pause" : false
  }, {
    "id" : 631,
    "desc" : "PAINTING",
    "location" : {
      "id" : 1708,
      "name" : null,
      "latitude" : 43.75527,
      "longitude" : 4.0492697
    },
    "openings" : {
      "start" : [ 9, 58 ],
      "end" : [ 10, 26 ]
    },
    "preferredSlots" : null,
    "doAfter" : null,
    "nbEmpRequired" : 1,
    "deadline" : [ 16, 20 ],
    "skills" : [ {
      "id" : 7,
      "name" : "PAINTING",
      "level" : 1
    } ],
    "duration" : 2700.000000000,
    "pause" : false
  }, {
    "id" : 596,
    "desc" : "ELECTRICIAN",
    "location" : {
      "id" : 3684,
      "name" : null,
      "latitude" : 43.89682,
      "longitude" : 4.037318
    },
    "openings" : {
      "start" : [ 14, 4 ],
      "end" : [ 16, 42 ]
    },
    "preferredSlots" : null,
    "doAfter" : null,
    "nbEmpRequired" : 1,
    "deadline" : [ 11, 59 ],
    "skills" : [ {
      "id" : 2,
      "name" : "ELECTRICIAN",
      "level" : 1
    } ],
    "duration" : 1800.000000000,
    "pause" : false
  }, {
    "id" : 522,
    "desc" : "GLAZING",
    "location" : {
      "id" : 8930,
      "name" : null,
      "latitude" : 43.79623,
      "longitude" : 4.1915236
    },
    "openings" : {
      "start" : [ 11, 34 ],
      "end" : [ 15, 47 ]
    },
    "preferredSlots" : null,
    "doAfter" : null,
    "nbEmpRequired" : 1,
    "deadline" : [ 17, 42 ],
    "skills" : [ {
      "id" : 5,
      "name" : "GLAZING",
      "level" : 1
    } ],
    "duration" : 1800.000000000,
    "pause" : false
  }, {
    "id" : 366,
    "desc" : "TILER",
    "location" : {
      "id" : 5721,
      "name" : null,
      "latitude" : 43.588047,
      "longitude" : 3.834497
    },
    "openings" : {
      "start" : [ 12, 11 ],
      "end" : [ 15, 53 ]
    },
    "preferredSlots" : null,
    "doAfter" : null,
    "nbEmpRequired" : 1,
    "deadline" : [ 13, 57 ],
    "skills" : [ {
      "id" : 9,
      "name" : "TILER",
      "level" : 1
    } ],
    "duration" : 3600.000000000,
    "pause" : false
  } ],
  "valid" : true
}