{
  "listEdt" : [ {
    "emp" : {
      "id" : 281,
      "name" : "281",
      "shifts" : [ {
        "start" : [ 9, 0 ],
        "end" : [ 12, 0 ]
      }, {
        "start" : [ 13, 0 ],
        "end" : [ 17, 0 ]
      } ],
      "prefSlots" : null,
      "startingLoc" : {
        "id" : 3575,
        "name" : null,
        "latitude" : 43.62754,
        "longitude" : 4.2903414
      },
      "skills" : [ {
        "id" : 6,
        "name" : "CARPENTRY",
        "level" : 6
      }, {
        "id" : 6,
        "name" : "CARPENTRY",
        "level" : 9
      } ]
    },
    "planning" : [ {
      "job" : {
        "id" : -1,
        "desc" : "Home",
        "location" : {
          "id" : 3575,
          "name" : null,
          "latitude" : 43.62754,
          "longitude" : 4.2903414
        },
        "openings" : null,
        "preferredSlots" : null,
        "doAfter" : null,
        "nbEmpRequired" : 1,
        "deadline" : null,
        "skills" : [ ],
        "duration" : null,
        "pause" : true
      },
      "window" : {
        "start" : [ 9, 0 ],
        "end" : [ 9, 0 ]
      }
    }, {
      "job" : {
        "id" : 968,
        "desc" : "CARPENTRY",
        "location" : {
          "id" : 8253,
          "name" : null,
          "latitude" : 43.52706,
          "longitude" : 3.8145995
        },
        "openings" : {
          "start" : [ 11, 21 ],
          "end" : [ 13, 39 ]
        },
        "preferredSlots" : null,
        "doAfter" : null,
        "nbEmpRequired" : 1,
        "deadline" : [ 13, 56 ],
        "skills" : [ {
          "id" : 6,
          "name" : "CARPENTRY",
          "level" : 1
        } ],
        "duration" : 7200.000000000,
        "pause" : false
      },
      "window" : {
        "start" : [ 9, 40 ],
        "end" : [ 11, 40 ]
      }
    }, {
      "job" : {
        "id" : -1,
        "desc" : "Pause",
        "location" : {
          "id" : 8253,
          "name" : null,
          "latitude" : 43.52706,
          "longitude" : 3.8145995
        },
        "openings" : {
          "start" : [ 11, 21 ],
          "end" : [ 13, 39 ]
        },
        "preferredSlots" : null,
        "doAfter" : null,
        "nbEmpRequired" : 1,
        "deadline" : [ 13, 56 ],
        "skills" : [ {
          "id" : 6,
          "name" : "CARPENTRY",
          "level" : 1
        } ],
        "duration" : 7200.000000000,
        "pause" : true
      },
      "window" : {
        "start" : [ 11, 41 ],
        "end" : [ 13, 0 ]
      }
    } ],
    "driving" : 2400.000000000,
    "valid" : true
  }, {
    "emp" : {
      "id" : 529,
      "name" : "529",
      "shifts" : [ {
        "start" : [ 9, 0 ],
        "end" : [ 12, 0 ]
      }, {
        "start" : [ 13, 0 ],
        "end" : [ 17, 0 ]
      } ],
      "prefSlots" : null,
      "startingLoc" : {
        "id" : 4811,
        "name" : null,
        "latitude" : 43.699356,
        "longitude" : 4.0818086
      },
      "skills" : [ {
        "id" : 4,
        "name" : "MASONRY",
        "level" : 10
      }, {
        "id" : 7,
        "name" : "PAINTING",
        "level" : 4
      }, {
        "id" : 1,
        "name" : "ENGINEER",
        "level" : 10
      }, {
        "id" : 7,
        "name" : "PAINTING",
        "level" : 2
      }, {
        "id" : 6,
        "name" : "CARPENTRY",
        "level" : 8
      }, {
        "id" : 6,
        "name" : "CARPENTRY",
        "level" : 10
      }, {
        "id" : 4,
        "name" : "MASONRY",
        "level" : 10
      } ]
    },
    "planning" : [ {
      "job" : {
        "id" : -1,
        "desc" : "Home",
        "location" : {
          "id" : 4811,
          "name" : null,
          "latitude" : 43.699356,
          "longitude" : 4.0818086
        },
        "openings" : null,
        "preferredSlots" : null,
        "doAfter" : null,
        "nbEmpRequired" : 1,
        "deadline" : null,
        "skills" : [ ],
        "duration" : null,
        "pause" : true
      },
      "window" : {
        "start" : [ 9, 0 ],
        "end" : [ 9, 0 ]
      }
    }, {
      "job" : {
        "id" : 232,
        "desc" : "ENGINEER, PAINTING",
        "location" : {
          "id" : 8888,
          "name" : null,
          "latitude" : 43.61589,
          "longitude" : 4.015518
        },
        "openings" : {
          "start" : [ 12, 10 ],
          "end" : [ 12, 37 ]
        },
        "preferredSlots" : null,
        "doAfter" : null,
        "nbEmpRequired" : 1,
        "deadline" : [ 16, 50 ],
        "skills" : [ {
          "id" : 1,
          "name" : "ENGINEER",
          "level" : 2
        }, {
          "id" : 7,
          "name" : "PAINTING",
          "level" : 1
        } ],
        "duration" : 3600.000000000,
        "pause" : false
      },
      "window" : {
        "start" : [ 9, 11 ],
        "end" : [ 10, 11 ]
      }
    }, {
      "job" : {
        "id" : -1,
        "desc" : "Pause",
        "location" : {
          "id" : 8888,
          "name" : null,
          "latitude" : 43.61589,
          "longitude" : 4.015518
        },
        "openings" : {
          "start" : [ 12, 10 ],
          "end" : [ 12, 37 ]
        },
        "preferredSlots" : null,
        "doAfter" : null,
        "nbEmpRequired" : 1,
        "deadline" : [ 16, 50 ],
        "skills" : [ {
          "id" : 1,
          "name" : "ENGINEER",
          "level" : 2
        }, {
          "id" : 7,
          "name" : "PAINTING",
          "level" : 1
        } ],
        "duration" : 3600.000000000,
        "pause" : true
      },
      "window" : {
        "start" : [ 10, 12 ],
        "end" : [ 13, 0 ]
      }
    }, {
      "job" : {
        "id" : 518,
        "desc" : "ENGINEER",
        "location" : {
          "id" : 3053,
          "name" : null,
          "latitude" : 43.646538,
          "longitude" : 3.927077
        },
        "openings" : {
          "start" : [ 16, 49 ],
          "end" : [ 17, 21 ]
        },
        "preferredSlots" : null,
        "doAfter" : null,
        "nbEmpRequired" : 1,
        "deadline" : [ 11, 44 ],
        "skills" : [ {
          "id" : 1,
          "name" : "ENGINEER",
          "level" : 1
        } ],
        "duration" : 7200.000000000,
        "pause" : false
      },
      "window" : {
        "start" : [ 13, 8 ],
        "end" : [ 15, 8 ]
      }
    } ],
    "driving" : 1140.000000000,
    "valid" : true
  }, {
    "emp" : {
      "id" : 812,
      "name" : "812",
      "shifts" : [ {
        "start" : [ 9, 0 ],
        "end" : [ 12, 0 ]
      }, {
        "start" : [ 13, 0 ],
        "end" : [ 17, 0 ]
      } ],
      "prefSlots" : null,
      "startingLoc" : {
        "id" : 1496,
        "name" : null,
        "latitude" : 43.9172,
        "longitude" : 3.8859394
      },
      "skills" : [ {
        "id" : 5,
        "name" : "GLAZING",
        "level" : 10
      }, {
        "id" : 0,
        "name" : "MANAGEMENT",
        "level" : 6
      }, {
        "id" : 3,
        "name" : "PLUMBING",
        "level" : 2
      }, {
        "id" : 4,
        "name" : "MASONRY",
        "level" : 4
      }, {
        "id" : 2,
        "name" : "ELECTRICIAN",
        "level" : 9
      }, {
        "id" : 8,
        "name" : "IRONWORK",
        "level" : 2
      }, {
        "id" : 3,
        "name" : "PLUMBING",
        "level" : 10
      } ]
    },
    "planning" : [ {
      "job" : {
        "id" : -1,
        "desc" : "Home",
        "location" : {
          "id" : 1496,
          "name" : null,
          "latitude" : 43.9172,
          "longitude" : 3.8859394
        },
        "openings" : null,
        "preferredSlots" : null,
        "doAfter" : null,
        "nbEmpRequired" : 1,
        "deadline" : null,
        "skills" : [ ],
        "duration" : null,
        "pause" : true
      },
      "window" : {
        "start" : [ 9, 0 ],
        "end" : [ 9, 0 ]
      }
    }, {
      "job" : {
        "id" : 10,
        "desc" : "ELECTRICIAN, GLAZING",
        "location" : {
          "id" : 5031,
          "name" : null,
          "latitude" : 43.77075,
          "longitude" : 3.9483917
        },
        "openings" : {
          "start" : [ 12, 38 ],
          "end" : [ 17, 18 ]
        },
        "preferredSlots" : null,
        "doAfter" : null,
        "nbEmpRequired" : 1,
        "deadline" : [ 15, 32 ],
        "skills" : [ {
          "id" : 2,
          "name" : "ELECTRICIAN",
          "level" : 3
        }, {
          "id" : 5,
          "name" : "GLAZING",
          "level" : 5
        } ],
        "duration" : 7200.000000000,
        "pause" : false
      },
      "window" : {
        "start" : [ 9, 18 ],
        "end" : [ 11, 18 ]
      }
    }, {
      "job" : {
        "id" : -1,
        "desc" : "Pause",
        "location" : {
          "id" : 5031,
          "name" : null,
          "latitude" : 43.77075,
          "longitude" : 3.9483917
        },
        "openings" : {
          "start" : [ 12, 38 ],
          "end" : [ 17, 18 ]
        },
        "preferredSlots" : null,
        "doAfter" : null,
        "nbEmpRequired" : 1,
        "deadline" : [ 15, 32 ],
        "skills" : [ {
          "id" : 2,
          "name" : "ELECTRICIAN",
          "level" : 3
        }, {
          "id" : 5,
          "name" : "GLAZING",
          "level" : 5
        } ],
        "duration" : 7200.000000000,
        "pause" : true
      },
      "window" : {
        "start" : [ 11, 19 ],
        "end" : [ 13, 0 ]
      }
    }, {
      "job" : {
        "id" : 193,
        "desc" : "IRONWORK, PLUMBING",
        "location" : {
          "id" : 105,
          "name" : null,
          "latitude" : 43.602917,
          "longitude" : 3.9000144
        },
        "openings" : {
          "start" : [ 14, 23 ],
          "end" : [ 15, 25 ]
        },
        "preferredSlots" : null,
        "doAfter" : null,
        "nbEmpRequired" : 1,
        "deadline" : [ 14, 50 ],
        "skills" : [ {
          "id" : 8,
          "name" : "IRONWORK",
          "level" : 2
        }, {
          "id" : 3,
          "name" : "PLUMBING",
          "level" : 3
        } ],
        "duration" : 7200.000000000,
        "pause" : false
      },
      "window" : {
        "start" : [ 13, 20 ],
        "end" : [ 15, 20 ]
      }
    }, {
      "job" : {
        "id" : 826,
        "desc" : "MANAGEMENT",
        "location" : {
          "id" : 3530,
          "name" : null,
          "latitude" : 44.003777,
          "longitude" : 4.282821
        },
        "openings" : {
          "start" : [ 9, 5 ],
          "end" : [ 13, 40 ]
        },
        "preferredSlots" : null,
        "doAfter" : null,
        "nbEmpRequired" : 1,
        "deadline" : [ 10, 23 ],
        "skills" : [ {
          "id" : 0,
          "name" : "MANAGEMENT",
          "level" : 5
        } ],
        "duration" : 1800.000000000,
        "pause" : false
      },
      "window" : {
        "start" : [ 16, 15 ],
        "end" : [ 16, 45 ]
      }
    } ],
    "driving" : 5580.000000000,
    "valid" : true
  }, {
    "emp" : {
      "id" : 210,
      "name" : "210",
      "shifts" : [ {
        "start" : [ 9, 0 ],
        "end" : [ 12, 0 ]
      }, {
        "start" : [ 13, 0 ],
        "end" : [ 17, 0 ]
      } ],
      "prefSlots" : null,
      "startingLoc" : {
        "id" : 4944,
        "name" : null,
        "latitude" : 43.804356,
        "longitude" : 3.7964458
      },
      "skills" : [ {
        "id" : 2,
        "name" : "ELECTRICIAN",
        "level" : 4
      }, {
        "id" : 6,
        "name" : "CARPENTRY",
        "level" : 1
      }, {
        "id" : 0,
        "name" : "MANAGEMENT",
        "level" : 1
      }, {
        "id" : 0,
        "name" : "MANAGEMENT",
        "level" : 4
      }, {
        "id" : 2,
        "name" : "ELECTRICIAN",
        "level" : 9
      } ]
    },
    "planning" : [ {
      "job" : {
        "id" : -1,
        "desc" : "Home",
        "location" : {
          "id" : 4944,
          "name" : null,
          "latitude" : 43.804356,
          "longitude" : 3.7964458
        },
        "openings" : null,
        "preferredSlots" : null,
        "doAfter" : null,
        "nbEmpRequired" : 1,
        "deadline" : null,
        "skills" : [ ],
        "duration" : null,
        "pause" : true
      },
      "window" : {
        "start" : [ 9, 0 ],
        "end" : [ 9, 0 ]
      }
    }, {
      "job" : {
        "id" : 534,
        "desc" : "MANAGEMENT",
        "location" : {
          "id" : 6883,
          "name" : null,
          "latitude" : 43.65067,
          "longitude" : 4.105708
        },
        "openings" : {
          "start" : [ 12, 35 ],
          "end" : [ 15, 16 ]
        },
        "preferredSlots" : null,
        "doAfter" : null,
        "nbEmpRequired" : 1,
        "deadline" : [ 16, 2 ],
        "skills" : [ {
          "id" : 0,
          "name" : "MANAGEMENT",
          "level" : 3
        } ],
        "duration" : 2700.000000000,
        "pause" : false
      },
      "window" : {
        "start" : [ 9, 31 ],
        "end" : [ 10, 16 ]
      }
    }, {
      "job" : {
        "id" : -1,
        "desc" : "Pause",
        "location" : {
          "id" : 6883,
          "name" : null,
          "latitude" : 43.65067,
          "longitude" : 4.105708
        },
        "openings" : {
          "start" : [ 12, 35 ],
          "end" : [ 15, 16 ]
        },
        "preferredSlots" : null,
        "doAfter" : null,
        "nbEmpRequired" : 1,
        "deadline" : [ 16, 2 ],
        "skills" : [ {
          "id" : 0,
          "name" : "MANAGEMENT",
          "level" : 3
        } ],
        "duration" : 2700.000000000,
        "pause" : true
      },
      "window" : {
        "start" : [ 10, 17 ],
        "end" : [ 13, 0 ]
      }
    } ],
    "driving" : 1860.000000000,
    "valid" : true
  }, {
    "emp" : {
      "id" : 86,
      "name" : "86",
      "shifts" : [ {
        "start" : [ 9, 0 ],
        "end" : [ 12, 0 ]
      }, {
        "start" : [ 13, 0 ],
        "end" : [ 17, 0 ]
      } ],
      "prefSlots" : null,
      "startingLoc" : {
        "id" : 7005,
        "name" : null,
        "latitude" : 43.79983,
        "longitude" : 4.074568
      },
      "skills" : [ {
        "id" : 1,
        "name" : "ENGINEER",
        "level" : 10
      }, {
        "id" : 1,
        "name" : "ENGINEER",
        "level" : 10
      }, {
        "id" : 1,
        "name" : "ENGINEER",
        "level" : 3
      }, {
        "id" : 2,
        "name" : "ELECTRICIAN",
        "level" : 9
      }, {
        "id" : 9,
        "name" : "TILER",
        "level" : 2
      }, {
        "id" : 4,
        "name" : "MASONRY",
        "level" : 5
      }, {
        "id" : 7,
        "name" : "PAINTING",
        "level" : 2
      } ]
    },
    "planning" : [ {
      "job" : {
        "id" : -1,
        "desc" : "Home",
        "location" : {
          "id" : 7005,
          "name" : null,
          "latitude" : 43.79983,
          "longitude" : 4.074568
        },
        "openings" : null,
        "preferredSlots" : null,
        "doAfter" : null,
        "nbEmpRequired" : 1,
        "deadline" : null,
        "skills" : [ ],
        "duration" : null,
        "pause" : true
      },
      "window" : {
        "start" : [ 9, 0 ],
        "end" : [ 9, 0 ]
      }
    }, {
      "job" : {
        "id" : 895,
        "desc" : "ELECTRICIAN, ENGINEER",
        "location" : {
          "id" : 5069,
          "name" : null,
          "latitude" : 43.72854,
          "longitude" : 3.7444293
        },
        "openings" : {
          "start" : [ 9, 16 ],
          "end" : [ 11, 1 ]
        },
        "preferredSlots" : null,
        "doAfter" : null,
        "nbEmpRequired" : 1,
        "deadline" : [ 16, 44 ],
        "skills" : [ {
          "id" : 2,
          "name" : "ELECTRICIAN",
          "level" : 5
        }, {
          "id" : 1,
          "name" : "ENGINEER",
          "level" : 5
        } ],
        "duration" : 5400.000000000,
        "pause" : false
      },
      "window" : {
        "start" : [ 9, 28 ],
        "end" : [ 10, 58 ]
      }
    }, {
      "job" : {
        "id" : -1,
        "desc" : "Pause",
        "location" : {
          "id" : 5069,
          "name" : null,
          "latitude" : 43.72854,
          "longitude" : 3.7444293
        },
        "openings" : {
          "start" : [ 9, 16 ],
          "end" : [ 11, 1 ]
        },
        "preferredSlots" : null,
        "doAfter" : null,
        "nbEmpRequired" : 1,
        "deadline" : [ 16, 44 ],
        "skills" : [ {
          "id" : 2,
          "name" : "ELECTRICIAN",
          "level" : 5
        }, {
          "id" : 1,
          "name" : "ENGINEER",
          "level" : 5
        } ],
        "duration" : 5400.000000000,
        "pause" : true
      },
      "window" : {
        "start" : [ 10, 59 ],
        "end" : [ 13, 0 ]
      }
    }, {
      "job" : {
        "id" : 769,
        "desc" : "TILER, MASONRY",
        "location" : {
          "id" : 1577,
          "name" : null,
          "latitude" : 43.617195,
          "longitude" : 3.787822
        },
        "openings" : {
          "start" : [ 12, 45 ],
          "end" : [ 13, 6 ]
        },
        "preferredSlots" : null,
        "doAfter" : null,
        "nbEmpRequired" : 1,
        "deadline" : [ 12, 11 ],
        "skills" : [ {
          "id" : 9,
          "name" : "TILER",
          "level" : 1
        }, {
          "id" : 4,
          "name" : "MASONRY",
          "level" : 3
        } ],
        "duration" : 3600.000000000,
        "pause" : false
      },
      "window" : {
        "start" : [ 13, 13 ],
        "end" : [ 14, 13 ]
      }
    } ],
    "driving" : 2460.000000000,
    "valid" : true
  } ],
  "unassigned" : [ {
    "id" : 942,
    "desc" : "TILER, PLUMBING",
    "location" : {
      "id" : 8251,
      "name" : null,
      "latitude" : 43.616055,
      "longitude" : 4.183384
    },
    "openings" : {
      "start" : [ 13, 37 ],
      "end" : [ 15, 0 ]
    },
    "preferredSlots" : null,
    "doAfter" : null,
    "nbEmpRequired" : 1,
    "deadline" : [ 16, 13 ],
    "skills" : [ {
      "id" : 9,
      "name" : "TILER",
      "level" : 5
    }, {
      "id" : 3,
      "name" : "PLUMBING",
      "level" : 4
    } ],
    "duration" : 2700.000000000,
    "pause" : false
  }, {
    "id" : 738,
    "desc" : "TILER, IRONWORK",
    "location" : {
      "id" : 4614,
      "name" : null,
      "latitude" : 43.4074,
      "longitude" : 4.2804956
    },
    "openings" : {
      "start" : [ 14, 53 ],
      "end" : [ 16, 38 ]
    },
    "preferredSlots" : null,
    "doAfter" : null,
    "nbEmpRequired" : 1,
    "deadline" : [ 15, 7 ],
    "skills" : [ {
      "id" : 9,
      "name" : "TILER",
      "level" : 5
    }, {
      "id" : 8,
      "name" : "IRONWORK",
      "level" : 3
    } ],
    "duration" : 3600.000000000,
    "pause" : false
  }, {
    "id" : 450,
    "desc" : "PLUMBING, CARPENTRY",
    "location" : {
      "id" : 1330,
      "name" : null,
      "latitude" : 43.796043,
      "longitude" : 4.225058
    },
    "openings" : {
      "start" : [ 13, 36 ],
      "end" : [ 13, 39 ]
    },
    "preferredSlots" : null,
    "doAfter" : null,
    "nbEmpRequired" : 1,
    "deadline" : [ 16, 2 ],
    "skills" : [ {
      "id" : 3,
      "name" : "PLUMBING",
      "level" : 3
    }, {
      "id" : 6,
      "name" : "CARPENTRY",
      "level" : 4
    } ],
    "duration" : 2700.000000000,
    "pause" : false
  }, {
    "id" : 987,
    "desc" : "ENGINEER, PLUMBING",
    "location" : {
      "id" : 4809,
      "name" : null,
      "latitude" : 43.560455,
      "longitude" : 4.162675
    },
    "openings" : {
      "start" : [ 12, 4 ],
      "end" : [ 12, 12 ]
    },
    "preferredSlots" : null,
    "doAfter" : null,
    "nbEmpRequired" : 1,
    "deadline" : [ 11, 51 ],
    "skills" : [ {
      "id" : 1,
      "name" : "ENGINEER",
      "level" : 4
    }, {
      "id" : 3,
      "name" : "PLUMBING",
      "level" : 2
    } ],
    "duration" : 7200.000000000,
    "pause" : false
  }, {
    "id" : 49,
    "desc" : "PLUMBING, ENGINEER",
    "location" : {
      "id" : 7397,
      "name" : null,
      "latitude" : 43.670967,
      "longitude" : 4.295105
    },
    "openings" : {
      "start" : [ 16, 40 ],
      "end" : [ 17, 19 ]
    },
    "preferredSlots" : null,
    "doAfter" : null,
    "nbEmpRequired" : 1,
    "deadline" : [ 12, 17 ],
    "skills" : [ {
      "id" : 3,
      "name" : "PLUMBING",
      "level" : 3
    }, {
      "id" : 1,
      "name" : "ENGINEER",
      "level" : 3
    } ],
    "duration" : 7200.000000000,
    "pause" : false
  }, {
    "id" : 339,
    "desc" : "ENGINEER, TILER",
    "location" : {
      "id" : 4752,
      "name" : null,
      "latitude" : 44.002464,
      "longitude" : 3.771914
    },
    "openings" : {
      "start" : [ 11, 31 ],
      "end" : [ 17, 33 ]
    },
    "preferredSlots" : null,
    "doAfter" : null,
    "nbEmpRequired" : 1,
    "deadline" : [ 10, 27 ],
    "skills" : [ {
      "id" : 1,
      "name" : "ENGINEER",
      "level" : 1
    }, {
      "id" : 9,
      "name" : "TILER",
      "level" : 5
    } ],
    "duration" : 3600.000000000,
    "pause" : false
  }, {
    "id" : 512,
    "desc" : "GLAZING, ENGINEER",
    "location" : {
      "id" : 6742,
      "name" : null,
      "latitude" : 43.753563,
      "longitude" : 4.0455766
    },
    "openings" : {
      "start" : [ 11, 57 ],
      "end" : [ 16, 45 ]
    },
    "preferredSlots" : null,
    "doAfter" : null,
    "nbEmpRequired" : 1,
    "deadline" : [ 13, 33 ],
    "skills" : [ {
      "id" : 5,
      "name" : "GLAZING",
      "level" : 1
    }, {
      "id" : 1,
      "name" : "ENGINEER",
      "level" : 4
    } ],
    "duration" : 2700.000000000,
    "pause" : false
  }, {
    "id" : 631,
    "desc" : "PLUMBING",
    "location" : {
      "id" : 4129,
      "name" : null,
      "latitude" : 44.008904,
      "longitude" : 3.8298328
    },
    "openings" : {
      "start" : [ 10, 12 ],
      "end" : [ 11, 2 ]
    },
    "preferredSlots" : null,
    "doAfter" : null,
    "nbEmpRequired" : 1,
    "deadline" : [ 11, 9 ],
    "skills" : [ {
      "id" : 3,
      "name" : "PLUMBING",
      "level" : 5
    } ],
    "duration" : 3600.000000000,
    "pause" : false
  }, {
    "id" : 166,
    "desc" : "TILER",
    "location" : {
      "id" : 8786,
      "name" : null,
      "latitude" : 43.97531,
      "longitude" : 3.7908115
    },
    "openings" : {
      "start" : [ 9, 34 ],
      "end" : [ 16, 15 ]
    },
    "preferredSlots" : null,
    "doAfter" : null,
    "nbEmpRequired" : 1,
    "deadline" : [ 11, 20 ],
    "skills" : [ {
      "id" : 9,
      "name" : "TILER",
      "level" : 5
    } ],
    "duration" : 3600.000000000,
    "pause" : false
  }, {
    "id" : 507,
    "desc" : "TILER",
    "location" : {
      "id" : 5266,
      "name" : null,
      "latitude" : 43.50687,
      "longitude" : 3.7977357
    },
    "openings" : {
      "start" : [ 11, 29 ],
      "end" : [ 17, 18 ]
    },
    "preferredSlots" : null,
    "doAfter" : null,
    "nbEmpRequired" : 1,
    "deadline" : [ 15, 30 ],
    "skills" : [ {
      "id" : 9,
      "name" : "TILER",
      "level" : 3
    } ],
    "duration" : 2700.000000000,
    "pause" : false
  }, {
    "id" : 522,
    "desc" : "PLUMBING",
    "location" : {
      "id" : 5537,
      "name" : null,
      "latitude" : 43.442406,
      "longitude" : 3.8071556
    },
    "openings" : {
      "start" : [ 9, 28 ],
      "end" : [ 17, 47 ]
    },
    "preferredSlots" : null,
    "doAfter" : null,
    "nbEmpRequired" : 1,
    "deadline" : [ 16, 53 ],
    "skills" : [ {
      "id" : 3,
      "name" : "PLUMBING",
      "level" : 3
    } ],
    "duration" : 3600.000000000,
    "pause" : false
  } ],
  "valid" : true
}