{
  "listEdt" : [ {
    "emp" : {
      "id" : 165,
      "name" : "165",
      "shifts" : [ {
        "start" : [ 9, 0 ],
        "end" : [ 12, 0 ]
      }, {
        "start" : [ 13, 0 ],
        "end" : [ 17, 0 ]
      } ],
      "prefSlots" : null,
      "startingLoc" : {
        "id" : 4420,
        "name" : null,
        "latitude" : 43.80181,
        "longitude" : 4.156397
      },
      "skills" : [ {
        "id" : 3,
        "name" : "PLUMBING",
        "level" : 10
      }, {
        "id" : 4,
        "name" : "MASONRY",
        "level" : 4
      }, {
        "id" : 8,
        "name" : "IRONWORK",
        "level" : 3
      }, {
        "id" : 4,
        "name" : "MASONRY",
        "level" : 6
      } ]
    },
    "planning" : [ {
      "job" : {
        "id" : -1,
        "desc" : "Home",
        "location" : {
          "id" : 4420,
          "name" : null,
          "latitude" : 43.80181,
          "longitude" : 4.156397
        },
        "openings" : null,
        "preferredSlots" : null,
        "doAfter" : null,
        "nbEmpRequired" : 1,
        "deadline" : null,
        "skills" : [ ],
        "duration" : null,
        "pause" : true
      },
      "window" : {
        "start" : [ 9, 0 ],
        "end" : [ 9, 0 ]
      }
    }, {
      "job" : {
        "id" : 901,
        "desc" : "MASONRY, IRONWORK",
        "location" : {
          "id" : 1229,
          "name" : null,
          "latitude" : 43.7494,
          "longitude" : 4.248482
        },
        "openings" : {
          "start" : [ 9, 6 ],
          "end" : [ 11, 26 ]
        },
        "preferredSlots" : null,
        "doAfter" : null,
        "nbEmpRequired" : 1,
        "deadline" : [ 9, 25 ],
        "skills" : [ {
          "id" : 4,
          "name" : "MASONRY",
          "level" : 5
        }, {
          "id" : 8,
          "name" : "IRONWORK",
          "level" : 3
        } ],
        "duration" : 1800.000000000,
        "pause" : false
      },
      "window" : {
        "start" : [ 9, 10 ],
        "end" : [ 9, 40 ]
      }
    }, {
      "job" : {
        "id" : 956,
        "desc" : "PLUMBING, MASONRY",
        "location" : {
          "id" : 7257,
          "name" : null,
          "latitude" : 44.027832,
          "longitude" : 4.1538806
        },
        "openings" : {
          "start" : [ 10, 58 ],
          "end" : [ 17, 33 ]
        },
        "preferredSlots" : null,
        "doAfter" : null,
        "nbEmpRequired" : 1,
        "deadline" : [ 10, 44 ],
        "skills" : [ {
          "id" : 3,
          "name" : "PLUMBING",
          "level" : 3
        }, {
          "id" : 4,
          "name" : "MASONRY",
          "level" : 5
        } ],
        "duration" : 3600.000000000,
        "pause" : false
      },
      "window" : {
        "start" : [ 10, 12 ],
        "end" : [ 11, 12 ]
      }
    }, {
      "job" : {
        "id" : -1,
        "desc" : "Pause",
        "location" : {
          "id" : 7257,
          "name" : null,
          "latitude" : 44.027832,
          "longitude" : 4.1538806
        },
        "openings" : {
          "start" : [ 10, 58 ],
          "end" : [ 17, 33 ]
        },
        "preferredSlots" : null,
        "doAfter" : null,
        "nbEmpRequired" : 1,
        "deadline" : [ 10, 44 ],
        "skills" : [ {
          "id" : 3,
          "name" : "PLUMBING",
          "level" : 3
        }, {
          "id" : 4,
          "name" : "MASONRY",
          "level" : 5
        } ],
        "duration" : 3600.000000000,
        "pause" : true
      },
      "window" : {
        "start" : [ 11, 13 ],
        "end" : [ 13, 0 ]
      }
    }, {
      "job" : {
        "id" : 731,
        "desc" : "MASONRY, IRONWORK",
        "location" : {
          "id" : 7176,
          "name" : null,
          "latitude" : 43.483627,
          "longitude" : 4.0896235
        },
        "openings" : {
          "start" : [ 13, 10 ],
          "end" : [ 14, 10 ]
        },
        "preferredSlots" : null,
        "doAfter" : null,
        "nbEmpRequired" : 1,
        "deadline" : [ 12, 25 ],
        "skills" : [ {
          "id" : 4,
          "name" : "MASONRY",
          "level" : 4
        }, {
          "id" : 8,
          "name" : "IRONWORK",
          "level" : 2
        } ],
        "duration" : 5400.000000000,
        "pause" : false
      },
      "window" : {
        "start" : [ 14, 1 ],
        "end" : [ 15, 31 ]
      }
    }, {
      "job" : {
        "id" : 850,
        "desc" : "PLUMBING",
        "location" : {
          "id" : 6220,
          "name" : null,
          "latitude" : 43.586525,
          "longitude" : 3.911436
        },
        "openings" : {
          "start" : [ 12, 21 ],
          "end" : [ 16, 36 ]
        },
        "preferredSlots" : null,
        "doAfter" : null,
        "nbEmpRequired" : 1,
        "deadline" : [ 13, 42 ],
        "skills" : [ {
          "id" : 3,
          "name" : "PLUMBING",
          "level" : 2
        } ],
        "duration" : 2700.000000000,
        "pause" : false
      },
      "window" : {
        "start" : [ 15, 50 ],
        "end" : [ 16, 35 ]
      }
    } ],
    "driving" : 7320.000000000,
    "valid" : true
  }, {
    "emp" : {
      "id" : 299,
      "name" : "299",
      "shifts" : [ {
        "start" : [ 9, 0 ],
        "end" : [ 12, 0 ]
      }, {
        "start" : [ 13, 0 ],
        "end" : [ 17, 0 ]
      } ],
      "prefSlots" : null,
      "startingLoc" : {
        "id" : 7997,
        "name" : null,
        "latitude" : 44.094315,
        "longitude" : 3.895068
      },
      "skills" : [ {
        "id" : 8,
        "name" : "IRONWORK",
        "level" : 9
      } ]
    },
    "planning" : [ {
      "job" : {
        "id" : -1,
        "desc" : "Home",
        "location" : {
          "id" : 7997,
          "name" : null,
          "latitude" : 44.094315,
          "longitude" : 3.895068
        },
        "openings" : null,
        "preferredSlots" : null,
        "doAfter" : null,
        "nbEmpRequired" : 1,
        "deadline" : null,
        "skills" : [ ],
        "duration" : null,
        "pause" : true
      },
      "window" : {
        "start" : [ 9, 0 ],
        "end" : [ 9, 0 ]
      }
    }, {
      "job" : {
        "id" : 275,
        "desc" : "IRONWORK",
        "location" : {
          "id" : 3916,
          "name" : null,
          "latitude" : 43.417473,
          "longitude" : 3.773677
        },
        "openings" : {
          "start" : [ 13, 15 ],
          "end" : [ 14, 7 ]
        },
        "preferredSlots" : null,
        "doAfter" : null,
        "nbEmpRequired" : 1,
        "deadline" : [ 16, 32 ],
        "skills" : [ {
          "id" : 8,
          "name" : "IRONWORK",
          "level" : 2
        } ],
        "duration" : 3600.000000000,
        "pause" : false
      },
      "window" : {
        "start" : [ 10, 16 ],
        "end" : [ 11, 16 ]
      }
    }, {
      "job" : {
        "id" : -1,
        "desc" : "Pause",
        "location" : {
          "id" : 3916,
          "name" : null,
          "latitude" : 43.417473,
          "longitude" : 3.773677
        },
        "openings" : {
          "start" : [ 13, 15 ],
          "end" : [ 14, 7 ]
        },
        "preferredSlots" : null,
        "doAfter" : null,
        "nbEmpRequired" : 1,
        "deadline" : [ 16, 32 ],
        "skills" : [ {
          "id" : 8,
          "name" : "IRONWORK",
          "level" : 2
        } ],
        "duration" : 3600.000000000,
        "pause" : true
      },
      "window" : {
        "start" : [ 11, 17 ],
        "end" : [ 13, 0 ]
      }
    } ],
    "driving" : 4560.000000000,
    "valid" : true
  }, {
    "emp" : {
      "id" : 984,
      "name" : "984",
      "shifts" : [ {
        "start" : [ 9, 0 ],
        "end" : [ 12, 0 ]
      }, {
        "start" : [ 13, 0 ],
        "end" : [ 17, 0 ]
      } ],
      "prefSlots" : null,
      "startingLoc" : {
        "id" : 7088,
        "name" : null,
        "latitude" : 43.61136,
        "longitude" : 4.2012544
      },
      "skills" : [ {
        "id" : 8,
        "name" : "IRONWORK",
        "level" : 5
      }, {
        "id" : 0,
        "name" : "MANAGEMENT",
        "level" : 3
      }, {
        "id" : 9,
        "name" : "TILER",
        "level" : 4
      }, {
        "id" : 5,
        "name" : "GLAZING",
        "level" : 10
      } ]
    },
    "planning" : [ {
      "job" : {
        "id" : -1,
        "desc" : "Home",
        "location" : {
          "id" : 7088,
          "name" : null,
          "latitude" : 43.61136,
          "longitude" : 4.2012544
        },
        "openings" : null,
        "preferredSlots" : null,
        "doAfter" : null,
        "nbEmpRequired" : 1,
        "deadline" : null,
        "skills" : [ ],
        "duration" : null,
        "pause" : true
      },
      "window" : {
        "start" : [ 9, 0 ],
        "end" : [ 9, 0 ]
      }
    }, {
      "job" : {
        "id" : 781,
        "desc" : "TILER, GLAZING",
        "location" : {
          "id" : 6694,
          "name" : null,
          "latitude" : 43.58822,
          "longitude" : 3.9184468
        },
        "openings" : {
          "start" : [ 9, 0 ],
          "end" : [ 9, 19 ]
        },
        "preferredSlots" : null,
        "doAfter" : null,
        "nbEmpRequired" : 1,
        "deadline" : [ 9, 38 ],
        "skills" : [ {
          "id" : 9,
          "name" : "TILER",
          "level" : 3
        }, {
          "id" : 5,
          "name" : "GLAZING",
          "level" : 4
        } ],
        "duration" : 1800.000000000,
        "pause" : false
      },
      "window" : {
        "start" : [ 9, 23 ],
        "end" : [ 9, 53 ]
      }
    }, {
      "job" : {
        "id" : 167,
        "desc" : "IRONWORK, TILER",
        "location" : {
          "id" : 2996,
          "name" : null,
          "latitude" : 43.454674,
          "longitude" : 4.291272
        },
        "openings" : {
          "start" : [ 11, 55 ],
          "end" : [ 12, 7 ]
        },
        "preferredSlots" : null,
        "doAfter" : null,
        "nbEmpRequired" : 1,
        "deadline" : [ 16, 43 ],
        "skills" : [ {
          "id" : 8,
          "name" : "IRONWORK",
          "level" : 4
        }, {
          "id" : 9,
          "name" : "TILER",
          "level" : 3
        } ],
        "duration" : 3600.000000000,
        "pause" : false
      },
      "window" : {
        "start" : [ 10, 27 ],
        "end" : [ 11, 27 ]
      }
    }, {
      "job" : {
        "id" : -1,
        "desc" : "Pause",
        "location" : {
          "id" : 2996,
          "name" : null,
          "latitude" : 43.454674,
          "longitude" : 4.291272
        },
        "openings" : {
          "start" : [ 11, 55 ],
          "end" : [ 12, 7 ]
        },
        "preferredSlots" : null,
        "doAfter" : null,
        "nbEmpRequired" : 1,
        "deadline" : [ 16, 43 ],
        "skills" : [ {
          "id" : 8,
          "name" : "IRONWORK",
          "level" : 4
        }, {
          "id" : 9,
          "name" : "TILER",
          "level" : 3
        } ],
        "duration" : 3600.000000000,
        "pause" : true
      },
      "window" : {
        "start" : [ 11, 28 ],
        "end" : [ 13, 0 ]
      }
    }, {
      "job" : {
        "id" : 883,
        "desc" : "IRONWORK, MANAGEMENT",
        "location" : {
          "id" : 5078,
          "name" : null,
          "latitude" : 43.871666,
          "longitude" : 4.00802
        },
        "openings" : {
          "start" : [ 9, 1 ],
          "end" : [ 13, 8 ]
        },
        "preferredSlots" : null,
        "doAfter" : null,
        "nbEmpRequired" : 1,
        "deadline" : [ 9, 34 ],
        "skills" : [ {
          "id" : 8,
          "name" : "IRONWORK",
          "level" : 2
        }, {
          "id" : 0,
          "name" : "MANAGEMENT",
          "level" : 3
        } ],
        "duration" : 2700.000000000,
        "pause" : false
      },
      "window" : {
        "start" : [ 13, 52 ],
        "end" : [ 14, 37 ]
      }
    }, {
      "job" : {
        "id" : 606,
        "desc" : "GLAZING, TILER",
        "location" : {
          "id" : 9849,
          "name" : null,
          "latitude" : 43.67234,
          "longitude" : 4.128223
        },
        "openings" : {
          "start" : [ 12, 45 ],
          "end" : [ 15, 57 ]
        },
        "preferredSlots" : null,
        "doAfter" : null,
        "nbEmpRequired" : 1,
        "deadline" : [ 11, 8 ],
        "skills" : [ {
          "id" : 5,
          "name" : "GLAZING",
          "level" : 1
        }, {
          "id" : 9,
          "name" : "TILER",
          "level" : 4
        } ],
        "duration" : 3600.000000000,
        "pause" : false
      },
      "window" : {
        "start" : [ 15, 2 ],
        "end" : [ 16, 2 ]
      }
    }, {
      "job" : {
        "id" : 320,
        "desc" : "GLAZING",
        "location" : {
          "id" : 2638,
          "name" : null,
          "latitude" : 43.72452,
          "longitude" : 4.0671744
        },
        "openings" : {
          "start" : [ 12, 37 ],
          "end" : [ 16, 7 ]
        },
        "preferredSlots" : null,
        "doAfter" : null,
        "nbEmpRequired" : 1,
        "deadline" : [ 9, 18 ],
        "skills" : [ {
          "id" : 5,
          "name" : "GLAZING",
          "level" : 5
        } ],
        "duration" : 2700.000000000,
        "pause" : false
      },
      "window" : {
        "start" : [ 16, 10 ],
        "end" : [ 16, 55 ]
      }
    } ],
    "driving" : 8520.000000000,
    "valid" : true
  }, {
    "emp" : {
      "id" : 877,
      "name" : "877",
      "shifts" : [ {
        "start" : [ 9, 0 ],
        "end" : [ 12, 0 ]
      }, {
        "start" : [ 13, 0 ],
        "end" : [ 17, 0 ]
      } ],
      "prefSlots" : null,
      "startingLoc" : {
        "id" : 5725,
        "name" : null,
        "latitude" : 43.74464,
        "longitude" : 3.831536
      },
      "skills" : [ {
        "id" : 3,
        "name" : "PLUMBING",
        "level" : 5
      }, {
        "id" : 7,
        "name" : "PAINTING",
        "level" : 4
      }, {
        "id" : 1,
        "name" : "ENGINEER",
        "level" : 9
      } ]
    },
    "planning" : [ {
      "job" : {
        "id" : -1,
        "desc" : "Home",
        "location" : {
          "id" : 5725,
          "name" : null,
          "latitude" : 43.74464,
          "longitude" : 3.831536
        },
        "openings" : null,
        "preferredSlots" : null,
        "doAfter" : null,
        "nbEmpRequired" : 1,
        "deadline" : null,
        "skills" : [ ],
        "duration" : null,
        "pause" : true
      },
      "window" : {
        "start" : [ 9, 0 ],
        "end" : [ 9, 0 ]
      }
    }, {
      "job" : {
        "id" : 966,
        "desc" : "PAINTING, PLUMBING",
        "location" : {
          "id" : 7308,
          "name" : null,
          "latitude" : 43.95482,
          "longitude" : 3.752407
        },
        "openings" : {
          "start" : [ 15, 9 ],
          "end" : [ 15, 26 ]
        },
        "preferredSlots" : null,
        "doAfter" : null,
        "nbEmpRequired" : 1,
        "deadline" : [ 15, 15 ],
        "skills" : [ {
          "id" : 7,
          "name" : "PAINTING",
          "level" : 2
        }, {
          "id" : 3,
          "name" : "PLUMBING",
          "level" : 2
        } ],
        "duration" : 3600.000000000,
        "pause" : false
      },
      "window" : {
        "start" : [ 9, 25 ],
        "end" : [ 10, 25 ]
      }
    }, {
      "job" : {
        "id" : 644,
        "desc" : "PAINTING, ENGINEER",
        "location" : {
          "id" : 9685,
          "name" : null,
          "latitude" : 44.007812,
          "longitude" : 4.0799713
        },
        "openings" : {
          "start" : [ 12, 52 ],
          "end" : [ 14, 32 ]
        },
        "preferredSlots" : null,
        "doAfter" : null,
        "nbEmpRequired" : 1,
        "deadline" : [ 11, 10 ],
        "skills" : [ {
          "id" : 7,
          "name" : "PAINTING",
          "level" : 1
        }, {
          "id" : 1,
          "name" : "ENGINEER",
          "level" : 1
        } ],
        "duration" : 2700.000000000,
        "pause" : false
      },
      "window" : {
        "start" : [ 10, 52 ],
        "end" : [ 11, 37 ]
      }
    }, {
      "job" : {
        "id" : -1,
        "desc" : "Pause",
        "location" : {
          "id" : 9685,
          "name" : null,
          "latitude" : 44.007812,
          "longitude" : 4.0799713
        },
        "openings" : {
          "start" : [ 12, 52 ],
          "end" : [ 14, 32 ]
        },
        "preferredSlots" : null,
        "doAfter" : null,
        "nbEmpRequired" : 1,
        "deadline" : [ 11, 10 ],
        "skills" : [ {
          "id" : 7,
          "name" : "PAINTING",
          "level" : 1
        }, {
          "id" : 1,
          "name" : "ENGINEER",
          "level" : 1
        } ],
        "duration" : 2700.000000000,
        "pause" : true
      },
      "window" : {
        "start" : [ 11, 38 ],
        "end" : [ 13, 0 ]
      }
    }, {
      "job" : {
        "id" : 844,
        "desc" : "ENGINEER",
        "location" : {
          "id" : 1102,
          "name" : null,
          "latitude" : 43.51981,
          "longitude" : 3.733583
        },
        "openings" : {
          "start" : [ 12, 9 ],
          "end" : [ 14, 58 ]
        },
        "preferredSlots" : null,
        "doAfter" : null,
        "nbEmpRequired" : 1,
        "deadline" : [ 10, 31 ],
        "skills" : [ {
          "id" : 1,
          "name" : "ENGINEER",
          "level" : 5
        } ],
        "duration" : 7200.000000000,
        "pause" : false
      },
      "window" : {
        "start" : [ 14, 1 ],
        "end" : [ 16, 1 ]
      }
    }, {
      "job" : {
        "id" : 183,
        "desc" : "PLUMBING",
        "location" : {
          "id" : 1070,
          "name" : null,
          "latitude" : 43.50667,
          "longitude" : 3.752728
        },
        "openings" : {
          "start" : [ 14, 43 ],
          "end" : [ 14, 53 ]
        },
        "preferredSlots" : null,
        "doAfter" : null,
        "nbEmpRequired" : 1,
        "deadline" : [ 10, 30 ],
        "skills" : [ {
          "id" : 3,
          "name" : "PLUMBING",
          "level" : 2
        } ],
        "duration" : 2700.000000000,
        "pause" : false
      },
      "window" : {
        "start" : [ 16, 4 ],
        "end" : [ 16, 49 ]
      }
    } ],
    "driving" : 6960.000000000,
    "valid" : true
  }, {
    "emp" : {
      "id" : 180,
      "name" : "180",
      "shifts" : [ {
        "start" : [ 9, 0 ],
        "end" : [ 12, 0 ]
      }, {
        "start" : [ 13, 0 ],
        "end" : [ 17, 0 ]
      } ],
      "prefSlots" : null,
      "startingLoc" : {
        "id" : 424,
        "name" : null,
        "latitude" : 43.851772,
        "longitude" : 3.814653
      },
      "skills" : [ {
        "id" : 7,
        "name" : "PAINTING",
        "level" : 3
      }, {
        "id" : 0,
        "name" : "MANAGEMENT",
        "level" : 6
      }, {
        "id" : 4,
        "name" : "MASONRY",
        "level" : 3
      }, {
        "id" : 9,
        "name" : "TILER",
        "level" : 1
      } ]
    },
    "planning" : [ {
      "job" : {
        "id" : -1,
        "desc" : "Home",
        "location" : {
          "id" : 424,
          "name" : null,
          "latitude" : 43.851772,
          "longitude" : 3.814653
        },
        "openings" : null,
        "preferredSlots" : null,
        "doAfter" : null,
        "nbEmpRequired" : 1,
        "deadline" : null,
        "skills" : [ ],
        "duration" : null,
        "pause" : true
      },
      "window" : {
        "start" : [ 9, 0 ],
        "end" : [ 9, 0 ]
      }
    }, {
      "job" : {
        "id" : 499,
        "desc" : "MANAGEMENT, MASONRY",
        "location" : {
          "id" : 362,
          "name" : null,
          "latitude" : 43.907093,
          "longitude" : 4.2746363
        },
        "openings" : {
          "start" : [ 12, 14 ],
          "end" : [ 15, 2 ]
        },
        "preferredSlots" : null,
        "doAfter" : null,
        "nbEmpRequired" : 1,
        "deadline" : [ 9, 34 ],
        "skills" : [ {
          "id" : 0,
          "name" : "MANAGEMENT",
          "level" : 5
        }, {
          "id" : 4,
          "name" : "MASONRY",
          "level" : 1
        } ],
        "duration" : 7200.000000000,
        "pause" : false
      },
      "window" : {
        "start" : [ 9, 38 ],
        "end" : [ 11, 38 ]
      }
    }, {
      "job" : {
        "id" : -1,
        "desc" : "Pause",
        "location" : {
          "id" : 362,
          "name" : null,
          "latitude" : 43.907093,
          "longitude" : 4.2746363
        },
        "openings" : {
          "start" : [ 12, 14 ],
          "end" : [ 15, 2 ]
        },
        "preferredSlots" : null,
        "doAfter" : null,
        "nbEmpRequired" : 1,
        "deadline" : [ 9, 34 ],
        "skills" : [ {
          "id" : 0,
          "name" : "MANAGEMENT",
          "level" : 5
        }, {
          "id" : 4,
          "name" : "MASONRY",
          "level" : 1
        } ],
        "duration" : 7200.000000000,
        "pause" : true
      },
      "window" : {
        "start" : [ 11, 39 ],
        "end" : [ 13, 0 ]
      }
    }, {
      "job" : {
        "id" : 141,
        "desc" : "PAINTING, TILER",
        "location" : {
          "id" : 6449,
          "name" : null,
          "latitude" : 43.665897,
          "longitude" : 3.91038
        },
        "openings" : {
          "start" : [ 9, 36 ],
          "end" : [ 10, 0 ]
        },
        "preferredSlots" : null,
        "doAfter" : null,
        "nbEmpRequired" : 1,
        "deadline" : [ 16, 54 ],
        "skills" : [ {
          "id" : 7,
          "name" : "PAINTING",
          "level" : 3
        }, {
          "id" : 9,
          "name" : "TILER",
          "level" : 1
        } ],
        "duration" : 2700.000000000,
        "pause" : false
      },
      "window" : {
        "start" : [ 13, 40 ],
        "end" : [ 14, 25 ]
      }
    }, {
      "job" : {
        "id" : 540,
        "desc" : "MANAGEMENT",
        "location" : {
          "id" : 7836,
          "name" : null,
          "latitude" : 43.727592,
          "longitude" : 4.1788607
        },
        "openings" : {
          "start" : [ 9, 49 ],
          "end" : [ 14, 27 ]
        },
        "preferredSlots" : null,
        "doAfter" : null,
        "nbEmpRequired" : 1,
        "deadline" : [ 17, 28 ],
        "skills" : [ {
          "id" : 0,
          "name" : "MANAGEMENT",
          "level" : 5
        } ],
        "duration" : 3600.000000000,
        "pause" : false
      },
      "window" : {
        "start" : [ 14, 48 ],
        "end" : [ 15, 48 ]
      }
    }, {
      "job" : {
        "id" : 222,
        "desc" : "MANAGEMENT",
        "location" : {
          "id" : 6628,
          "name" : null,
          "latitude" : 43.63317,
          "longitude" : 3.7108135
        },
        "openings" : {
          "start" : [ 11, 24 ],
          "end" : [ 12, 8 ]
        },
        "preferredSlots" : null,
        "doAfter" : null,
        "nbEmpRequired" : 1,
        "deadline" : [ 12, 46 ],
        "skills" : [ {
          "id" : 0,
          "name" : "MANAGEMENT",
          "level" : 3
        } ],
        "duration" : 1800.000000000,
        "pause" : false
      },
      "window" : {
        "start" : [ 16, 28 ],
        "end" : [ 16, 58 ]
      }
    } ],
    "driving" : 8460.000000000,
    "valid" : true
  } ],
  "unassigned" : [ {
    "id" : 712,
    "desc" : "PAINTING, MASONRY",
    "location" : {
      "id" : 2134,
      "name" : null,
      "latitude" : 43.41799,
      "longitude" : 3.8390121
    },
    "openings" : {
      "start" : [ 10, 17 ],
      "end" : [ 13, 37 ]
    },
    "preferredSlots" : null,
    "doAfter" : null,
    "nbEmpRequired" : 1,
    "deadline" : [ 11, 25 ],
    "skills" : [ {
      "id" : 7,
      "name" : "PAINTING",
      "level" : 5
    }, {
      "id" : 4,
      "name" : "MASONRY",
      "level" : 5
    } ],
    "duration" : 3600.000000000,
    "pause" : false
  }, {
    "id" : 197,
    "desc" : "PAINTING, ELECTRICIAN",
    "location" : {
      "id" : 4406,
      "name" : null,
      "latitude" : 43.469036,
      "longitude" : 4.1583524
    },
    "openings" : {
      "start" : [ 11, 32 ],
      "end" : [ 16, 30 ]
    },
    "preferredSlots" : null,
    "doAfter" : null,
    "nbEmpRequired" : 1,
    "deadline" : [ 16, 13 ],
    "skills" : [ {
      "id" : 7,
      "name" : "PAINTING",
      "level" : 5
    }, {
      "id" : 2,
      "name" : "ELECTRICIAN",
      "level" : 5
    } ],
    "duration" : 2700.000000000,
    "pause" : false
  }, {
    "id" : 502,
    "desc" : "ELECTRICIAN, MANAGEMENT",
    "location" : {
      "id" : 6888,
      "name" : null,
      "latitude" : 43.424564,
      "longitude" : 4.0617056
    },
    "openings" : {
      "start" : [ 10, 18 ],
      "end" : [ 13, 11 ]
    },
    "preferredSlots" : null,
    "doAfter" : null,
    "nbEmpRequired" : 1,
    "deadline" : [ 15, 15 ],
    "skills" : [ {
      "id" : 2,
      "name" : "ELECTRICIAN",
      "level" : 5
    }, {
      "id" : 0,
      "name" : "MANAGEMENT",
      "level" : 5
    } ],
    "duration" : 5400.000000000,
    "pause" : false
  }, {
    "id" : 911,
    "desc" : "PAINTING, CARPENTRY",
    "location" : {
      "id" : 9963,
      "name" : null,
      "latitude" : 43.882812,
      "longitude" : 3.8952484
    },
    "openings" : {
      "start" : [ 14, 12 ],
      "end" : [ 15, 32 ]
    },
    "preferredSlots" : null,
    "doAfter" : null,
    "nbEmpRequired" : 1,
    "deadline" : [ 12, 47 ],
    "skills" : [ {
      "id" : 7,
      "name" : "PAINTING",
      "level" : 5
    }, {
      "id" : 6,
      "name" : "CARPENTRY",
      "level" : 4
    } ],
    "duration" : 5400.000000000,
    "pause" : false
  }, {
    "id" : 56,
    "desc" : "ENGINEER, GLAZING",
    "location" : {
      "id" : 5319,
      "name" : null,
      "latitude" : 44.056984,
      "longitude" : 3.902544
    },
    "openings" : {
      "start" : [ 12, 56 ],
      "end" : [ 14, 54 ]
    },
    "preferredSlots" : null,
    "doAfter" : null,
    "nbEmpRequired" : 1,
    "deadline" : [ 9, 17 ],
    "skills" : [ {
      "id" : 1,
      "name" : "ENGINEER",
      "level" : 5
    }, {
      "id" : 5,
      "name" : "GLAZING",
      "level" : 4
    } ],
    "duration" : 3600.000000000,
    "pause" : false
  }, {
    "id" : 51,
    "desc" : "IRONWORK, PLUMBING",
    "location" : {
      "id" : 4733,
      "name" : null,
      "latitude" : 43.650852,
      "longitude" : 4.185171
    },
    "openings" : {
      "start" : [ 12, 20 ],
      "end" : [ 15, 46 ]
    },
    "preferredSlots" : null,
    "doAfter" : null,
    "nbEmpRequired" : 1,
    "deadline" : [ 12, 7 ],
    "skills" : [ {
      "id" : 8,
      "name" : "IRONWORK",
      "level" : 5
    }, {
      "id" : 3,
      "name" : "PLUMBING",
      "level" : 4
    } ],
    "duration" : 1800.000000000,
    "pause" : false
  }, {
    "id" : 800,
    "desc" : "PLUMBING, PAINTING",
    "location" : {
      "id" : 3188,
      "name" : null,
      "latitude" : 43.489914,
      "longitude" : 3.9196754
    },
    "openings" : {
      "start" : [ 15, 17 ],
      "end" : [ 15, 43 ]
    },
    "preferredSlots" : null,
    "doAfter" : null,
    "nbEmpRequired" : 1,
    "deadline" : [ 15, 39 ],
    "skills" : [ {
      "id" : 3,
      "name" : "PLUMBING",
      "level" : 3
    }, {
      "id" : 7,
      "name" : "PAINTING",
      "level" : 5
    } ],
    "duration" : 2700.000000000,
    "pause" : false
  }, {
    "id" : 595,
    "desc" : "PAINTING, ENGINEER",
    "location" : {
      "id" : 7027,
      "name" : null,
      "latitude" : 43.526497,
      "longitude" : 4.2718964
    },
    "openings" : {
      "start" : [ 14, 31 ],
      "end" : [ 17, 51 ]
    },
    "preferredSlots" : null,
    "doAfter" : null,
    "nbEmpRequired" : 1,
    "deadline" : [ 15, 43 ],
    "skills" : [ {
      "id" : 7,
      "name" : "PAINTING",
      "level" : 5
    }, {
      "id" : 1,
      "name" : "ENGINEER",
      "level" : 3
    } ],
    "duration" : 3600.000000000,
    "pause" : false
  }, {
    "id" : 990,
    "desc" : "CARPENTRY, GLAZING",
    "location" : {
      "id" : 9635,
      "name" : null,
      "latitude" : 43.458275,
      "longitude" : 4.146062
    },
    "openings" : {
      "start" : [ 11, 12 ],
      "end" : [ 16, 57 ]
    },
    "preferredSlots" : null,
    "doAfter" : null,
    "nbEmpRequired" : 1,
    "deadline" : [ 9, 20 ],
    "skills" : [ {
      "id" : 6,
      "name" : "CARPENTRY",
      "level" : 5
    }, {
      "id" : 5,
      "name" : "GLAZING",
      "level" : 3
    } ],
    "duration" : 5400.000000000,
    "pause" : false
  }, {
    "id" : 122,
    "desc" : "PAINTING, TILER",
    "location" : {
      "id" : 4709,
      "name" : null,
      "latitude" : 43.6325,
      "longitude" : 4.2202106
    },
    "openings" : {
      "start" : [ 10, 35 ],
      "end" : [ 11, 33 ]
    },
    "preferredSlots" : null,
    "doAfter" : null,
    "nbEmpRequired" : 1,
    "deadline" : [ 14, 50 ],
    "skills" : [ {
      "id" : 7,
      "name" : "PAINTING",
      "level" : 5
    }, {
      "id" : 9,
      "name" : "TILER",
      "level" : 3
    } ],
    "duration" : 1800.000000000,
    "pause" : false
  }, {
    "id" : 814,
    "desc" : "ENGINEER, TILER",
    "location" : {
      "id" : 16,
      "name" : null,
      "latitude" : 43.82716,
      "longitude" : 4.033929
    },
    "openings" : {
      "start" : [ 9, 45 ],
      "end" : [ 16, 53 ]
    },
    "preferredSlots" : null,
    "doAfter" : null,
    "nbEmpRequired" : 1,
    "deadline" : [ 13, 31 ],
    "skills" : [ {
      "id" : 1,
      "name" : "ENGINEER",
      "level" : 4
    }, {
      "id" : 9,
      "name" : "TILER",
      "level" : 4
    } ],
    "duration" : 3600.000000000,
    "pause" : false
  }, {
    "id" : 646,
    "desc" : "CARPENTRY, IRONWORK",
    "location" : {
      "id" : 7586,
      "name" : null,
      "latitude" : 43.841225,
      "longitude" : 4.0348287
    },
    "openings" : {
      "start" : [ 15, 35 ],
      "end" : [ 16, 15 ]
    },
    "preferredSlots" : null,
    "doAfter" : null,
    "nbEmpRequired" : 1,
    "deadline" : [ 9, 58 ],
    "skills" : [ {
      "id" : 6,
      "name" : "CARPENTRY",
      "level" : 5
    }, {
      "id" : 8,
      "name" : "IRONWORK",
      "level" : 3
    } ],
    "duration" : 3600.000000000,
    "pause" : false
  }, {
    "id" : 639,
    "desc" : "GLAZING, ENGINEER",
    "location" : {
      "id" : 8498,
      "name" : null,
      "latitude" : 43.578815,
      "longitude" : 4.1839147
    },
    "openings" : {
      "start" : [ 14, 0 ],
      "end" : [ 16, 48 ]
    },
    "preferredSlots" : null,
    "doAfter" : null,
    "nbEmpRequired" : 1,
    "deadline" : [ 15, 3 ],
    "skills" : [ {
      "id" : 5,
      "name" : "GLAZING",
      "level" : 4
    }, {
      "id" : 1,
      "name" : "ENGINEER",
      "level" : 4
    } ],
    "duration" : 3600.000000000,
    "pause" : false
  }, {
    "id" : 921,
    "desc" : "ELECTRICIAN, CARPENTRY",
    "location" : {
      "id" : 9453,
      "name" : null,
      "latitude" : 43.99545,
      "longitude" : 4.1753783
    },
    "openings" : {
      "start" : [ 15, 12 ],
      "end" : [ 15, 53 ]
    },
    "preferredSlots" : null,
    "doAfter" : null,
    "nbEmpRequired" : 1,
    "deadline" : [ 13, 1 ],
    "skills" : [ {
      "id" : 2,
      "name" : "ELECTRICIAN",
      "level" : 5
    }, {
      "id" : 6,
      "name" : "CARPENTRY",
      "level" : 3
    } ],
    "duration" : 2700.000000000,
    "pause" : false
  }, {
    "id" : 821,
    "desc" : "PLUMBING, CARPENTRY",
    "location" : {
      "id" : 5248,
      "name" : null,
      "latitude" : 43.632927,
      "longitude" : 3.8046105
    },
    "openings" : {
      "start" : [ 11, 30 ],
      "end" : [ 15, 22 ]
    },
    "preferredSlots" : null,
    "doAfter" : null,
    "nbEmpRequired" : 1,
    "deadline" : [ 13, 31 ],
    "skills" : [ {
      "id" : 3,
      "name" : "PLUMBING",
      "level" : 4
    }, {
      "id" : 6,
      "name" : "CARPENTRY",
      "level" : 4
    } ],
    "duration" : 5400.000000000,
    "pause" : false
  }, {
    "id" : 605,
    "desc" : "TILER, PAINTING",
    "location" : {
      "id" : 353,
      "name" : null,
      "latitude" : 43.755,
      "longitude" : 4.1601267
    },
    "openings" : {
      "start" : [ 11, 12 ],
      "end" : [ 12, 17 ]
    },
    "preferredSlots" : null,
    "doAfter" : null,
    "nbEmpRequired" : 1,
    "deadline" : [ 15, 32 ],
    "skills" : [ {
      "id" : 9,
      "name" : "TILER",
      "level" : 2
    }, {
      "id" : 7,
      "name" : "PAINTING",
      "level" : 5
    } ],
    "duration" : 3600.000000000,
    "pause" : false
  }, {
    "id" : 820,
    "desc" : "ELECTRICIAN, IRONWORK",
    "location" : {
      "id" : 7653,
      "name" : null,
      "latitude" : 43.511143,
      "longitude" : 4.1315384
    },
    "openings" : {
      "start" : [ 11, 35 ],
      "end" : [ 13, 37 ]
    },
    "preferredSlots" : null,
    "doAfter" : null,
    "nbEmpRequired" : 1,
    "deadline" : [ 9, 12 ],
    "skills" : [ {
      "id" : 2,
      "name" : "ELECTRICIAN",
      "level" : 2
    }, {
      "id" : 8,
      "name" : "IRONWORK",
      "level" : 5
    } ],
    "duration" : 2700.000000000,
    "pause" : false
  }, {
    "id" : 149,
    "desc" : "MANAGEMENT, MASONRY",
    "location" : {
      "id" : 9156,
      "name" : null,
      "latitude" : 43.99872,
      "longitude" : 3.936257
    },
    "openings" : {
      "start" : [ 11, 49 ],
      "end" : [ 15, 32 ]
    },
    "preferredSlots" : null,
    "doAfter" : null,
    "nbEmpRequired" : 1,
    "deadline" : [ 13, 15 ],
    "skills" : [ {
      "id" : 0,
      "name" : "MANAGEMENT",
      "level" : 2
    }, {
      "id" : 4,
      "name" : "MASONRY",
      "level" : 5
    } ],
    "duration" : 1800.000000000,
    "pause" : false
  }, {
    "id" : 263,
    "desc" : "ENGINEER, TILER",
    "location" : {
      "id" : 9534,
      "name" : null,
      "latitude" : 43.976387,
      "longitude" : 3.9459558
    },
    "openings" : {
      "start" : [ 9, 46 ],
      "end" : [ 16, 33 ]
    },
    "preferredSlots" : null,
    "doAfter" : null,
    "nbEmpRequired" : 1,
    "deadline" : [ 11, 40 ],
    "skills" : [ {
      "id" : 1,
      "name" : "ENGINEER",
      "level" : 3
    }, {
      "id" : 9,
      "name" : "TILER",
      "level" : 4
    } ],
    "duration" : 2700.000000000,
    "pause" : false
  }, {
    "id" : 408,
    "desc" : "ELECTRICIAN, ENGINEER",
    "location" : {
      "id" : 8765,
      "name" : null,
      "latitude" : 43.78777,
      "longitude" : 3.8665168
    },
    "openings" : {
      "start" : [ 11, 36 ],
      "end" : [ 12, 26 ]
    },
    "preferredSlots" : null,
    "doAfter" : null,
    "nbEmpRequired" : 1,
    "deadline" : [ 15, 44 ],
    "skills" : [ {
      "id" : 2,
      "name" : "ELECTRICIAN",
      "level" : 1
    }, {
      "id" : 1,
      "name" : "ENGINEER",
      "level" : 5
    } ],
    "duration" : 3600.000000000,
    "pause" : false
  }, {
    "id" : 795,
    "desc" : "CARPENTRY, MASONRY",
    "location" : {
      "id" : 4935,
      "name" : null,
      "latitude" : 44.029915,
      "longitude" : 4.249028
    },
    "openings" : {
      "start" : [ 12, 37 ],
      "end" : [ 13, 23 ]
    },
    "preferredSlots" : null,
    "doAfter" : null,
    "nbEmpRequired" : 1,
    "deadline" : [ 13, 49 ],
    "skills" : [ {
      "id" : 6,
      "name" : "CARPENTRY",
      "level" : 5
    }, {
      "id" : 4,
      "name" : "MASONRY",
      "level" : 1
    } ],
    "duration" : 3600.000000000,
    "pause" : false
  }, {
    "id" : 791,
    "desc" : "ENGINEER, GLAZING",
    "location" : {
      "id" : 961,
      "name" : null,
      "latitude" : 43.583115,
      "longitude" : 4.0763597
    },
    "openings" : {
      "start" : [ 12, 4 ],
      "end" : [ 14, 19 ]
    },
    "preferredSlots" : null,
    "doAfter" : null,
    "nbEmpRequired" : 1,
    "deadline" : [ 12, 18 ],
    "skills" : [ {
      "id" : 1,
      "name" : "ENGINEER",
      "level" : 2
    }, {
      "id" : 5,
      "name" : "GLAZING",
      "level" : 4
    } ],
    "duration" : 5400.000000000,
    "pause" : false
  }, {
    "id" : 741,
    "desc" : "MANAGEMENT, PLUMBING",
    "location" : {
      "id" : 4722,
      "name" : null,
      "latitude" : 43.469505,
      "longitude" : 4.239508
    },
    "openings" : {
      "start" : [ 9, 22 ],
      "end" : [ 14, 9 ]
    },
    "preferredSlots" : null,
    "doAfter" : null,
    "nbEmpRequired" : 1,
    "deadline" : [ 16, 41 ],
    "skills" : [ {
      "id" : 0,
      "name" : "MANAGEMENT",
      "level" : 1
    }, {
      "id" : 3,
      "name" : "PLUMBING",
      "level" : 5
    } ],
    "duration" : 2700.000000000,
    "pause" : false
  }, {
    "id" : 469,
    "desc" : "ENGINEER, PAINTING",
    "location" : {
      "id" : 2170,
      "name" : null,
      "latitude" : 43.740166,
      "longitude" : 3.7343624
    },
    "openings" : {
      "start" : [ 11, 20 ],
      "end" : [ 15, 41 ]
    },
    "preferredSlots" : null,
    "doAfter" : null,
    "nbEmpRequired" : 1,
    "deadline" : [ 16, 41 ],
    "skills" : [ {
      "id" : 1,
      "name" : "ENGINEER",
      "level" : 1
    }, {
      "id" : 7,
      "name" : "PAINTING",
      "level" : 5
    } ],
    "duration" : 3600.000000000,
    "pause" : false
  }, {
    "id" : 370,
    "desc" : "TILER, ENGINEER",
    "location" : {
      "id" : 9573,
      "name" : null,
      "latitude" : 43.546486,
      "longitude" : 3.9021912
    },
    "openings" : {
      "start" : [ 12, 35 ],
      "end" : [ 13, 31 ]
    },
    "preferredSlots" : null,
    "doAfter" : null,
    "nbEmpRequired" : 1,
    "deadline" : [ 13, 39 ],
    "skills" : [ {
      "id" : 9,
      "name" : "TILER",
      "level" : 4
    }, {
      "id" : 1,
      "name" : "ENGINEER",
      "level" : 1
    } ],
    "duration" : 2700.000000000,
    "pause" : false
  }, {
    "id" : 109,
    "desc" : "MANAGEMENT, CARPENTRY",
    "location" : {
      "id" : 8080,
      "name" : null,
      "latitude" : 43.928738,
      "longitude" : 3.8851707
    },
    "openings" : {
      "start" : [ 9, 23 ],
      "end" : [ 14, 30 ]
    },
    "preferredSlots" : null,
    "doAfter" : null,
    "nbEmpRequired" : 1,
    "deadline" : [ 13, 21 ],
    "skills" : [ {
      "id" : 0,
      "name" : "MANAGEMENT",
      "level" : 4
    }, {
      "id" : 6,
      "name" : "CARPENTRY",
      "level" : 1
    } ],
    "duration" : 3600.000000000,
    "pause" : false
  }, {
    "id" : 430,
    "desc" : "PLUMBING, GLAZING",
    "location" : {
      "id" : 2413,
      "name" : null,
      "latitude" : 44.00456,
      "longitude" : 4.2754445
    },
    "openings" : {
      "start" : [ 9, 17 ],
      "end" : [ 14, 28 ]
    },
    "preferredSlots" : null,
    "doAfter" : null,
    "nbEmpRequired" : 1,
    "deadline" : [ 9, 4 ],
    "skills" : [ {
      "id" : 3,
      "name" : "PLUMBING",
      "level" : 1
    }, {
      "id" : 5,
      "name" : "GLAZING",
      "level" : 4
    } ],
    "duration" : 5400.000000000,
    "pause" : false
  }, {
    "id" : 683,
    "desc" : "CARPENTRY, ELECTRICIAN",
    "location" : {
      "id" : 3310,
      "name" : null,
      "latitude" : 43.537544,
      "longitude" : 3.77169
    },
    "openings" : {
      "start" : [ 12, 46 ],
      "end" : [ 13, 12 ]
    },
    "preferredSlots" : null,
    "doAfter" : null,
    "nbEmpRequired" : 1,
    "deadline" : [ 16, 28 ],
    "skills" : [ {
      "id" : 6,
      "name" : "CARPENTRY",
      "level" : 3
    }, {
      "id" : 2,
      "name" : "ELECTRICIAN",
      "level" : 2
    } ],
    "duration" : 7200.000000000,
    "pause" : false
  }, {
    "id" : 552,
    "desc" : "MASONRY, GLAZING",
    "location" : {
      "id" : 6569,
      "name" : null,
      "latitude" : 43.63686,
      "longitude" : 3.9926727
    },
    "openings" : {
      "start" : [ 10, 7 ],
      "end" : [ 16, 48 ]
    },
    "preferredSlots" : null,
    "doAfter" : null,
    "nbEmpRequired" : 1,
    "deadline" : [ 11, 2 ],
    "skills" : [ {
      "id" : 4,
      "name" : "MASONRY",
      "level" : 1
    }, {
      "id" : 5,
      "name" : "GLAZING",
      "level" : 3
    } ],
    "duration" : 1800.000000000,
    "pause" : false
  }, {
    "id" : 712,
    "desc" : "MASONRY, PLUMBING",
    "location" : {
      "id" : 8064,
      "name" : null,
      "latitude" : 43.870323,
      "longitude" : 3.8650203
    },
    "openings" : {
      "start" : [ 14, 35 ],
      "end" : [ 15, 49 ]
    },
    "preferredSlots" : null,
    "doAfter" : null,
    "nbEmpRequired" : 1,
    "deadline" : [ 13, 52 ],
    "skills" : [ {
      "id" : 4,
      "name" : "MASONRY",
      "level" : 2
    }, {
      "id" : 3,
      "name" : "PLUMBING",
      "level" : 2
    } ],
    "duration" : 5400.000000000,
    "pause" : false
  }, {
    "id" : 722,
    "desc" : "MASONRY, PLUMBING",
    "location" : {
      "id" : 866,
      "name" : null,
      "latitude" : 44.0785,
      "longitude" : 4.102594
    },
    "openings" : {
      "start" : [ 13, 20 ],
      "end" : [ 16, 25 ]
    },
    "preferredSlots" : null,
    "doAfter" : null,
    "nbEmpRequired" : 1,
    "deadline" : [ 11, 31 ],
    "skills" : [ {
      "id" : 4,
      "name" : "MASONRY",
      "level" : 2
    }, {
      "id" : 3,
      "name" : "PLUMBING",
      "level" : 2
    } ],
    "duration" : 5400.000000000,
    "pause" : false
  }, {
    "id" : 847,
    "desc" : "CARPENTRY, TILER",
    "location" : {
      "id" : 7811,
      "name" : null,
      "latitude" : 43.593803,
      "longitude" : 3.9595687
    },
    "openings" : {
      "start" : [ 12, 57 ],
      "end" : [ 17, 35 ]
    },
    "preferredSlots" : null,
    "doAfter" : null,
    "nbEmpRequired" : 1,
    "deadline" : [ 10, 3 ],
    "skills" : [ {
      "id" : 6,
      "name" : "CARPENTRY",
      "level" : 1
    }, {
      "id" : 9,
      "name" : "TILER",
      "level" : 3
    } ],
    "duration" : 5400.000000000,
    "pause" : false
  }, {
    "id" : 201,
    "desc" : "IRONWORK, PAINTING",
    "location" : {
      "id" : 324,
      "name" : null,
      "latitude" : 44.028408,
      "longitude" : 3.7405453
    },
    "openings" : {
      "start" : [ 12, 9 ],
      "end" : [ 16, 33 ]
    },
    "preferredSlots" : null,
    "doAfter" : null,
    "nbEmpRequired" : 1,
    "deadline" : [ 12, 54 ],
    "skills" : [ {
      "id" : 8,
      "name" : "IRONWORK",
      "level" : 1
    }, {
      "id" : 7,
      "name" : "PAINTING",
      "level" : 1
    } ],
    "duration" : 3600.000000000,
    "pause" : false
  }, {
    "id" : 348,
    "desc" : "MASONRY, CARPENTRY",
    "location" : {
      "id" : 1412,
      "name" : null,
      "latitude" : 43.692513,
      "longitude" : 4.03518
    },
    "openings" : {
      "start" : [ 10, 31 ],
      "end" : [ 16, 47 ]
    },
    "preferredSlots" : null,
    "doAfter" : null,
    "nbEmpRequired" : 1,
    "deadline" : [ 10, 23 ],
    "skills" : [ {
      "id" : 4,
      "name" : "MASONRY",
      "level" : 1
    }, {
      "id" : 6,
      "name" : "CARPENTRY",
      "level" : 1
    } ],
    "duration" : 1800.000000000,
    "pause" : false
  }, {
    "id" : 552,
    "desc" : "IRONWORK, GLAZING",
    "location" : {
      "id" : 389,
      "name" : null,
      "latitude" : 43.451195,
      "longitude" : 4.2503386
    },
    "openings" : {
      "start" : [ 13, 3 ],
      "end" : [ 14, 25 ]
    },
    "preferredSlots" : null,
    "doAfter" : null,
    "nbEmpRequired" : 1,
    "deadline" : [ 15, 2 ],
    "skills" : [ {
      "id" : 8,
      "name" : "IRONWORK",
      "level" : 1
    }, {
      "id" : 5,
      "name" : "GLAZING",
      "level" : 1
    } ],
    "duration" : 5400.000000000,
    "pause" : false
  }, {
    "id" : 63,
    "desc" : "ELECTRICIAN",
    "location" : {
      "id" : 6694,
      "name" : null,
      "latitude" : 43.579544,
      "longitude" : 4.071775
    },
    "openings" : {
      "start" : [ 11, 18 ],
      "end" : [ 14, 39 ]
    },
    "preferredSlots" : null,
    "doAfter" : null,
    "nbEmpRequired" : 1,
    "deadline" : [ 16, 58 ],
    "skills" : [ {
      "id" : 2,
      "name" : "ELECTRICIAN",
      "level" : 5
    } ],
    "duration" : 2700.000000000,
    "pause" : false
  }, {
    "id" : 881,
    "desc" : "PAINTING",
    "location" : {
      "id" : 959,
      "name" : null,
      "latitude" : 43.784187,
      "longitude" : 4.092015
    },
    "openings" : {
      "start" : [ 12, 12 ],
      "end" : [ 16, 52 ]
    },
    "preferredSlots" : null,
    "doAfter" : null,
    "nbEmpRequired" : 1,
    "deadline" : [ 15, 8 ],
    "skills" : [ {
      "id" : 7,
      "name" : "PAINTING",
      "level" : 5
    } ],
    "duration" : 2700.000000000,
    "pause" : false
  }, {
    "id" : 129,
    "desc" : "ELECTRICIAN",
    "location" : {
      "id" : 9466,
      "name" : null,
      "latitude" : 43.514015,
      "longitude" : 3.978402
    },
    "openings" : {
      "start" : [ 9, 37 ],
      "end" : [ 12, 31 ]
    },
    "preferredSlots" : null,
    "doAfter" : null,
    "nbEmpRequired" : 1,
    "deadline" : [ 11, 58 ],
    "skills" : [ {
      "id" : 2,
      "name" : "ELECTRICIAN",
      "level" : 5
    } ],
    "duration" : 2700.000000000,
    "pause" : false
  }, {
    "id" : 796,
    "desc" : "GLAZING",
    "location" : {
      "id" : 3569,
      "name" : null,
      "latitude" : 43.432503,
      "longitude" : 3.8294373
    },
    "openings" : {
      "start" : [ 14, 45 ],
      "end" : [ 17, 29 ]
    },
    "preferredSlots" : null,
    "doAfter" : null,
    "nbEmpRequired" : 1,
    "deadline" : [ 10, 29 ],
    "skills" : [ {
      "id" : 5,
      "name" : "GLAZING",
      "level" : 5
    } ],
    "duration" : 5400.000000000,
    "pause" : false
  }, {
    "id" : 298,
    "desc" : "GLAZING",
    "location" : {
      "id" : 4070,
      "name" : null,
      "latitude" : 43.496037,
      "longitude" : 4.041107
    },
    "openings" : {
      "start" : [ 10, 19 ],
      "end" : [ 16, 51 ]
    },
    "preferredSlots" : null,
    "doAfter" : null,
    "nbEmpRequired" : 1,
    "deadline" : [ 16, 56 ],
    "skills" : [ {
      "id" : 5,
      "name" : "GLAZING",
      "level" : 5
    } ],
    "duration" : 2700.000000000,
    "pause" : false
  }, {
    "id" : 852,
    "desc" : "CARPENTRY",
    "location" : {
      "id" : 198,
      "name" : null,
      "latitude" : 43.626606,
      "longitude" : 3.816976
    },
    "openings" : {
      "start" : [ 9, 59 ],
      "end" : [ 13, 0 ]
    },
    "preferredSlots" : null,
    "doAfter" : null,
    "nbEmpRequired" : 1,
    "deadline" : [ 9, 12 ],
    "skills" : [ {
      "id" : 6,
      "name" : "CARPENTRY",
      "level" : 5
    } ],
    "duration" : 5400.000000000,
    "pause" : false
  }, {
    "id" : 952,
    "desc" : "PAINTING",
    "location" : {
      "id" : 1313,
      "name" : null,
      "latitude" : 43.60594,
      "longitude" : 4.017405
    },
    "openings" : {
      "start" : [ 9, 41 ],
      "end" : [ 12, 43 ]
    },
    "preferredSlots" : null,
    "doAfter" : null,
    "nbEmpRequired" : 1,
    "deadline" : [ 11, 11 ],
    "skills" : [ {
      "id" : 7,
      "name" : "PAINTING",
      "level" : 5
    } ],
    "duration" : 2700.000000000,
    "pause" : false
  }, {
    "id" : 797,
    "desc" : "ELECTRICIAN",
    "location" : {
      "id" : 8436,
      "name" : null,
      "latitude" : 43.48693,
      "longitude" : 4.01708
    },
    "openings" : {
      "start" : [ 10, 22 ],
      "end" : [ 17, 46 ]
    },
    "preferredSlots" : null,
    "doAfter" : null,
    "nbEmpRequired" : 1,
    "deadline" : [ 13, 24 ],
    "skills" : [ {
      "id" : 2,
      "name" : "ELECTRICIAN",
      "level" : 4
    } ],
    "duration" : 5400.000000000,
    "pause" : false
  }, {
    "id" : 495,
    "desc" : "ENGINEER",
    "location" : {
      "id" : 985,
      "name" : null,
      "latitude" : 43.6155,
      "longitude" : 4.151468
    },
    "openings" : {
      "start" : [ 13, 39 ],
      "end" : [ 14, 52 ]
    },
    "preferredSlots" : null,
    "doAfter" : null,
    "nbEmpRequired" : 1,
    "deadline" : [ 12, 6 ],
    "skills" : [ {
      "id" : 1,
      "name" : "ENGINEER",
      "level" : 4
    } ],
    "duration" : 3600.000000000,
    "pause" : false
  }, {
    "id" : 243,
    "desc" : "GLAZING",
    "location" : {
      "id" : 5978,
      "name" : null,
      "latitude" : 43.808075,
      "longitude" : 4.2368345
    },
    "openings" : {
      "start" : [ 10, 28 ],
      "end" : [ 14, 23 ]
    },
    "preferredSlots" : null,
    "doAfter" : null,
    "nbEmpRequired" : 1,
    "deadline" : [ 17, 28 ],
    "skills" : [ {
      "id" : 5,
      "name" : "GLAZING",
      "level" : 4
    } ],
    "duration" : 5400.000000000,
    "pause" : false
  }, {
    "id" : 382,
    "desc" : "GLAZING",
    "location" : {
      "id" : 7742,
      "name" : null,
      "latitude" : 43.92844,
      "longitude" : 3.8923626
    },
    "openings" : {
      "start" : [ 14, 0 ],
      "end" : [ 17, 30 ]
    },
    "preferredSlots" : null,
    "doAfter" : null,
    "nbEmpRequired" : 1,
    "deadline" : [ 10, 17 ],
    "skills" : [ {
      "id" : 5,
      "name" : "GLAZING",
      "level" : 4
    } ],
    "duration" : 1800.000000000,
    "pause" : false
  }, {
    "id" : 8,
    "desc" : "ENGINEER",
    "location" : {
      "id" : 6057,
      "name" : null,
      "latitude" : 43.459663,
      "longitude" : 4.033471
    },
    "openings" : {
      "start" : [ 13, 18 ],
      "end" : [ 17, 45 ]
    },
    "preferredSlots" : null,
    "doAfter" : null,
    "nbEmpRequired" : 1,
    "deadline" : [ 13, 27 ],
    "skills" : [ {
      "id" : 1,
      "name" : "ENGINEER",
      "level" : 3
    } ],
    "duration" : 3600.000000000,
    "pause" : false
  }, {
    "id" : 298,
    "desc" : "ENGINEER",
    "location" : {
      "id" : 5026,
      "name" : null,
      "latitude" : 43.81933,
      "longitude" : 3.7678058
    },
    "openings" : {
      "start" : [ 14, 38 ],
      "end" : [ 15, 3 ]
    },
    "preferredSlots" : null,
    "doAfter" : null,
    "nbEmpRequired" : 1,
    "deadline" : [ 13, 44 ],
    "skills" : [ {
      "id" : 1,
      "name" : "ENGINEER",
      "level" : 3
    } ],
    "duration" : 2700.000000000,
    "pause" : false
  }, {
    "id" : 653,
    "desc" : "GLAZING",
    "location" : {
      "id" : 8754,
      "name" : null,
      "latitude" : 43.870632,
      "longitude" : 3.7545967
    },
    "openings" : {
      "start" : [ 15, 13 ],
      "end" : [ 16, 14 ]
    },
    "preferredSlots" : null,
    "doAfter" : null,
    "nbEmpRequired" : 1,
    "deadline" : [ 15, 52 ],
    "skills" : [ {
      "id" : 5,
      "name" : "GLAZING",
      "level" : 3
    } ],
    "duration" : 5400.000000000,
    "pause" : false
  }, {
    "id" : 132,
    "desc" : "MANAGEMENT",
    "location" : {
      "id" : 940,
      "name" : null,
      "latitude" : 43.508316,
      "longitude" : 4.236598
    },
    "openings" : {
      "start" : [ 10, 15 ],
      "end" : [ 16, 14 ]
    },
    "preferredSlots" : null,
    "doAfter" : null,
    "nbEmpRequired" : 1,
    "deadline" : [ 17, 54 ],
    "skills" : [ {
      "id" : 0,
      "name" : "MANAGEMENT",
      "level" : 3
    } ],
    "duration" : 3600.000000000,
    "pause" : false
  }, {
    "id" : 191,
    "desc" : "ELECTRICIAN",
    "location" : {
      "id" : 4668,
      "name" : null,
      "latitude" : 43.85511,
      "longitude" : 4.2235346
    },
    "openings" : {
      "start" : [ 10, 28 ],
      "end" : [ 12, 21 ]
    },
    "preferredSlots" : null,
    "doAfter" : null,
    "nbEmpRequired" : 1,
    "deadline" : [ 11, 20 ],
    "skills" : [ {
      "id" : 2,
      "name" : "ELECTRICIAN",
      "level" : 3
    } ],
    "duration" : 3600.000000000,
    "pause" : false
  }, {
    "id" : 582,
    "desc" : "PAINTING",
    "location" : {
      "id" : 6606,
      "name" : null,
      "latitude" : 43.56878,
      "longitude" : 4.277526
    },
    "openings" : {
      "start" : [ 12, 19 ],
      "end" : [ 16, 57 ]
    },
    "preferredSlots" : null,
    "doAfter" : null,
    "nbEmpRequired" : 1,
    "deadline" : [ 10, 10 ],
    "skills" : [ {
      "id" : 7,
      "name" : "PAINTING",
      "level" : 3
    } ],
    "duration" : 2700.000000000,
    "pause" : false
  }, {
    "id" : 768,
    "desc" : "PLUMBING",
    "location" : {
      "id" : 6269,
      "name" : null,
      "latitude" : 44.07597,
      "longitude" : 3.9321854
    },
    "openings" : {
      "start" : [ 9, 50 ],
      "end" : [ 13, 35 ]
    },
    "preferredSlots" : null,
    "doAfter" : null,
    "nbEmpRequired" : 1,
    "deadline" : [ 13, 46 ],
    "skills" : [ {
      "id" : 3,
      "name" : "PLUMBING",
      "level" : 3
    } ],
    "duration" : 1800.000000000,
    "pause" : false
  }, {
    "id" : 308,
    "desc" : "ELECTRICIAN",
    "location" : {
      "id" : 392,
      "name" : null,
      "latitude" : 43.48107,
      "longitude" : 3.8325996
    },
    "openings" : {
      "start" : [ 10, 5 ],
      "end" : [ 11, 31 ]
    },
    "preferredSlots" : null,
    "doAfter" : null,
    "nbEmpRequired" : 1,
    "deadline" : [ 15, 36 ],
    "skills" : [ {
      "id" : 2,
      "name" : "ELECTRICIAN",
      "level" : 3
    } ],
    "duration" : 7200.000000000,
    "pause" : false
  }, {
    "id" : 914,
    "desc" : "TILER",
    "location" : {
      "id" : 4417,
      "name" : null,
      "latitude" : 43.9377,
      "longitude" : 3.998164
    },
    "openings" : {
      "start" : [ 10, 11 ],
      "end" : [ 14, 8 ]
    },
    "preferredSlots" : null,
    "doAfter" : null,
    "nbEmpRequired" : 1,
    "deadline" : [ 16, 11 ],
    "skills" : [ {
      "id" : 9,
      "name" : "TILER",
      "level" : 3
    } ],
    "duration" : 5400.000000000,
    "pause" : false
  }, {
    "id" : 263,
    "desc" : "MANAGEMENT",
    "location" : {
      "id" : 4301,
      "name" : null,
      "latitude" : 43.790905,
      "longitude" : 4.0098624
    },
    "openings" : {
      "start" : [ 9, 13 ],
      "end" : [ 15, 51 ]
    },
    "preferredSlots" : null,
    "doAfter" : null,
    "nbEmpRequired" : 1,
    "deadline" : [ 9, 55 ],
    "skills" : [ {
      "id" : 0,
      "name" : "MANAGEMENT",
      "level" : 2
    } ],
    "duration" : 5400.000000000,
    "pause" : false
  }, {
    "id" : 837,
    "desc" : "GLAZING",
    "location" : {
      "id" : 8330,
      "name" : null,
      "latitude" : 44.089985,
      "longitude" : 3.7867973
    },
    "openings" : {
      "start" : [ 11, 32 ],
      "end" : [ 16, 26 ]
    },
    "preferredSlots" : null,
    "doAfter" : null,
    "nbEmpRequired" : 1,
    "deadline" : [ 17, 32 ],
    "skills" : [ {
      "id" : 5,
      "name" : "GLAZING",
      "level" : 2
    } ],
    "duration" : 1800.000000000,
    "pause" : false
  }, {
    "id" : 694,
    "desc" : "TILER",
    "location" : {
      "id" : 783,
      "name" : null,
      "latitude" : 43.815475,
      "longitude" : 3.8938377
    },
    "openings" : {
      "start" : [ 10, 39 ],
      "end" : [ 17, 57 ]
    },
    "preferredSlots" : null,
    "doAfter" : null,
    "nbEmpRequired" : 1,
    "deadline" : [ 10, 54 ],
    "skills" : [ {
      "id" : 9,
      "name" : "TILER",
      "level" : 2
    } ],
    "duration" : 1800.000000000,
    "pause" : false
  }, {
    "id" : 152,
    "desc" : "CARPENTRY",
    "location" : {
      "id" : 8173,
      "name" : null,
      "latitude" : 43.88869,
      "longitude" : 4.1843257
    },
    "openings" : {
      "start" : [ 9, 58 ],
      "end" : [ 17, 40 ]
    },
    "preferredSlots" : null,
    "doAfter" : null,
    "nbEmpRequired" : 1,
    "deadline" : [ 14, 31 ],
    "skills" : [ {
      "id" : 6,
      "name" : "CARPENTRY",
      "level" : 2
    } ],
    "duration" : 3600.000000000,
    "pause" : false
  }, {
    "id" : 443,
    "desc" : "MANAGEMENT",
    "location" : {
      "id" : 7528,
      "name" : null,
      "latitude" : 43.821617,
      "longitude" : 4.0672827
    },
    "openings" : {
      "start" : [ 13, 21 ],
      "end" : [ 17, 53 ]
    },
    "preferredSlots" : null,
    "doAfter" : null,
    "nbEmpRequired" : 1,
    "deadline" : [ 16, 33 ],
    "skills" : [ {
      "id" : 0,
      "name" : "MANAGEMENT",
      "level" : 2
    } ],
    "duration" : 2700.000000000,
    "pause" : false
  }, {
    "id" : 910,
    "desc" : "MASONRY",
    "location" : {
      "id" : 3494,
      "name" : null,
      "latitude" : 43.909187,
      "longitude" : 4.0523863
    },
    "openings" : {
      "start" : [ 9, 46 ],
      "end" : [ 15, 37 ]
    },
    "preferredSlots" : null,
    "doAfter" : null,
    "nbEmpRequired" : 1,
    "deadline" : [ 16, 21 ],
    "skills" : [ {
      "id" : 4,
      "name" : "MASONRY",
      "level" : 2
    } ],
    "duration" : 3600.000000000,
    "pause" : false
  }, {
    "id" : 569,
    "desc" : "TILER",
    "location" : {
      "id" : 1316,
      "name" : null,
      "latitude" : 43.863213,
      "longitude" : 4.0195036
    },
    "openings" : {
      "start" : [ 10, 8 ],
      "end" : [ 12, 2 ]
    },
    "preferredSlots" : null,
    "doAfter" : null,
    "nbEmpRequired" : 1,
    "deadline" : [ 14, 20 ],
    "skills" : [ {
      "id" : 9,
      "name" : "TILER",
      "level" : 2
    } ],
    "duration" : 1800.000000000,
    "pause" : false
  }, {
    "id" : 80,
    "desc" : "ELECTRICIAN",
    "location" : {
      "id" : 9771,
      "name" : null,
      "latitude" : 43.759308,
      "longitude" : 3.8915355
    },
    "openings" : {
      "start" : [ 9, 23 ],
      "end" : [ 10, 34 ]
    },
    "preferredSlots" : null,
    "doAfter" : null,
    "nbEmpRequired" : 1,
    "deadline" : [ 11, 55 ],
    "skills" : [ {
      "id" : 2,
      "name" : "ELECTRICIAN",
      "level" : 2
    } ],
    "duration" : 7200.000000000,
    "pause" : false
  }, {
    "id" : 389,
    "desc" : "ELECTRICIAN",
    "location" : {
      "id" : 9911,
      "name" : null,
      "latitude" : 43.865425,
      "longitude" : 3.8094516
    },
    "openings" : {
      "start" : [ 12, 55 ],
      "end" : [ 13, 10 ]
    },
    "preferredSlots" : null,
    "doAfter" : null,
    "nbEmpRequired" : 1,
    "deadline" : [ 10, 11 ],
    "skills" : [ {
      "id" : 2,
      "name" : "ELECTRICIAN",
      "level" : 2
    } ],
    "duration" : 3600.000000000,
    "pause" : false
  }, {
    "id" : 940,
    "desc" : "PLUMBING",
    "location" : {
      "id" : 6124,
      "name" : null,
      "latitude" : 43.776848,
      "longitude" : 3.8128002
    },
    "openings" : {
      "start" : [ 13, 58 ],
      "end" : [ 17, 7 ]
    },
    "preferredSlots" : null,
    "doAfter" : null,
    "nbEmpRequired" : 1,
    "deadline" : [ 13, 3 ],
    "skills" : [ {
      "id" : 3,
      "name" : "PLUMBING",
      "level" : 2
    } ],
    "duration" : 2700.000000000,
    "pause" : false
  }, {
    "id" : 730,
    "desc" : "MASONRY",
    "location" : {
      "id" : 2605,
      "name" : null,
      "latitude" : 43.92549,
      "longitude" : 3.7646801
    },
    "openings" : {
      "start" : [ 12, 52 ],
      "end" : [ 13, 17 ]
    },
    "preferredSlots" : null,
    "doAfter" : null,
    "nbEmpRequired" : 1,
    "deadline" : [ 9, 3 ],
    "skills" : [ {
      "id" : 4,
      "name" : "MASONRY",
      "level" : 2
    } ],
    "duration" : 3600.000000000,
    "pause" : false
  }, {
    "id" : 64,
    "desc" : "TILER",
    "location" : {
      "id" : 1754,
      "name" : null,
      "latitude" : 43.845383,
      "longitude" : 3.9837089
    },
    "openings" : {
      "start" : [ 12, 33 ],
      "end" : [ 15, 12 ]
    },
    "preferredSlots" : null,
    "doAfter" : null,
    "nbEmpRequired" : 1,
    "deadline" : [ 16, 58 ],
    "skills" : [ {
      "id" : 9,
      "name" : "TILER",
      "level" : 2
    } ],
    "duration" : 5400.000000000,
    "pause" : false
  }, {
    "id" : 505,
    "desc" : "PLUMBING",
    "location" : {
      "id" : 6528,
      "name" : null,
      "latitude" : 43.944588,
      "longitude" : 4.1030693
    },
    "openings" : {
      "start" : [ 11, 26 ],
      "end" : [ 15, 23 ]
    },
    "preferredSlots" : null,
    "doAfter" : null,
    "nbEmpRequired" : 1,
    "deadline" : [ 10, 4 ],
    "skills" : [ {
      "id" : 3,
      "name" : "PLUMBING",
      "level" : 2
    } ],
    "duration" : 5400.000000000,
    "pause" : false
  }, {
    "id" : 452,
    "desc" : "TILER",
    "location" : {
      "id" : 7996,
      "name" : null,
      "latitude" : 43.582882,
      "longitude" : 3.7658257
    },
    "openings" : {
      "start" : [ 10, 17 ],
      "end" : [ 13, 51 ]
    },
    "preferredSlots" : null,
    "doAfter" : null,
    "nbEmpRequired" : 1,
    "deadline" : [ 15, 33 ],
    "skills" : [ {
      "id" : 9,
      "name" : "TILER",
      "level" : 1
    } ],
    "duration" : 3600.000000000,
    "pause" : false
  }, {
    "id" : 301,
    "desc" : "PAINTING",
    "location" : {
      "id" : 3016,
      "name" : null,
      "latitude" : 43.400627,
      "longitude" : 3.735703
    },
    "openings" : {
      "start" : [ 10, 49 ],
      "end" : [ 16, 33 ]
    },
    "preferredSlots" : null,
    "doAfter" : null,
    "nbEmpRequired" : 1,
    "deadline" : [ 16, 41 ],
    "skills" : [ {
      "id" : 7,
      "name" : "PAINTING",
      "level" : 1
    } ],
    "duration" : 1800.000000000,
    "pause" : false
  }, {
    "id" : 349,
    "desc" : "CARPENTRY",
    "location" : {
      "id" : 8245,
      "name" : null,
      "latitude" : 43.521385,
      "longitude" : 3.9534614
    },
    "openings" : {
      "start" : [ 14, 36 ],
      "end" : [ 16, 25 ]
    },
    "preferredSlots" : null,
    "doAfter" : null,
    "nbEmpRequired" : 1,
    "deadline" : [ 17, 24 ],
    "skills" : [ {
      "id" : 6,
      "name" : "CARPENTRY",
      "level" : 1
    } ],
    "duration" : 2700.000000000,
    "pause" : false
  }, {
    "id" : 944,
    "desc" : "GLAZING",
    "location" : {
      "id" : 8328,
      "name" : null,
      "latitude" : 43.88676,
      "longitude" : 4.0853486
    },
    "openings" : {
      "start" : [ 12, 51 ],
      "end" : [ 15, 20 ]
    },
    "preferredSlots" : null,
    "doAfter" : null,
    "nbEmpRequired" : 1,
    "deadline" : [ 16, 2 ],
    "skills" : [ {
      "id" : 5,
      "name" : "GLAZING",
      "level" : 1
    } ],
    "duration" : 1800.000000000,
    "pause" : false
  }, {
    "id" : 249,
    "desc" : "CARPENTRY",
    "location" : {
      "id" : 9882,
      "name" : null,
      "latitude" : 43.671143,
      "longitude" : 4.047924
    },
    "openings" : {
      "start" : [ 9, 41 ],
      "end" : [ 11, 6 ]
    },
    "preferredSlots" : null,
    "doAfter" : null,
    "nbEmpRequired" : 1,
    "deadline" : [ 9, 53 ],
    "skills" : [ {
      "id" : 6,
      "name" : "CARPENTRY",
      "level" : 1
    } ],
    "duration" : 1800.000000000,
    "pause" : false
  }, {
    "id" : 429,
    "desc" : "PAINTING",
    "location" : {
      "id" : 2418,
      "name" : null,
      "latitude" : 43.703857,
      "longitude" : 4.2082777
    },
    "openings" : {
      "start" : [ 9, 19 ],
      "end" : [ 13, 28 ]
    },
    "preferredSlots" : null,
    "doAfter" : null,
    "nbEmpRequired" : 1,
    "deadline" : [ 14, 6 ],
    "skills" : [ {
      "id" : 7,
      "name" : "PAINTING",
      "level" : 1
    } ],
    "duration" : 2700.000000000,
    "pause" : false
  }, {
    "id" : 215,
    "desc" : "PAINTING",
    "location" : {
      "id" : 9935,
      "name" : null,
      "latitude" : 44.06629,
      "longitude" : 3.7302928
    },
    "openings" : {
      "start" : [ 11, 51 ],
      "end" : [ 15, 8 ]
    },
    "preferredSlots" : null,
    "doAfter" : null,
    "nbEmpRequired" : 1,
    "deadline" : [ 16, 52 ],
    "skills" : [ {
      "id" : 7,
      "name" : "PAINTING",
      "level" : 1
    } ],
    "duration" : 3600.000000000,
    "pause" : false
  }, {
    "id" : 970,
    "desc" : "TILER",
    "location" : {
      "id" : 2217,
      "name" : null,
      "latitude" : 43.57128,
      "longitude" : 3.7601943
    },
    "openings" : {
      "start" : [ 9, 39 ],
      "end" : [ 10, 0 ]
    },
    "preferredSlots" : null,
    "doAfter" : null,
    "nbEmpRequired" : 1,
    "deadline" : [ 15, 9 ],
    "skills" : [ {
      "id" : 9,
      "name" : "TILER",
      "level" : 1
    } ],
    "duration" : 1800.000000000,
    "pause" : false
  }, {
    "id" : 547,
    "desc" : "MANAGEMENT",
    "location" : {
      "id" : 6000,
      "name" : null,
      "latitude" : 43.4471,
      "longitude" : 3.8150647
    },
    "openings" : {
      "start" : [ 10, 9 ],
      "end" : [ 15, 58 ]
    },
    "preferredSlots" : null,
    "doAfter" : null,
    "nbEmpRequired" : 1,
    "deadline" : [ 9, 41 ],
    "skills" : [ {
      "id" : 0,
      "name" : "MANAGEMENT",
      "level" : 1
    } ],
    "duration" : 1800.000000000,
    "pause" : false
  }, {
    "id" : 646,
    "desc" : "TILER",
    "location" : {
      "id" : 6288,
      "name" : null,
      "latitude" : 43.604893,
      "longitude" : 3.8210208
    },
    "openings" : {
      "start" : [ 9, 11 ],
      "end" : [ 10, 17 ]
    },
    "preferredSlots" : null,
    "doAfter" : null,
    "nbEmpRequired" : 1,
    "deadline" : [ 12, 47 ],
    "skills" : [ {
      "id" : 9,
      "name" : "TILER",
      "level" : 1
    } ],
    "duration" : 7200.000000000,
    "pause" : false
  }, {
    "id" : 610,
    "desc" : "ELECTRICIAN",
    "location" : {
      "id" : 544,
      "name" : null,
      "latitude" : 44.05311,
      "longitude" : 3.9512985
    },
    "openings" : {
      "start" : [ 9, 45 ],
      "end" : [ 14, 21 ]
    },
    "preferredSlots" : null,
    "doAfter" : null,
    "nbEmpRequired" : 1,
    "deadline" : [ 9, 49 ],
    "skills" : [ {
      "id" : 2,
      "name" : "ELECTRICIAN",
      "level" : 1
    } ],
    "duration" : 3600.000000000,
    "pause" : false
  }, {
    "id" : 764,
    "desc" : "CARPENTRY",
    "location" : {
      "id" : 9621,
      "name" : null,
      "latitude" : 43.46601,
      "longitude" : 3.8382201
    },
    "openings" : {
      "start" : [ 11, 52 ],
      "end" : [ 12, 38 ]
    },
    "preferredSlots" : null,
    "doAfter" : null,
    "nbEmpRequired" : 1,
    "deadline" : [ 14, 38 ],
    "skills" : [ {
      "id" : 6,
      "name" : "CARPENTRY",
      "level" : 1
    } ],
    "duration" : 1800.000000000,
    "pause" : false
  }, {
    "id" : 318,
    "desc" : "ELECTRICIAN",
    "location" : {
      "id" : 7721,
      "name" : null,
      "latitude" : 43.850544,
      "longitude" : 4.165864
    },
    "openings" : {
      "start" : [ 12, 52 ],
      "end" : [ 13, 18 ]
    },
    "preferredSlots" : null,
    "doAfter" : null,
    "nbEmpRequired" : 1,
    "deadline" : [ 15, 53 ],
    "skills" : [ {
      "id" : 2,
      "name" : "ELECTRICIAN",
      "level" : 1
    } ],
    "duration" : 2700.000000000,
    "pause" : false
  }, {
    "id" : 740,
    "desc" : "MASONRY",
    "location" : {
      "id" : 5318,
      "name" : null,
      "latitude" : 43.58649,
      "longitude" : 3.8319058
    },
    "openings" : {
      "start" : [ 11, 33 ],
      "end" : [ 15, 6 ]
    },
    "preferredSlots" : null,
    "doAfter" : null,
    "nbEmpRequired" : 1,
    "deadline" : [ 16, 3 ],
    "skills" : [ {
      "id" : 4,
      "name" : "MASONRY",
      "level" : 1
    } ],
    "duration" : 3600.000000000,
    "pause" : false
  } ],
  "valid" : true
}