{
  "listEdt" : [ {
    "emp" : {
      "id" : 852,
      "name" : "852",
      "shifts" : [ {
        "start" : [ 9, 0 ],
        "end" : [ 12, 0 ]
      }, {
        "start" : [ 13, 0 ],
        "end" : [ 17, 0 ]
      } ],
      "prefSlots" : null,
      "startingLoc" : {
        "id" : 1538,
        "name" : null,
        "latitude" : 43.97657,
        "longitude" : 3.7972305
      },
      "skills" : [ {
        "id" : 5,
        "name" : "GLAZING",
        "level" : 7
      }, {
        "id" : 9,
        "name" : "TILER",
        "level" : 6
      }, {
        "id" : 9,
        "name" : "TILER",
        "level" : 2
      }, {
        "id" : 8,
        "name" : "IRONWORK",
        "level" : 5
      }, {
        "id" : 3,
        "name" : "PLUMBING",
        "level" : 1
      }, {
        "id" : 0,
        "name" : "MANAGEMENT",
        "level" : 7
      }, {
        "id" : 3,
        "name" : "PLUMBING",
        "level" : 9
      }, {
        "id" : 6,
        "name" : "CARPENTRY",
        "level" : 1
      }, {
        "id" : 3,
        "name" : "PLUMBING",
        "level" : 10
      } ]
    },
    "planning" : [ {
      "job" : {
        "id" : -1,
        "desc" : "Home",
        "location" : {
          "id" : 1538,
          "name" : null,
          "latitude" : 43.97657,
          "longitude" : 3.7972305
        },
        "openings" : null,
        "preferredSlots" : null,
        "doAfter" : null,
        "nbEmpRequired" : 1,
        "deadline" : null,
        "skills" : [ ],
        "duration" : null,
        "pause" : true
      },
      "window" : {
        "start" : [ 9, 0 ],
        "end" : [ 9, 0 ]
      }
    }, {
      "job" : {
        "id" : 843,
        "desc" : "TILER, MANAGEMENT",
        "location" : {
          "id" : 3111,
          "name" : null,
          "latitude" : 43.413506,
          "longitude" : 3.8383873
        },
        "openings" : {
          "start" : [ 10, 2 ],
          "end" : [ 15, 7 ]
        },
        "preferredSlots" : null,
        "doAfter" : null,
        "nbEmpRequired" : 1,
        "deadline" : [ 17, 1 ],
        "skills" : [ {
          "id" : 9,
          "name" : "TILER",
          "level" : 1
        }, {
          "id" : 0,
          "name" : "MANAGEMENT",
          "level" : 3
        } ],
        "duration" : 3600.000000000,
        "pause" : false
      },
      "window" : {
        "start" : [ 10, 3 ],
        "end" : [ 11, 3 ]
      }
    }, {
      "job" : {
        "id" : -1,
        "desc" : "Pause",
        "location" : {
          "id" : 3111,
          "name" : null,
          "latitude" : 43.413506,
          "longitude" : 3.8383873
        },
        "openings" : {
          "start" : [ 10, 2 ],
          "end" : [ 15, 7 ]
        },
        "preferredSlots" : null,
        "doAfter" : null,
        "nbEmpRequired" : 1,
        "deadline" : [ 17, 1 ],
        "skills" : [ {
          "id" : 9,
          "name" : "TILER",
          "level" : 1
        }, {
          "id" : 0,
          "name" : "MANAGEMENT",
          "level" : 3
        } ],
        "duration" : 3600.000000000,
        "pause" : true
      },
      "window" : {
        "start" : [ 11, 4 ],
        "end" : [ 13, 0 ]
      }
    }, {
      "job" : {
        "id" : 0,
        "desc" : "IRONWORK",
        "location" : {
          "id" : 6765,
          "name" : null,
          "latitude" : 44.00158,
          "longitude" : 3.9104526
        },
        "openings" : {
          "start" : [ 9, 59 ],
          "end" : [ 12, 54 ]
        },
        "preferredSlots" : null,
        "doAfter" : null,
        "nbEmpRequired" : 1,
        "deadline" : [ 11, 18 ],
        "skills" : [ {
          "id" : 8,
          "name" : "IRONWORK",
          "level" : 2
        } ],
        "duration" : 2700.000000000,
        "pause" : false
      },
      "window" : {
        "start" : [ 14, 6 ],
        "end" : [ 14, 51 ]
      }
    }, {
      "job" : {
        "id" : 57,
        "desc" : "TILER",
        "location" : {
          "id" : 804,
          "name" : null,
          "latitude" : 43.96577,
          "longitude" : 3.8231685
        },
        "openings" : {
          "start" : [ 10, 19 ],
          "end" : [ 17, 34 ]
        },
        "preferredSlots" : null,
        "doAfter" : null,
        "nbEmpRequired" : 1,
        "deadline" : [ 12, 32 ],
        "skills" : [ {
          "id" : 9,
          "name" : "TILER",
          "level" : 2
        } ],
        "duration" : 2700.000000000,
        "pause" : false
      },
      "window" : {
        "start" : [ 15, 0 ],
        "end" : [ 15, 45 ]
      }
    } ],
    "driving" : 8280.000000000,
    "valid" : true
  }, {
    "emp" : {
      "id" : 65,
      "name" : "65",
      "shifts" : [ {
        "start" : [ 9, 0 ],
        "end" : [ 12, 0 ]
      }, {
        "start" : [ 13, 0 ],
        "end" : [ 17, 0 ]
      } ],
      "prefSlots" : null,
      "startingLoc" : {
        "id" : 70,
        "name" : null,
        "latitude" : 43.552402,
        "longitude" : 4.130686
      },
      "skills" : [ {
        "id" : 9,
        "name" : "TILER",
        "level" : 5
      }, {
        "id" : 8,
        "name" : "IRONWORK",
        "level" : 2
      }, {
        "id" : 5,
        "name" : "GLAZING",
        "level" : 5
      }, {
        "id" : 1,
        "name" : "ENGINEER",
        "level" : 10
      }, {
        "id" : 9,
        "name" : "TILER",
        "level" : 7
      }, {
        "id" : 0,
        "name" : "MANAGEMENT",
        "level" : 6
      }, {
        "id" : 3,
        "name" : "PLUMBING",
        "level" : 7
      }, {
        "id" : 1,
        "name" : "ENGINEER",
        "level" : 6
      } ]
    },
    "planning" : [ {
      "job" : {
        "id" : -1,
        "desc" : "Home",
        "location" : {
          "id" : 70,
          "name" : null,
          "latitude" : 43.552402,
          "longitude" : 4.130686
        },
        "openings" : null,
        "preferredSlots" : null,
        "doAfter" : null,
        "nbEmpRequired" : 1,
        "deadline" : null,
        "skills" : [ ],
        "duration" : null,
        "pause" : true
      },
      "window" : {
        "start" : [ 9, 0 ],
        "end" : [ 9, 0 ]
      }
    }, {
      "job" : {
        "id" : 176,
        "desc" : "TILER, ENGINEER",
        "location" : {
          "id" : 4844,
          "name" : null,
          "latitude" : 43.637005,
          "longitude" : 3.9340367
        },
        "openings" : {
          "start" : [ 9, 44 ],
          "end" : [ 17, 37 ]
        },
        "preferredSlots" : null,
        "doAfter" : null,
        "nbEmpRequired" : 1,
        "deadline" : [ 17, 18 ],
        "skills" : [ {
          "id" : 9,
          "name" : "TILER",
          "level" : 1
        }, {
          "id" : 1,
          "name" : "ENGINEER",
          "level" : 5
        } ],
        "duration" : 5400.000000000,
        "pause" : false
      },
      "window" : {
        "start" : [ 9, 19 ],
        "end" : [ 10, 49 ]
      }
    }, {
      "job" : {
        "id" : -1,
        "desc" : "Pause",
        "location" : {
          "id" : 4844,
          "name" : null,
          "latitude" : 43.637005,
          "longitude" : 3.9340367
        },
        "openings" : {
          "start" : [ 9, 44 ],
          "end" : [ 17, 37 ]
        },
        "preferredSlots" : null,
        "doAfter" : null,
        "nbEmpRequired" : 1,
        "deadline" : [ 17, 18 ],
        "skills" : [ {
          "id" : 9,
          "name" : "TILER",
          "level" : 1
        }, {
          "id" : 1,
          "name" : "ENGINEER",
          "level" : 5
        } ],
        "duration" : 5400.000000000,
        "pause" : true
      },
      "window" : {
        "start" : [ 10, 50 ],
        "end" : [ 13, 0 ]
      }
    }, {
      "job" : {
        "id" : 706,
        "desc" : "IRONWORK, ENGINEER",
        "location" : {
          "id" : 6940,
          "name" : null,
          "latitude" : 44.09009,
          "longitude" : 4.2164264
        },
        "openings" : {
          "start" : [ 15, 7 ],
          "end" : [ 15, 59 ]
        },
        "preferredSlots" : null,
        "doAfter" : null,
        "nbEmpRequired" : 1,
        "deadline" : [ 15, 25 ],
        "skills" : [ {
          "id" : 8,
          "name" : "IRONWORK",
          "level" : 1
        }, {
          "id" : 1,
          "name" : "ENGINEER",
          "level" : 2
        } ],
        "duration" : 1800.000000000,
        "pause" : false
      },
      "window" : {
        "start" : [ 13, 56 ],
        "end" : [ 14, 26 ]
      }
    } ],
    "driving" : 4500.000000000,
    "valid" : true
  } ],
  "unassigned" : [ {
    "id" : 771,
    "desc" : "MASONRY, CARPENTRY",
    "location" : {
      "id" : 7210,
      "name" : null,
      "latitude" : 43.491493,
      "longitude" : 3.979323
    },
    "openings" : {
      "start" : [ 11, 58 ],
      "end" : [ 12, 50 ]
    },
    "preferredSlots" : null,
    "doAfter" : null,
    "nbEmpRequired" : 1,
    "deadline" : [ 17, 20 ],
    "skills" : [ {
      "id" : 4,
      "name" : "MASONRY",
      "level" : 3
    }, {
      "id" : 6,
      "name" : "CARPENTRY",
      "level" : 4
    } ],
    "duration" : 5400.000000000,
    "pause" : false
  }, {
    "id" : 995,
    "desc" : "CARPENTRY, ENGINEER",
    "location" : {
      "id" : 6744,
      "name" : null,
      "latitude" : 43.911552,
      "longitude" : 4.125416
    },
    "openings" : {
      "start" : [ 16, 39 ],
      "end" : [ 17, 28 ]
    },
    "preferredSlots" : null,
    "doAfter" : null,
    "nbEmpRequired" : 1,
    "deadline" : [ 12, 21 ],
    "skills" : [ {
      "id" : 6,
      "name" : "CARPENTRY",
      "level" : 2
    }, {
      "id" : 1,
      "name" : "ENGINEER",
      "level" : 3
    } ],
    "duration" : 1800.000000000,
    "pause" : false
  }, {
    "id" : 835,
    "desc" : "ENGINEER, IRONWORK",
    "location" : {
      "id" : 9408,
      "name" : null,
      "latitude" : 43.606163,
      "longitude" : 4.030441
    },
    "openings" : {
      "start" : [ 11, 20 ],
      "end" : [ 14, 0 ]
    },
    "preferredSlots" : null,
    "doAfter" : null,
    "nbEmpRequired" : 1,
    "deadline" : [ 15, 9 ],
    "skills" : [ {
      "id" : 1,
      "name" : "ENGINEER",
      "level" : 1
    }, {
      "id" : 8,
      "name" : "IRONWORK",
      "level" : 4
    } ],
    "duration" : 3600.000000000,
    "pause" : false
  }, {
    "id" : 438,
    "desc" : "PLUMBING, PAINTING",
    "location" : {
      "id" : 2115,
      "name" : null,
      "latitude" : 43.893745,
      "longitude" : 4.139249
    },
    "openings" : {
      "start" : [ 16, 2 ],
      "end" : [ 16, 51 ]
    },
    "preferredSlots" : null,
    "doAfter" : null,
    "nbEmpRequired" : 1,
    "deadline" : [ 14, 7 ],
    "skills" : [ {
      "id" : 3,
      "name" : "PLUMBING",
      "level" : 1
    }, {
      "id" : 7,
      "name" : "PAINTING",
      "level" : 2
    } ],
    "duration" : 7200.000000000,
    "pause" : false
  }, {
    "id" : 443,
    "desc" : "MASONRY",
    "location" : {
      "id" : 1294,
      "name" : null,
      "latitude" : 44.025166,
      "longitude" : 3.9861038
    },
    "openings" : {
      "start" : [ 9, 40 ],
      "end" : [ 16, 41 ]
    },
    "preferredSlots" : null,
    "doAfter" : null,
    "nbEmpRequired" : 1,
    "deadline" : [ 16, 59 ],
    "skills" : [ {
      "id" : 4,
      "name" : "MASONRY",
      "level" : 1
    } ],
    "duration" : 3600.000000000,
    "pause" : false
  } ],
  "valid" : true
}