{
  "listEdt" : [ {
    "emp" : {
      "id" : 798,
      "name" : "798",
      "shifts" : [ {
        "start" : [ 9, 0 ],
        "end" : [ 12, 0 ]
      }, {
        "start" : [ 13, 0 ],
        "end" : [ 17, 0 ]
      } ],
      "prefSlots" : null,
      "startingLoc" : {
        "id" : 8435,
        "name" : null,
        "latitude" : 43.607147,
        "longitude" : 3.936789
      },
      "skills" : [ {
        "id" : 5,
        "name" : "GLAZING",
        "level" : 10
      }, {
        "id" : 2,
        "name" : "ELECTRICIAN",
        "level" : 6
      }, {
        "id" : 2,
        "name" : "ELECTRICIAN",
        "level" : 8
      }, {
        "id" : 6,
        "name" : "CARPENTRY",
        "level" : 9
      }, {
        "id" : 4,
        "name" : "MASONRY",
        "level" : 5
      }, {
        "id" : 7,
        "name" : "PAINTING",
        "level" : 9
      }, {
        "id" : 1,
        "name" : "ENGINEER",
        "level" : 3
      } ]
    },
    "planning" : [ {
      "job" : {
        "id" : -1,
        "desc" : "Home",
        "location" : {
          "id" : 8435,
          "name" : null,
          "latitude" : 43.607147,
          "longitude" : 3.936789
        },
        "openings" : null,
        "preferredSlots" : null,
        "doAfter" : null,
        "nbEmpRequired" : 1,
        "deadline" : null,
        "skills" : [ ],
        "duration" : null,
        "pause" : true
      },
      "window" : {
        "start" : [ 9, 0 ],
        "end" : [ 9, 0 ]
      }
    }, {
      "job" : {
        "id" : 968,
        "desc" : "PAINTING",
        "location" : {
          "id" : 6138,
          "name" : null,
          "latitude" : 43.881836,
          "longitude" : 4.2171884
        },
        "openings" : {
          "start" : [ 16, 31 ],
          "end" : [ 17, 29 ]
        },
        "preferredSlots" : null,
        "doAfter" : null,
        "nbEmpRequired" : 1,
        "deadline" : [ 9, 50 ],
        "skills" : [ {
          "id" : 7,
          "name" : "PAINTING",
          "level" : 4
        } ],
        "duration" : 1800.000000000,
        "pause" : false
      },
      "window" : {
        "start" : [ 9, 38 ],
        "end" : [ 10, 8 ]
      }
    }, {
      "job" : {
        "id" : 633,
        "desc" : "MASONRY",
        "location" : {
          "id" : 6120,
          "name" : null,
          "latitude" : 43.966843,
          "longitude" : 4.191806
        },
        "openings" : {
          "start" : [ 11, 18 ],
          "end" : [ 17, 42 ]
        },
        "preferredSlots" : null,
        "doAfter" : null,
        "nbEmpRequired" : 1,
        "deadline" : [ 12, 4 ],
        "skills" : [ {
          "id" : 4,
          "name" : "MASONRY",
          "level" : 3
        } ],
        "duration" : 3600.000000000,
        "pause" : false
      },
      "window" : {
        "start" : [ 10, 18 ],
        "end" : [ 11, 18 ]
      }
    }, {
      "job" : {
        "id" : -1,
        "desc" : "Pause",
        "location" : {
          "id" : 6120,
          "name" : null,
          "latitude" : 43.966843,
          "longitude" : 4.191806
        },
        "openings" : {
          "start" : [ 11, 18 ],
          "end" : [ 17, 42 ]
        },
        "preferredSlots" : null,
        "doAfter" : null,
        "nbEmpRequired" : 1,
        "deadline" : [ 12, 4 ],
        "skills" : [ {
          "id" : 4,
          "name" : "MASONRY",
          "level" : 3
        } ],
        "duration" : 3600.000000000,
        "pause" : true
      },
      "window" : {
        "start" : [ 11, 19 ],
        "end" : [ 13, 0 ]
      }
    }, {
      "job" : {
        "id" : 159,
        "desc" : "GLAZING",
        "location" : {
          "id" : 7363,
          "name" : null,
          "latitude" : 44.064365,
          "longitude" : 4.257773
        },
        "openings" : {
          "start" : [ 9, 3 ],
          "end" : [ 11, 49 ]
        },
        "preferredSlots" : null,
        "doAfter" : null,
        "nbEmpRequired" : 1,
        "deadline" : [ 14, 8 ],
        "skills" : [ {
          "id" : 5,
          "name" : "GLAZING",
          "level" : 2
        } ],
        "duration" : 2700.000000000,
        "pause" : false
      },
      "window" : {
        "start" : [ 13, 13 ],
        "end" : [ 13, 58 ]
      }
    }, {
      "job" : {
        "id" : 153,
        "desc" : "PAINTING",
        "location" : {
          "id" : 4285,
          "name" : null,
          "latitude" : 44.038273,
          "longitude" : 3.8565288
        },
        "openings" : {
          "start" : [ 14, 31 ],
          "end" : [ 15, 0 ]
        },
        "preferredSlots" : null,
        "doAfter" : null,
        "nbEmpRequired" : 1,
        "deadline" : [ 15, 7 ],
        "skills" : [ {
          "id" : 7,
          "name" : "PAINTING",
          "level" : 2
        } ],
        "duration" : 1800.000000000,
        "pause" : false
      },
      "window" : {
        "start" : [ 14, 31 ],
        "end" : [ 15, 1 ]
      }
    } ],
    "driving" : 5640.000000000,
    "valid" : true
  }, {
    "emp" : {
      "id" : 159,
      "name" : "159",
      "shifts" : [ {
        "start" : [ 9, 0 ],
        "end" : [ 12, 0 ]
      }, {
        "start" : [ 13, 0 ],
        "end" : [ 17, 0 ]
      } ],
      "prefSlots" : null,
      "startingLoc" : {
        "id" : 9444,
        "name" : null,
        "latitude" : 43.98145,
        "longitude" : 4.1091576
      },
      "skills" : [ {
        "id" : 8,
        "name" : "IRONWORK",
        "level" : 6
      }, {
        "id" : 7,
        "name" : "PAINTING",
        "level" : 4
      }, {
        "id" : 2,
        "name" : "ELECTRICIAN",
        "level" : 7
      }, {
        "id" : 3,
        "name" : "PLUMBING",
        "level" : 1
      }, {
        "id" : 5,
        "name" : "GLAZING",
        "level" : 3
      } ]
    },
    "planning" : [ {
      "job" : {
        "id" : -1,
        "desc" : "Home",
        "location" : {
          "id" : 9444,
          "name" : null,
          "latitude" : 43.98145,
          "longitude" : 4.1091576
        },
        "openings" : null,
        "preferredSlots" : null,
        "doAfter" : null,
        "nbEmpRequired" : 1,
        "deadline" : null,
        "skills" : [ ],
        "duration" : null,
        "pause" : true
      },
      "window" : {
        "start" : [ 9, 0 ],
        "end" : [ 9, 0 ]
      }
    }, {
      "job" : {
        "id" : 590,
        "desc" : "IRONWORK, GLAZING",
        "location" : {
          "id" : 8193,
          "name" : null,
          "latitude" : 44.04594,
          "longitude" : 4.1487966
        },
        "openings" : {
          "start" : [ 14, 21 ],
          "end" : [ 15, 7 ]
        },
        "preferredSlots" : null,
        "doAfter" : null,
        "nbEmpRequired" : 1,
        "deadline" : [ 12, 8 ],
        "skills" : [ {
          "id" : 8,
          "name" : "IRONWORK",
          "level" : 3
        }, {
          "id" : 5,
          "name" : "GLAZING",
          "level" : 2
        } ],
        "duration" : 1800.000000000,
        "pause" : false
      },
      "window" : {
        "start" : [ 9, 8 ],
        "end" : [ 9, 38 ]
      }
    }, {
      "job" : {
        "id" : 320,
        "desc" : "IRONWORK, GLAZING",
        "location" : {
          "id" : 1573,
          "name" : null,
          "latitude" : 43.909927,
          "longitude" : 3.8025124
        },
        "openings" : {
          "start" : [ 14, 55 ],
          "end" : [ 16, 6 ]
        },
        "preferredSlots" : null,
        "doAfter" : null,
        "nbEmpRequired" : 1,
        "deadline" : [ 13, 43 ],
        "skills" : [ {
          "id" : 8,
          "name" : "IRONWORK",
          "level" : 1
        }, {
          "id" : 5,
          "name" : "GLAZING",
          "level" : 1
        } ],
        "duration" : 5400.000000000,
        "pause" : false
      },
      "window" : {
        "start" : [ 10, 10 ],
        "end" : [ 11, 40 ]
      }
    }, {
      "job" : {
        "id" : -1,
        "desc" : "Pause",
        "location" : {
          "id" : 1573,
          "name" : null,
          "latitude" : 43.909927,
          "longitude" : 3.8025124
        },
        "openings" : {
          "start" : [ 14, 55 ],
          "end" : [ 16, 6 ]
        },
        "preferredSlots" : null,
        "doAfter" : null,
        "nbEmpRequired" : 1,
        "deadline" : [ 13, 43 ],
        "skills" : [ {
          "id" : 8,
          "name" : "IRONWORK",
          "level" : 1
        }, {
          "id" : 5,
          "name" : "GLAZING",
          "level" : 1
        } ],
        "duration" : 5400.000000000,
        "pause" : true
      },
      "window" : {
        "start" : [ 11, 41 ],
        "end" : [ 13, 0 ]
      }
    }, {
      "job" : {
        "id" : 698,
        "desc" : "IRONWORK",
        "location" : {
          "id" : 8470,
          "name" : null,
          "latitude" : 43.717094,
          "longitude" : 4.1277733
        },
        "openings" : {
          "start" : [ 9, 44 ],
          "end" : [ 16, 11 ]
        },
        "preferredSlots" : null,
        "doAfter" : null,
        "nbEmpRequired" : 1,
        "deadline" : [ 14, 19 ],
        "skills" : [ {
          "id" : 8,
          "name" : "IRONWORK",
          "level" : 1
        } ],
        "duration" : 7200.000000000,
        "pause" : false
      },
      "window" : {
        "start" : [ 13, 34 ],
        "end" : [ 15, 34 ]
      }
    } ],
    "driving" : 4440.000000000,
    "valid" : true
  }, {
    "emp" : {
      "id" : 893,
      "name" : "893",
      "shifts" : [ {
        "start" : [ 9, 0 ],
        "end" : [ 12, 0 ]
      }, {
        "start" : [ 13, 0 ],
        "end" : [ 17, 0 ]
      } ],
      "prefSlots" : null,
      "startingLoc" : {
        "id" : 2807,
        "name" : null,
        "latitude" : 43.66947,
        "longitude" : 4.0950127
      },
      "skills" : [ {
        "id" : 4,
        "name" : "MASONRY",
        "level" : 8
      }, {
        "id" : 9,
        "name" : "TILER",
        "level" : 5
      }, {
        "id" : 3,
        "name" : "PLUMBING",
        "level" : 8
      }, {
        "id" : 1,
        "name" : "ENGINEER",
        "level" : 3
      }, {
        "id" : 8,
        "name" : "IRONWORK",
        "level" : 10
      }, {
        "id" : 7,
        "name" : "PAINTING",
        "level" : 8
      }, {
        "id" : 4,
        "name" : "MASONRY",
        "level" : 7
      }, {
        "id" : 1,
        "name" : "ENGINEER",
        "level" : 10
      }, {
        "id" : 4,
        "name" : "MASONRY",
        "level" : 8
      }, {
        "id" : 1,
        "name" : "ENGINEER",
        "level" : 3
      } ]
    },
    "planning" : [ {
      "job" : {
        "id" : -1,
        "desc" : "Home",
        "location" : {
          "id" : 2807,
          "name" : null,
          "latitude" : 43.66947,
          "longitude" : 4.0950127
        },
        "openings" : null,
        "preferredSlots" : null,
        "doAfter" : null,
        "nbEmpRequired" : 1,
        "deadline" : null,
        "skills" : [ ],
        "duration" : null,
        "pause" : true
      },
      "window" : {
        "start" : [ 9, 0 ],
        "end" : [ 9, 0 ]
      }
    }, {
      "job" : {
        "id" : 172,
        "desc" : "TILER, ENGINEER",
        "location" : {
          "id" : 571,
          "name" : null,
          "latitude" : 43.8605,
          "longitude" : 4.0896606
        },
        "openings" : {
          "start" : [ 10, 36 ],
          "end" : [ 11, 49 ]
        },
        "preferredSlots" : null,
        "doAfter" : null,
        "nbEmpRequired" : 1,
        "deadline" : [ 16, 36 ],
        "skills" : [ {
          "id" : 9,
          "name" : "TILER",
          "level" : 2
        }, {
          "id" : 1,
          "name" : "ENGINEER",
          "level" : 3
        } ],
        "duration" : 5400.000000000,
        "pause" : false
      },
      "window" : {
        "start" : [ 9, 22 ],
        "end" : [ 10, 52 ]
      }
    }, {
      "job" : {
        "id" : -1,
        "desc" : "Pause",
        "location" : {
          "id" : 571,
          "name" : null,
          "latitude" : 43.8605,
          "longitude" : 4.0896606
        },
        "openings" : {
          "start" : [ 10, 36 ],
          "end" : [ 11, 49 ]
        },
        "preferredSlots" : null,
        "doAfter" : null,
        "nbEmpRequired" : 1,
        "deadline" : [ 16, 36 ],
        "skills" : [ {
          "id" : 9,
          "name" : "TILER",
          "level" : 2
        }, {
          "id" : 1,
          "name" : "ENGINEER",
          "level" : 3
        } ],
        "duration" : 5400.000000000,
        "pause" : true
      },
      "window" : {
        "start" : [ 10, 53 ],
        "end" : [ 13, 0 ]
      }
    } ],
    "driving" : 1320.000000000,
    "valid" : true
  }, {
    "emp" : {
      "id" : 247,
      "name" : "247",
      "shifts" : [ {
        "start" : [ 9, 0 ],
        "end" : [ 12, 0 ]
      }, {
        "start" : [ 13, 0 ],
        "end" : [ 17, 0 ]
      } ],
      "prefSlots" : null,
      "startingLoc" : {
        "id" : 3632,
        "name" : null,
        "latitude" : 43.915413,
        "longitude" : 3.9268506
      },
      "skills" : [ {
        "id" : 5,
        "name" : "GLAZING",
        "level" : 4
      }, {
        "id" : 5,
        "name" : "GLAZING",
        "level" : 2
      }, {
        "id" : 7,
        "name" : "PAINTING",
        "level" : 9
      }, {
        "id" : 4,
        "name" : "MASONRY",
        "level" : 10
      }, {
        "id" : 1,
        "name" : "ENGINEER",
        "level" : 10
      }, {
        "id" : 8,
        "name" : "IRONWORK",
        "level" : 1
      }, {
        "id" : 2,
        "name" : "ELECTRICIAN",
        "level" : 1
      }, {
        "id" : 8,
        "name" : "IRONWORK",
        "level" : 3
      }, {
        "id" : 1,
        "name" : "ENGINEER",
        "level" : 8
      } ]
    },
    "planning" : [ {
      "job" : {
        "id" : -1,
        "desc" : "Home",
        "location" : {
          "id" : 3632,
          "name" : null,
          "latitude" : 43.915413,
          "longitude" : 3.9268506
        },
        "openings" : null,
        "preferredSlots" : null,
        "doAfter" : null,
        "nbEmpRequired" : 1,
        "deadline" : null,
        "skills" : [ ],
        "duration" : null,
        "pause" : true
      },
      "window" : {
        "start" : [ 9, 0 ],
        "end" : [ 9, 0 ]
      }
    }, {
      "job" : {
        "id" : -1,
        "desc" : "Pause",
        "location" : {
          "id" : 3632,
          "name" : null,
          "latitude" : 43.915413,
          "longitude" : 3.9268506
        },
        "openings" : null,
        "preferredSlots" : null,
        "doAfter" : null,
        "nbEmpRequired" : 1,
        "deadline" : null,
        "skills" : [ ],
        "duration" : null,
        "pause" : true
      },
      "window" : {
        "start" : [ 9, 1 ],
        "end" : [ 13, 0 ]
      }
    } ],
    "driving" : 0.0,
    "valid" : true
  }, {
    "emp" : {
      "id" : 429,
      "name" : "429",
      "shifts" : [ {
        "start" : [ 9, 0 ],
        "end" : [ 12, 0 ]
      }, {
        "start" : [ 13, 0 ],
        "end" : [ 17, 0 ]
      } ],
      "prefSlots" : null,
      "startingLoc" : {
        "id" : 2630,
        "name" : null,
        "latitude" : 44.005802,
        "longitude" : 4.0449452
      },
      "skills" : [ {
        "id" : 3,
        "name" : "PLUMBING",
        "level" : 4
      }, {
        "id" : 6,
        "name" : "CARPENTRY",
        "level" : 4
      }, {
        "id" : 7,
        "name" : "PAINTING",
        "level" : 10
      } ]
    },
    "planning" : [ {
      "job" : {
        "id" : -1,
        "desc" : "Home",
        "location" : {
          "id" : 2630,
          "name" : null,
          "latitude" : 44.005802,
          "longitude" : 4.0449452
        },
        "openings" : null,
        "preferredSlots" : null,
        "doAfter" : null,
        "nbEmpRequired" : 1,
        "deadline" : null,
        "skills" : [ ],
        "duration" : null,
        "pause" : true
      },
      "window" : {
        "start" : [ 9, 0 ],
        "end" : [ 9, 0 ]
      }
    }, {
      "job" : {
        "id" : -1,
        "desc" : "Pause",
        "location" : {
          "id" : 2630,
          "name" : null,
          "latitude" : 44.005802,
          "longitude" : 4.0449452
        },
        "openings" : null,
        "preferredSlots" : null,
        "doAfter" : null,
        "nbEmpRequired" : 1,
        "deadline" : null,
        "skills" : [ ],
        "duration" : null,
        "pause" : true
      },
      "window" : {
        "start" : [ 9, 1 ],
        "end" : [ 13, 0 ]
      }
    } ],
    "driving" : 0.0,
    "valid" : true
  } ],
  "unassigned" : [ {
    "id" : 306,
    "desc" : "GLAZING, TILER",
    "location" : {
      "id" : 3343,
      "name" : null,
      "latitude" : 43.449364,
      "longitude" : 3.7095325
    },
    "openings" : {
      "start" : [ 15, 28 ],
      "end" : [ 16, 44 ]
    },
    "preferredSlots" : null,
    "doAfter" : null,
    "nbEmpRequired" : 1,
    "deadline" : [ 12, 25 ],
    "skills" : [ {
      "id" : 5,
      "name" : "GLAZING",
      "level" : 1
    }, {
      "id" : 9,
      "name" : "TILER",
      "level" : 4
    } ],
    "duration" : 5400.000000000,
    "pause" : false
  }, {
    "id" : 832,
    "desc" : "MANAGEMENT",
    "location" : {
      "id" : 6971,
      "name" : null,
      "latitude" : 44.049034,
      "longitude" : 4.10487
    },
    "openings" : {
      "start" : [ 12, 43 ],
      "end" : [ 14, 14 ]
    },
    "preferredSlots" : null,
    "doAfter" : null,
    "nbEmpRequired" : 1,
    "deadline" : [ 17, 18 ],
    "skills" : [ {
      "id" : 0,
      "name" : "MANAGEMENT",
      "level" : 3
    } ],
    "duration" : 3600.000000000,
    "pause" : false
  } ],
  "valid" : true
}