{
  "listEdt" : [ {
    "emp" : {
      "id" : 528,
      "name" : "528",
      "shifts" : [ {
        "start" : [ 9, 0 ],
        "end" : [ 12, 0 ]
      }, {
        "start" : [ 13, 0 ],
        "end" : [ 17, 0 ]
      } ],
      "prefSlots" : null,
      "startingLoc" : {
        "id" : 5903,
        "name" : null,
        "latitude" : 43.65204,
        "longitude" : 3.900587
      },
      "skills" : [ {
        "id" : 7,
        "name" : "PAINTING",
        "level" : 9
      }, {
        "id" : 1,
        "name" : "ENGINEER",
        "level" : 8
      }, {
        "id" : 8,
        "name" : "IRONWORK",
        "level" : 3
      }, {
        "id" : 5,
        "name" : "GLAZING",
        "level" : 2
      }, {
        "id" : 4,
        "name" : "MASONRY",
        "level" : 4
      } ]
    },
    "planning" : [ {
      "job" : {
        "id" : -1,
        "desc" : "Home",
        "location" : {
          "id" : 5903,
          "name" : null,
          "latitude" : 43.65204,
          "longitude" : 3.900587
        },
        "openings" : null,
        "preferredSlots" : null,
        "doAfter" : null,
        "nbEmpRequired" : 1,
        "deadline" : null,
        "skills" : [ ],
        "duration" : null,
        "pause" : true
      },
      "window" : {
        "start" : [ 9, 0 ],
        "end" : [ 9, 0 ]
      }
    }, {
      "job" : {
        "id" : 980,
        "desc" : "ENGINEER",
        "location" : {
          "id" : 7642,
          "name" : null,
          "latitude" : 43.5912,
          "longitude" : 4.0158644
        },
        "openings" : {
          "start" : [ 9, 21 ],
          "end" : [ 14, 57 ]
        },
        "preferredSlots" : null,
        "doAfter" : null,
        "nbEmpRequired" : 1,
        "deadline" : [ 12, 13 ],
        "skills" : [ {
          "id" : 1,
          "name" : "ENGINEER",
          "level" : 5
        } ],
        "duration" : 1800.000000000,
        "pause" : false
      },
      "window" : {
        "start" : [ 9, 12 ],
        "end" : [ 9, 42 ]
      }
    }, {
      "job" : {
        "id" : 138,
        "desc" : "ENGINEER",
        "location" : {
          "id" : 7076,
          "name" : null,
          "latitude" : 43.79527,
          "longitude" : 3.7187667
        },
        "openings" : {
          "start" : [ 10, 18 ],
          "end" : [ 14, 36 ]
        },
        "preferredSlots" : null,
        "doAfter" : null,
        "nbEmpRequired" : 1,
        "deadline" : [ 16, 16 ],
        "skills" : [ {
          "id" : 1,
          "name" : "ENGINEER",
          "level" : 2
        } ],
        "duration" : 2700.000000000,
        "pause" : false
      },
      "window" : {
        "start" : [ 10, 15 ],
        "end" : [ 11, 0 ]
      }
    }, {
      "job" : {
        "id" : -1,
        "desc" : "Pause",
        "location" : {
          "id" : 7076,
          "name" : null,
          "latitude" : 43.79527,
          "longitude" : 3.7187667
        },
        "openings" : {
          "start" : [ 10, 18 ],
          "end" : [ 14, 36 ]
        },
        "preferredSlots" : null,
        "doAfter" : null,
        "nbEmpRequired" : 1,
        "deadline" : [ 16, 16 ],
        "skills" : [ {
          "id" : 1,
          "name" : "ENGINEER",
          "level" : 2
        } ],
        "duration" : 2700.000000000,
        "pause" : true
      },
      "window" : {
        "start" : [ 11, 1 ],
        "end" : [ 13, 0 ]
      }
    } ],
    "driving" : 2700.000000000,
    "valid" : true
  }, {
    "emp" : {
      "id" : 909,
      "name" : "909",
      "shifts" : [ {
        "start" : [ 9, 0 ],
        "end" : [ 12, 0 ]
      }, {
        "start" : [ 13, 0 ],
        "end" : [ 17, 0 ]
      } ],
      "prefSlots" : null,
      "startingLoc" : {
        "id" : 8923,
        "name" : null,
        "latitude" : 44.011642,
        "longitude" : 3.8158364
      },
      "skills" : [ {
        "id" : 6,
        "name" : "CARPENTRY",
        "level" : 4
      } ]
    },
    "planning" : [ {
      "job" : {
        "id" : -1,
        "desc" : "Home",
        "location" : {
          "id" : 8923,
          "name" : null,
          "latitude" : 44.011642,
          "longitude" : 3.8158364
        },
        "openings" : null,
        "preferredSlots" : null,
        "doAfter" : null,
        "nbEmpRequired" : 1,
        "deadline" : null,
        "skills" : [ ],
        "duration" : null,
        "pause" : true
      },
      "window" : {
        "start" : [ 9, 0 ],
        "end" : [ 9, 0 ]
      }
    }, {
      "job" : {
        "id" : -1,
        "desc" : "Pause",
        "location" : {
          "id" : 8923,
          "name" : null,
          "latitude" : 44.011642,
          "longitude" : 3.8158364
        },
        "openings" : null,
        "preferredSlots" : null,
        "doAfter" : null,
        "nbEmpRequired" : 1,
        "deadline" : null,
        "skills" : [ ],
        "duration" : null,
        "pause" : true
      },
      "window" : {
        "start" : [ 9, 1 ],
        "end" : [ 13, 0 ]
      }
    } ],
    "driving" : 0.0,
    "valid" : true
  } ],
  "unassigned" : [ {
    "id" : 646,
    "desc" : "ENGINEER, CARPENTRY",
    "location" : {
      "id" : 3370,
      "name" : null,
      "latitude" : 43.89774,
      "longitude" : 3.837764
    },
    "openings" : {
      "start" : [ 11, 0 ],
      "end" : [ 17, 2 ]
    },
    "preferredSlots" : null,
    "doAfter" : null,
    "nbEmpRequired" : 1,
    "deadline" : [ 12, 39 ],
    "skills" : [ {
      "id" : 1,
      "name" : "ENGINEER",
      "level" : 5
    }, {
      "id" : 6,
      "name" : "CARPENTRY",
      "level" : 3
    } ],
    "duration" : 2700.000000000,
    "pause" : false
  }, {
    "id" : 323,
    "desc" : "MANAGEMENT, PLUMBING",
    "location" : {
      "id" : 87,
      "name" : null,
      "latitude" : 43.41391,
      "longitude" : 4.041127
    },
    "openings" : {
      "start" : [ 15, 20 ],
      "end" : [ 17, 52 ]
    },
    "preferredSlots" : null,
    "doAfter" : null,
    "nbEmpRequired" : 1,
    "deadline" : [ 10, 15 ],
    "skills" : [ {
      "id" : 0,
      "name" : "MANAGEMENT",
      "level" : 2
    }, {
      "id" : 3,
      "name" : "PLUMBING",
      "level" : 4
    } ],
    "duration" : 2700.000000000,
    "pause" : false
  }, {
    "id" : 496,
    "desc" : "TILER, ELECTRICIAN",
    "location" : {
      "id" : 8301,
      "name" : null,
      "latitude" : 44.087933,
      "longitude" : 3.7111447
    },
    "openings" : {
      "start" : [ 13, 58 ],
      "end" : [ 16, 15 ]
    },
    "preferredSlots" : null,
    "doAfter" : null,
    "nbEmpRequired" : 1,
    "deadline" : [ 9, 28 ],
    "skills" : [ {
      "id" : 9,
      "name" : "TILER",
      "level" : 1
    }, {
      "id" : 2,
      "name" : "ELECTRICIAN",
      "level" : 2
    } ],
    "duration" : 3600.000000000,
    "pause" : false
  }, {
    "id" : 176,
    "desc" : "MANAGEMENT, PLUMBING",
    "location" : {
      "id" : 9328,
      "name" : null,
      "latitude" : 43.77576,
      "longitude" : 4.13427
    },
    "openings" : {
      "start" : [ 9, 41 ],
      "end" : [ 12, 59 ]
    },
    "preferredSlots" : null,
    "doAfter" : null,
    "nbEmpRequired" : 1,
    "deadline" : [ 13, 27 ],
    "skills" : [ {
      "id" : 0,
      "name" : "MANAGEMENT",
      "level" : 1
    }, {
      "id" : 3,
      "name" : "PLUMBING",
      "level" : 1
    } ],
    "duration" : 5400.000000000,
    "pause" : false
  }, {
    "id" : 844,
    "desc" : "MASONRY",
    "location" : {
      "id" : 7913,
      "name" : null,
      "latitude" : 43.905468,
      "longitude" : 3.7066567
    },
    "openings" : {
      "start" : [ 12, 4 ],
      "end" : [ 15, 45 ]
    },
    "preferredSlots" : null,
    "doAfter" : null,
    "nbEmpRequired" : 1,
    "deadline" : [ 9, 35 ],
    "skills" : [ {
      "id" : 4,
      "name" : "MASONRY",
      "level" : 5
    } ],
    "duration" : 3600.000000000,
    "pause" : false
  }, {
    "id" : 518,
    "desc" : "IRONWORK",
    "location" : {
      "id" : 7756,
      "name" : null,
      "latitude" : 44.010162,
      "longitude" : 4.1681514
    },
    "openings" : {
      "start" : [ 10, 47 ],
      "end" : [ 15, 52 ]
    },
    "preferredSlots" : null,
    "doAfter" : null,
    "nbEmpRequired" : 1,
    "deadline" : [ 13, 1 ],
    "skills" : [ {
      "id" : 8,
      "name" : "IRONWORK",
      "level" : 5
    } ],
    "duration" : 3600.000000000,
    "pause" : false
  }, {
    "id" : 799,
    "desc" : "ELECTRICIAN",
    "location" : {
      "id" : 420,
      "name" : null,
      "latitude" : 43.83672,
      "longitude" : 4.1910706
    },
    "openings" : {
      "start" : [ 11, 22 ],
      "end" : [ 15, 45 ]
    },
    "preferredSlots" : null,
    "doAfter" : null,
    "nbEmpRequired" : 1,
    "deadline" : [ 10, 54 ],
    "skills" : [ {
      "id" : 2,
      "name" : "ELECTRICIAN",
      "level" : 3
    } ],
    "duration" : 5400.000000000,
    "pause" : false
  }, {
    "id" : 740,
    "desc" : "TILER",
    "location" : {
      "id" : 4046,
      "name" : null,
      "latitude" : 43.648254,
      "longitude" : 3.9114518
    },
    "openings" : {
      "start" : [ 10, 47 ],
      "end" : [ 17, 33 ]
    },
    "preferredSlots" : null,
    "doAfter" : null,
    "nbEmpRequired" : 1,
    "deadline" : [ 11, 28 ],
    "skills" : [ {
      "id" : 9,
      "name" : "TILER",
      "level" : 2
    } ],
    "duration" : 3600.000000000,
    "pause" : false
  } ],
  "valid" : true
}