{
  "listEdt" : [ {
    "emp" : {
      "id" : 620,
      "name" : "620",
      "shifts" : [ {
        "start" : [ 9, 0 ],
        "end" : [ 12, 0 ]
      }, {
        "start" : [ 13, 0 ],
        "end" : [ 17, 0 ]
      } ],
      "prefSlots" : null,
      "startingLoc" : {
        "id" : 6297,
        "name" : null,
        "latitude" : 44.086243,
        "longitude" : 4.283084
      },
      "skills" : [ {
        "id" : 8,
        "name" : "IRONWORK",
        "level" : 5
      }, {
        "id" : 3,
        "name" : "PLUMBING",
        "level" : 3
      }, {
        "id" : 2,
        "name" : "ELECTRICIAN",
        "level" : 7
      }, {
        "id" : 2,
        "name" : "ELECTRICIAN",
        "level" : 1
      }, {
        "id" : 9,
        "name" : "TILER",
        "level" : 3
      }, {
        "id" : 3,
        "name" : "PLUMBING",
        "level" : 2
      }, {
        "id" : 1,
        "name" : "ENGINEER",
        "level" : 9
      }, {
        "id" : 4,
        "name" : "MASONRY",
        "level" : 7
      } ]
    },
    "planning" : [ {
      "job" : {
        "id" : -1,
        "desc" : "Home",
        "location" : {
          "id" : 6297,
          "name" : null,
          "latitude" : 44.086243,
          "longitude" : 4.283084
        },
        "openings" : null,
        "preferredSlots" : null,
        "doAfter" : null,
        "nbEmpRequired" : 1,
        "deadline" : null,
        "skills" : [ ],
        "duration" : null,
        "pause" : true
      },
      "window" : {
        "start" : [ 9, 0 ],
        "end" : [ 9, 0 ]
      }
    }, {
      "job" : {
        "id" : 190,
        "desc" : "TILER",
        "location" : {
          "id" : 9175,
          "name" : null,
          "latitude" : 43.50563,
          "longitude" : 4.1146255
        },
        "openings" : {
          "start" : [ 12, 56 ],
          "end" : [ 13, 40 ]
        },
        "preferredSlots" : null,
        "doAfter" : null,
        "nbEmpRequired" : 1,
        "deadline" : [ 12, 22 ],
        "skills" : [ {
          "id" : 9,
          "name" : "TILER",
          "level" : 2
        } ],
        "duration" : 2700.000000000,
        "pause" : false
      },
      "window" : {
        "start" : [ 10, 6 ],
        "end" : [ 10, 51 ]
      }
    }, {
      "job" : {
        "id" : -1,
        "desc" : "Pause",
        "location" : {
          "id" : 9175,
          "name" : null,
          "latitude" : 43.50563,
          "longitude" : 4.1146255
        },
        "openings" : {
          "start" : [ 12, 56 ],
          "end" : [ 13, 40 ]
        },
        "preferredSlots" : null,
        "doAfter" : null,
        "nbEmpRequired" : 1,
        "deadline" : [ 12, 22 ],
        "skills" : [ {
          "id" : 9,
          "name" : "TILER",
          "level" : 2
        } ],
        "duration" : 2700.000000000,
        "pause" : true
      },
      "window" : {
        "start" : [ 10, 52 ],
        "end" : [ 13, 0 ]
      }
    }, {
      "job" : {
        "id" : 971,
        "desc" : "ENGINEER",
        "location" : {
          "id" : 6986,
          "name" : null,
          "latitude" : 44.02225,
          "longitude" : 3.9201407
        },
        "openings" : {
          "start" : [ 12, 12 ],
          "end" : [ 12, 52 ]
        },
        "preferredSlots" : null,
        "doAfter" : null,
        "nbEmpRequired" : 1,
        "deadline" : [ 11, 52 ],
        "skills" : [ {
          "id" : 1,
          "name" : "ENGINEER",
          "level" : 4
        } ],
        "duration" : 3600.000000000,
        "pause" : false
      },
      "window" : {
        "start" : [ 14, 0 ],
        "end" : [ 15, 0 ]
      }
    }, {
      "job" : {
        "id" : 321,
        "desc" : "IRONWORK",
        "location" : {
          "id" : 4044,
          "name" : null,
          "latitude" : 43.690052,
          "longitude" : 4.100896
        },
        "openings" : {
          "start" : [ 16, 18 ],
          "end" : [ 17, 20 ]
        },
        "preferredSlots" : null,
        "doAfter" : null,
        "nbEmpRequired" : 1,
        "deadline" : [ 12, 4 ],
        "skills" : [ {
          "id" : 8,
          "name" : "IRONWORK",
          "level" : 1
        } ],
        "duration" : 3600.000000000,
        "pause" : false
      },
      "window" : {
        "start" : [ 15, 40 ],
        "end" : [ 16, 40 ]
      }
    } ],
    "driving" : 9960.000000000,
    "valid" : true
  }, {
    "emp" : {
      "id" : 175,
      "name" : "175",
      "shifts" : [ {
        "start" : [ 9, 0 ],
        "end" : [ 12, 0 ]
      }, {
        "start" : [ 13, 0 ],
        "end" : [ 17, 0 ]
      } ],
      "prefSlots" : null,
      "startingLoc" : {
        "id" : 2133,
        "name" : null,
        "latitude" : 43.474365,
        "longitude" : 4.217246
      },
      "skills" : [ {
        "id" : 6,
        "name" : "CARPENTRY",
        "level" : 10
      }, {
        "id" : 8,
        "name" : "IRONWORK",
        "level" : 8
      }, {
        "id" : 4,
        "name" : "MASONRY",
        "level" : 9
      }, {
        "id" : 2,
        "name" : "ELECTRICIAN",
        "level" : 5
      }, {
        "id" : 5,
        "name" : "GLAZING",
        "level" : 9
      }, {
        "id" : 1,
        "name" : "ENGINEER",
        "level" : 2
      }, {
        "id" : 6,
        "name" : "CARPENTRY",
        "level" : 1
      }, {
        "id" : 1,
        "name" : "ENGINEER",
        "level" : 5
      }, {
        "id" : 7,
        "name" : "PAINTING",
        "level" : 4
      }, {
        "id" : 7,
        "name" : "PAINTING",
        "level" : 4
      } ]
    },
    "planning" : [ {
      "job" : {
        "id" : -1,
        "desc" : "Home",
        "location" : {
          "id" : 2133,
          "name" : null,
          "latitude" : 43.474365,
          "longitude" : 4.217246
        },
        "openings" : null,
        "preferredSlots" : null,
        "doAfter" : null,
        "nbEmpRequired" : 1,
        "deadline" : null,
        "skills" : [ ],
        "duration" : null,
        "pause" : true
      },
      "window" : {
        "start" : [ 9, 0 ],
        "end" : [ 9, 0 ]
      }
    }, {
      "job" : {
        "id" : 49,
        "desc" : "CARPENTRY, ENGINEER",
        "location" : {
          "id" : 5178,
          "name" : null,
          "latitude" : 44.012283,
          "longitude" : 4.1418066
        },
        "openings" : {
          "start" : [ 9, 37 ],
          "end" : [ 17, 50 ]
        },
        "preferredSlots" : null,
        "doAfter" : null,
        "nbEmpRequired" : 1,
        "deadline" : [ 9, 41 ],
        "skills" : [ {
          "id" : 6,
          "name" : "CARPENTRY",
          "level" : 1
        }, {
          "id" : 1,
          "name" : "ENGINEER",
          "level" : 4
        } ],
        "duration" : 3600.000000000,
        "pause" : false
      },
      "window" : {
        "start" : [ 10, 1 ],
        "end" : [ 11, 1 ]
      }
    }, {
      "job" : {
        "id" : -1,
        "desc" : "Pause",
        "location" : {
          "id" : 5178,
          "name" : null,
          "latitude" : 44.012283,
          "longitude" : 4.1418066
        },
        "openings" : {
          "start" : [ 9, 37 ],
          "end" : [ 17, 50 ]
        },
        "preferredSlots" : null,
        "doAfter" : null,
        "nbEmpRequired" : 1,
        "deadline" : [ 9, 41 ],
        "skills" : [ {
          "id" : 6,
          "name" : "CARPENTRY",
          "level" : 1
        }, {
          "id" : 1,
          "name" : "ENGINEER",
          "level" : 4
        } ],
        "duration" : 3600.000000000,
        "pause" : true
      },
      "window" : {
        "start" : [ 11, 2 ],
        "end" : [ 13, 0 ]
      }
    }, {
      "job" : {
        "id" : 91,
        "desc" : "GLAZING",
        "location" : {
          "id" : 170,
          "name" : null,
          "latitude" : 44.037,
          "longitude" : 3.7921138
        },
        "openings" : {
          "start" : [ 10, 37 ],
          "end" : [ 16, 47 ]
        },
        "preferredSlots" : null,
        "doAfter" : null,
        "nbEmpRequired" : 1,
        "deadline" : [ 11, 9 ],
        "skills" : [ {
          "id" : 5,
          "name" : "GLAZING",
          "level" : 1
        } ],
        "duration" : 3600.000000000,
        "pause" : false
      },
      "window" : {
        "start" : [ 13, 29 ],
        "end" : [ 14, 29 ]
      }
    }, {
      "job" : {
        "id" : 722,
        "desc" : "PAINTING, CARPENTRY",
        "location" : {
          "id" : 3114,
          "name" : null,
          "latitude" : 43.526245,
          "longitude" : 4.193471
        },
        "openings" : {
          "start" : [ 9, 35 ],
          "end" : [ 14, 50 ]
        },
        "preferredSlots" : null,
        "doAfter" : null,
        "nbEmpRequired" : 1,
        "deadline" : [ 15, 29 ],
        "skills" : [ {
          "id" : 7,
          "name" : "PAINTING",
          "level" : 3
        }, {
          "id" : 6,
          "name" : "CARPENTRY",
          "level" : 1
        } ],
        "duration" : 3600.000000000,
        "pause" : false
      },
      "window" : {
        "start" : [ 15, 35 ],
        "end" : [ 16, 35 ]
      }
    } ],
    "driving" : 9360.000000000,
    "valid" : true
  } ],
  "unassigned" : [ {
    "id" : 339,
    "desc" : "GLAZING, MANAGEMENT",
    "location" : {
      "id" : 8786,
      "name" : null,
      "latitude" : 43.409615,
      "longitude" : 3.9809697
    },
    "openings" : {
      "start" : [ 10, 17 ],
      "end" : [ 15, 5 ]
    },
    "preferredSlots" : null,
    "doAfter" : null,
    "nbEmpRequired" : 1,
    "deadline" : [ 10, 19 ],
    "skills" : [ {
      "id" : 5,
      "name" : "GLAZING",
      "level" : 3
    }, {
      "id" : 0,
      "name" : "MANAGEMENT",
      "level" : 2
    } ],
    "duration" : 3600.000000000,
    "pause" : false
  }, {
    "id" : 186,
    "desc" : "MANAGEMENT",
    "location" : {
      "id" : 6286,
      "name" : null,
      "latitude" : 43.520943,
      "longitude" : 4.167329
    },
    "openings" : {
      "start" : [ 10, 13 ],
      "end" : [ 11, 36 ]
    },
    "preferredSlots" : null,
    "doAfter" : null,
    "nbEmpRequired" : 1,
    "deadline" : [ 12, 0 ],
    "skills" : [ {
      "id" : 0,
      "name" : "MANAGEMENT",
      "level" : 5
    } ],
    "duration" : 1800.000000000,
    "pause" : false
  }, {
    "id" : 296,
    "desc" : "MANAGEMENT",
    "location" : {
      "id" : 4426,
      "name" : null,
      "latitude" : 43.400887,
      "longitude" : 3.9197032
    },
    "openings" : {
      "start" : [ 14, 5 ],
      "end" : [ 17, 49 ]
    },
    "preferredSlots" : null,
    "doAfter" : null,
    "nbEmpRequired" : 1,
    "deadline" : [ 15, 0 ],
    "skills" : [ {
      "id" : 0,
      "name" : "MANAGEMENT",
      "level" : 1
    } ],
    "duration" : 1800.000000000,
    "pause" : false
  }, {
    "id" : 96,
    "desc" : "MANAGEMENT, PAINTING",
    "location" : {
      "id" : 1984,
      "name" : null,
      "latitude" : 43.46941,
      "longitude" : 4.2081566
    },
    "openings" : {
      "start" : [ 16, 9 ],
      "end" : [ 17, 50 ]
    },
    "preferredSlots" : null,
    "doAfter" : null,
    "nbEmpRequired" : 1,
    "deadline" : [ 9, 15 ],
    "skills" : [ {
      "id" : 0,
      "name" : "MANAGEMENT",
      "level" : 2
    }, {
      "id" : 7,
      "name" : "PAINTING",
      "level" : 1
    } ],
    "duration" : 3600.000000000,
    "pause" : false
  }, {
    "id" : 475,
    "desc" : "PLUMBING",
    "location" : {
      "id" : 8803,
      "name" : null,
      "latitude" : 44.09886,
      "longitude" : 3.8716233
    },
    "openings" : {
      "start" : [ 9, 28 ],
      "end" : [ 13, 28 ]
    },
    "preferredSlots" : null,
    "doAfter" : null,
    "nbEmpRequired" : 1,
    "deadline" : [ 14, 17 ],
    "skills" : [ {
      "id" : 3,
      "name" : "PLUMBING",
      "level" : 4
    } ],
    "duration" : 2700.000000000,
    "pause" : false
  }, {
    "id" : 905,
    "desc" : "ENGINEER, IRONWORK",
    "location" : {
      "id" : 1571,
      "name" : null,
      "latitude" : 43.47988,
      "longitude" : 3.705984
    },
    "openings" : {
      "start" : [ 12, 31 ],
      "end" : [ 13, 8 ]
    },
    "preferredSlots" : null,
    "doAfter" : null,
    "nbEmpRequired" : 1,
    "deadline" : [ 13, 59 ],
    "skills" : [ {
      "id" : 1,
      "name" : "ENGINEER",
      "level" : 3
    }, {
      "id" : 8,
      "name" : "IRONWORK",
      "level" : 1
    } ],
    "duration" : 7200.000000000,
    "pause" : false
  }, {
    "id" : 473,
    "desc" : "PAINTING",
    "location" : {
      "id" : 4774,
      "name" : null,
      "latitude" : 44.042046,
      "longitude" : 3.932774
    },
    "openings" : {
      "start" : [ 10, 11 ],
      "end" : [ 16, 0 ]
    },
    "preferredSlots" : null,
    "doAfter" : null,
    "nbEmpRequired" : 1,
    "deadline" : [ 14, 45 ],
    "skills" : [ {
      "id" : 7,
      "name" : "PAINTING",
      "level" : 3
    } ],
    "duration" : 2700.000000000,
    "pause" : false
  }, {
    "id" : 38,
    "desc" : "MASONRY",
    "location" : {
      "id" : 4996,
      "name" : null,
      "latitude" : 43.82485,
      "longitude" : 3.736178
    },
    "openings" : {
      "start" : [ 10, 0 ],
      "end" : [ 12, 20 ]
    },
    "preferredSlots" : null,
    "doAfter" : null,
    "nbEmpRequired" : 1,
    "deadline" : [ 11, 49 ],
    "skills" : [ {
      "id" : 4,
      "name" : "MASONRY",
      "level" : 5
    } ],
    "duration" : 3600.000000000,
    "pause" : false
  }, {
    "id" : 708,
    "desc" : "ELECTRICIAN",
    "location" : {
      "id" : 1429,
      "name" : null,
      "latitude" : 43.950775,
      "longitude" : 3.9386325
    },
    "openings" : {
      "start" : [ 9, 46 ],
      "end" : [ 12, 5 ]
    },
    "preferredSlots" : null,
    "doAfter" : null,
    "nbEmpRequired" : 1,
    "deadline" : [ 12, 44 ],
    "skills" : [ {
      "id" : 2,
      "name" : "ELECTRICIAN",
      "level" : 4
    } ],
    "duration" : 3600.000000000,
    "pause" : false
  }, {
    "id" : 455,
    "desc" : "IRONWORK",
    "location" : {
      "id" : 207,
      "name" : null,
      "latitude" : 44.026993,
      "longitude" : 3.8867652
    },
    "openings" : {
      "start" : [ 10, 24 ],
      "end" : [ 14, 52 ]
    },
    "preferredSlots" : null,
    "doAfter" : null,
    "nbEmpRequired" : 1,
    "deadline" : [ 12, 24 ],
    "skills" : [ {
      "id" : 8,
      "name" : "IRONWORK",
      "level" : 2
    } ],
    "duration" : 3600.000000000,
    "pause" : false
  }, {
    "id" : 536,
    "desc" : "PLUMBING, ENGINEER",
    "location" : {
      "id" : 2341,
      "name" : null,
      "latitude" : 43.573364,
      "longitude" : 3.838894
    },
    "openings" : {
      "start" : [ 11, 28 ],
      "end" : [ 12, 27 ]
    },
    "preferredSlots" : null,
    "doAfter" : null,
    "nbEmpRequired" : 1,
    "deadline" : [ 15, 33 ],
    "skills" : [ {
      "id" : 3,
      "name" : "PLUMBING",
      "level" : 4
    }, {
      "id" : 1,
      "name" : "ENGINEER",
      "level" : 1
    } ],
    "duration" : 5400.000000000,
    "pause" : false
  }, {
    "id" : 884,
    "desc" : "PAINTING",
    "location" : {
      "id" : 2606,
      "name" : null,
      "latitude" : 43.95852,
      "longitude" : 3.7367492
    },
    "openings" : {
      "start" : [ 9, 28 ],
      "end" : [ 15, 24 ]
    },
    "preferredSlots" : null,
    "doAfter" : null,
    "nbEmpRequired" : 1,
    "deadline" : [ 10, 1 ],
    "skills" : [ {
      "id" : 7,
      "name" : "PAINTING",
      "level" : 3
    } ],
    "duration" : 3600.000000000,
    "pause" : false
  }, {
    "id" : 947,
    "desc" : "MASONRY",
    "location" : {
      "id" : 9540,
      "name" : null,
      "latitude" : 43.543953,
      "longitude" : 3.7485847
    },
    "openings" : {
      "start" : [ 10, 50 ],
      "end" : [ 13, 30 ]
    },
    "preferredSlots" : null,
    "doAfter" : null,
    "nbEmpRequired" : 1,
    "deadline" : [ 11, 29 ],
    "skills" : [ {
      "id" : 4,
      "name" : "MASONRY",
      "level" : 3
    } ],
    "duration" : 3600.000000000,
    "pause" : false
  }, {
    "id" : 315,
    "desc" : "PAINTING, MANAGEMENT",
    "location" : {
      "id" : 5842,
      "name" : null,
      "latitude" : 43.554924,
      "longitude" : 4.054608
    },
    "openings" : {
      "start" : [ 13, 13 ],
      "end" : [ 16, 55 ]
    },
    "preferredSlots" : null,
    "doAfter" : null,
    "nbEmpRequired" : 1,
    "deadline" : [ 11, 2 ],
    "skills" : [ {
      "id" : 7,
      "name" : "PAINTING",
      "level" : 1
    }, {
      "id" : 0,
      "name" : "MANAGEMENT",
      "level" : 2
    } ],
    "duration" : 3600.000000000,
    "pause" : false
  } ],
  "valid" : true
}