{
  "listEdt" : [ {
    "emp" : {
      "id" : 633,
      "name" : "633",
      "shifts" : [ {
        "start" : [ 9, 0 ],
        "end" : [ 12, 0 ]
      }, {
        "start" : [ 13, 0 ],
        "end" : [ 17, 0 ]
      } ],
      "prefSlots" : null,
      "startingLoc" : {
        "id" : 2524,
        "name" : null,
        "latitude" : 43.489876,
        "longitude" : 4.0372944
      },
      "skills" : [ {
        "id" : 6,
        "name" : "CARPENTRY",
        "level" : 3
      }, {
        "id" : 7,
        "name" : "PAINTING",
        "level" : 9
      }, {
        "id" : 7,
        "name" : "PAINTING",
        "level" : 6
      }, {
        "id" : 8,
        "name" : "IRONWORK",
        "level" : 1
      }, {
        "id" : 7,
        "name" : "PAINTING",
        "level" : 1
      }, {
        "id" : 9,
        "name" : "TILER",
        "level" : 3
      }, {
        "id" : 9,
        "name" : "TILER",
        "level" : 10
      }, {
        "id" : 6,
        "name" : "CARPENTRY",
        "level" : 2
      }, {
        "id" : 3,
        "name" : "PLUMBING",
        "level" : 8
      }, {
        "id" : 4,
        "name" : "MASONRY",
        "level" : 2
      } ]
    },
    "planning" : [ {
      "job" : {
        "id" : -1,
        "desc" : "Home",
        "location" : {
          "id" : 2524,
          "name" : null,
          "latitude" : 43.489876,
          "longitude" : 4.0372944
        },
        "openings" : null,
        "preferredSlots" : null,
        "doAfter" : null,
        "nbEmpRequired" : 1,
        "deadline" : null,
        "skills" : [ ],
        "duration" : null,
        "pause" : true
      },
      "window" : {
        "start" : [ 9, 0 ],
        "end" : [ 9, 0 ]
      }
    }, {
      "job" : {
        "id" : 730,
        "desc" : "MASONRY",
        "location" : {
          "id" : 6967,
          "name" : null,
          "latitude" : 43.97006,
          "longitude" : 3.8220298
        },
        "openings" : {
          "start" : [ 9, 41 ],
          "end" : [ 16, 8 ]
        },
        "preferredSlots" : null,
        "doAfter" : null,
        "nbEmpRequired" : 1,
        "deadline" : [ 14, 39 ],
        "skills" : [ {
          "id" : 4,
          "name" : "MASONRY",
          "level" : 2
        } ],
        "duration" : 3600.000000000,
        "pause" : false
      },
      "window" : {
        "start" : [ 9, 57 ],
        "end" : [ 10, 57 ]
      }
    }, {
      "job" : {
        "id" : 878,
        "desc" : "TILER, PAINTING",
        "location" : {
          "id" : 24,
          "name" : null,
          "latitude" : 43.98551,
          "longitude" : 4.01189
        },
        "openings" : {
          "start" : [ 10, 21 ],
          "end" : [ 17, 45 ]
        },
        "preferredSlots" : null,
        "doAfter" : null,
        "nbEmpRequired" : 1,
        "deadline" : [ 11, 47 ],
        "skills" : [ {
          "id" : 9,
          "name" : "TILER",
          "level" : 1
        }, {
          "id" : 7,
          "name" : "PAINTING",
          "level" : 3
        } ],
        "duration" : 2700.000000000,
        "pause" : false
      },
      "window" : {
        "start" : [ 11, 13 ],
        "end" : [ 11, 58 ]
      }
    }, {
      "job" : {
        "id" : -1,
        "desc" : "Pause",
        "location" : {
          "id" : 24,
          "name" : null,
          "latitude" : 43.98551,
          "longitude" : 4.01189
        },
        "openings" : {
          "start" : [ 10, 21 ],
          "end" : [ 17, 45 ]
        },
        "preferredSlots" : null,
        "doAfter" : null,
        "nbEmpRequired" : 1,
        "deadline" : [ 11, 47 ],
        "skills" : [ {
          "id" : 9,
          "name" : "TILER",
          "level" : 1
        }, {
          "id" : 7,
          "name" : "PAINTING",
          "level" : 3
        } ],
        "duration" : 2700.000000000,
        "pause" : true
      },
      "window" : {
        "start" : [ 11, 59 ],
        "end" : [ 13, 0 ]
      }
    }, {
      "job" : {
        "id" : 977,
        "desc" : "CARPENTRY",
        "location" : {
          "id" : 2156,
          "name" : null,
          "latitude" : 43.56051,
          "longitude" : 4.0523567
        },
        "openings" : {
          "start" : [ 9, 0 ],
          "end" : [ 10, 28 ]
        },
        "preferredSlots" : null,
        "doAfter" : null,
        "nbEmpRequired" : 1,
        "deadline" : [ 13, 4 ],
        "skills" : [ {
          "id" : 6,
          "name" : "CARPENTRY",
          "level" : 2
        } ],
        "duration" : 1800.000000000,
        "pause" : false
      },
      "window" : {
        "start" : [ 13, 48 ],
        "end" : [ 14, 18 ]
      }
    }, {
      "job" : {
        "id" : 859,
        "desc" : "CARPENTRY",
        "location" : {
          "id" : 9411,
          "name" : null,
          "latitude" : 43.76731,
          "longitude" : 3.7898164
        },
        "openings" : {
          "start" : [ 13, 22 ],
          "end" : [ 13, 28 ]
        },
        "preferredSlots" : null,
        "doAfter" : null,
        "nbEmpRequired" : 1,
        "deadline" : [ 16, 5 ],
        "skills" : [ {
          "id" : 6,
          "name" : "CARPENTRY",
          "level" : 2
        } ],
        "duration" : 3600.000000000,
        "pause" : false
      },
      "window" : {
        "start" : [ 14, 50 ],
        "end" : [ 15, 50 ]
      }
    }, {
      "job" : {
        "id" : 325,
        "desc" : "TILER",
        "location" : {
          "id" : 7333,
          "name" : null,
          "latitude" : 43.805134,
          "longitude" : 4.2711153
        },
        "openings" : {
          "start" : [ 11, 57 ],
          "end" : [ 16, 17 ]
        },
        "preferredSlots" : null,
        "doAfter" : null,
        "nbEmpRequired" : 1,
        "deadline" : [ 10, 32 ],
        "skills" : [ {
          "id" : 9,
          "name" : "TILER",
          "level" : 4
        } ],
        "duration" : 1800.000000000,
        "pause" : false
      },
      "window" : {
        "start" : [ 16, 29 ],
        "end" : [ 16, 59 ]
      }
    } ],
    "driving" : 11520.000000000,
    "valid" : true
  }, {
    "emp" : {
      "id" : 34,
      "name" : "34",
      "shifts" : [ {
        "start" : [ 9, 0 ],
        "end" : [ 12, 0 ]
      }, {
        "start" : [ 13, 0 ],
        "end" : [ 17, 0 ]
      } ],
      "prefSlots" : null,
      "startingLoc" : {
        "id" : 3180,
        "name" : null,
        "latitude" : 43.93045,
        "longitude" : 4.0417366
      },
      "skills" : [ {
        "id" : 4,
        "name" : "MASONRY",
        "level" : 1
      }, {
        "id" : 9,
        "name" : "TILER",
        "level" : 10
      }, {
        "id" : 6,
        "name" : "CARPENTRY",
        "level" : 3
      }, {
        "id" : 0,
        "name" : "MANAGEMENT",
        "level" : 10
      } ]
    },
    "planning" : [ {
      "job" : {
        "id" : -1,
        "desc" : "Home",
        "location" : {
          "id" : 3180,
          "name" : null,
          "latitude" : 43.93045,
          "longitude" : 4.0417366
        },
        "openings" : null,
        "preferredSlots" : null,
        "doAfter" : null,
        "nbEmpRequired" : 1,
        "deadline" : null,
        "skills" : [ ],
        "duration" : null,
        "pause" : true
      },
      "window" : {
        "start" : [ 9, 0 ],
        "end" : [ 9, 0 ]
      }
    }, {
      "job" : {
        "id" : 44,
        "desc" : "TILER",
        "location" : {
          "id" : 3624,
          "name" : null,
          "latitude" : 43.494625,
          "longitude" : 4.1881857
        },
        "openings" : {
          "start" : [ 10, 26 ],
          "end" : [ 11, 4 ]
        },
        "preferredSlots" : null,
        "doAfter" : null,
        "nbEmpRequired" : 1,
        "deadline" : [ 15, 41 ],
        "skills" : [ {
          "id" : 9,
          "name" : "TILER",
          "level" : 5
        } ],
        "duration" : 1800.000000000,
        "pause" : false
      },
      "window" : {
        "start" : [ 9, 50 ],
        "end" : [ 10, 20 ]
      }
    }, {
      "job" : {
        "id" : 824,
        "desc" : "MASONRY, TILER",
        "location" : {
          "id" : 1537,
          "name" : null,
          "latitude" : 43.415565,
          "longitude" : 4.1989455
        },
        "openings" : {
          "start" : [ 10, 58 ],
          "end" : [ 17, 48 ]
        },
        "preferredSlots" : null,
        "doAfter" : null,
        "nbEmpRequired" : 1,
        "deadline" : [ 11, 35 ],
        "skills" : [ {
          "id" : 4,
          "name" : "MASONRY",
          "level" : 1
        }, {
          "id" : 9,
          "name" : "TILER",
          "level" : 3
        } ],
        "duration" : 2700.000000000,
        "pause" : false
      },
      "window" : {
        "start" : [ 10, 29 ],
        "end" : [ 11, 14 ]
      }
    }, {
      "job" : {
        "id" : 503,
        "desc" : "MASONRY, MANAGEMENT",
        "location" : {
          "id" : 3556,
          "name" : null,
          "latitude" : 43.488926,
          "longitude" : 4.0896807
        },
        "openings" : {
          "start" : [ 13, 3 ],
          "end" : [ 13, 23 ]
        },
        "preferredSlots" : null,
        "doAfter" : null,
        "nbEmpRequired" : 1,
        "deadline" : [ 16, 38 ],
        "skills" : [ {
          "id" : 4,
          "name" : "MASONRY",
          "level" : 1
        }, {
          "id" : 0,
          "name" : "MANAGEMENT",
          "level" : 4
        } ],
        "duration" : 1800.000000000,
        "pause" : false
      },
      "window" : {
        "start" : [ 11, 27 ],
        "end" : [ 11, 57 ]
      }
    }, {
      "job" : {
        "id" : -1,
        "desc" : "Pause",
        "location" : {
          "id" : 3556,
          "name" : null,
          "latitude" : 43.488926,
          "longitude" : 4.0896807
        },
        "openings" : {
          "start" : [ 13, 3 ],
          "end" : [ 13, 23 ]
        },
        "preferredSlots" : null,
        "doAfter" : null,
        "nbEmpRequired" : 1,
        "deadline" : [ 16, 38 ],
        "skills" : [ {
          "id" : 4,
          "name" : "MASONRY",
          "level" : 1
        }, {
          "id" : 0,
          "name" : "MANAGEMENT",
          "level" : 4
        } ],
        "duration" : 1800.000000000,
        "pause" : true
      },
      "window" : {
        "start" : [ 11, 58 ],
        "end" : [ 13, 0 ]
      }
    }, {
      "job" : {
        "id" : 306,
        "desc" : "MANAGEMENT",
        "location" : {
          "id" : 2774,
          "name" : null,
          "latitude" : 43.49417,
          "longitude" : 3.8584595
        },
        "openings" : {
          "start" : [ 9, 14 ],
          "end" : [ 15, 27 ]
        },
        "preferredSlots" : null,
        "doAfter" : null,
        "nbEmpRequired" : 1,
        "deadline" : [ 17, 7 ],
        "skills" : [ {
          "id" : 0,
          "name" : "MANAGEMENT",
          "level" : 5
        } ],
        "duration" : 3600.000000000,
        "pause" : false
      },
      "window" : {
        "start" : [ 13, 19 ],
        "end" : [ 14, 19 ]
      }
    }, {
      "job" : {
        "id" : 950,
        "desc" : "MANAGEMENT",
        "location" : {
          "id" : 2451,
          "name" : null,
          "latitude" : 43.44088,
          "longitude" : 3.765023
        },
        "openings" : {
          "start" : [ 14, 42 ],
          "end" : [ 16, 28 ]
        },
        "preferredSlots" : null,
        "doAfter" : null,
        "nbEmpRequired" : 1,
        "deadline" : [ 9, 47 ],
        "skills" : [ {
          "id" : 0,
          "name" : "MANAGEMENT",
          "level" : 1
        } ],
        "duration" : 5400.000000000,
        "pause" : false
      },
      "window" : {
        "start" : [ 14, 29 ],
        "end" : [ 15, 59 ]
      }
    }, {
      "job" : {
        "id" : 678,
        "desc" : "MANAGEMENT, CARPENTRY",
        "location" : {
          "id" : 6192,
          "name" : null,
          "latitude" : 43.669514,
          "longitude" : 3.8028932
        },
        "openings" : {
          "start" : [ 12, 35 ],
          "end" : [ 13, 26 ]
        },
        "preferredSlots" : null,
        "doAfter" : null,
        "nbEmpRequired" : 1,
        "deadline" : [ 13, 49 ],
        "skills" : [ {
          "id" : 0,
          "name" : "MANAGEMENT",
          "level" : 1
        }, {
          "id" : 6,
          "name" : "CARPENTRY",
          "level" : 2
        } ],
        "duration" : 1800.000000000,
        "pause" : false
      },
      "window" : {
        "start" : [ 16, 25 ],
        "end" : [ 16, 55 ]
      }
    } ],
    "driving" : 7620.000000000,
    "valid" : true
  } ],
  "unassigned" : [ {
    "id" : 526,
    "desc" : "IRONWORK",
    "location" : {
      "id" : 7712,
      "name" : null,
      "latitude" : 43.492577,
      "longitude" : 3.7017884
    },
    "openings" : {
      "start" : [ 9, 55 ],
      "end" : [ 12, 35 ]
    },
    "preferredSlots" : null,
    "doAfter" : null,
    "nbEmpRequired" : 1,
    "deadline" : [ 17, 28 ],
    "skills" : [ {
      "id" : 8,
      "name" : "IRONWORK",
      "level" : 5
    } ],
    "duration" : 3600.000000000,
    "pause" : false
  }, {
    "id" : 872,
    "desc" : "IRONWORK",
    "location" : {
      "id" : 6326,
      "name" : null,
      "latitude" : 44.094395,
      "longitude" : 4.240326
    },
    "openings" : {
      "start" : [ 9, 58 ],
      "end" : [ 17, 8 ]
    },
    "preferredSlots" : null,
    "doAfter" : null,
    "nbEmpRequired" : 1,
    "deadline" : [ 13, 0 ],
    "skills" : [ {
      "id" : 8,
      "name" : "IRONWORK",
      "level" : 4
    } ],
    "duration" : 5400.000000000,
    "pause" : false
  }, {
    "id" : 266,
    "desc" : "PLUMBING",
    "location" : {
      "id" : 2140,
      "name" : null,
      "latitude" : 43.531837,
      "longitude" : 3.7121272
    },
    "openings" : {
      "start" : [ 10, 26 ],
      "end" : [ 16, 16 ]
    },
    "preferredSlots" : null,
    "doAfter" : null,
    "nbEmpRequired" : 1,
    "deadline" : [ 12, 29 ],
    "skills" : [ {
      "id" : 3,
      "name" : "PLUMBING",
      "level" : 5
    } ],
    "duration" : 3600.000000000,
    "pause" : false
  }, {
    "id" : 675,
    "desc" : "MASONRY, PLUMBING",
    "location" : {
      "id" : 6374,
      "name" : null,
      "latitude" : 43.436806,
      "longitude" : 4.209597
    },
    "openings" : {
      "start" : [ 12, 41 ],
      "end" : [ 16, 32 ]
    },
    "preferredSlots" : null,
    "doAfter" : null,
    "nbEmpRequired" : 1,
    "deadline" : [ 10, 57 ],
    "skills" : [ {
      "id" : 4,
      "name" : "MASONRY",
      "level" : 4
    }, {
      "id" : 3,
      "name" : "PLUMBING",
      "level" : 3
    } ],
    "duration" : 1800.000000000,
    "pause" : false
  }, {
    "id" : 40,
    "desc" : "PAINTING",
    "location" : {
      "id" : 75,
      "name" : null,
      "latitude" : 43.62184,
      "longitude" : 4.2264795
    },
    "openings" : {
      "start" : [ 9, 15 ],
      "end" : [ 17, 23 ]
    },
    "preferredSlots" : null,
    "doAfter" : null,
    "nbEmpRequired" : 1,
    "deadline" : [ 10, 28 ],
    "skills" : [ {
      "id" : 7,
      "name" : "PAINTING",
      "level" : 3
    } ],
    "duration" : 2700.000000000,
    "pause" : false
  }, {
    "id" : 125,
    "desc" : "PLUMBING",
    "location" : {
      "id" : 9345,
      "name" : null,
      "latitude" : 43.680202,
      "longitude" : 4.2751513
    },
    "openings" : {
      "start" : [ 10, 5 ],
      "end" : [ 14, 4 ]
    },
    "preferredSlots" : null,
    "doAfter" : null,
    "nbEmpRequired" : 1,
    "deadline" : [ 14, 58 ],
    "skills" : [ {
      "id" : 3,
      "name" : "PLUMBING",
      "level" : 2
    } ],
    "duration" : 2700.000000000,
    "pause" : false
  }, {
    "id" : 740,
    "desc" : "PLUMBING, IRONWORK",
    "location" : {
      "id" : 1498,
      "name" : null,
      "latitude" : 43.68851,
      "longitude" : 4.1734934
    },
    "openings" : {
      "start" : [ 16, 23 ],
      "end" : [ 17, 57 ]
    },
    "preferredSlots" : null,
    "doAfter" : null,
    "nbEmpRequired" : 1,
    "deadline" : [ 15, 15 ],
    "skills" : [ {
      "id" : 3,
      "name" : "PLUMBING",
      "level" : 4
    }, {
      "id" : 8,
      "name" : "IRONWORK",
      "level" : 3
    } ],
    "duration" : 3600.000000000,
    "pause" : false
  }, {
    "id" : 363,
    "desc" : "MASONRY, IRONWORK",
    "location" : {
      "id" : 4035,
      "name" : null,
      "latitude" : 43.82551,
      "longitude" : 3.9259467
    },
    "openings" : {
      "start" : [ 14, 6 ],
      "end" : [ 15, 46 ]
    },
    "preferredSlots" : null,
    "doAfter" : null,
    "nbEmpRequired" : 1,
    "deadline" : [ 12, 38 ],
    "skills" : [ {
      "id" : 4,
      "name" : "MASONRY",
      "level" : 2
    }, {
      "id" : 8,
      "name" : "IRONWORK",
      "level" : 1
    } ],
    "duration" : 3600.000000000,
    "pause" : false
  }, {
    "id" : 256,
    "desc" : "IRONWORK, ENGINEER",
    "location" : {
      "id" : 4374,
      "name" : null,
      "latitude" : 44.04753,
      "longitude" : 4.2657495
    },
    "openings" : {
      "start" : [ 12, 29 ],
      "end" : [ 14, 59 ]
    },
    "preferredSlots" : null,
    "doAfter" : null,
    "nbEmpRequired" : 1,
    "deadline" : [ 12, 55 ],
    "skills" : [ {
      "id" : 8,
      "name" : "IRONWORK",
      "level" : 1
    }, {
      "id" : 1,
      "name" : "ENGINEER",
      "level" : 5
    } ],
    "duration" : 7200.000000000,
    "pause" : false
  }, {
    "id" : 384,
    "desc" : "MASONRY, PLUMBING",
    "location" : {
      "id" : 2052,
      "name" : null,
      "latitude" : 43.886677,
      "longitude" : 4.010768
    },
    "openings" : {
      "start" : [ 9, 31 ],
      "end" : [ 14, 39 ]
    },
    "preferredSlots" : null,
    "doAfter" : null,
    "nbEmpRequired" : 1,
    "deadline" : [ 14, 14 ],
    "skills" : [ {
      "id" : 4,
      "name" : "MASONRY",
      "level" : 2
    }, {
      "id" : 3,
      "name" : "PLUMBING",
      "level" : 5
    } ],
    "duration" : 3600.000000000,
    "pause" : false
  }, {
    "id" : 964,
    "desc" : "CARPENTRY",
    "location" : {
      "id" : 2271,
      "name" : null,
      "latitude" : 43.7854,
      "longitude" : 3.8746228
    },
    "openings" : {
      "start" : [ 14, 27 ],
      "end" : [ 16, 25 ]
    },
    "preferredSlots" : null,
    "doAfter" : null,
    "nbEmpRequired" : 1,
    "deadline" : [ 12, 47 ],
    "skills" : [ {
      "id" : 6,
      "name" : "CARPENTRY",
      "level" : 3
    } ],
    "duration" : 2700.000000000,
    "pause" : false
  }, {
    "id" : 160,
    "desc" : "IRONWORK, PLUMBING",
    "location" : {
      "id" : 3497,
      "name" : null,
      "latitude" : 43.52746,
      "longitude" : 4.121773
    },
    "openings" : {
      "start" : [ 10, 10 ],
      "end" : [ 11, 15 ]
    },
    "preferredSlots" : null,
    "doAfter" : null,
    "nbEmpRequired" : 1,
    "deadline" : [ 16, 23 ],
    "skills" : [ {
      "id" : 8,
      "name" : "IRONWORK",
      "level" : 3
    }, {
      "id" : 3,
      "name" : "PLUMBING",
      "level" : 3
    } ],
    "duration" : 5400.000000000,
    "pause" : false
  }, {
    "id" : 239,
    "desc" : "IRONWORK, MASONRY",
    "location" : {
      "id" : 1064,
      "name" : null,
      "latitude" : 43.43659,
      "longitude" : 4.183206
    },
    "openings" : {
      "start" : [ 9, 6 ],
      "end" : [ 14, 14 ]
    },
    "preferredSlots" : null,
    "doAfter" : null,
    "nbEmpRequired" : 1,
    "deadline" : [ 16, 29 ],
    "skills" : [ {
      "id" : 8,
      "name" : "IRONWORK",
      "level" : 1
    }, {
      "id" : 4,
      "name" : "MASONRY",
      "level" : 3
    } ],
    "duration" : 3600.000000000,
    "pause" : false
  }, {
    "id" : 892,
    "desc" : "CARPENTRY, TILER",
    "location" : {
      "id" : 2589,
      "name" : null,
      "latitude" : 43.47399,
      "longitude" : 3.741893
    },
    "openings" : {
      "start" : [ 15, 47 ],
      "end" : [ 16, 46 ]
    },
    "preferredSlots" : null,
    "doAfter" : null,
    "nbEmpRequired" : 1,
    "deadline" : [ 11, 52 ],
    "skills" : [ {
      "id" : 6,
      "name" : "CARPENTRY",
      "level" : 3
    }, {
      "id" : 9,
      "name" : "TILER",
      "level" : 2
    } ],
    "duration" : 3600.000000000,
    "pause" : false
  }, {
    "id" : 656,
    "desc" : "MASONRY",
    "location" : {
      "id" : 5558,
      "name" : null,
      "latitude" : 43.68313,
      "longitude" : 3.9588897
    },
    "openings" : {
      "start" : [ 13, 15 ],
      "end" : [ 15, 31 ]
    },
    "preferredSlots" : null,
    "doAfter" : null,
    "nbEmpRequired" : 1,
    "deadline" : [ 11, 59 ],
    "skills" : [ {
      "id" : 4,
      "name" : "MASONRY",
      "level" : 4
    } ],
    "duration" : 5400.000000000,
    "pause" : false
  }, {
    "id" : 651,
    "desc" : "MASONRY",
    "location" : {
      "id" : 7386,
      "name" : null,
      "latitude" : 43.5533,
      "longitude" : 4.168906
    },
    "openings" : {
      "start" : [ 13, 23 ],
      "end" : [ 15, 18 ]
    },
    "preferredSlots" : null,
    "doAfter" : null,
    "nbEmpRequired" : 1,
    "deadline" : [ 17, 41 ],
    "skills" : [ {
      "id" : 4,
      "name" : "MASONRY",
      "level" : 2
    } ],
    "duration" : 2700.000000000,
    "pause" : false
  }, {
    "id" : 987,
    "desc" : "ELECTRICIAN",
    "location" : {
      "id" : 1237,
      "name" : null,
      "latitude" : 44.03811,
      "longitude" : 3.9657986
    },
    "openings" : {
      "start" : [ 12, 36 ],
      "end" : [ 15, 14 ]
    },
    "preferredSlots" : null,
    "doAfter" : null,
    "nbEmpRequired" : 1,
    "deadline" : [ 16, 44 ],
    "skills" : [ {
      "id" : 2,
      "name" : "ELECTRICIAN",
      "level" : 2
    } ],
    "duration" : 2700.000000000,
    "pause" : false
  }, {
    "id" : 355,
    "desc" : "PLUMBING, ELECTRICIAN",
    "location" : {
      "id" : 4038,
      "name" : null,
      "latitude" : 43.51961,
      "longitude" : 4.2838745
    },
    "openings" : {
      "start" : [ 12, 31 ],
      "end" : [ 14, 9 ]
    },
    "preferredSlots" : null,
    "doAfter" : null,
    "nbEmpRequired" : 1,
    "deadline" : [ 11, 7 ],
    "skills" : [ {
      "id" : 3,
      "name" : "PLUMBING",
      "level" : 5
    }, {
      "id" : 2,
      "name" : "ELECTRICIAN",
      "level" : 1
    } ],
    "duration" : 3600.000000000,
    "pause" : false
  }, {
    "id" : 287,
    "desc" : "IRONWORK",
    "location" : {
      "id" : 9211,
      "name" : null,
      "latitude" : 43.48147,
      "longitude" : 4.007013
    },
    "openings" : {
      "start" : [ 9, 8 ],
      "end" : [ 13, 26 ]
    },
    "preferredSlots" : null,
    "doAfter" : null,
    "nbEmpRequired" : 1,
    "deadline" : [ 15, 1 ],
    "skills" : [ {
      "id" : 8,
      "name" : "IRONWORK",
      "level" : 2
    } ],
    "duration" : 3600.000000000,
    "pause" : false
  }, {
    "id" : 429,
    "desc" : "IRONWORK, CARPENTRY",
    "location" : {
      "id" : 8807,
      "name" : null,
      "latitude" : 44.04914,
      "longitude" : 3.7699687
    },
    "openings" : {
      "start" : [ 10, 54 ],
      "end" : [ 12, 44 ]
    },
    "preferredSlots" : null,
    "doAfter" : null,
    "nbEmpRequired" : 1,
    "deadline" : [ 14, 30 ],
    "skills" : [ {
      "id" : 8,
      "name" : "IRONWORK",
      "level" : 1
    }, {
      "id" : 6,
      "name" : "CARPENTRY",
      "level" : 3
    } ],
    "duration" : 3600.000000000,
    "pause" : false
  }, {
    "id" : 867,
    "desc" : "PAINTING, MASONRY",
    "location" : {
      "id" : 5566,
      "name" : null,
      "latitude" : 44.033302,
      "longitude" : 4.0219975
    },
    "openings" : {
      "start" : [ 10, 1 ],
      "end" : [ 17, 38 ]
    },
    "preferredSlots" : null,
    "doAfter" : null,
    "nbEmpRequired" : 1,
    "deadline" : [ 14, 30 ],
    "skills" : [ {
      "id" : 7,
      "name" : "PAINTING",
      "level" : 5
    }, {
      "id" : 4,
      "name" : "MASONRY",
      "level" : 5
    } ],
    "duration" : 3600.000000000,
    "pause" : false
  }, {
    "id" : 819,
    "desc" : "CARPENTRY, MASONRY",
    "location" : {
      "id" : 8566,
      "name" : null,
      "latitude" : 44.09383,
      "longitude" : 3.7568748
    },
    "openings" : {
      "start" : [ 12, 52 ],
      "end" : [ 14, 48 ]
    },
    "preferredSlots" : null,
    "doAfter" : null,
    "nbEmpRequired" : 1,
    "deadline" : [ 9, 45 ],
    "skills" : [ {
      "id" : 6,
      "name" : "CARPENTRY",
      "level" : 1
    }, {
      "id" : 4,
      "name" : "MASONRY",
      "level" : 2
    } ],
    "duration" : 3600.000000000,
    "pause" : false
  }, {
    "id" : 441,
    "desc" : "PAINTING, GLAZING",
    "location" : {
      "id" : 9793,
      "name" : null,
      "latitude" : 44.053173,
      "longitude" : 4.175195
    },
    "openings" : {
      "start" : [ 11, 3 ],
      "end" : [ 16, 14 ]
    },
    "preferredSlots" : null,
    "doAfter" : null,
    "nbEmpRequired" : 1,
    "deadline" : [ 17, 22 ],
    "skills" : [ {
      "id" : 7,
      "name" : "PAINTING",
      "level" : 1
    }, {
      "id" : 5,
      "name" : "GLAZING",
      "level" : 3
    } ],
    "duration" : 7200.000000000,
    "pause" : false
  }, {
    "id" : 121,
    "desc" : "ENGINEER, CARPENTRY",
    "location" : {
      "id" : 9661,
      "name" : null,
      "latitude" : 43.541817,
      "longitude" : 3.8154655
    },
    "openings" : {
      "start" : [ 16, 27 ],
      "end" : [ 17, 16 ]
    },
    "preferredSlots" : null,
    "doAfter" : null,
    "nbEmpRequired" : 1,
    "deadline" : [ 12, 52 ],
    "skills" : [ {
      "id" : 1,
      "name" : "ENGINEER",
      "level" : 3
    }, {
      "id" : 6,
      "name" : "CARPENTRY",
      "level" : 2
    } ],
    "duration" : 3600.000000000,
    "pause" : false
  }, {
    "id" : 190,
    "desc" : "CARPENTRY, PLUMBING",
    "location" : {
      "id" : 3070,
      "name" : null,
      "latitude" : 43.836098,
      "longitude" : 3.7399006
    },
    "openings" : {
      "start" : [ 11, 10 ],
      "end" : [ 15, 31 ]
    },
    "preferredSlots" : null,
    "doAfter" : null,
    "nbEmpRequired" : 1,
    "deadline" : [ 11, 44 ],
    "skills" : [ {
      "id" : 6,
      "name" : "CARPENTRY",
      "level" : 4
    }, {
      "id" : 3,
      "name" : "PLUMBING",
      "level" : 5
    } ],
    "duration" : 1800.000000000,
    "pause" : false
  }, {
    "id" : 882,
    "desc" : "TILER, ENGINEER",
    "location" : {
      "id" : 8294,
      "name" : null,
      "latitude" : 43.710655,
      "longitude" : 3.7254403
    },
    "openings" : {
      "start" : [ 14, 57 ],
      "end" : [ 17, 29 ]
    },
    "preferredSlots" : null,
    "doAfter" : null,
    "nbEmpRequired" : 1,
    "deadline" : [ 15, 8 ],
    "skills" : [ {
      "id" : 9,
      "name" : "TILER",
      "level" : 1
    }, {
      "id" : 1,
      "name" : "ENGINEER",
      "level" : 4
    } ],
    "duration" : 1800.000000000,
    "pause" : false
  }, {
    "id" : 355,
    "desc" : "GLAZING",
    "location" : {
      "id" : 3018,
      "name" : null,
      "latitude" : 43.82616,
      "longitude" : 4.1454806
    },
    "openings" : {
      "start" : [ 11, 19 ],
      "end" : [ 14, 46 ]
    },
    "preferredSlots" : null,
    "doAfter" : null,
    "nbEmpRequired" : 1,
    "deadline" : [ 14, 44 ],
    "skills" : [ {
      "id" : 5,
      "name" : "GLAZING",
      "level" : 1
    } ],
    "duration" : 2700.000000000,
    "pause" : false
  }, {
    "id" : 756,
    "desc" : "MANAGEMENT, CARPENTRY",
    "location" : {
      "id" : 9849,
      "name" : null,
      "latitude" : 43.448948,
      "longitude" : 3.933659
    },
    "openings" : {
      "start" : [ 9, 10 ],
      "end" : [ 15, 59 ]
    },
    "preferredSlots" : null,
    "doAfter" : null,
    "nbEmpRequired" : 1,
    "deadline" : [ 12, 56 ],
    "skills" : [ {
      "id" : 0,
      "name" : "MANAGEMENT",
      "level" : 3
    }, {
      "id" : 6,
      "name" : "CARPENTRY",
      "level" : 4
    } ],
    "duration" : 3600.000000000,
    "pause" : false
  }, {
    "id" : 294,
    "desc" : "IRONWORK, GLAZING",
    "location" : {
      "id" : 2484,
      "name" : null,
      "latitude" : 43.999737,
      "longitude" : 4.1474967
    },
    "openings" : {
      "start" : [ 11, 26 ],
      "end" : [ 15, 38 ]
    },
    "preferredSlots" : null,
    "doAfter" : null,
    "nbEmpRequired" : 1,
    "deadline" : [ 10, 14 ],
    "skills" : [ {
      "id" : 8,
      "name" : "IRONWORK",
      "level" : 2
    }, {
      "id" : 5,
      "name" : "GLAZING",
      "level" : 5
    } ],
    "duration" : 2700.000000000,
    "pause" : false
  }, {
    "id" : 412,
    "desc" : "ELECTRICIAN",
    "location" : {
      "id" : 1219,
      "name" : null,
      "latitude" : 44.063454,
      "longitude" : 3.7931461
    },
    "openings" : {
      "start" : [ 11, 17 ],
      "end" : [ 14, 25 ]
    },
    "preferredSlots" : null,
    "doAfter" : null,
    "nbEmpRequired" : 1,
    "deadline" : [ 17, 56 ],
    "skills" : [ {
      "id" : 2,
      "name" : "ELECTRICIAN",
      "level" : 5
    } ],
    "duration" : 5400.000000000,
    "pause" : false
  }, {
    "id" : 753,
    "desc" : "GLAZING, ENGINEER",
    "location" : {
      "id" : 8884,
      "name" : null,
      "latitude" : 43.55437,
      "longitude" : 4.0673394
    },
    "openings" : {
      "start" : [ 13, 57 ],
      "end" : [ 16, 53 ]
    },
    "preferredSlots" : null,
    "doAfter" : null,
    "nbEmpRequired" : 1,
    "deadline" : [ 10, 29 ],
    "skills" : [ {
      "id" : 5,
      "name" : "GLAZING",
      "level" : 3
    }, {
      "id" : 1,
      "name" : "ENGINEER",
      "level" : 5
    } ],
    "duration" : 3600.000000000,
    "pause" : false
  }, {
    "id" : 597,
    "desc" : "ELECTRICIAN, MASONRY",
    "location" : {
      "id" : 5460,
      "name" : null,
      "latitude" : 44.08047,
      "longitude" : 3.7741935
    },
    "openings" : {
      "start" : [ 9, 35 ],
      "end" : [ 17, 50 ]
    },
    "preferredSlots" : null,
    "doAfter" : null,
    "nbEmpRequired" : 1,
    "deadline" : [ 14, 38 ],
    "skills" : [ {
      "id" : 2,
      "name" : "ELECTRICIAN",
      "level" : 1
    }, {
      "id" : 4,
      "name" : "MASONRY",
      "level" : 4
    } ],
    "duration" : 5400.000000000,
    "pause" : false
  }, {
    "id" : 176,
    "desc" : "ELECTRICIAN",
    "location" : {
      "id" : 3569,
      "name" : null,
      "latitude" : 43.509438,
      "longitude" : 3.9719226
    },
    "openings" : {
      "start" : [ 11, 37 ],
      "end" : [ 13, 23 ]
    },
    "preferredSlots" : null,
    "doAfter" : null,
    "nbEmpRequired" : 1,
    "deadline" : [ 15, 52 ],
    "skills" : [ {
      "id" : 2,
      "name" : "ELECTRICIAN",
      "level" : 2
    } ],
    "duration" : 2700.000000000,
    "pause" : false
  }, {
    "id" : 853,
    "desc" : "CARPENTRY, ELECTRICIAN",
    "location" : {
      "id" : 9412,
      "name" : null,
      "latitude" : 43.999756,
      "longitude" : 3.9233289
    },
    "openings" : {
      "start" : [ 14, 19 ],
      "end" : [ 17, 44 ]
    },
    "preferredSlots" : null,
    "doAfter" : null,
    "nbEmpRequired" : 1,
    "deadline" : [ 14, 1 ],
    "skills" : [ {
      "id" : 6,
      "name" : "CARPENTRY",
      "level" : 4
    }, {
      "id" : 2,
      "name" : "ELECTRICIAN",
      "level" : 2
    } ],
    "duration" : 5400.000000000,
    "pause" : false
  }, {
    "id" : 206,
    "desc" : "TILER, MANAGEMENT",
    "location" : {
      "id" : 21,
      "name" : null,
      "latitude" : 43.9262,
      "longitude" : 3.7996392
    },
    "openings" : {
      "start" : [ 10, 34 ],
      "end" : [ 13, 41 ]
    },
    "preferredSlots" : null,
    "doAfter" : null,
    "nbEmpRequired" : 1,
    "deadline" : [ 11, 55 ],
    "skills" : [ {
      "id" : 9,
      "name" : "TILER",
      "level" : 1
    }, {
      "id" : 0,
      "name" : "MANAGEMENT",
      "level" : 2
    } ],
    "duration" : 2700.000000000,
    "pause" : false
  }, {
    "id" : 241,
    "desc" : "GLAZING, CARPENTRY",
    "location" : {
      "id" : 3387,
      "name" : null,
      "latitude" : 43.480953,
      "longitude" : 4.2823496
    },
    "openings" : {
      "start" : [ 14, 40 ],
      "end" : [ 16, 27 ]
    },
    "preferredSlots" : null,
    "doAfter" : null,
    "nbEmpRequired" : 1,
    "deadline" : [ 13, 10 ],
    "skills" : [ {
      "id" : 5,
      "name" : "GLAZING",
      "level" : 1
    }, {
      "id" : 6,
      "name" : "CARPENTRY",
      "level" : 3
    } ],
    "duration" : 2700.000000000,
    "pause" : false
  }, {
    "id" : 418,
    "desc" : "PAINTING",
    "location" : {
      "id" : 4213,
      "name" : null,
      "latitude" : 43.515095,
      "longitude" : 4.2444067
    },
    "openings" : {
      "start" : [ 13, 28 ],
      "end" : [ 15, 8 ]
    },
    "preferredSlots" : null,
    "doAfter" : null,
    "nbEmpRequired" : 1,
    "deadline" : [ 17, 21 ],
    "skills" : [ {
      "id" : 7,
      "name" : "PAINTING",
      "level" : 5
    } ],
    "duration" : 3600.000000000,
    "pause" : false
  }, {
    "id" : 608,
    "desc" : "ELECTRICIAN",
    "location" : {
      "id" : 7843,
      "name" : null,
      "latitude" : 43.967384,
      "longitude" : 3.7924552
    },
    "openings" : {
      "start" : [ 10, 31 ],
      "end" : [ 15, 35 ]
    },
    "preferredSlots" : null,
    "doAfter" : null,
    "nbEmpRequired" : 1,
    "deadline" : [ 16, 22 ],
    "skills" : [ {
      "id" : 2,
      "name" : "ELECTRICIAN",
      "level" : 4
    } ],
    "duration" : 3600.000000000,
    "pause" : false
  }, {
    "id" : 135,
    "desc" : "PLUMBING",
    "location" : {
      "id" : 4383,
      "name" : null,
      "latitude" : 43.99006,
      "longitude" : 4.0174055
    },
    "openings" : {
      "start" : [ 10, 57 ],
      "end" : [ 15, 22 ]
    },
    "preferredSlots" : null,
    "doAfter" : null,
    "nbEmpRequired" : 1,
    "deadline" : [ 15, 15 ],
    "skills" : [ {
      "id" : 3,
      "name" : "PLUMBING",
      "level" : 3
    } ],
    "duration" : 3600.000000000,
    "pause" : false
  } ],
  "valid" : true
}