{
  "listEdt" : [ {
    "emp" : {
      "id" : 942,
      "name" : "942",
      "shifts" : [ {
        "start" : [ 9, 0 ],
        "end" : [ 12, 0 ]
      }, {
        "start" : [ 13, 0 ],
        "end" : [ 17, 0 ]
      } ],
      "prefSlots" : null,
      "startingLoc" : {
        "id" : 8797,
        "name" : null,
        "latitude" : 43.87006,
        "longitude" : 3.9777513
      },
      "skills" : [ {
        "id" : 7,
        "name" : "PAINTING",
        "level" : 2
      }, {
        "id" : 1,
        "name" : "ENGINEER",
        "level" : 5
      }, {
        "id" : 1,
        "name" : "ENGINEER",
        "level" : 6
      }, {
        "id" : 5,
        "name" : "GLAZING",
        "level" : 6
      } ]
    },
    "planning" : [ {
      "job" : {
        "id" : -1,
        "desc" : "Home",
        "location" : {
          "id" : 8797,
          "name" : null,
          "latitude" : 43.87006,
          "longitude" : 3.9777513
        },
        "openings" : null,
        "preferredSlots" : null,
        "doAfter" : null,
        "nbEmpRequired" : 1,
        "deadline" : null,
        "skills" : [ ],
        "duration" : null,
        "pause" : true
      },
      "window" : {
        "start" : [ 9, 0 ],
        "end" : [ 9, 0 ]
      }
    }, {
      "job" : {
        "id" : -1,
        "desc" : "Pause",
        "location" : {
          "id" : 8797,
          "name" : null,
          "latitude" : 43.87006,
          "longitude" : 3.9777513
        },
        "openings" : null,
        "preferredSlots" : null,
        "doAfter" : null,
        "nbEmpRequired" : 1,
        "deadline" : null,
        "skills" : [ ],
        "duration" : null,
        "pause" : true
      },
      "window" : {
        "start" : [ 9, 1 ],
        "end" : [ 13, 0 ]
      }
    } ],
    "driving" : 0.0,
    "valid" : true
  }, {
    "emp" : {
      "id" : 925,
      "name" : "925",
      "shifts" : [ {
        "start" : [ 9, 0 ],
        "end" : [ 12, 0 ]
      }, {
        "start" : [ 13, 0 ],
        "end" : [ 17, 0 ]
      } ],
      "prefSlots" : null,
      "startingLoc" : {
        "id" : 6935,
        "name" : null,
        "latitude" : 43.87507,
        "longitude" : 3.9472718
      },
      "skills" : [ {
        "id" : 8,
        "name" : "IRONWORK",
        "level" : 7
      }, {
        "id" : 2,
        "name" : "ELECTRICIAN",
        "level" : 3
      }, {
        "id" : 8,
        "name" : "IRONWORK",
        "level" : 9
      } ]
    },
    "planning" : [ {
      "job" : {
        "id" : -1,
        "desc" : "Home",
        "location" : {
          "id" : 6935,
          "name" : null,
          "latitude" : 43.87507,
          "longitude" : 3.9472718
        },
        "openings" : null,
        "preferredSlots" : null,
        "doAfter" : null,
        "nbEmpRequired" : 1,
        "deadline" : null,
        "skills" : [ ],
        "duration" : null,
        "pause" : true
      },
      "window" : {
        "start" : [ 9, 0 ],
        "end" : [ 9, 0 ]
      }
    }, {
      "job" : {
        "id" : 591,
        "desc" : "IRONWORK",
        "location" : {
          "id" : 793,
          "name" : null,
          "latitude" : 43.63233,
          "longitude" : 3.8130085
        },
        "openings" : {
          "start" : [ 12, 22 ],
          "end" : [ 13, 46 ]
        },
        "preferredSlots" : null,
        "doAfter" : null,
        "nbEmpRequired" : 1,
        "deadline" : [ 9, 17 ],
        "skills" : [ {
          "id" : 8,
          "name" : "IRONWORK",
          "level" : 2
        } ],
        "duration" : 2700.000000000,
        "pause" : false
      },
      "window" : {
        "start" : [ 9, 30 ],
        "end" : [ 10, 15 ]
      }
    }, {
      "job" : {
        "id" : -1,
        "desc" : "Pause",
        "location" : {
          "id" : 793,
          "name" : null,
          "latitude" : 43.63233,
          "longitude" : 3.8130085
        },
        "openings" : {
          "start" : [ 12, 22 ],
          "end" : [ 13, 46 ]
        },
        "preferredSlots" : null,
        "doAfter" : null,
        "nbEmpRequired" : 1,
        "deadline" : [ 9, 17 ],
        "skills" : [ {
          "id" : 8,
          "name" : "IRONWORK",
          "level" : 2
        } ],
        "duration" : 2700.000000000,
        "pause" : true
      },
      "window" : {
        "start" : [ 10, 16 ],
        "end" : [ 13, 0 ]
      }
    } ],
    "driving" : 1800.000000000,
    "valid" : true
  }, {
    "emp" : {
      "id" : 576,
      "name" : "576",
      "shifts" : [ {
        "start" : [ 9, 0 ],
        "end" : [ 12, 0 ]
      }, {
        "start" : [ 13, 0 ],
        "end" : [ 17, 0 ]
      } ],
      "prefSlots" : null,
      "startingLoc" : {
        "id" : 6090,
        "name" : null,
        "latitude" : 43.991074,
        "longitude" : 3.9537022
      },
      "skills" : [ {
        "id" : 7,
        "name" : "PAINTING",
        "level" : 1
      }, {
        "id" : 3,
        "name" : "PLUMBING",
        "level" : 8
      }, {
        "id" : 1,
        "name" : "ENGINEER",
        "level" : 9
      }, {
        "id" : 6,
        "name" : "CARPENTRY",
        "level" : 2
      }, {
        "id" : 4,
        "name" : "MASONRY",
        "level" : 7
      }, {
        "id" : 6,
        "name" : "CARPENTRY",
        "level" : 3
      }, {
        "id" : 7,
        "name" : "PAINTING",
        "level" : 1
      } ]
    },
    "planning" : [ {
      "job" : {
        "id" : -1,
        "desc" : "Home",
        "location" : {
          "id" : 6090,
          "name" : null,
          "latitude" : 43.991074,
          "longitude" : 3.9537022
        },
        "openings" : null,
        "preferredSlots" : null,
        "doAfter" : null,
        "nbEmpRequired" : 1,
        "deadline" : null,
        "skills" : [ ],
        "duration" : null,
        "pause" : true
      },
      "window" : {
        "start" : [ 9, 0 ],
        "end" : [ 9, 0 ]
      }
    }, {
      "job" : {
        "id" : -1,
        "desc" : "Pause",
        "location" : {
          "id" : 6090,
          "name" : null,
          "latitude" : 43.991074,
          "longitude" : 3.9537022
        },
        "openings" : null,
        "preferredSlots" : null,
        "doAfter" : null,
        "nbEmpRequired" : 1,
        "deadline" : null,
        "skills" : [ ],
        "duration" : null,
        "pause" : true
      },
      "window" : {
        "start" : [ 9, 1 ],
        "end" : [ 13, 0 ]
      }
    } ],
    "driving" : 0.0,
    "valid" : true
  }, {
    "emp" : {
      "id" : 106,
      "name" : "106",
      "shifts" : [ {
        "start" : [ 9, 0 ],
        "end" : [ 12, 0 ]
      }, {
        "start" : [ 13, 0 ],
        "end" : [ 17, 0 ]
      } ],
      "prefSlots" : null,
      "startingLoc" : {
        "id" : 7945,
        "name" : null,
        "latitude" : 43.96462,
        "longitude" : 4.2181387
      },
      "skills" : [ {
        "id" : 4,
        "name" : "MASONRY",
        "level" : 4
      }, {
        "id" : 8,
        "name" : "IRONWORK",
        "level" : 3
      }, {
        "id" : 5,
        "name" : "GLAZING",
        "level" : 9
      }, {
        "id" : 8,
        "name" : "IRONWORK",
        "level" : 1
      }, {
        "id" : 8,
        "name" : "IRONWORK",
        "level" : 7
      }, {
        "id" : 9,
        "name" : "TILER",
        "level" : 8
      }, {
        "id" : 9,
        "name" : "TILER",
        "level" : 3
      }, {
        "id" : 7,
        "name" : "PAINTING",
        "level" : 10
      }, {
        "id" : 3,
        "name" : "PLUMBING",
        "level" : 5
      }, {
        "id" : 4,
        "name" : "MASONRY",
        "level" : 6
      } ]
    },
    "planning" : [ {
      "job" : {
        "id" : -1,
        "desc" : "Home",
        "location" : {
          "id" : 7945,
          "name" : null,
          "latitude" : 43.96462,
          "longitude" : 4.2181387
        },
        "openings" : null,
        "preferredSlots" : null,
        "doAfter" : null,
        "nbEmpRequired" : 1,
        "deadline" : null,
        "skills" : [ ],
        "duration" : null,
        "pause" : true
      },
      "window" : {
        "start" : [ 9, 0 ],
        "end" : [ 9, 0 ]
      }
    }, {
      "job" : {
        "id" : 2,
        "desc" : "PLUMBING, GLAZING",
        "location" : {
          "id" : 7498,
          "name" : null,
          "latitude" : 43.834877,
          "longitude" : 4.2780075
        },
        "openings" : {
          "start" : [ 12, 3 ],
          "end" : [ 13, 3 ]
        },
        "preferredSlots" : null,
        "doAfter" : null,
        "nbEmpRequired" : 1,
        "deadline" : [ 10, 30 ],
        "skills" : [ {
          "id" : 3,
          "name" : "PLUMBING",
          "level" : 3
        }, {
          "id" : 5,
          "name" : "GLAZING",
          "level" : 5
        } ],
        "duration" : 3600.000000000,
        "pause" : false
      },
      "window" : {
        "start" : [ 9, 16 ],
        "end" : [ 10, 16 ]
      }
    }, {
      "job" : {
        "id" : 184,
        "desc" : "TILER",
        "location" : {
          "id" : 5574,
          "name" : null,
          "latitude" : 43.813572,
          "longitude" : 4.0120783
        },
        "openings" : {
          "start" : [ 10, 27 ],
          "end" : [ 11, 26 ]
        },
        "preferredSlots" : null,
        "doAfter" : null,
        "nbEmpRequired" : 1,
        "deadline" : [ 16, 39 ],
        "skills" : [ {
          "id" : 9,
          "name" : "TILER",
          "level" : 2
        } ],
        "duration" : 2700.000000000,
        "pause" : false
      },
      "window" : {
        "start" : [ 10, 38 ],
        "end" : [ 11, 23 ]
      }
    }, {
      "job" : {
        "id" : -1,
        "desc" : "Pause",
        "location" : {
          "id" : 5574,
          "name" : null,
          "latitude" : 43.813572,
          "longitude" : 4.0120783
        },
        "openings" : {
          "start" : [ 10, 27 ],
          "end" : [ 11, 26 ]
        },
        "preferredSlots" : null,
        "doAfter" : null,
        "nbEmpRequired" : 1,
        "deadline" : [ 16, 39 ],
        "skills" : [ {
          "id" : 9,
          "name" : "TILER",
          "level" : 2
        } ],
        "duration" : 2700.000000000,
        "pause" : true
      },
      "window" : {
        "start" : [ 11, 24 ],
        "end" : [ 13, 0 ]
      }
    }, {
      "job" : {
        "id" : 8,
        "desc" : "TILER",
        "location" : {
          "id" : 2306,
          "name" : null,
          "latitude" : 44.07531,
          "longitude" : 4.0559525
        },
        "openings" : {
          "start" : [ 10, 14 ],
          "end" : [ 13, 23 ]
        },
        "preferredSlots" : null,
        "doAfter" : null,
        "nbEmpRequired" : 1,
        "deadline" : [ 12, 7 ],
        "skills" : [ {
          "id" : 9,
          "name" : "TILER",
          "level" : 5
        } ],
        "duration" : 7200.000000000,
        "pause" : false
      },
      "window" : {
        "start" : [ 13, 30 ],
        "end" : [ 15, 30 ]
      }
    }, {
      "job" : {
        "id" : 440,
        "desc" : "TILER",
        "location" : {
          "id" : 4378,
          "name" : null,
          "latitude" : 43.99859,
          "longitude" : 3.9761415
        },
        "openings" : {
          "start" : [ 9, 50 ],
          "end" : [ 11, 43 ]
        },
        "preferredSlots" : null,
        "doAfter" : null,
        "nbEmpRequired" : 1,
        "deadline" : [ 17, 32 ],
        "skills" : [ {
          "id" : 9,
          "name" : "TILER",
          "level" : 1
        } ],
        "duration" : 1800.000000000,
        "pause" : false
      },
      "window" : {
        "start" : [ 15, 41 ],
        "end" : [ 16, 11 ]
      }
    } ],
    "driving" : 4740.000000000,
    "valid" : true
  }, {
    "emp" : {
      "id" : 537,
      "name" : "537",
      "shifts" : [ {
        "start" : [ 9, 0 ],
        "end" : [ 12, 0 ]
      }, {
        "start" : [ 13, 0 ],
        "end" : [ 17, 0 ]
      } ],
      "prefSlots" : null,
      "startingLoc" : {
        "id" : 3672,
        "name" : null,
        "latitude" : 43.849712,
        "longitude" : 3.7186885
      },
      "skills" : [ {
        "id" : 9,
        "name" : "TILER",
        "level" : 3
      } ]
    },
    "planning" : [ {
      "job" : {
        "id" : -1,
        "desc" : "Home",
        "location" : {
          "id" : 3672,
          "name" : null,
          "latitude" : 43.849712,
          "longitude" : 3.7186885
        },
        "openings" : null,
        "preferredSlots" : null,
        "doAfter" : null,
        "nbEmpRequired" : 1,
        "deadline" : null,
        "skills" : [ ],
        "duration" : null,
        "pause" : true
      },
      "window" : {
        "start" : [ 9, 0 ],
        "end" : [ 9, 0 ]
      }
    }, {
      "job" : {
        "id" : -1,
        "desc" : "Pause",
        "location" : {
          "id" : 3672,
          "name" : null,
          "latitude" : 43.849712,
          "longitude" : 3.7186885
        },
        "openings" : null,
        "preferredSlots" : null,
        "doAfter" : null,
        "nbEmpRequired" : 1,
        "deadline" : null,
        "skills" : [ ],
        "duration" : null,
        "pause" : true
      },
      "window" : {
        "start" : [ 9, 1 ],
        "end" : [ 13, 0 ]
      }
    } ],
    "driving" : 0.0,
    "valid" : true
  } ],
  "unassigned" : [ {
    "id" : 644,
    "desc" : "CARPENTRY, GLAZING",
    "location" : {
      "id" : 570,
      "name" : null,
      "latitude" : 44.010853,
      "longitude" : 3.9628053
    },
    "openings" : {
      "start" : [ 16, 38 ],
      "end" : [ 17, 58 ]
    },
    "preferredSlots" : null,
    "doAfter" : null,
    "nbEmpRequired" : 1,
    "deadline" : [ 10, 43 ],
    "skills" : [ {
      "id" : 6,
      "name" : "CARPENTRY",
      "level" : 4
    }, {
      "id" : 5,
      "name" : "GLAZING",
      "level" : 5
    } ],
    "duration" : 2700.000000000,
    "pause" : false
  }, {
    "id" : 403,
    "desc" : "TILER, ELECTRICIAN",
    "location" : {
      "id" : 4822,
      "name" : null,
      "latitude" : 43.61761,
      "longitude" : 3.7771592
    },
    "openings" : {
      "start" : [ 11, 56 ],
      "end" : [ 16, 37 ]
    },
    "preferredSlots" : null,
    "doAfter" : null,
    "nbEmpRequired" : 1,
    "deadline" : [ 13, 24 ],
    "skills" : [ {
      "id" : 9,
      "name" : "TILER",
      "level" : 3
    }, {
      "id" : 2,
      "name" : "ELECTRICIAN",
      "level" : 3
    } ],
    "duration" : 2700.000000000,
    "pause" : false
  }, {
    "id" : 135,
    "desc" : "GLAZING, CARPENTRY",
    "location" : {
      "id" : 797,
      "name" : null,
      "latitude" : 43.53751,
      "longitude" : 3.711404
    },
    "openings" : {
      "start" : [ 13, 43 ],
      "end" : [ 13, 55 ]
    },
    "preferredSlots" : null,
    "doAfter" : null,
    "nbEmpRequired" : 1,
    "deadline" : [ 15, 4 ],
    "skills" : [ {
      "id" : 5,
      "name" : "GLAZING",
      "level" : 3
    }, {
      "id" : 6,
      "name" : "CARPENTRY",
      "level" : 2
    } ],
    "duration" : 2700.000000000,
    "pause" : false
  }, {
    "id" : 752,
    "desc" : "CARPENTRY",
    "location" : {
      "id" : 1789,
      "name" : null,
      "latitude" : 43.990456,
      "longitude" : 3.9453456
    },
    "openings" : {
      "start" : [ 12, 46 ],
      "end" : [ 15, 28 ]
    },
    "preferredSlots" : null,
    "doAfter" : null,
    "nbEmpRequired" : 1,
    "deadline" : [ 15, 55 ],
    "skills" : [ {
      "id" : 6,
      "name" : "CARPENTRY",
      "level" : 5
    } ],
    "duration" : 5400.000000000,
    "pause" : false
  }, {
    "id" : 842,
    "desc" : "ENGINEER, ELECTRICIAN",
    "location" : {
      "id" : 9265,
      "name" : null,
      "latitude" : 43.76119,
      "longitude" : 4.1157928
    },
    "openings" : {
      "start" : [ 9, 54 ],
      "end" : [ 11, 11 ]
    },
    "preferredSlots" : null,
    "doAfter" : null,
    "nbEmpRequired" : 1,
    "deadline" : [ 17, 40 ],
    "skills" : [ {
      "id" : 1,
      "name" : "ENGINEER",
      "level" : 3
    }, {
      "id" : 2,
      "name" : "ELECTRICIAN",
      "level" : 4
    } ],
    "duration" : 5400.000000000,
    "pause" : false
  } ],
  "valid" : true
}