{
  "listEdt" : [ {
    "emp" : {
      "id" : 700,
      "name" : "700",
      "shifts" : [ {
        "start" : [ 9, 0 ],
        "end" : [ 12, 0 ]
      }, {
        "start" : [ 13, 0 ],
        "end" : [ 17, 0 ]
      } ],
      "prefSlots" : null,
      "startingLoc" : {
        "id" : 1275,
        "name" : null,
        "latitude" : 43.68539,
        "longitude" : 4.0660505
      },
      "skills" : [ {
        "id" : 1,
        "name" : "ENGINEER",
        "level" : 4
      }, {
        "id" : 9,
        "name" : "TILER",
        "level" : 4
      }, {
        "id" : 5,
        "name" : "GLAZING",
        "level" : 6
      }, {
        "id" : 6,
        "name" : "CARPENTRY",
        "level" : 10
      }, {
        "id" : 4,
        "name" : "MASONRY",
        "level" : 3
      }, {
        "id" : 0,
        "name" : "MANAGEMENT",
        "level" : 6
      }, {
        "id" : 0,
        "name" : "MANAGEMENT",
        "level" : 7
      }, {
        "id" : 9,
        "name" : "TILER",
        "level" : 8
      }, {
        "id" : 5,
        "name" : "GLAZING",
        "level" : 6
      } ]
    },
    "planning" : [ {
      "job" : {
        "id" : -1,
        "desc" : "Home",
        "location" : {
          "id" : 1275,
          "name" : null,
          "latitude" : 43.68539,
          "longitude" : 4.0660505
        },
        "openings" : null,
        "preferredSlots" : null,
        "doAfter" : null,
        "nbEmpRequired" : 1,
        "deadline" : null,
        "skills" : [ ],
        "duration" : null,
        "pause" : true
      },
      "window" : {
        "start" : [ 9, 0 ],
        "end" : [ 9, 0 ]
      }
    }, {
      "job" : {
        "id" : 977,
        "desc" : "GLAZING",
        "location" : {
          "id" : 7690,
          "name" : null,
          "latitude" : 43.807922,
          "longitude" : 4.100947
        },
        "openings" : {
          "start" : [ 10, 42 ],
          "end" : [ 17, 36 ]
        },
        "preferredSlots" : null,
        "doAfter" : null,
        "nbEmpRequired" : 1,
        "deadline" : [ 16, 58 ],
        "skills" : [ {
          "id" : 5,
          "name" : "GLAZING",
          "level" : 3
        } ],
        "duration" : 3600.000000000,
        "pause" : false
      },
      "window" : {
        "start" : [ 9, 14 ],
        "end" : [ 10, 14 ]
      }
    }, {
      "job" : {
        "id" : 839,
        "desc" : "MASONRY",
        "location" : {
          "id" : 8061,
          "name" : null,
          "latitude" : 43.734364,
          "longitude" : 3.8792145
        },
        "openings" : {
          "start" : [ 10, 12 ],
          "end" : [ 11, 49 ]
        },
        "preferredSlots" : null,
        "doAfter" : null,
        "nbEmpRequired" : 1,
        "deadline" : [ 11, 18 ],
        "skills" : [ {
          "id" : 4,
          "name" : "MASONRY",
          "level" : 2
        } ],
        "duration" : 2700.000000000,
        "pause" : false
      },
      "window" : {
        "start" : [ 10, 34 ],
        "end" : [ 11, 19 ]
      }
    }, {
      "job" : {
        "id" : -1,
        "desc" : "Pause",
        "location" : {
          "id" : 8061,
          "name" : null,
          "latitude" : 43.734364,
          "longitude" : 3.8792145
        },
        "openings" : {
          "start" : [ 10, 12 ],
          "end" : [ 11, 49 ]
        },
        "preferredSlots" : null,
        "doAfter" : null,
        "nbEmpRequired" : 1,
        "deadline" : [ 11, 18 ],
        "skills" : [ {
          "id" : 4,
          "name" : "MASONRY",
          "level" : 2
        } ],
        "duration" : 2700.000000000,
        "pause" : true
      },
      "window" : {
        "start" : [ 11, 20 ],
        "end" : [ 13, 0 ]
      }
    }, {
      "job" : {
        "id" : 217,
        "desc" : "CARPENTRY",
        "location" : {
          "id" : 9625,
          "name" : null,
          "latitude" : 43.747856,
          "longitude" : 3.7305858
        },
        "openings" : {
          "start" : [ 9, 57 ],
          "end" : [ 16, 15 ]
        },
        "preferredSlots" : null,
        "doAfter" : null,
        "nbEmpRequired" : 1,
        "deadline" : [ 15, 58 ],
        "skills" : [ {
          "id" : 6,
          "name" : "CARPENTRY",
          "level" : 3
        } ],
        "duration" : 5400.000000000,
        "pause" : false
      },
      "window" : {
        "start" : [ 13, 13 ],
        "end" : [ 14, 43 ]
      }
    }, {
      "job" : {
        "id" : 77,
        "desc" : "MASONRY",
        "location" : {
          "id" : 1517,
          "name" : null,
          "latitude" : 43.632607,
          "longitude" : 4.215793
        },
        "openings" : {
          "start" : [ 11, 34 ],
          "end" : [ 13, 37 ]
        },
        "preferredSlots" : null,
        "doAfter" : null,
        "nbEmpRequired" : 1,
        "deadline" : [ 16, 43 ],
        "skills" : [ {
          "id" : 4,
          "name" : "MASONRY",
          "level" : 1
        } ],
        "duration" : 3600.000000000,
        "pause" : false
      },
      "window" : {
        "start" : [ 15, 25 ],
        "end" : [ 16, 25 ]
      }
    } ],
    "driving" : 5340.000000000,
    "valid" : true
  }, {
    "emp" : {
      "id" : 687,
      "name" : "687",
      "shifts" : [ {
        "start" : [ 9, 0 ],
        "end" : [ 12, 0 ]
      }, {
        "start" : [ 13, 0 ],
        "end" : [ 17, 0 ]
      } ],
      "prefSlots" : null,
      "startingLoc" : {
        "id" : 7465,
        "name" : null,
        "latitude" : 44.06466,
        "longitude" : 4.093113
      },
      "skills" : [ {
        "id" : 0,
        "name" : "MANAGEMENT",
        "level" : 3
      }, {
        "id" : 5,
        "name" : "GLAZING",
        "level" : 8
      }, {
        "id" : 3,
        "name" : "PLUMBING",
        "level" : 9
      }, {
        "id" : 6,
        "name" : "CARPENTRY",
        "level" : 6
      }, {
        "id" : 7,
        "name" : "PAINTING",
        "level" : 7
      } ]
    },
    "planning" : [ {
      "job" : {
        "id" : -1,
        "desc" : "Home",
        "location" : {
          "id" : 7465,
          "name" : null,
          "latitude" : 44.06466,
          "longitude" : 4.093113
        },
        "openings" : null,
        "preferredSlots" : null,
        "doAfter" : null,
        "nbEmpRequired" : 1,
        "deadline" : null,
        "skills" : [ ],
        "duration" : null,
        "pause" : true
      },
      "window" : {
        "start" : [ 9, 0 ],
        "end" : [ 9, 0 ]
      }
    }, {
      "job" : {
        "id" : -1,
        "desc" : "Pause",
        "location" : {
          "id" : 7465,
          "name" : null,
          "latitude" : 44.06466,
          "longitude" : 4.093113
        },
        "openings" : null,
        "preferredSlots" : null,
        "doAfter" : null,
        "nbEmpRequired" : 1,
        "deadline" : null,
        "skills" : [ ],
        "duration" : null,
        "pause" : true
      },
      "window" : {
        "start" : [ 9, 1 ],
        "end" : [ 13, 0 ]
      }
    } ],
    "driving" : 0.0,
    "valid" : true
  } ],
  "unassigned" : [ {
    "id" : 290,
    "desc" : "PAINTING, ENGINEER",
    "location" : {
      "id" : 9455,
      "name" : null,
      "latitude" : 43.943882,
      "longitude" : 4.169563
    },
    "openings" : {
      "start" : [ 13, 18 ],
      "end" : [ 14, 16 ]
    },
    "preferredSlots" : null,
    "doAfter" : null,
    "nbEmpRequired" : 1,
    "deadline" : [ 9, 31 ],
    "skills" : [ {
      "id" : 7,
      "name" : "PAINTING",
      "level" : 2
    }, {
      "id" : 1,
      "name" : "ENGINEER",
      "level" : 1
    } ],
    "duration" : 2700.000000000,
    "pause" : false
  }, {
    "id" : 791,
    "desc" : "IRONWORK",
    "location" : {
      "id" : 8953,
      "name" : null,
      "latitude" : 44.093777,
      "longitude" : 4.0549397
    },
    "openings" : {
      "start" : [ 11, 42 ],
      "end" : [ 12, 51 ]
    },
    "preferredSlots" : null,
    "doAfter" : null,
    "nbEmpRequired" : 1,
    "deadline" : [ 16, 54 ],
    "skills" : [ {
      "id" : 8,
      "name" : "IRONWORK",
      "level" : 3
    } ],
    "duration" : 3600.000000000,
    "pause" : false
  }, {
    "id" : 935,
    "desc" : "PAINTING, MANAGEMENT",
    "location" : {
      "id" : 1410,
      "name" : null,
      "latitude" : 43.851353,
      "longitude" : 3.9038086
    },
    "openings" : {
      "start" : [ 9, 59 ],
      "end" : [ 12, 3 ]
    },
    "preferredSlots" : null,
    "doAfter" : null,
    "nbEmpRequired" : 1,
    "deadline" : [ 13, 5 ],
    "skills" : [ {
      "id" : 7,
      "name" : "PAINTING",
      "level" : 5
    }, {
      "id" : 0,
      "name" : "MANAGEMENT",
      "level" : 4
    } ],
    "duration" : 2700.000000000,
    "pause" : false
  }, {
    "id" : 657,
    "desc" : "MASONRY",
    "location" : {
      "id" : 8459,
      "name" : null,
      "latitude" : 44.0132,
      "longitude" : 4.150396
    },
    "openings" : {
      "start" : [ 14, 30 ],
      "end" : [ 16, 50 ]
    },
    "preferredSlots" : null,
    "doAfter" : null,
    "nbEmpRequired" : 1,
    "deadline" : [ 16, 57 ],
    "skills" : [ {
      "id" : 4,
      "name" : "MASONRY",
      "level" : 1
    } ],
    "duration" : 3600.000000000,
    "pause" : false
  }, {
    "id" : 771,
    "desc" : "MASONRY, PAINTING",
    "location" : {
      "id" : 6256,
      "name" : null,
      "latitude" : 43.62292,
      "longitude" : 4.2777963
    },
    "openings" : {
      "start" : [ 10, 23 ],
      "end" : [ 13, 46 ]
    },
    "preferredSlots" : null,
    "doAfter" : null,
    "nbEmpRequired" : 1,
    "deadline" : [ 17, 35 ],
    "skills" : [ {
      "id" : 4,
      "name" : "MASONRY",
      "level" : 3
    }, {
      "id" : 7,
      "name" : "PAINTING",
      "level" : 1
    } ],
    "duration" : 2700.000000000,
    "pause" : false
  }, {
    "id" : 461,
    "desc" : "ELECTRICIAN",
    "location" : {
      "id" : 7388,
      "name" : null,
      "latitude" : 43.74726,
      "longitude" : 3.7644286
    },
    "openings" : {
      "start" : [ 11, 9 ],
      "end" : [ 12, 53 ]
    },
    "preferredSlots" : null,
    "doAfter" : null,
    "nbEmpRequired" : 1,
    "deadline" : [ 10, 52 ],
    "skills" : [ {
      "id" : 2,
      "name" : "ELECTRICIAN",
      "level" : 1
    } ],
    "duration" : 7200.000000000,
    "pause" : false
  } ],
  "valid" : true
}