{
  "listEdt" : [ {
    "emp" : {
      "id" : 979,
      "name" : "979",
      "shifts" : [ {
        "start" : [ 9, 0 ],
        "end" : [ 12, 0 ]
      }, {
        "start" : [ 13, 0 ],
        "end" : [ 17, 0 ]
      } ],
      "prefSlots" : null,
      "startingLoc" : {
        "id" : 9421,
        "name" : null,
        "latitude" : 44.069042,
        "longitude" : 3.720242
      },
      "skills" : [ {
        "id" : 6,
        "name" : "CARPENTRY",
        "level" : 5
      }, {
        "id" : 3,
        "name" : "PLUMBING",
        "level" : 6
      }, {
        "id" : 5,
        "name" : "GLAZING",
        "level" : 5
      }, {
        "id" : 3,
        "name" : "PLUMBING",
        "level" : 3
      }, {
        "id" : 0,
        "name" : "MANAGEMENT",
        "level" : 2
      }, {
        "id" : 4,
        "name" : "MASONRY",
        "level" : 4
      }, {
        "id" : 1,
        "name" : "ENGINEER",
        "level" : 7
      } ]
    },
    "planning" : [ {
      "job" : {
        "id" : -1,
        "desc" : "Home",
        "location" : {
          "id" : 9421,
          "name" : null,
          "latitude" : 44.069042,
          "longitude" : 3.720242
        },
        "openings" : null,
        "preferredSlots" : null,
        "doAfter" : null,
        "nbEmpRequired" : 1,
        "deadline" : null,
        "skills" : [ ],
        "duration" : null,
        "pause" : true
      },
      "window" : {
        "start" : [ 9, 0 ],
        "end" : [ 9, 0 ]
      }
    }, {
      "job" : {
        "id" : 428,
        "desc" : "ENGINEER, MASONRY",
        "location" : {
          "id" : 8799,
          "name" : null,
          "latitude" : 43.921032,
          "longitude" : 4.0907044
        },
        "openings" : {
          "start" : [ 11, 3 ],
          "end" : [ 12, 59 ]
        },
        "preferredSlots" : null,
        "doAfter" : null,
        "nbEmpRequired" : 1,
        "deadline" : [ 9, 53 ],
        "skills" : [ {
          "id" : 1,
          "name" : "ENGINEER",
          "level" : 5
        }, {
          "id" : 4,
          "name" : "MASONRY",
          "level" : 3
        } ],
        "duration" : 2700.000000000,
        "pause" : false
      },
      "window" : {
        "start" : [ 9, 34 ],
        "end" : [ 10, 19 ]
      }
    }, {
      "job" : {
        "id" : 749,
        "desc" : "PLUMBING",
        "location" : {
          "id" : 4521,
          "name" : null,
          "latitude" : 43.73065,
          "longitude" : 3.94177
        },
        "openings" : {
          "start" : [ 12, 38 ],
          "end" : [ 17, 17 ]
        },
        "preferredSlots" : null,
        "doAfter" : null,
        "nbEmpRequired" : 1,
        "deadline" : [ 11, 13 ],
        "skills" : [ {
          "id" : 3,
          "name" : "PLUMBING",
          "level" : 3
        } ],
        "duration" : 1800.000000000,
        "pause" : false
      },
      "window" : {
        "start" : [ 10, 44 ],
        "end" : [ 11, 14 ]
      }
    }, {
      "job" : {
        "id" : -1,
        "desc" : "Pause",
        "location" : {
          "id" : 4521,
          "name" : null,
          "latitude" : 43.73065,
          "longitude" : 3.94177
        },
        "openings" : {
          "start" : [ 12, 38 ],
          "end" : [ 17, 17 ]
        },
        "preferredSlots" : null,
        "doAfter" : null,
        "nbEmpRequired" : 1,
        "deadline" : [ 11, 13 ],
        "skills" : [ {
          "id" : 3,
          "name" : "PLUMBING",
          "level" : 3
        } ],
        "duration" : 1800.000000000,
        "pause" : true
      },
      "window" : {
        "start" : [ 11, 15 ],
        "end" : [ 13, 0 ]
      }
    }, {
      "job" : {
        "id" : 82,
        "desc" : "ENGINEER",
        "location" : {
          "id" : 3081,
          "name" : null,
          "latitude" : 44.00413,
          "longitude" : 3.8983078
        },
        "openings" : {
          "start" : [ 15, 19 ],
          "end" : [ 17, 14 ]
        },
        "preferredSlots" : null,
        "doAfter" : null,
        "nbEmpRequired" : 1,
        "deadline" : [ 10, 40 ],
        "skills" : [ {
          "id" : 1,
          "name" : "ENGINEER",
          "level" : 5
        } ],
        "duration" : 5400.000000000,
        "pause" : false
      },
      "window" : {
        "start" : [ 13, 31 ],
        "end" : [ 15, 1 ]
      }
    }, {
      "job" : {
        "id" : 155,
        "desc" : "ENGINEER",
        "location" : {
          "id" : 1110,
          "name" : null,
          "latitude" : 43.705574,
          "longitude" : 4.1422014
        },
        "openings" : {
          "start" : [ 12, 37 ],
          "end" : [ 16, 3 ]
        },
        "preferredSlots" : null,
        "doAfter" : null,
        "nbEmpRequired" : 1,
        "deadline" : [ 13, 48 ],
        "skills" : [ {
          "id" : 1,
          "name" : "ENGINEER",
          "level" : 5
        } ],
        "duration" : 1800.000000000,
        "pause" : false
      },
      "window" : {
        "start" : [ 15, 40 ],
        "end" : [ 16, 10 ]
      }
    } ],
    "driving" : 7740.000000000,
    "valid" : true
  }, {
    "emp" : {
      "id" : 709,
      "name" : "709",
      "shifts" : [ {
        "start" : [ 9, 0 ],
        "end" : [ 12, 0 ]
      }, {
        "start" : [ 13, 0 ],
        "end" : [ 17, 0 ]
      } ],
      "prefSlots" : null,
      "startingLoc" : {
        "id" : 7535,
        "name" : null,
        "latitude" : 44.08233,
        "longitude" : 4.0017667
      },
      "skills" : [ {
        "id" : 3,
        "name" : "PLUMBING",
        "level" : 5
      }, {
        "id" : 5,
        "name" : "GLAZING",
        "level" : 7
      }, {
        "id" : 5,
        "name" : "GLAZING",
        "level" : 1
      }, {
        "id" : 8,
        "name" : "IRONWORK",
        "level" : 5
      }, {
        "id" : 9,
        "name" : "TILER",
        "level" : 4
      }, {
        "id" : 3,
        "name" : "PLUMBING",
        "level" : 6
      }, {
        "id" : 6,
        "name" : "CARPENTRY",
        "level" : 8
      } ]
    },
    "planning" : [ {
      "job" : {
        "id" : -1,
        "desc" : "Home",
        "location" : {
          "id" : 7535,
          "name" : null,
          "latitude" : 44.08233,
          "longitude" : 4.0017667
        },
        "openings" : null,
        "preferredSlots" : null,
        "doAfter" : null,
        "nbEmpRequired" : 1,
        "deadline" : null,
        "skills" : [ ],
        "duration" : null,
        "pause" : true
      },
      "window" : {
        "start" : [ 9, 0 ],
        "end" : [ 9, 0 ]
      }
    }, {
      "job" : {
        "id" : 434,
        "desc" : "CARPENTRY, TILER",
        "location" : {
          "id" : 7432,
          "name" : null,
          "latitude" : 43.714863,
          "longitude" : 4.2879877
        },
        "openings" : {
          "start" : [ 14, 10 ],
          "end" : [ 16, 46 ]
        },
        "preferredSlots" : null,
        "doAfter" : null,
        "nbEmpRequired" : 1,
        "deadline" : [ 15, 52 ],
        "skills" : [ {
          "id" : 6,
          "name" : "CARPENTRY",
          "level" : 4
        }, {
          "id" : 9,
          "name" : "TILER",
          "level" : 2
        } ],
        "duration" : 5400.000000000,
        "pause" : false
      },
      "window" : {
        "start" : [ 9, 47 ],
        "end" : [ 11, 17 ]
      }
    }, {
      "job" : {
        "id" : -1,
        "desc" : "Pause",
        "location" : {
          "id" : 7432,
          "name" : null,
          "latitude" : 43.714863,
          "longitude" : 4.2879877
        },
        "openings" : {
          "start" : [ 14, 10 ],
          "end" : [ 16, 46 ]
        },
        "preferredSlots" : null,
        "doAfter" : null,
        "nbEmpRequired" : 1,
        "deadline" : [ 15, 52 ],
        "skills" : [ {
          "id" : 6,
          "name" : "CARPENTRY",
          "level" : 4
        }, {
          "id" : 9,
          "name" : "TILER",
          "level" : 2
        } ],
        "duration" : 5400.000000000,
        "pause" : true
      },
      "window" : {
        "start" : [ 11, 18 ],
        "end" : [ 13, 0 ]
      }
    }, {
      "job" : {
        "id" : 799,
        "desc" : "CARPENTRY, GLAZING",
        "location" : {
          "id" : 8594,
          "name" : null,
          "latitude" : 43.5952,
          "longitude" : 4.206398
        },
        "openings" : {
          "start" : [ 13, 57 ],
          "end" : [ 15, 6 ]
        },
        "preferredSlots" : null,
        "doAfter" : null,
        "nbEmpRequired" : 1,
        "deadline" : [ 16, 42 ],
        "skills" : [ {
          "id" : 6,
          "name" : "CARPENTRY",
          "level" : 2
        }, {
          "id" : 5,
          "name" : "GLAZING",
          "level" : 3
        } ],
        "duration" : 3600.000000000,
        "pause" : false
      },
      "window" : {
        "start" : [ 13, 15 ],
        "end" : [ 14, 15 ]
      }
    } ],
    "driving" : 3720.000000000,
    "valid" : true
  }, {
    "emp" : {
      "id" : 941,
      "name" : "941",
      "shifts" : [ {
        "start" : [ 9, 0 ],
        "end" : [ 12, 0 ]
      }, {
        "start" : [ 13, 0 ],
        "end" : [ 17, 0 ]
      } ],
      "prefSlots" : null,
      "startingLoc" : {
        "id" : 7006,
        "name" : null,
        "latitude" : 43.686058,
        "longitude" : 4.200793
      },
      "skills" : [ {
        "id" : 9,
        "name" : "TILER",
        "level" : 10
      }, {
        "id" : 6,
        "name" : "CARPENTRY",
        "level" : 8
      }, {
        "id" : 6,
        "name" : "CARPENTRY",
        "level" : 10
      }, {
        "id" : 9,
        "name" : "TILER",
        "level" : 9
      }, {
        "id" : 5,
        "name" : "GLAZING",
        "level" : 1
      } ]
    },
    "planning" : [ {
      "job" : {
        "id" : -1,
        "desc" : "Home",
        "location" : {
          "id" : 7006,
          "name" : null,
          "latitude" : 43.686058,
          "longitude" : 4.200793
        },
        "openings" : null,
        "preferredSlots" : null,
        "doAfter" : null,
        "nbEmpRequired" : 1,
        "deadline" : null,
        "skills" : [ ],
        "duration" : null,
        "pause" : true
      },
      "window" : {
        "start" : [ 9, 0 ],
        "end" : [ 9, 0 ]
      }
    }, {
      "job" : {
        "id" : -1,
        "desc" : "Pause",
        "location" : {
          "id" : 7006,
          "name" : null,
          "latitude" : 43.686058,
          "longitude" : 4.200793
        },
        "openings" : null,
        "preferredSlots" : null,
        "doAfter" : null,
        "nbEmpRequired" : 1,
        "deadline" : null,
        "skills" : [ ],
        "duration" : null,
        "pause" : true
      },
      "window" : {
        "start" : [ 9, 1 ],
        "end" : [ 13, 0 ]
      }
    } ],
    "driving" : 0.0,
    "valid" : true
  }, {
    "emp" : {
      "id" : 196,
      "name" : "196",
      "shifts" : [ {
        "start" : [ 9, 0 ],
        "end" : [ 12, 0 ]
      }, {
        "start" : [ 13, 0 ],
        "end" : [ 17, 0 ]
      } ],
      "prefSlots" : null,
      "startingLoc" : {
        "id" : 7989,
        "name" : null,
        "latitude" : 43.704395,
        "longitude" : 4.0342593
      },
      "skills" : [ {
        "id" : 0,
        "name" : "MANAGEMENT",
        "level" : 3
      }, {
        "id" : 6,
        "name" : "CARPENTRY",
        "level" : 4
      }, {
        "id" : 8,
        "name" : "IRONWORK",
        "level" : 8
      }, {
        "id" : 7,
        "name" : "PAINTING",
        "level" : 5
      }, {
        "id" : 3,
        "name" : "PLUMBING",
        "level" : 8
      }, {
        "id" : 7,
        "name" : "PAINTING",
        "level" : 7
      }, {
        "id" : 2,
        "name" : "ELECTRICIAN",
        "level" : 5
      }, {
        "id" : 9,
        "name" : "TILER",
        "level" : 3
      }, {
        "id" : 9,
        "name" : "TILER",
        "level" : 10
      } ]
    },
    "planning" : [ {
      "job" : {
        "id" : -1,
        "desc" : "Home",
        "location" : {
          "id" : 7989,
          "name" : null,
          "latitude" : 43.704395,
          "longitude" : 4.0342593
        },
        "openings" : null,
        "preferredSlots" : null,
        "doAfter" : null,
        "nbEmpRequired" : 1,
        "deadline" : null,
        "skills" : [ ],
        "duration" : null,
        "pause" : true
      },
      "window" : {
        "start" : [ 9, 0 ],
        "end" : [ 9, 0 ]
      }
    }, {
      "job" : {
        "id" : 963,
        "desc" : "MANAGEMENT, CARPENTRY",
        "location" : {
          "id" : 2767,
          "name" : null,
          "latitude" : 43.667816,
          "longitude" : 4.2920465
        },
        "openings" : {
          "start" : [ 9, 47 ],
          "end" : [ 12, 17 ]
        },
        "preferredSlots" : null,
        "doAfter" : null,
        "nbEmpRequired" : 1,
        "deadline" : [ 10, 39 ],
        "skills" : [ {
          "id" : 0,
          "name" : "MANAGEMENT",
          "level" : 3
        }, {
          "id" : 6,
          "name" : "CARPENTRY",
          "level" : 4
        } ],
        "duration" : 1800.000000000,
        "pause" : false
      },
      "window" : {
        "start" : [ 9, 22 ],
        "end" : [ 9, 52 ]
      }
    }, {
      "job" : {
        "id" : 642,
        "desc" : "PAINTING, IRONWORK",
        "location" : {
          "id" : 1758,
          "name" : null,
          "latitude" : 44.005127,
          "longitude" : 4.2889433
        },
        "openings" : {
          "start" : [ 13, 3 ],
          "end" : [ 17, 47 ]
        },
        "preferredSlots" : null,
        "doAfter" : null,
        "nbEmpRequired" : 1,
        "deadline" : [ 16, 16 ],
        "skills" : [ {
          "id" : 7,
          "name" : "PAINTING",
          "level" : 4
        }, {
          "id" : 8,
          "name" : "IRONWORK",
          "level" : 4
        } ],
        "duration" : 1800.000000000,
        "pause" : false
      },
      "window" : {
        "start" : [ 10, 30 ],
        "end" : [ 11, 0 ]
      }
    }, {
      "job" : {
        "id" : -1,
        "desc" : "Pause",
        "location" : {
          "id" : 1758,
          "name" : null,
          "latitude" : 44.005127,
          "longitude" : 4.2889433
        },
        "openings" : {
          "start" : [ 13, 3 ],
          "end" : [ 17, 47 ]
        },
        "preferredSlots" : null,
        "doAfter" : null,
        "nbEmpRequired" : 1,
        "deadline" : [ 16, 16 ],
        "skills" : [ {
          "id" : 7,
          "name" : "PAINTING",
          "level" : 4
        }, {
          "id" : 8,
          "name" : "IRONWORK",
          "level" : 4
        } ],
        "duration" : 1800.000000000,
        "pause" : true
      },
      "window" : {
        "start" : [ 11, 1 ],
        "end" : [ 13, 0 ]
      }
    }, {
      "job" : {
        "id" : 778,
        "desc" : "PAINTING",
        "location" : {
          "id" : 3651,
          "name" : null,
          "latitude" : 43.986656,
          "longitude" : 3.9297206
        },
        "openings" : {
          "start" : [ 11, 44 ],
          "end" : [ 17, 19 ]
        },
        "preferredSlots" : null,
        "doAfter" : null,
        "nbEmpRequired" : 1,
        "deadline" : [ 10, 54 ],
        "skills" : [ {
          "id" : 7,
          "name" : "PAINTING",
          "level" : 1
        } ],
        "duration" : 5400.000000000,
        "pause" : false
      },
      "window" : {
        "start" : [ 13, 29 ],
        "end" : [ 14, 59 ]
      }
    }, {
      "job" : {
        "id" : 204,
        "desc" : "IRONWORK, ELECTRICIAN",
        "location" : {
          "id" : 5523,
          "name" : null,
          "latitude" : 43.868446,
          "longitude" : 4.127774
        },
        "openings" : {
          "start" : [ 12, 30 ],
          "end" : [ 17, 38 ]
        },
        "preferredSlots" : null,
        "doAfter" : null,
        "nbEmpRequired" : 1,
        "deadline" : [ 17, 54 ],
        "skills" : [ {
          "id" : 8,
          "name" : "IRONWORK",
          "level" : 1
        }, {
          "id" : 2,
          "name" : "ELECTRICIAN",
          "level" : 1
        } ],
        "duration" : 3600.000000000,
        "pause" : false
      },
      "window" : {
        "start" : [ 15, 20 ],
        "end" : [ 16, 20 ]
      }
    } ],
    "driving" : 6600.000000000,
    "valid" : true
  }, {
    "emp" : {
      "id" : 468,
      "name" : "468",
      "shifts" : [ {
        "start" : [ 9, 0 ],
        "end" : [ 12, 0 ]
      }, {
        "start" : [ 13, 0 ],
        "end" : [ 17, 0 ]
      } ],
      "prefSlots" : null,
      "startingLoc" : {
        "id" : 6522,
        "name" : null,
        "latitude" : 43.57086,
        "longitude" : 3.7136016
      },
      "skills" : [ {
        "id" : 1,
        "name" : "ENGINEER",
        "level" : 2
      }, {
        "id" : 3,
        "name" : "PLUMBING",
        "level" : 1
      }, {
        "id" : 6,
        "name" : "CARPENTRY",
        "level" : 6
      }, {
        "id" : 6,
        "name" : "CARPENTRY",
        "level" : 5
      }, {
        "id" : 6,
        "name" : "CARPENTRY",
        "level" : 5
      }, {
        "id" : 8,
        "name" : "IRONWORK",
        "level" : 9
      }, {
        "id" : 2,
        "name" : "ELECTRICIAN",
        "level" : 5
      }, {
        "id" : 0,
        "name" : "MANAGEMENT",
        "level" : 2
      }, {
        "id" : 3,
        "name" : "PLUMBING",
        "level" : 4
      }, {
        "id" : 8,
        "name" : "IRONWORK",
        "level" : 6
      } ]
    },
    "planning" : [ {
      "job" : {
        "id" : -1,
        "desc" : "Home",
        "location" : {
          "id" : 6522,
          "name" : null,
          "latitude" : 43.57086,
          "longitude" : 3.7136016
        },
        "openings" : null,
        "preferredSlots" : null,
        "doAfter" : null,
        "nbEmpRequired" : 1,
        "deadline" : null,
        "skills" : [ ],
        "duration" : null,
        "pause" : true
      },
      "window" : {
        "start" : [ 9, 0 ],
        "end" : [ 9, 0 ]
      }
    }, {
      "job" : {
        "id" : -1,
        "desc" : "Pause",
        "location" : {
          "id" : 6522,
          "name" : null,
          "latitude" : 43.57086,
          "longitude" : 3.7136016
        },
        "openings" : null,
        "preferredSlots" : null,
        "doAfter" : null,
        "nbEmpRequired" : 1,
        "deadline" : null,
        "skills" : [ ],
        "duration" : null,
        "pause" : true
      },
      "window" : {
        "start" : [ 9, 1 ],
        "end" : [ 13, 0 ]
      }
    } ],
    "driving" : 0.0,
    "valid" : true
  }, {
    "emp" : {
      "id" : 373,
      "name" : "373",
      "shifts" : [ {
        "start" : [ 9, 0 ],
        "end" : [ 12, 0 ]
      }, {
        "start" : [ 13, 0 ],
        "end" : [ 17, 0 ]
      } ],
      "prefSlots" : null,
      "startingLoc" : {
        "id" : 5291,
        "name" : null,
        "latitude" : 43.595715,
        "longitude" : 4.25984
      },
      "skills" : [ {
        "id" : 7,
        "name" : "PAINTING",
        "level" : 4
      }, {
        "id" : 2,
        "name" : "ELECTRICIAN",
        "level" : 2
      }, {
        "id" : 4,
        "name" : "MASONRY",
        "level" : 10
      }, {
        "id" : 5,
        "name" : "GLAZING",
        "level" : 10
      } ]
    },
    "planning" : [ {
      "job" : {
        "id" : -1,
        "desc" : "Home",
        "location" : {
          "id" : 5291,
          "name" : null,
          "latitude" : 43.595715,
          "longitude" : 4.25984
        },
        "openings" : null,
        "preferredSlots" : null,
        "doAfter" : null,
        "nbEmpRequired" : 1,
        "deadline" : null,
        "skills" : [ ],
        "duration" : null,
        "pause" : true
      },
      "window" : {
        "start" : [ 9, 0 ],
        "end" : [ 9, 0 ]
      }
    }, {
      "job" : {
        "id" : 270,
        "desc" : "MASONRY, GLAZING",
        "location" : {
          "id" : 3455,
          "name" : null,
          "latitude" : 43.61878,
          "longitude" : 4.165445
        },
        "openings" : {
          "start" : [ 9, 38 ],
          "end" : [ 9, 43 ]
        },
        "preferredSlots" : null,
        "doAfter" : null,
        "nbEmpRequired" : 1,
        "deadline" : [ 13, 39 ],
        "skills" : [ {
          "id" : 4,
          "name" : "MASONRY",
          "level" : 2
        }, {
          "id" : 5,
          "name" : "GLAZING",
          "level" : 5
        } ],
        "duration" : 7200.000000000,
        "pause" : false
      },
      "window" : {
        "start" : [ 9, 9 ],
        "end" : [ 11, 9 ]
      }
    }, {
      "job" : {
        "id" : -1,
        "desc" : "Pause",
        "location" : {
          "id" : 3455,
          "name" : null,
          "latitude" : 43.61878,
          "longitude" : 4.165445
        },
        "openings" : {
          "start" : [ 9, 38 ],
          "end" : [ 9, 43 ]
        },
        "preferredSlots" : null,
        "doAfter" : null,
        "nbEmpRequired" : 1,
        "deadline" : [ 13, 39 ],
        "skills" : [ {
          "id" : 4,
          "name" : "MASONRY",
          "level" : 2
        }, {
          "id" : 5,
          "name" : "GLAZING",
          "level" : 5
        } ],
        "duration" : 7200.000000000,
        "pause" : true
      },
      "window" : {
        "start" : [ 11, 10 ],
        "end" : [ 13, 0 ]
      }
    }, {
      "job" : {
        "id" : 965,
        "desc" : "MASONRY, GLAZING",
        "location" : {
          "id" : 9430,
          "name" : null,
          "latitude" : 43.960045,
          "longitude" : 4.0699086
        },
        "openings" : {
          "start" : [ 13, 25 ],
          "end" : [ 13, 47 ]
        },
        "preferredSlots" : null,
        "doAfter" : null,
        "nbEmpRequired" : 1,
        "deadline" : [ 16, 17 ],
        "skills" : [ {
          "id" : 4,
          "name" : "MASONRY",
          "level" : 2
        }, {
          "id" : 5,
          "name" : "GLAZING",
          "level" : 2
        } ],
        "duration" : 3600.000000000,
        "pause" : false
      },
      "window" : {
        "start" : [ 13, 39 ],
        "end" : [ 14, 39 ]
      }
    }, {
      "job" : {
        "id" : 479,
        "desc" : "MASONRY, PAINTING",
        "location" : {
          "id" : 3263,
          "name" : null,
          "latitude" : 43.94347,
          "longitude" : 4.0032163
        },
        "openings" : {
          "start" : [ 10, 20 ],
          "end" : [ 12, 50 ]
        },
        "preferredSlots" : null,
        "doAfter" : null,
        "nbEmpRequired" : 1,
        "deadline" : [ 16, 35 ],
        "skills" : [ {
          "id" : 4,
          "name" : "MASONRY",
          "level" : 5
        }, {
          "id" : 7,
          "name" : "PAINTING",
          "level" : 2
        } ],
        "duration" : 1800.000000000,
        "pause" : false
      },
      "window" : {
        "start" : [ 14, 45 ],
        "end" : [ 15, 15 ]
      }
    } ],
    "driving" : 3240.000000000,
    "valid" : true
  }, {
    "emp" : {
      "id" : 724,
      "name" : "724",
      "shifts" : [ {
        "start" : [ 9, 0 ],
        "end" : [ 12, 0 ]
      }, {
        "start" : [ 13, 0 ],
        "end" : [ 17, 0 ]
      } ],
      "prefSlots" : null,
      "startingLoc" : {
        "id" : 8504,
        "name" : null,
        "latitude" : 44.085823,
        "longitude" : 4.1889963
      },
      "skills" : [ {
        "id" : 2,
        "name" : "ELECTRICIAN",
        "level" : 10
      }, {
        "id" : 9,
        "name" : "TILER",
        "level" : 1
      }, {
        "id" : 6,
        "name" : "CARPENTRY",
        "level" : 9
      }, {
        "id" : 5,
        "name" : "GLAZING",
        "level" : 8
      }, {
        "id" : 0,
        "name" : "MANAGEMENT",
        "level" : 9
      }, {
        "id" : 8,
        "name" : "IRONWORK",
        "level" : 4
      } ]
    },
    "planning" : [ {
      "job" : {
        "id" : -1,
        "desc" : "Home",
        "location" : {
          "id" : 8504,
          "name" : null,
          "latitude" : 44.085823,
          "longitude" : 4.1889963
        },
        "openings" : null,
        "preferredSlots" : null,
        "doAfter" : null,
        "nbEmpRequired" : 1,
        "deadline" : null,
        "skills" : [ ],
        "duration" : null,
        "pause" : true
      },
      "window" : {
        "start" : [ 9, 0 ],
        "end" : [ 9, 0 ]
      }
    }, {
      "job" : {
        "id" : 149,
        "desc" : "MANAGEMENT",
        "location" : {
          "id" : 1524,
          "name" : null,
          "latitude" : 43.98119,
          "longitude" : 4.2542176
        },
        "openings" : {
          "start" : [ 13, 31 ],
          "end" : [ 17, 8 ]
        },
        "preferredSlots" : null,
        "doAfter" : null,
        "nbEmpRequired" : 1,
        "deadline" : [ 13, 44 ],
        "skills" : [ {
          "id" : 0,
          "name" : "MANAGEMENT",
          "level" : 4
        } ],
        "duration" : 5400.000000000,
        "pause" : false
      },
      "window" : {
        "start" : [ 9, 13 ],
        "end" : [ 10, 43 ]
      }
    }, {
      "job" : {
        "id" : -1,
        "desc" : "Pause",
        "location" : {
          "id" : 1524,
          "name" : null,
          "latitude" : 43.98119,
          "longitude" : 4.2542176
        },
        "openings" : {
          "start" : [ 13, 31 ],
          "end" : [ 17, 8 ]
        },
        "preferredSlots" : null,
        "doAfter" : null,
        "nbEmpRequired" : 1,
        "deadline" : [ 13, 44 ],
        "skills" : [ {
          "id" : 0,
          "name" : "MANAGEMENT",
          "level" : 4
        } ],
        "duration" : 5400.000000000,
        "pause" : true
      },
      "window" : {
        "start" : [ 10, 44 ],
        "end" : [ 13, 0 ]
      }
    } ],
    "driving" : 780.000000000,
    "valid" : true
  }, {
    "emp" : {
      "id" : 917,
      "name" : "917",
      "shifts" : [ {
        "start" : [ 9, 0 ],
        "end" : [ 12, 0 ]
      }, {
        "start" : [ 13, 0 ],
        "end" : [ 17, 0 ]
      } ],
      "prefSlots" : null,
      "startingLoc" : {
        "id" : 5146,
        "name" : null,
        "latitude" : 43.8545,
        "longitude" : 4.0770125
      },
      "skills" : [ {
        "id" : 0,
        "name" : "MANAGEMENT",
        "level" : 7
      }, {
        "id" : 1,
        "name" : "ENGINEER",
        "level" : 2
      } ]
    },
    "planning" : [ {
      "job" : {
        "id" : -1,
        "desc" : "Home",
        "location" : {
          "id" : 5146,
          "name" : null,
          "latitude" : 43.8545,
          "longitude" : 4.0770125
        },
        "openings" : null,
        "preferredSlots" : null,
        "doAfter" : null,
        "nbEmpRequired" : 1,
        "deadline" : null,
        "skills" : [ ],
        "duration" : null,
        "pause" : true
      },
      "window" : {
        "start" : [ 9, 0 ],
        "end" : [ 9, 0 ]
      }
    }, {
      "job" : {
        "id" : -1,
        "desc" : "Pause",
        "location" : {
          "id" : 5146,
          "name" : null,
          "latitude" : 43.8545,
          "longitude" : 4.0770125
        },
        "openings" : null,
        "preferredSlots" : null,
        "doAfter" : null,
        "nbEmpRequired" : 1,
        "deadline" : null,
        "skills" : [ ],
        "duration" : null,
        "pause" : true
      },
      "window" : {
        "start" : [ 9, 1 ],
        "end" : [ 13, 0 ]
      }
    } ],
    "driving" : 0.0,
    "valid" : true
  }, {
    "emp" : {
      "id" : 504,
      "name" : "504",
      "shifts" : [ {
        "start" : [ 9, 0 ],
        "end" : [ 12, 0 ]
      }, {
        "start" : [ 13, 0 ],
        "end" : [ 17, 0 ]
      } ],
      "prefSlots" : null,
      "startingLoc" : {
        "id" : 3955,
        "name" : null,
        "latitude" : 43.963528,
        "longitude" : 4.1806226
      },
      "skills" : [ {
        "id" : 4,
        "name" : "MASONRY",
        "level" : 9
      } ]
    },
    "planning" : [ {
      "job" : {
        "id" : -1,
        "desc" : "Home",
        "location" : {
          "id" : 3955,
          "name" : null,
          "latitude" : 43.963528,
          "longitude" : 4.1806226
        },
        "openings" : null,
        "preferredSlots" : null,
        "doAfter" : null,
        "nbEmpRequired" : 1,
        "deadline" : null,
        "skills" : [ ],
        "duration" : null,
        "pause" : true
      },
      "window" : {
        "start" : [ 9, 0 ],
        "end" : [ 9, 0 ]
      }
    }, {
      "job" : {
        "id" : -1,
        "desc" : "Pause",
        "location" : {
          "id" : 3955,
          "name" : null,
          "latitude" : 43.963528,
          "longitude" : 4.1806226
        },
        "openings" : null,
        "preferredSlots" : null,
        "doAfter" : null,
        "nbEmpRequired" : 1,
        "deadline" : null,
        "skills" : [ ],
        "duration" : null,
        "pause" : true
      },
      "window" : {
        "start" : [ 9, 1 ],
        "end" : [ 13, 0 ]
      }
    } ],
    "driving" : 0.0,
    "valid" : true
  }, {
    "emp" : {
      "id" : 319,
      "name" : "319",
      "shifts" : [ {
        "start" : [ 9, 0 ],
        "end" : [ 12, 0 ]
      }, {
        "start" : [ 13, 0 ],
        "end" : [ 17, 0 ]
      } ],
      "prefSlots" : null,
      "startingLoc" : {
        "id" : 7818,
        "name" : null,
        "latitude" : 43.539276,
        "longitude" : 3.8873208
      },
      "skills" : [ {
        "id" : 6,
        "name" : "CARPENTRY",
        "level" : 9
      }, {
        "id" : 2,
        "name" : "ELECTRICIAN",
        "level" : 9
      }, {
        "id" : 8,
        "name" : "IRONWORK",
        "level" : 2
      }, {
        "id" : 4,
        "name" : "MASONRY",
        "level" : 5
      }, {
        "id" : 4,
        "name" : "MASONRY",
        "level" : 10
      } ]
    },
    "planning" : [ {
      "job" : {
        "id" : -1,
        "desc" : "Home",
        "location" : {
          "id" : 7818,
          "name" : null,
          "latitude" : 43.539276,
          "longitude" : 3.8873208
        },
        "openings" : null,
        "preferredSlots" : null,
        "doAfter" : null,
        "nbEmpRequired" : 1,
        "deadline" : null,
        "skills" : [ ],
        "duration" : null,
        "pause" : true
      },
      "window" : {
        "start" : [ 9, 0 ],
        "end" : [ 9, 0 ]
      }
    }, {
      "job" : {
        "id" : -1,
        "desc" : "Pause",
        "location" : {
          "id" : 7818,
          "name" : null,
          "latitude" : 43.539276,
          "longitude" : 3.8873208
        },
        "openings" : null,
        "preferredSlots" : null,
        "doAfter" : null,
        "nbEmpRequired" : 1,
        "deadline" : null,
        "skills" : [ ],
        "duration" : null,
        "pause" : true
      },
      "window" : {
        "start" : [ 9, 1 ],
        "end" : [ 13, 0 ]
      }
    } ],
    "driving" : 0.0,
    "valid" : true
  } ],
  "unassigned" : [ {
    "id" : 659,
    "desc" : "ENGINEER",
    "location" : {
      "id" : 6861,
      "name" : null,
      "latitude" : 43.622845,
      "longitude" : 4.0960016
    },
    "openings" : {
      "start" : [ 10, 30 ],
      "end" : [ 16, 27 ]
    },
    "preferredSlots" : null,
    "doAfter" : null,
    "nbEmpRequired" : 1,
    "deadline" : [ 11, 10 ],
    "skills" : [ {
      "id" : 1,
      "name" : "ENGINEER",
      "level" : 3
    } ],
    "duration" : 7200.000000000,
    "pause" : false
  }, {
    "id" : 155,
    "desc" : "MANAGEMENT, PLUMBING",
    "location" : {
      "id" : 8811,
      "name" : null,
      "latitude" : 43.590965,
      "longitude" : 3.8069263
    },
    "openings" : {
      "start" : [ 10, 56 ],
      "end" : [ 15, 18 ]
    },
    "preferredSlots" : null,
    "doAfter" : null,
    "nbEmpRequired" : 1,
    "deadline" : [ 11, 56 ],
    "skills" : [ {
      "id" : 0,
      "name" : "MANAGEMENT",
      "level" : 3
    }, {
      "id" : 3,
      "name" : "PLUMBING",
      "level" : 2
    } ],
    "duration" : 5400.000000000,
    "pause" : false
  }, {
    "id" : 937,
    "desc" : "MASONRY, ENGINEER",
    "location" : {
      "id" : 5099,
      "name" : null,
      "latitude" : 43.896156,
      "longitude" : 4.0589123
    },
    "openings" : {
      "start" : [ 10, 3 ],
      "end" : [ 17, 8 ]
    },
    "preferredSlots" : null,
    "doAfter" : null,
    "nbEmpRequired" : 1,
    "deadline" : [ 12, 16 ],
    "skills" : [ {
      "id" : 4,
      "name" : "MASONRY",
      "level" : 5
    }, {
      "id" : 1,
      "name" : "ENGINEER",
      "level" : 3
    } ],
    "duration" : 2700.000000000,
    "pause" : false
  }, {
    "id" : 506,
    "desc" : "MASONRY, MANAGEMENT",
    "location" : {
      "id" : 6260,
      "name" : null,
      "latitude" : 43.628304,
      "longitude" : 3.9892364
    },
    "openings" : {
      "start" : [ 10, 22 ],
      "end" : [ 14, 33 ]
    },
    "preferredSlots" : null,
    "doAfter" : null,
    "nbEmpRequired" : 1,
    "deadline" : [ 14, 48 ],
    "skills" : [ {
      "id" : 4,
      "name" : "MASONRY",
      "level" : 1
    }, {
      "id" : 0,
      "name" : "MANAGEMENT",
      "level" : 4
    } ],
    "duration" : 3600.000000000,
    "pause" : false
  }, {
    "id" : 432,
    "desc" : "MASONRY, PLUMBING",
    "location" : {
      "id" : 881,
      "name" : null,
      "latitude" : 43.909798,
      "longitude" : 4.0751367
    },
    "openings" : {
      "start" : [ 10, 33 ],
      "end" : [ 15, 6 ]
    },
    "preferredSlots" : null,
    "doAfter" : null,
    "nbEmpRequired" : 1,
    "deadline" : [ 17, 26 ],
    "skills" : [ {
      "id" : 4,
      "name" : "MASONRY",
      "level" : 4
    }, {
      "id" : 3,
      "name" : "PLUMBING",
      "level" : 3
    } ],
    "duration" : 2700.000000000,
    "pause" : false
  }, {
    "id" : 475,
    "desc" : "ENGINEER",
    "location" : {
      "id" : 7909,
      "name" : null,
      "latitude" : 44.07474,
      "longitude" : 3.9619823
    },
    "openings" : {
      "start" : [ 12, 4 ],
      "end" : [ 17, 9 ]
    },
    "preferredSlots" : null,
    "doAfter" : null,
    "nbEmpRequired" : 1,
    "deadline" : [ 17, 28 ],
    "skills" : [ {
      "id" : 1,
      "name" : "ENGINEER",
      "level" : 5
    } ],
    "duration" : 5400.000000000,
    "pause" : false
  } ],
  "valid" : true
}