{
  "listEdt" : [ {
    "emp" : {
      "id" : 176,
      "name" : "176",
      "shifts" : [ {
        "start" : [ 9, 0 ],
        "end" : [ 12, 0 ]
      }, {
        "start" : [ 13, 0 ],
        "end" : [ 17, 0 ]
      } ],
      "prefSlots" : null,
      "startingLoc" : {
        "id" : 8226,
        "name" : null,
        "latitude" : 43.947517,
        "longitude" : 3.8607507
      },
      "skills" : [ {
        "id" : 9,
        "name" : "TILER",
        "level" : 1
      }, {
        "id" : 9,
        "name" : "TILER",
        "level" : 6
      }, {
        "id" : 6,
        "name" : "CARPENTRY",
        "level" : 10
      }, {
        "id" : 4,
        "name" : "MASONRY",
        "level" : 9
      }, {
        "id" : 1,
        "name" : "ENGINEER",
        "level" : 1
      } ]
    },
    "planning" : [ {
      "job" : {
        "id" : 388,
        "desc" : "CARPENTRY",
        "location" : {
          "id" : 4758,
          "name" : null,
          "latitude" : 43.60423,
          "longitude" : 3.71845
        },
        "openings" : {
          "start" : [ 15, 1 ],
          "end" : [ 16, 29 ]
        },
        "preferredSlots" : null,
        "doAfter" : null,
        "nbEmpRequired" : 1,
        "deadline" : [ 15, 22 ],
        "skills" : [ {
          "id" : 6,
          "name" : "CARPENTRY",
          "level" : 1
        } ],
        "duration" : 3600.000000000,
        "pause" : false
      },
      "window" : {
        "start" : [ 13, 41, 30 ],
        "end" : [ 14, 41, 30 ]
      }
    }, {
      "job" : {
        "id" : 986,
        "desc" : "TILER",
        "location" : {
          "id" : 3279,
          "name" : null,
          "latitude" : 43.52801,
          "longitude" : 4.044126
        },
        "openings" : {
          "start" : [ 13, 50 ],
          "end" : [ 15, 19 ]
        },
        "preferredSlots" : null,
        "doAfter" : null,
        "nbEmpRequired" : 1,
        "deadline" : [ 14, 37 ],
        "skills" : [ {
          "id" : 9,
          "name" : "TILER",
          "level" : 4
        } ],
        "duration" : 5400.000000000,
        "pause" : false
      },
      "window" : {
        "start" : [ 11, 43, 55 ],
        "end" : [ 13, 13, 55 ]
      }
    }, {
      "job" : {
        "id" : 733,
        "desc" : "TILER",
        "location" : {
          "id" : 5438,
          "name" : null,
          "latitude" : 43.50922,
          "longitude" : 3.7445226
        },
        "openings" : {
          "start" : [ 15, 6 ],
          "end" : [ 15, 54 ]
        },
        "preferredSlots" : null,
        "doAfter" : null,
        "nbEmpRequired" : 1,
        "deadline" : [ 10, 1 ],
        "skills" : [ {
          "id" : 9,
          "name" : "TILER",
          "level" : 1
        } ],
        "duration" : 5400.000000000,
        "pause" : false
      },
      "window" : {
        "start" : [ 9, 49, 39 ],
        "end" : [ 11, 19, 39 ]
      }
    } ],
    "driving" : 0.0,
    "valid" : true
  }, {
    "emp" : {
      "id" : 493,
      "name" : "493",
      "shifts" : [ {
        "start" : [ 9, 0 ],
        "end" : [ 12, 0 ]
      }, {
        "start" : [ 13, 0 ],
        "end" : [ 17, 0 ]
      } ],
      "prefSlots" : null,
      "startingLoc" : {
        "id" : 7478,
        "name" : null,
        "latitude" : 43.71679,
        "longitude" : 3.9817948
      },
      "skills" : [ {
        "id" : 8,
        "name" : "IRONWORK",
        "level" : 4
      }, {
        "id" : 2,
        "name" : "ELECTRICIAN",
        "level" : 8
      }, {
        "id" : 9,
        "name" : "TILER",
        "level" : 2
      }, {
        "id" : 2,
        "name" : "ELECTRICIAN",
        "level" : 9
      } ]
    },
    "planning" : [ {
      "job" : {
        "id" : 117,
        "desc" : "IRONWORK",
        "location" : {
          "id" : 3436,
          "name" : null,
          "latitude" : 43.69468,
          "longitude" : 3.8149247
        },
        "openings" : {
          "start" : [ 11, 45 ],
          "end" : [ 14, 49 ]
        },
        "preferredSlots" : null,
        "doAfter" : null,
        "nbEmpRequired" : 1,
        "deadline" : [ 11, 24 ],
        "skills" : [ {
          "id" : 8,
          "name" : "IRONWORK",
          "level" : 1
        } ],
        "duration" : 7200.000000000,
        "pause" : false
      },
      "window" : {
        "start" : [ 9, 24 ],
        "end" : [ 11, 24 ]
      }
    }, {
      "job" : {
        "id" : 886,
        "desc" : "TILER",
        "location" : {
          "id" : 9215,
          "name" : null,
          "latitude" : 44.025566,
          "longitude" : 3.8212924
        },
        "openings" : {
          "start" : [ 10, 38 ],
          "end" : [ 16, 32 ]
        },
        "preferredSlots" : null,
        "doAfter" : null,
        "nbEmpRequired" : 1,
        "deadline" : [ 16, 35 ],
        "skills" : [ {
          "id" : 9,
          "name" : "TILER",
          "level" : 2
        } ],
        "duration" : 1800.000000000,
        "pause" : false
      },
      "window" : {
        "start" : [ 12, 0, 49 ],
        "end" : [ 12, 30, 49 ]
      }
    } ],
    "driving" : 0.0,
    "valid" : true
  } ],
  "unassigned" : [ {
    "id" : 117,
    "desc" : "IRONWORK",
    "location" : {
      "id" : 3436,
      "name" : null,
      "latitude" : 43.69468,
      "longitude" : 3.8149247
    },
    "openings" : {
      "start" : [ 11, 45 ],
      "end" : [ 14, 49 ]
    },
    "preferredSlots" : null,
    "doAfter" : null,
    "nbEmpRequired" : 1,
    "deadline" : [ 11, 24 ],
    "skills" : [ {
      "id" : 8,
      "name" : "IRONWORK",
      "level" : 1
    } ],
    "duration" : 7200.000000000,
    "pause" : false
  }, {
    "id" : 117,
    "desc" : "IRONWORK",
    "location" : {
      "id" : 3436,
      "name" : null,
      "latitude" : 43.69468,
      "longitude" : 3.8149247
    },
    "openings" : {
      "start" : [ 11, 45 ],
      "end" : [ 14, 49 ]
    },
    "preferredSlots" : null,
    "doAfter" : null,
    "nbEmpRequired" : 1,
    "deadline" : [ 11, 24 ],
    "skills" : [ {
      "id" : 8,
      "name" : "IRONWORK",
      "level" : 1
    } ],
    "duration" : 7200.000000000,
    "pause" : false
  }, {
    "id" : 117,
    "desc" : "IRONWORK",
    "location" : {
      "id" : 3436,
      "name" : null,
      "latitude" : 43.69468,
      "longitude" : 3.8149247
    },
    "openings" : {
      "start" : [ 11, 45 ],
      "end" : [ 14, 49 ]
    },
    "preferredSlots" : null,
    "doAfter" : null,
    "nbEmpRequired" : 1,
    "deadline" : [ 11, 24 ],
    "skills" : [ {
      "id" : 8,
      "name" : "IRONWORK",
      "level" : 1
    } ],
    "duration" : 7200.000000000,
    "pause" : false
  }, {
    "id" : 117,
    "desc" : "IRONWORK",
    "location" : {
      "id" : 3436,
      "name" : null,
      "latitude" : 43.69468,
      "longitude" : 3.8149247
    },
    "openings" : {
      "start" : [ 11, 45 ],
      "end" : [ 14, 49 ]
    },
    "preferredSlots" : null,
    "doAfter" : null,
    "nbEmpRequired" : 1,
    "deadline" : [ 11, 24 ],
    "skills" : [ {
      "id" : 8,
      "name" : "IRONWORK",
      "level" : 1
    } ],
    "duration" : 7200.000000000,
    "pause" : false
  }, {
    "id" : 117,
    "desc" : "IRONWORK",
    "location" : {
      "id" : 3436,
      "name" : null,
      "latitude" : 43.69468,
      "longitude" : 3.8149247
    },
    "openings" : {
      "start" : [ 11, 45 ],
      "end" : [ 14, 49 ]
    },
    "preferredSlots" : null,
    "doAfter" : null,
    "nbEmpRequired" : 1,
    "deadline" : [ 11, 24 ],
    "skills" : [ {
      "id" : 8,
      "name" : "IRONWORK",
      "level" : 1
    } ],
    "duration" : 7200.000000000,
    "pause" : false
  }, {
    "id" : 117,
    "desc" : "IRONWORK",
    "location" : {
      "id" : 3436,
      "name" : null,
      "latitude" : 43.69468,
      "longitude" : 3.8149247
    },
    "openings" : {
      "start" : [ 11, 45 ],
      "end" : [ 14, 49 ]
    },
    "preferredSlots" : null,
    "doAfter" : null,
    "nbEmpRequired" : 1,
    "deadline" : [ 11, 24 ],
    "skills" : [ {
      "id" : 8,
      "name" : "IRONWORK",
      "level" : 1
    } ],
    "duration" : 7200.000000000,
    "pause" : false
  }, {
    "id" : 117,
    "desc" : "IRONWORK",
    "location" : {
      "id" : 3436,
      "name" : null,
      "latitude" : 43.69468,
      "longitude" : 3.8149247
    },
    "openings" : {
      "start" : [ 11, 45 ],
      "end" : [ 14, 49 ]
    },
    "preferredSlots" : null,
    "doAfter" : null,
    "nbEmpRequired" : 1,
    "deadline" : [ 11, 24 ],
    "skills" : [ {
      "id" : 8,
      "name" : "IRONWORK",
      "level" : 1
    } ],
    "duration" : 7200.000000000,
    "pause" : false
  }, {
    "id" : 117,
    "desc" : "IRONWORK",
    "location" : {
      "id" : 3436,
      "name" : null,
      "latitude" : 43.69468,
      "longitude" : 3.8149247
    },
    "openings" : {
      "start" : [ 11, 45 ],
      "end" : [ 14, 49 ]
    },
    "preferredSlots" : null,
    "doAfter" : null,
    "nbEmpRequired" : 1,
    "deadline" : [ 11, 24 ],
    "skills" : [ {
      "id" : 8,
      "name" : "IRONWORK",
      "level" : 1
    } ],
    "duration" : 7200.000000000,
    "pause" : false
  } ],
  "valid" : true
}