{
  "listEdt" : [ {
    "emp" : {
      "id" : 422,
      "name" : "422",
      "shifts" : [ {
        "start" : [ 9, 0 ],
        "end" : [ 12, 0 ]
      }, {
        "start" : [ 13, 0 ],
        "end" : [ 17, 0 ]
      } ],
      "prefSlots" : null,
      "startingLoc" : {
        "id" : 3488,
        "name" : null,
        "latitude" : 43.61242,
        "longitude" : 4.1445603
      },
      "skills" : [ {
        "id" : 5,
        "name" : "GLAZING",
        "level" : 3
      }, {
        "id" : 2,
        "name" : "ELECTRICIAN",
        "level" : 7
      }, {
        "id" : 5,
        "name" : "GLAZING",
        "level" : 3
      }, {
        "id" : 4,
        "name" : "MASONRY",
        "level" : 8
      }, {
        "id" : 9,
        "name" : "TILER",
        "level" : 1
      }, {
        "id" : 8,
        "name" : "IRONWORK",
        "level" : 9
      }, {
        "id" : 4,
        "name" : "MASONRY",
        "level" : 10
      }, {
        "id" : 5,
        "name" : "GLAZING",
        "level" : 5
      }, {
        "id" : 6,
        "name" : "CARPENTRY",
        "level" : 4
      } ]
    },
    "planning" : [ {
      "job" : {
        "id" : -1,
        "desc" : "Home",
        "location" : {
          "id" : 3488,
          "name" : null,
          "latitude" : 43.61242,
          "longitude" : 4.1445603
        },
        "openings" : null,
        "preferredSlots" : null,
        "doAfter" : null,
        "nbEmpRequired" : 1,
        "deadline" : null,
        "skills" : [ ],
        "duration" : null,
        "pause" : true
      },
      "window" : {
        "start" : [ 9, 0 ],
        "end" : [ 9, 0 ]
      }
    }, {
      "job" : {
        "id" : 772,
        "desc" : "MASONRY",
        "location" : {
          "id" : 6092,
          "name" : null,
          "latitude" : 43.577793,
          "longitude" : 4.0409775
        },
        "openings" : {
          "start" : [ 11, 4 ],
          "end" : [ 17, 15 ]
        },
        "preferredSlots" : null,
        "doAfter" : null,
        "nbEmpRequired" : 1,
        "deadline" : [ 17, 42 ],
        "skills" : [ {
          "id" : 4,
          "name" : "MASONRY",
          "level" : 1
        } ],
        "duration" : 3600.000000000,
        "pause" : false
      },
      "window" : {
        "start" : [ 9, 10 ],
        "end" : [ 10, 10 ]
      }
    }, {
      "job" : {
        "id" : 762,
        "desc" : "IRONWORK",
        "location" : {
          "id" : 2421,
          "name" : null,
          "latitude" : 43.53265,
          "longitude" : 3.7491047
        },
        "openings" : {
          "start" : [ 14, 5 ],
          "end" : [ 15, 26 ]
        },
        "preferredSlots" : null,
        "doAfter" : null,
        "nbEmpRequired" : 1,
        "deadline" : [ 16, 7 ],
        "skills" : [ {
          "id" : 8,
          "name" : "IRONWORK",
          "level" : 1
        } ],
        "duration" : 1800.000000000,
        "pause" : false
      },
      "window" : {
        "start" : [ 10, 35 ],
        "end" : [ 11, 5 ]
      }
    }, {
      "job" : {
        "id" : 54,
        "desc" : "IRONWORK",
        "location" : {
          "id" : 1721,
          "name" : null,
          "latitude" : 43.484432,
          "longitude" : 4.027308
        },
        "openings" : {
          "start" : [ 12, 53 ],
          "end" : [ 17, 58 ]
        },
        "preferredSlots" : null,
        "doAfter" : null,
        "nbEmpRequired" : 1,
        "deadline" : [ 11, 5 ],
        "skills" : [ {
          "id" : 8,
          "name" : "IRONWORK",
          "level" : 2
        } ],
        "duration" : 1800.000000000,
        "pause" : false
      },
      "window" : {
        "start" : [ 11, 29 ],
        "end" : [ 11, 59 ]
      }
    }, {
      "job" : {
        "id" : -1,
        "desc" : "Pause",
        "location" : {
          "id" : 1721,
          "name" : null,
          "latitude" : 43.484432,
          "longitude" : 4.027308
        },
        "openings" : {
          "start" : [ 12, 53 ],
          "end" : [ 17, 58 ]
        },
        "preferredSlots" : null,
        "doAfter" : null,
        "nbEmpRequired" : 1,
        "deadline" : [ 11, 5 ],
        "skills" : [ {
          "id" : 8,
          "name" : "IRONWORK",
          "level" : 2
        } ],
        "duration" : 1800.000000000,
        "pause" : true
      },
      "window" : {
        "start" : [ 12, 0 ],
        "end" : [ 13, 0 ]
      }
    }, {
      "job" : {
        "id" : 82,
        "desc" : "GLAZING",
        "location" : {
          "id" : 3949,
          "name" : null,
          "latitude" : 43.653973,
          "longitude" : 4.140122
        },
        "openings" : {
          "start" : [ 9, 35 ],
          "end" : [ 11, 38 ]
        },
        "preferredSlots" : null,
        "doAfter" : null,
        "nbEmpRequired" : 1,
        "deadline" : [ 11, 59 ],
        "skills" : [ {
          "id" : 5,
          "name" : "GLAZING",
          "level" : 1
        } ],
        "duration" : 5400.000000000,
        "pause" : false
      },
      "window" : {
        "start" : [ 13, 21 ],
        "end" : [ 14, 51 ]
      }
    }, {
      "job" : {
        "id" : 114,
        "desc" : "GLAZING",
        "location" : {
          "id" : 5275,
          "name" : null,
          "latitude" : 44.014454,
          "longitude" : 4.003704
        },
        "openings" : {
          "start" : [ 10, 1 ],
          "end" : [ 15, 31 ]
        },
        "preferredSlots" : null,
        "doAfter" : null,
        "nbEmpRequired" : 1,
        "deadline" : [ 11, 0 ],
        "skills" : [ {
          "id" : 5,
          "name" : "GLAZING",
          "level" : 2
        } ],
        "duration" : 1800.000000000,
        "pause" : false
      },
      "window" : {
        "start" : [ 15, 33 ],
        "end" : [ 16, 3 ]
      }
    }, {
      "job" : {
        "id" : 984,
        "desc" : "MASONRY, IRONWORK",
        "location" : {
          "id" : 9251,
          "name" : null,
          "latitude" : 43.89783,
          "longitude" : 4.215095
        },
        "openings" : {
          "start" : [ 11, 14 ],
          "end" : [ 17, 12 ]
        },
        "preferredSlots" : null,
        "doAfter" : null,
        "nbEmpRequired" : 1,
        "deadline" : [ 10, 4 ],
        "skills" : [ {
          "id" : 4,
          "name" : "MASONRY",
          "level" : 2
        }, {
          "id" : 8,
          "name" : "IRONWORK",
          "level" : 5
        } ],
        "duration" : 1800.000000000,
        "pause" : false
      },
      "window" : {
        "start" : [ 16, 25 ],
        "end" : [ 16, 55 ]
      }
    } ],
    "driving" : 8640.000000000,
    "valid" : true
  }, {
    "emp" : {
      "id" : 320,
      "name" : "320",
      "shifts" : [ {
        "start" : [ 9, 0 ],
        "end" : [ 12, 0 ]
      }, {
        "start" : [ 13, 0 ],
        "end" : [ 17, 0 ]
      } ],
      "prefSlots" : null,
      "startingLoc" : {
        "id" : 2700,
        "name" : null,
        "latitude" : 43.80226,
        "longitude" : 3.7865849
      },
      "skills" : [ {
        "id" : 7,
        "name" : "PAINTING",
        "level" : 3
      }, {
        "id" : 7,
        "name" : "PAINTING",
        "level" : 7
      } ]
    },
    "planning" : [ {
      "job" : {
        "id" : -1,
        "desc" : "Home",
        "location" : {
          "id" : 2700,
          "name" : null,
          "latitude" : 43.80226,
          "longitude" : 3.7865849
        },
        "openings" : null,
        "preferredSlots" : null,
        "doAfter" : null,
        "nbEmpRequired" : 1,
        "deadline" : null,
        "skills" : [ ],
        "duration" : null,
        "pause" : true
      },
      "window" : {
        "start" : [ 9, 0 ],
        "end" : [ 9, 0 ]
      }
    }, {
      "job" : {
        "id" : 93,
        "desc" : "PAINTING",
        "location" : {
          "id" : 578,
          "name" : null,
          "latitude" : 43.78344,
          "longitude" : 3.9100509
        },
        "openings" : {
          "start" : [ 9, 20 ],
          "end" : [ 11, 42 ]
        },
        "preferredSlots" : null,
        "doAfter" : null,
        "nbEmpRequired" : 1,
        "deadline" : [ 14, 40 ],
        "skills" : [ {
          "id" : 7,
          "name" : "PAINTING",
          "level" : 5
        } ],
        "duration" : 5400.000000000,
        "pause" : false
      },
      "window" : {
        "start" : [ 9, 11 ],
        "end" : [ 10, 41 ]
      }
    }, {
      "job" : {
        "id" : 248,
        "desc" : "PAINTING",
        "location" : {
          "id" : 3043,
          "name" : null,
          "latitude" : 43.575813,
          "longitude" : 3.9368203
        },
        "openings" : {
          "start" : [ 15, 57 ],
          "end" : [ 17, 35 ]
        },
        "preferredSlots" : null,
        "doAfter" : null,
        "nbEmpRequired" : 1,
        "deadline" : [ 11, 0 ],
        "skills" : [ {
          "id" : 7,
          "name" : "PAINTING",
          "level" : 3
        } ],
        "duration" : 1800.000000000,
        "pause" : false
      },
      "window" : {
        "start" : [ 11, 5 ],
        "end" : [ 11, 35 ]
      }
    }, {
      "job" : {
        "id" : -1,
        "desc" : "Pause",
        "location" : {
          "id" : 3043,
          "name" : null,
          "latitude" : 43.575813,
          "longitude" : 3.9368203
        },
        "openings" : {
          "start" : [ 15, 57 ],
          "end" : [ 17, 35 ]
        },
        "preferredSlots" : null,
        "doAfter" : null,
        "nbEmpRequired" : 1,
        "deadline" : [ 11, 0 ],
        "skills" : [ {
          "id" : 7,
          "name" : "PAINTING",
          "level" : 3
        } ],
        "duration" : 1800.000000000,
        "pause" : true
      },
      "window" : {
        "start" : [ 11, 36 ],
        "end" : [ 13, 0 ]
      }
    }, {
      "job" : {
        "id" : 4,
        "desc" : "PAINTING",
        "location" : {
          "id" : 5894,
          "name" : null,
          "latitude" : 43.839268,
          "longitude" : 3.8289094
        },
        "openings" : {
          "start" : [ 9, 22 ],
          "end" : [ 15, 48 ]
        },
        "preferredSlots" : null,
        "doAfter" : null,
        "nbEmpRequired" : 1,
        "deadline" : [ 17, 48 ],
        "skills" : [ {
          "id" : 7,
          "name" : "PAINTING",
          "level" : 3
        } ],
        "duration" : 3600.000000000,
        "pause" : false
      },
      "window" : {
        "start" : [ 13, 31 ],
        "end" : [ 14, 31 ]
      }
    }, {
      "job" : {
        "id" : 42,
        "desc" : "PAINTING",
        "location" : {
          "id" : 8224,
          "name" : null,
          "latitude" : 43.764652,
          "longitude" : 4.2652597
        },
        "openings" : {
          "start" : [ 14, 43 ],
          "end" : [ 16, 27 ]
        },
        "preferredSlots" : null,
        "doAfter" : null,
        "nbEmpRequired" : 1,
        "deadline" : [ 14, 3 ],
        "skills" : [ {
          "id" : 7,
          "name" : "PAINTING",
          "level" : 2
        } ],
        "duration" : 2700.000000000,
        "pause" : false
      },
      "window" : {
        "start" : [ 15, 7 ],
        "end" : [ 15, 52 ]
      }
    } ],
    "driving" : 6120.000000000,
    "valid" : true
  } ],
  "unassigned" : [ {
    "id" : 983,
    "desc" : "MASONRY, PLUMBING",
    "location" : {
      "id" : 9533,
      "name" : null,
      "latitude" : 43.580265,
      "longitude" : 4.187684
    },
    "openings" : {
      "start" : [ 9, 40 ],
      "end" : [ 15, 12 ]
    },
    "preferredSlots" : null,
    "doAfter" : null,
    "nbEmpRequired" : 1,
    "deadline" : [ 9, 54 ],
    "skills" : [ {
      "id" : 4,
      "name" : "MASONRY",
      "level" : 5
    }, {
      "id" : 3,
      "name" : "PLUMBING",
      "level" : 4
    } ],
    "duration" : 2700.000000000,
    "pause" : false
  }, {
    "id" : 938,
    "desc" : "PAINTING, TILER",
    "location" : {
      "id" : 1546,
      "name" : null,
      "latitude" : 43.750183,
      "longitude" : 3.9030643
    },
    "openings" : {
      "start" : [ 11, 31 ],
      "end" : [ 15, 45 ]
    },
    "preferredSlots" : null,
    "doAfter" : null,
    "nbEmpRequired" : 1,
    "deadline" : [ 11, 52 ],
    "skills" : [ {
      "id" : 7,
      "name" : "PAINTING",
      "level" : 1
    }, {
      "id" : 9,
      "name" : "TILER",
      "level" : 3
    } ],
    "duration" : 5400.000000000,
    "pause" : false
  }, {
    "id" : 706,
    "desc" : "ENGINEER, CARPENTRY",
    "location" : {
      "id" : 6681,
      "name" : null,
      "latitude" : 43.708706,
      "longitude" : 4.150267
    },
    "openings" : {
      "start" : [ 11, 1 ],
      "end" : [ 14, 6 ]
    },
    "preferredSlots" : null,
    "doAfter" : null,
    "nbEmpRequired" : 1,
    "deadline" : [ 14, 9 ],
    "skills" : [ {
      "id" : 1,
      "name" : "ENGINEER",
      "level" : 1
    }, {
      "id" : 6,
      "name" : "CARPENTRY",
      "level" : 1
    } ],
    "duration" : 2700.000000000,
    "pause" : false
  }, {
    "id" : 632,
    "desc" : "IRONWORK, TILER",
    "location" : {
      "id" : 8761,
      "name" : null,
      "latitude" : 43.50762,
      "longitude" : 4.0091405
    },
    "openings" : {
      "start" : [ 16, 24 ],
      "end" : [ 16, 29 ]
    },
    "preferredSlots" : null,
    "doAfter" : null,
    "nbEmpRequired" : 1,
    "deadline" : [ 12, 35 ],
    "skills" : [ {
      "id" : 8,
      "name" : "IRONWORK",
      "level" : 2
    }, {
      "id" : 9,
      "name" : "TILER",
      "level" : 5
    } ],
    "duration" : 5400.000000000,
    "pause" : false
  }, {
    "id" : 556,
    "desc" : "PLUMBING",
    "location" : {
      "id" : 637,
      "name" : null,
      "latitude" : 43.931763,
      "longitude" : 4.0985813
    },
    "openings" : {
      "start" : [ 12, 16 ],
      "end" : [ 15, 40 ]
    },
    "preferredSlots" : null,
    "doAfter" : null,
    "nbEmpRequired" : 1,
    "deadline" : [ 10, 47 ],
    "skills" : [ {
      "id" : 3,
      "name" : "PLUMBING",
      "level" : 5
    } ],
    "duration" : 2700.000000000,
    "pause" : false
  }, {
    "id" : 997,
    "desc" : "PAINTING, ELECTRICIAN",
    "location" : {
      "id" : 2796,
      "name" : null,
      "latitude" : 43.578075,
      "longitude" : 3.9764996
    },
    "openings" : {
      "start" : [ 9, 54 ],
      "end" : [ 15, 0 ]
    },
    "preferredSlots" : null,
    "doAfter" : null,
    "nbEmpRequired" : 1,
    "deadline" : [ 14, 23 ],
    "skills" : [ {
      "id" : 7,
      "name" : "PAINTING",
      "level" : 4
    }, {
      "id" : 2,
      "name" : "ELECTRICIAN",
      "level" : 4
    } ],
    "duration" : 5400.000000000,
    "pause" : false
  }, {
    "id" : 230,
    "desc" : "MASONRY",
    "location" : {
      "id" : 1675,
      "name" : null,
      "latitude" : 43.69741,
      "longitude" : 4.123712
    },
    "openings" : {
      "start" : [ 15, 16 ],
      "end" : [ 15, 56 ]
    },
    "preferredSlots" : null,
    "doAfter" : null,
    "nbEmpRequired" : 1,
    "deadline" : [ 11, 12 ],
    "skills" : [ {
      "id" : 4,
      "name" : "MASONRY",
      "level" : 1
    } ],
    "duration" : 5400.000000000,
    "pause" : false
  }, {
    "id" : 289,
    "desc" : "CARPENTRY, MASONRY",
    "location" : {
      "id" : 9092,
      "name" : null,
      "latitude" : 43.91445,
      "longitude" : 4.286933
    },
    "openings" : {
      "start" : [ 10, 34 ],
      "end" : [ 17, 18 ]
    },
    "preferredSlots" : null,
    "doAfter" : null,
    "nbEmpRequired" : 1,
    "deadline" : [ 14, 53 ],
    "skills" : [ {
      "id" : 6,
      "name" : "CARPENTRY",
      "level" : 1
    }, {
      "id" : 4,
      "name" : "MASONRY",
      "level" : 3
    } ],
    "duration" : 3600.000000000,
    "pause" : false
  }, {
    "id" : 653,
    "desc" : "TILER",
    "location" : {
      "id" : 5965,
      "name" : null,
      "latitude" : 44.091576,
      "longitude" : 4.2216163
    },
    "openings" : {
      "start" : [ 12, 0 ],
      "end" : [ 16, 22 ]
    },
    "preferredSlots" : null,
    "doAfter" : null,
    "nbEmpRequired" : 1,
    "deadline" : [ 15, 48 ],
    "skills" : [ {
      "id" : 9,
      "name" : "TILER",
      "level" : 4
    } ],
    "duration" : 3600.000000000,
    "pause" : false
  }, {
    "id" : 166,
    "desc" : "ELECTRICIAN, CARPENTRY",
    "location" : {
      "id" : 147,
      "name" : null,
      "latitude" : 43.894188,
      "longitude" : 3.7495632
    },
    "openings" : {
      "start" : [ 9, 24 ],
      "end" : [ 10, 5 ]
    },
    "preferredSlots" : null,
    "doAfter" : null,
    "nbEmpRequired" : 1,
    "deadline" : [ 14, 56 ],
    "skills" : [ {
      "id" : 2,
      "name" : "ELECTRICIAN",
      "level" : 1
    }, {
      "id" : 6,
      "name" : "CARPENTRY",
      "level" : 4
    } ],
    "duration" : 3600.000000000,
    "pause" : false
  }, {
    "id" : 871,
    "desc" : "PAINTING, PLUMBING",
    "location" : {
      "id" : 4590,
      "name" : null,
      "latitude" : 43.471596,
      "longitude" : 4.0088677
    },
    "openings" : {
      "start" : [ 12, 39 ],
      "end" : [ 13, 17 ]
    },
    "preferredSlots" : null,
    "doAfter" : null,
    "nbEmpRequired" : 1,
    "deadline" : [ 14, 36 ],
    "skills" : [ {
      "id" : 7,
      "name" : "PAINTING",
      "level" : 3
    }, {
      "id" : 3,
      "name" : "PLUMBING",
      "level" : 4
    } ],
    "duration" : 3600.000000000,
    "pause" : false
  }, {
    "id" : 845,
    "desc" : "MASONRY, PLUMBING",
    "location" : {
      "id" : 2133,
      "name" : null,
      "latitude" : 43.961872,
      "longitude" : 4.2162914
    },
    "openings" : {
      "start" : [ 12, 15 ],
      "end" : [ 16, 51 ]
    },
    "preferredSlots" : null,
    "doAfter" : null,
    "nbEmpRequired" : 1,
    "deadline" : [ 12, 18 ],
    "skills" : [ {
      "id" : 4,
      "name" : "MASONRY",
      "level" : 2
    }, {
      "id" : 3,
      "name" : "PLUMBING",
      "level" : 4
    } ],
    "duration" : 3600.000000000,
    "pause" : false
  }, {
    "id" : 389,
    "desc" : "ELECTRICIAN",
    "location" : {
      "id" : 4211,
      "name" : null,
      "latitude" : 43.691658,
      "longitude" : 4.0988555
    },
    "openings" : {
      "start" : [ 10, 28 ],
      "end" : [ 17, 56 ]
    },
    "preferredSlots" : null,
    "doAfter" : null,
    "nbEmpRequired" : 1,
    "deadline" : [ 13, 19 ],
    "skills" : [ {
      "id" : 2,
      "name" : "ELECTRICIAN",
      "level" : 4
    } ],
    "duration" : 7200.000000000,
    "pause" : false
  }, {
    "id" : 264,
    "desc" : "GLAZING",
    "location" : {
      "id" : 8836,
      "name" : null,
      "latitude" : 43.64501,
      "longitude" : 3.876641
    },
    "openings" : {
      "start" : [ 10, 59 ],
      "end" : [ 13, 48 ]
    },
    "preferredSlots" : null,
    "doAfter" : null,
    "nbEmpRequired" : 1,
    "deadline" : [ 13, 52 ],
    "skills" : [ {
      "id" : 5,
      "name" : "GLAZING",
      "level" : 5
    } ],
    "duration" : 3600.000000000,
    "pause" : false
  }, {
    "id" : 161,
    "desc" : "ELECTRICIAN",
    "location" : {
      "id" : 6122,
      "name" : null,
      "latitude" : 43.97645,
      "longitude" : 3.8119235
    },
    "openings" : {
      "start" : [ 12, 47 ],
      "end" : [ 13, 6 ]
    },
    "preferredSlots" : null,
    "doAfter" : null,
    "nbEmpRequired" : 1,
    "deadline" : [ 14, 40 ],
    "skills" : [ {
      "id" : 2,
      "name" : "ELECTRICIAN",
      "level" : 1
    } ],
    "duration" : 5400.000000000,
    "pause" : false
  }, {
    "id" : 263,
    "desc" : "PLUMBING, MANAGEMENT",
    "location" : {
      "id" : 844,
      "name" : null,
      "latitude" : 43.87376,
      "longitude" : 3.8088818
    },
    "openings" : {
      "start" : [ 11, 6 ],
      "end" : [ 14, 35 ]
    },
    "preferredSlots" : null,
    "doAfter" : null,
    "nbEmpRequired" : 1,
    "deadline" : [ 15, 36 ],
    "skills" : [ {
      "id" : 3,
      "name" : "PLUMBING",
      "level" : 2
    }, {
      "id" : 0,
      "name" : "MANAGEMENT",
      "level" : 3
    } ],
    "duration" : 3600.000000000,
    "pause" : false
  }, {
    "id" : 365,
    "desc" : "MASONRY",
    "location" : {
      "id" : 6720,
      "name" : null,
      "latitude" : 43.75467,
      "longitude" : 4.0497727
    },
    "openings" : {
      "start" : [ 11, 33 ],
      "end" : [ 13, 29 ]
    },
    "preferredSlots" : null,
    "doAfter" : null,
    "nbEmpRequired" : 1,
    "deadline" : [ 10, 47 ],
    "skills" : [ {
      "id" : 4,
      "name" : "MASONRY",
      "level" : 4
    } ],
    "duration" : 5400.000000000,
    "pause" : false
  }, {
    "id" : 442,
    "desc" : "GLAZING, MANAGEMENT",
    "location" : {
      "id" : 6423,
      "name" : null,
      "latitude" : 43.703518,
      "longitude" : 4.0032716
    },
    "openings" : {
      "start" : [ 11, 1 ],
      "end" : [ 11, 11 ]
    },
    "preferredSlots" : null,
    "doAfter" : null,
    "nbEmpRequired" : 1,
    "deadline" : [ 16, 24 ],
    "skills" : [ {
      "id" : 5,
      "name" : "GLAZING",
      "level" : 4
    }, {
      "id" : 0,
      "name" : "MANAGEMENT",
      "level" : 4
    } ],
    "duration" : 3600.000000000,
    "pause" : false
  }, {
    "id" : 709,
    "desc" : "PLUMBING, MASONRY",
    "location" : {
      "id" : 1690,
      "name" : null,
      "latitude" : 43.65025,
      "longitude" : 3.7781303
    },
    "openings" : {
      "start" : [ 15, 44 ],
      "end" : [ 16, 28 ]
    },
    "preferredSlots" : null,
    "doAfter" : null,
    "nbEmpRequired" : 1,
    "deadline" : [ 13, 12 ],
    "skills" : [ {
      "id" : 3,
      "name" : "PLUMBING",
      "level" : 2
    }, {
      "id" : 4,
      "name" : "MASONRY",
      "level" : 1
    } ],
    "duration" : 2700.000000000,
    "pause" : false
  }, {
    "id" : 680,
    "desc" : "ENGINEER, GLAZING",
    "location" : {
      "id" : 7510,
      "name" : null,
      "latitude" : 43.77265,
      "longitude" : 3.7005649
    },
    "openings" : {
      "start" : [ 11, 35 ],
      "end" : [ 13, 23 ]
    },
    "preferredSlots" : null,
    "doAfter" : null,
    "nbEmpRequired" : 1,
    "deadline" : [ 14, 27 ],
    "skills" : [ {
      "id" : 1,
      "name" : "ENGINEER",
      "level" : 1
    }, {
      "id" : 5,
      "name" : "GLAZING",
      "level" : 4
    } ],
    "duration" : 3600.000000000,
    "pause" : false
  }, {
    "id" : 835,
    "desc" : "GLAZING, PLUMBING",
    "location" : {
      "id" : 1567,
      "name" : null,
      "latitude" : 43.481308,
      "longitude" : 3.7457306
    },
    "openings" : {
      "start" : [ 14, 33 ],
      "end" : [ 16, 4 ]
    },
    "preferredSlots" : null,
    "doAfter" : null,
    "nbEmpRequired" : 1,
    "deadline" : [ 14, 18 ],
    "skills" : [ {
      "id" : 5,
      "name" : "GLAZING",
      "level" : 1
    }, {
      "id" : 3,
      "name" : "PLUMBING",
      "level" : 5
    } ],
    "duration" : 2700.000000000,
    "pause" : false
  }, {
    "id" : 429,
    "desc" : "MANAGEMENT, ELECTRICIAN",
    "location" : {
      "id" : 3565,
      "name" : null,
      "latitude" : 44.070423,
      "longitude" : 3.9655776
    },
    "openings" : {
      "start" : [ 11, 23 ],
      "end" : [ 14, 3 ]
    },
    "preferredSlots" : null,
    "doAfter" : null,
    "nbEmpRequired" : 1,
    "deadline" : [ 10, 54 ],
    "skills" : [ {
      "id" : 0,
      "name" : "MANAGEMENT",
      "level" : 2
    }, {
      "id" : 2,
      "name" : "ELECTRICIAN",
      "level" : 3
    } ],
    "duration" : 3600.000000000,
    "pause" : false
  }, {
    "id" : 57,
    "desc" : "GLAZING",
    "location" : {
      "id" : 7750,
      "name" : null,
      "latitude" : 43.671032,
      "longitude" : 3.9965663
    },
    "openings" : {
      "start" : [ 9, 43 ],
      "end" : [ 10, 11 ]
    },
    "preferredSlots" : null,
    "doAfter" : null,
    "nbEmpRequired" : 1,
    "deadline" : [ 13, 12 ],
    "skills" : [ {
      "id" : 5,
      "name" : "GLAZING",
      "level" : 3
    } ],
    "duration" : 3600.000000000,
    "pause" : false
  }, {
    "id" : 414,
    "desc" : "PLUMBING, TILER",
    "location" : {
      "id" : 3772,
      "name" : null,
      "latitude" : 43.411957,
      "longitude" : 4.0438433
    },
    "openings" : {
      "start" : [ 12, 4 ],
      "end" : [ 12, 31 ]
    },
    "preferredSlots" : null,
    "doAfter" : null,
    "nbEmpRequired" : 1,
    "deadline" : [ 9, 1 ],
    "skills" : [ {
      "id" : 3,
      "name" : "PLUMBING",
      "level" : 1
    }, {
      "id" : 9,
      "name" : "TILER",
      "level" : 2
    } ],
    "duration" : 1800.000000000,
    "pause" : false
  }, {
    "id" : 506,
    "desc" : "MANAGEMENT",
    "location" : {
      "id" : 9062,
      "name" : null,
      "latitude" : 43.745667,
      "longitude" : 4.084119
    },
    "openings" : {
      "start" : [ 9, 33 ],
      "end" : [ 11, 34 ]
    },
    "preferredSlots" : null,
    "doAfter" : null,
    "nbEmpRequired" : 1,
    "deadline" : [ 14, 46 ],
    "skills" : [ {
      "id" : 0,
      "name" : "MANAGEMENT",
      "level" : 1
    } ],
    "duration" : 2700.000000000,
    "pause" : false
  }, {
    "id" : 374,
    "desc" : "ELECTRICIAN",
    "location" : {
      "id" : 5230,
      "name" : null,
      "latitude" : 43.95491,
      "longitude" : 3.7242305
    },
    "openings" : {
      "start" : [ 11, 41 ],
      "end" : [ 14, 23 ]
    },
    "preferredSlots" : null,
    "doAfter" : null,
    "nbEmpRequired" : 1,
    "deadline" : [ 10, 6 ],
    "skills" : [ {
      "id" : 2,
      "name" : "ELECTRICIAN",
      "level" : 3
    } ],
    "duration" : 1800.000000000,
    "pause" : false
  }, {
    "id" : 342,
    "desc" : "PLUMBING",
    "location" : {
      "id" : 3466,
      "name" : null,
      "latitude" : 43.944965,
      "longitude" : 3.8833766
    },
    "openings" : {
      "start" : [ 12, 10 ],
      "end" : [ 15, 58 ]
    },
    "preferredSlots" : null,
    "doAfter" : null,
    "nbEmpRequired" : 1,
    "deadline" : [ 14, 43 ],
    "skills" : [ {
      "id" : 3,
      "name" : "PLUMBING",
      "level" : 5
    } ],
    "duration" : 3600.000000000,
    "pause" : false
  }, {
    "id" : 874,
    "desc" : "MASONRY, PLUMBING",
    "location" : {
      "id" : 764,
      "name" : null,
      "latitude" : 43.608147,
      "longitude" : 4.112384
    },
    "openings" : {
      "start" : [ 9, 49 ],
      "end" : [ 14, 53 ]
    },
    "preferredSlots" : null,
    "doAfter" : null,
    "nbEmpRequired" : 1,
    "deadline" : [ 10, 32 ],
    "skills" : [ {
      "id" : 4,
      "name" : "MASONRY",
      "level" : 3
    }, {
      "id" : 3,
      "name" : "PLUMBING",
      "level" : 2
    } ],
    "duration" : 5400.000000000,
    "pause" : false
  }, {
    "id" : 705,
    "desc" : "IRONWORK, TILER",
    "location" : {
      "id" : 2272,
      "name" : null,
      "latitude" : 43.813587,
      "longitude" : 3.7064717
    },
    "openings" : {
      "start" : [ 11, 34 ],
      "end" : [ 13, 16 ]
    },
    "preferredSlots" : null,
    "doAfter" : null,
    "nbEmpRequired" : 1,
    "deadline" : [ 9, 52 ],
    "skills" : [ {
      "id" : 8,
      "name" : "IRONWORK",
      "level" : 2
    }, {
      "id" : 9,
      "name" : "TILER",
      "level" : 1
    } ],
    "duration" : 3600.000000000,
    "pause" : false
  }, {
    "id" : 418,
    "desc" : "MASONRY",
    "location" : {
      "id" : 551,
      "name" : null,
      "latitude" : 43.43979,
      "longitude" : 4.261548
    },
    "openings" : {
      "start" : [ 11, 27 ],
      "end" : [ 12, 55 ]
    },
    "preferredSlots" : null,
    "doAfter" : null,
    "nbEmpRequired" : 1,
    "deadline" : [ 17, 26 ],
    "skills" : [ {
      "id" : 4,
      "name" : "MASONRY",
      "level" : 4
    } ],
    "duration" : 3600.000000000,
    "pause" : false
  }, {
    "id" : 657,
    "desc" : "GLAZING, MANAGEMENT",
    "location" : {
      "id" : 2225,
      "name" : null,
      "latitude" : 43.83037,
      "longitude" : 3.7219799
    },
    "openings" : {
      "start" : [ 9, 3 ],
      "end" : [ 15, 5 ]
    },
    "preferredSlots" : null,
    "doAfter" : null,
    "nbEmpRequired" : 1,
    "deadline" : [ 11, 3 ],
    "skills" : [ {
      "id" : 5,
      "name" : "GLAZING",
      "level" : 5
    }, {
      "id" : 0,
      "name" : "MANAGEMENT",
      "level" : 4
    } ],
    "duration" : 3600.000000000,
    "pause" : false
  }, {
    "id" : 542,
    "desc" : "PLUMBING, PAINTING",
    "location" : {
      "id" : 9121,
      "name" : null,
      "latitude" : 43.442055,
      "longitude" : 3.7004018
    },
    "openings" : {
      "start" : [ 11, 59 ],
      "end" : [ 16, 0 ]
    },
    "preferredSlots" : null,
    "doAfter" : null,
    "nbEmpRequired" : 1,
    "deadline" : [ 11, 34 ],
    "skills" : [ {
      "id" : 3,
      "name" : "PLUMBING",
      "level" : 3
    }, {
      "id" : 7,
      "name" : "PAINTING",
      "level" : 4
    } ],
    "duration" : 1800.000000000,
    "pause" : false
  }, {
    "id" : 46,
    "desc" : "CARPENTRY, MASONRY",
    "location" : {
      "id" : 3902,
      "name" : null,
      "latitude" : 43.420635,
      "longitude" : 3.767984
    },
    "openings" : {
      "start" : [ 13, 24 ],
      "end" : [ 14, 23 ]
    },
    "preferredSlots" : null,
    "doAfter" : null,
    "nbEmpRequired" : 1,
    "deadline" : [ 14, 10 ],
    "skills" : [ {
      "id" : 6,
      "name" : "CARPENTRY",
      "level" : 3
    }, {
      "id" : 4,
      "name" : "MASONRY",
      "level" : 1
    } ],
    "duration" : 5400.000000000,
    "pause" : false
  }, {
    "id" : 60,
    "desc" : "PLUMBING",
    "location" : {
      "id" : 2304,
      "name" : null,
      "latitude" : 43.61051,
      "longitude" : 4.2409725
    },
    "openings" : {
      "start" : [ 9, 20 ],
      "end" : [ 15, 33 ]
    },
    "preferredSlots" : null,
    "doAfter" : null,
    "nbEmpRequired" : 1,
    "deadline" : [ 11, 48 ],
    "skills" : [ {
      "id" : 3,
      "name" : "PLUMBING",
      "level" : 1
    } ],
    "duration" : 5400.000000000,
    "pause" : false
  }, {
    "id" : 814,
    "desc" : "ELECTRICIAN, TILER",
    "location" : {
      "id" : 291,
      "name" : null,
      "latitude" : 43.46251,
      "longitude" : 3.7255807
    },
    "openings" : {
      "start" : [ 9, 22 ],
      "end" : [ 17, 5 ]
    },
    "preferredSlots" : null,
    "doAfter" : null,
    "nbEmpRequired" : 1,
    "deadline" : [ 12, 10 ],
    "skills" : [ {
      "id" : 2,
      "name" : "ELECTRICIAN",
      "level" : 4
    }, {
      "id" : 9,
      "name" : "TILER",
      "level" : 4
    } ],
    "duration" : 7200.000000000,
    "pause" : false
  }, {
    "id" : 666,
    "desc" : "MANAGEMENT",
    "location" : {
      "id" : 5958,
      "name" : null,
      "latitude" : 43.943443,
      "longitude" : 4.0644083
    },
    "openings" : {
      "start" : [ 13, 26 ],
      "end" : [ 15, 36 ]
    },
    "preferredSlots" : null,
    "doAfter" : null,
    "nbEmpRequired" : 1,
    "deadline" : [ 16, 6 ],
    "skills" : [ {
      "id" : 0,
      "name" : "MANAGEMENT",
      "level" : 5
    } ],
    "duration" : 1800.000000000,
    "pause" : false
  }, {
    "id" : 315,
    "desc" : "CARPENTRY, MASONRY",
    "location" : {
      "id" : 5279,
      "name" : null,
      "latitude" : 43.48635,
      "longitude" : 3.749475
    },
    "openings" : {
      "start" : [ 11, 2 ],
      "end" : [ 12, 25 ]
    },
    "preferredSlots" : null,
    "doAfter" : null,
    "nbEmpRequired" : 1,
    "deadline" : [ 9, 24 ],
    "skills" : [ {
      "id" : 6,
      "name" : "CARPENTRY",
      "level" : 4
    }, {
      "id" : 4,
      "name" : "MASONRY",
      "level" : 5
    } ],
    "duration" : 7200.000000000,
    "pause" : false
  }, {
    "id" : 597,
    "desc" : "ELECTRICIAN",
    "location" : {
      "id" : 3296,
      "name" : null,
      "latitude" : 43.74665,
      "longitude" : 3.7959526
    },
    "openings" : {
      "start" : [ 11, 18 ],
      "end" : [ 16, 30 ]
    },
    "preferredSlots" : null,
    "doAfter" : null,
    "nbEmpRequired" : 1,
    "deadline" : [ 14, 16 ],
    "skills" : [ {
      "id" : 2,
      "name" : "ELECTRICIAN",
      "level" : 5
    } ],
    "duration" : 5400.000000000,
    "pause" : false
  }, {
    "id" : 153,
    "desc" : "MANAGEMENT",
    "location" : {
      "id" : 5324,
      "name" : null,
      "latitude" : 43.547096,
      "longitude" : 3.796411
    },
    "openings" : {
      "start" : [ 14, 41 ],
      "end" : [ 16, 38 ]
    },
    "preferredSlots" : null,
    "doAfter" : null,
    "nbEmpRequired" : 1,
    "deadline" : [ 15, 9 ],
    "skills" : [ {
      "id" : 0,
      "name" : "MANAGEMENT",
      "level" : 2
    } ],
    "duration" : 1800.000000000,
    "pause" : false
  }, {
    "id" : 288,
    "desc" : "MASONRY, ELECTRICIAN",
    "location" : {
      "id" : 5152,
      "name" : null,
      "latitude" : 44.071735,
      "longitude" : 4.126877
    },
    "openings" : {
      "start" : [ 16, 36 ],
      "end" : [ 17, 49 ]
    },
    "preferredSlots" : null,
    "doAfter" : null,
    "nbEmpRequired" : 1,
    "deadline" : [ 12, 9 ],
    "skills" : [ {
      "id" : 4,
      "name" : "MASONRY",
      "level" : 1
    }, {
      "id" : 2,
      "name" : "ELECTRICIAN",
      "level" : 3
    } ],
    "duration" : 5400.000000000,
    "pause" : false
  } ],
  "valid" : true
}