{
  "listEdt" : [ {
    "emp" : {
      "id" : 986,
      "name" : "986",
      "shifts" : [ {
        "start" : [ 9, 0 ],
        "end" : [ 12, 0 ]
      }, {
        "start" : [ 13, 0 ],
        "end" : [ 17, 0 ]
      } ],
      "prefSlots" : null,
      "startingLoc" : {
        "id" : 3382,
        "name" : null,
        "latitude" : 43.58834,
        "longitude" : 3.9885037
      },
      "skills" : [ {
        "id" : 3,
        "name" : "PLUMBING",
        "level" : 7
      }, {
        "id" : 7,
        "name" : "PAINTING",
        "level" : 3
      }, {
        "id" : 4,
        "name" : "MASONRY",
        "level" : 5
      }, {
        "id" : 3,
        "name" : "PLUMBING",
        "level" : 10
      }, {
        "id" : 2,
        "name" : "ELECTRICIAN",
        "level" : 3
      }, {
        "id" : 2,
        "name" : "ELECTRICIAN",
        "level" : 10
      }, {
        "id" : 7,
        "name" : "PAINTING",
        "level" : 4
      }, {
        "id" : 6,
        "name" : "CARPENTRY",
        "level" : 5
      }, {
        "id" : 5,
        "name" : "GLAZING",
        "level" : 6
      } ]
    },
    "planning" : [ {
      "job" : {
        "id" : -1,
        "desc" : "Home",
        "location" : {
          "id" : 3382,
          "name" : null,
          "latitude" : 43.58834,
          "longitude" : 3.9885037
        },
        "openings" : null,
        "preferredSlots" : null,
        "doAfter" : null,
        "nbEmpRequired" : 1,
        "deadline" : null,
        "skills" : [ ],
        "duration" : null,
        "pause" : true
      },
      "window" : {
        "start" : [ 9, 0 ],
        "end" : [ 9, 0 ]
      }
    }, {
      "job" : {
        "id" : 525,
        "desc" : "CARPENTRY",
        "location" : {
          "id" : 6350,
          "name" : null,
          "latitude" : 43.65166,
          "longitude" : 4.1537333
        },
        "openings" : {
          "start" : [ 11, 46 ],
          "end" : [ 12, 4 ]
        },
        "preferredSlots" : null,
        "doAfter" : null,
        "nbEmpRequired" : 1,
        "deadline" : [ 17, 48 ],
        "skills" : [ {
          "id" : 6,
          "name" : "CARPENTRY",
          "level" : 1
        } ],
        "duration" : 7200.000000000,
        "pause" : false
      },
      "window" : {
        "start" : [ 9, 16 ],
        "end" : [ 11, 16 ]
      }
    }, {
      "job" : {
        "id" : 255,
        "desc" : "CARPENTRY, ELECTRICIAN",
        "location" : {
          "id" : 724,
          "name" : null,
          "latitude" : 43.660957,
          "longitude" : 4.297828
        },
        "openings" : {
          "start" : [ 11, 12 ],
          "end" : [ 15, 40 ]
        },
        "preferredSlots" : null,
        "doAfter" : null,
        "nbEmpRequired" : 1,
        "deadline" : [ 14, 45 ],
        "skills" : [ {
          "id" : 6,
          "name" : "CARPENTRY",
          "level" : 5
        }, {
          "id" : 2,
          "name" : "ELECTRICIAN",
          "level" : 4
        } ],
        "duration" : 1800.000000000,
        "pause" : false
      },
      "window" : {
        "start" : [ 11, 28 ],
        "end" : [ 11, 58 ]
      }
    }, {
      "job" : {
        "id" : -1,
        "desc" : "Pause",
        "location" : {
          "id" : 724,
          "name" : null,
          "latitude" : 43.660957,
          "longitude" : 4.297828
        },
        "openings" : {
          "start" : [ 11, 12 ],
          "end" : [ 15, 40 ]
        },
        "preferredSlots" : null,
        "doAfter" : null,
        "nbEmpRequired" : 1,
        "deadline" : [ 14, 45 ],
        "skills" : [ {
          "id" : 6,
          "name" : "CARPENTRY",
          "level" : 5
        }, {
          "id" : 2,
          "name" : "ELECTRICIAN",
          "level" : 4
        } ],
        "duration" : 1800.000000000,
        "pause" : true
      },
      "window" : {
        "start" : [ 11, 59 ],
        "end" : [ 13, 0 ]
      }
    }, {
      "job" : {
        "id" : 650,
        "desc" : "ELECTRICIAN",
        "location" : {
          "id" : 6170,
          "name" : null,
          "latitude" : 43.772793,
          "longitude" : 3.7619712
        },
        "openings" : {
          "start" : [ 15, 17 ],
          "end" : [ 15, 30 ]
        },
        "preferredSlots" : null,
        "doAfter" : null,
        "nbEmpRequired" : 1,
        "deadline" : [ 12, 43 ],
        "skills" : [ {
          "id" : 2,
          "name" : "ELECTRICIAN",
          "level" : 4
        } ],
        "duration" : 7200.000000000,
        "pause" : false
      },
      "window" : {
        "start" : [ 13, 45 ],
        "end" : [ 15, 45 ]
      }
    }, {
      "job" : {
        "id" : 397,
        "desc" : "ELECTRICIAN, GLAZING",
        "location" : {
          "id" : 1520,
          "name" : null,
          "latitude" : 43.87529,
          "longitude" : 3.8352063
        },
        "openings" : {
          "start" : [ 15, 47 ],
          "end" : [ 16, 15 ]
        },
        "preferredSlots" : null,
        "doAfter" : null,
        "nbEmpRequired" : 1,
        "deadline" : [ 13, 27 ],
        "skills" : [ {
          "id" : 2,
          "name" : "ELECTRICIAN",
          "level" : 2
        }, {
          "id" : 5,
          "name" : "GLAZING",
          "level" : 2
        } ],
        "duration" : 2700.000000000,
        "pause" : false
      },
      "window" : {
        "start" : [ 15, 58 ],
        "end" : [ 16, 43 ]
      }
    } ],
    "driving" : 5160.000000000,
    "valid" : true
  }, {
    "emp" : {
      "id" : 647,
      "name" : "647",
      "shifts" : [ {
        "start" : [ 9, 0 ],
        "end" : [ 12, 0 ]
      }, {
        "start" : [ 13, 0 ],
        "end" : [ 17, 0 ]
      } ],
      "prefSlots" : null,
      "startingLoc" : {
        "id" : 4366,
        "name" : null,
        "latitude" : 43.89219,
        "longitude" : 3.8373966
      },
      "skills" : [ {
        "id" : 4,
        "name" : "MASONRY",
        "level" : 7
      }, {
        "id" : 1,
        "name" : "ENGINEER",
        "level" : 10
      }, {
        "id" : 2,
        "name" : "ELECTRICIAN",
        "level" : 1
      }, {
        "id" : 7,
        "name" : "PAINTING",
        "level" : 9
      } ]
    },
    "planning" : [ {
      "job" : {
        "id" : -1,
        "desc" : "Home",
        "location" : {
          "id" : 4366,
          "name" : null,
          "latitude" : 43.89219,
          "longitude" : 3.8373966
        },
        "openings" : null,
        "preferredSlots" : null,
        "doAfter" : null,
        "nbEmpRequired" : 1,
        "deadline" : null,
        "skills" : [ ],
        "duration" : null,
        "pause" : true
      },
      "window" : {
        "start" : [ 9, 0 ],
        "end" : [ 9, 0 ]
      }
    }, {
      "job" : {
        "id" : 551,
        "desc" : "ENGINEER",
        "location" : {
          "id" : 4114,
          "name" : null,
          "latitude" : 43.986103,
          "longitude" : 3.8764834
        },
        "openings" : {
          "start" : [ 10, 21 ],
          "end" : [ 12, 47 ]
        },
        "preferredSlots" : null,
        "doAfter" : null,
        "nbEmpRequired" : 1,
        "deadline" : [ 12, 5 ],
        "skills" : [ {
          "id" : 1,
          "name" : "ENGINEER",
          "level" : 1
        } ],
        "duration" : 1800.000000000,
        "pause" : false
      },
      "window" : {
        "start" : [ 9, 11 ],
        "end" : [ 9, 41 ]
      }
    }, {
      "job" : {
        "id" : 886,
        "desc" : "PAINTING",
        "location" : {
          "id" : 2047,
          "name" : null,
          "latitude" : 43.566868,
          "longitude" : 3.704707
        },
        "openings" : {
          "start" : [ 14, 33 ],
          "end" : [ 15, 13 ]
        },
        "preferredSlots" : null,
        "doAfter" : null,
        "nbEmpRequired" : 1,
        "deadline" : [ 15, 16 ],
        "skills" : [ {
          "id" : 7,
          "name" : "PAINTING",
          "level" : 2
        } ],
        "duration" : 3600.000000000,
        "pause" : false
      },
      "window" : {
        "start" : [ 10, 30 ],
        "end" : [ 11, 30 ]
      }
    }, {
      "job" : {
        "id" : -1,
        "desc" : "Pause",
        "location" : {
          "id" : 2047,
          "name" : null,
          "latitude" : 43.566868,
          "longitude" : 3.704707
        },
        "openings" : {
          "start" : [ 14, 33 ],
          "end" : [ 15, 13 ]
        },
        "preferredSlots" : null,
        "doAfter" : null,
        "nbEmpRequired" : 1,
        "deadline" : [ 15, 16 ],
        "skills" : [ {
          "id" : 7,
          "name" : "PAINTING",
          "level" : 2
        } ],
        "duration" : 3600.000000000,
        "pause" : true
      },
      "window" : {
        "start" : [ 11, 31 ],
        "end" : [ 13, 0 ]
      }
    }, {
      "job" : {
        "id" : 464,
        "desc" : "ENGINEER",
        "location" : {
          "id" : 1580,
          "name" : null,
          "latitude" : 43.521416,
          "longitude" : 4.0811357
        },
        "openings" : {
          "start" : [ 12, 23 ],
          "end" : [ 15, 24 ]
        },
        "preferredSlots" : null,
        "doAfter" : null,
        "nbEmpRequired" : 1,
        "deadline" : [ 11, 20 ],
        "skills" : [ {
          "id" : 1,
          "name" : "ENGINEER",
          "level" : 5
        } ],
        "duration" : 1800.000000000,
        "pause" : false
      },
      "window" : {
        "start" : [ 13, 31 ],
        "end" : [ 14, 1 ]
      }
    } ],
    "driving" : 5460.000000000,
    "valid" : true
  }, {
    "emp" : {
      "id" : 258,
      "name" : "258",
      "shifts" : [ {
        "start" : [ 9, 0 ],
        "end" : [ 12, 0 ]
      }, {
        "start" : [ 13, 0 ],
        "end" : [ 17, 0 ]
      } ],
      "prefSlots" : null,
      "startingLoc" : {
        "id" : 5118,
        "name" : null,
        "latitude" : 43.446217,
        "longitude" : 4.2869287
      },
      "skills" : [ {
        "id" : 4,
        "name" : "MASONRY",
        "level" : 7
      }, {
        "id" : 3,
        "name" : "PLUMBING",
        "level" : 10
      }, {
        "id" : 2,
        "name" : "ELECTRICIAN",
        "level" : 10
      }, {
        "id" : 4,
        "name" : "MASONRY",
        "level" : 8
      } ]
    },
    "planning" : [ {
      "job" : {
        "id" : -1,
        "desc" : "Home",
        "location" : {
          "id" : 5118,
          "name" : null,
          "latitude" : 43.446217,
          "longitude" : 4.2869287
        },
        "openings" : null,
        "preferredSlots" : null,
        "doAfter" : null,
        "nbEmpRequired" : 1,
        "deadline" : null,
        "skills" : [ ],
        "duration" : null,
        "pause" : true
      },
      "window" : {
        "start" : [ 9, 0 ],
        "end" : [ 9, 0 ]
      }
    }, {
      "job" : {
        "id" : 734,
        "desc" : "PLUMBING, ELECTRICIAN",
        "location" : {
          "id" : 1735,
          "name" : null,
          "latitude" : 43.877525,
          "longitude" : 3.9070048
        },
        "openings" : {
          "start" : [ 9, 38 ],
          "end" : [ 14, 51 ]
        },
        "preferredSlots" : null,
        "doAfter" : null,
        "nbEmpRequired" : 1,
        "deadline" : [ 12, 25 ],
        "skills" : [ {
          "id" : 3,
          "name" : "PLUMBING",
          "level" : 1
        }, {
          "id" : 2,
          "name" : "ELECTRICIAN",
          "level" : 2
        } ],
        "duration" : 3600.000000000,
        "pause" : false
      },
      "window" : {
        "start" : [ 9, 57 ],
        "end" : [ 10, 57 ]
      }
    }, {
      "job" : {
        "id" : -1,
        "desc" : "Pause",
        "location" : {
          "id" : 1735,
          "name" : null,
          "latitude" : 43.877525,
          "longitude" : 3.9070048
        },
        "openings" : {
          "start" : [ 9, 38 ],
          "end" : [ 14, 51 ]
        },
        "preferredSlots" : null,
        "doAfter" : null,
        "nbEmpRequired" : 1,
        "deadline" : [ 12, 25 ],
        "skills" : [ {
          "id" : 3,
          "name" : "PLUMBING",
          "level" : 1
        }, {
          "id" : 2,
          "name" : "ELECTRICIAN",
          "level" : 2
        } ],
        "duration" : 3600.000000000,
        "pause" : true
      },
      "window" : {
        "start" : [ 10, 58 ],
        "end" : [ 13, 0 ]
      }
    }, {
      "job" : {
        "id" : 81,
        "desc" : "ELECTRICIAN",
        "location" : {
          "id" : 471,
          "name" : null,
          "latitude" : 43.412388,
          "longitude" : 4.1262126
        },
        "openings" : {
          "start" : [ 9, 10 ],
          "end" : [ 13, 34 ]
        },
        "preferredSlots" : null,
        "doAfter" : null,
        "nbEmpRequired" : 1,
        "deadline" : [ 9, 11 ],
        "skills" : [ {
          "id" : 2,
          "name" : "ELECTRICIAN",
          "level" : 2
        } ],
        "duration" : 2700.000000000,
        "pause" : false
      },
      "window" : {
        "start" : [ 13, 55 ],
        "end" : [ 14, 40 ]
      }
    } ],
    "driving" : 6720.000000000,
    "valid" : true
  }, {
    "emp" : {
      "id" : 761,
      "name" : "761",
      "shifts" : [ {
        "start" : [ 9, 0 ],
        "end" : [ 12, 0 ]
      }, {
        "start" : [ 13, 0 ],
        "end" : [ 17, 0 ]
      } ],
      "prefSlots" : null,
      "startingLoc" : {
        "id" : 6858,
        "name" : null,
        "latitude" : 43.712074,
        "longitude" : 4.252161
      },
      "skills" : [ {
        "id" : 4,
        "name" : "MASONRY",
        "level" : 8
      }, {
        "id" : 8,
        "name" : "IRONWORK",
        "level" : 5
      } ]
    },
    "planning" : [ {
      "job" : {
        "id" : -1,
        "desc" : "Home",
        "location" : {
          "id" : 6858,
          "name" : null,
          "latitude" : 43.712074,
          "longitude" : 4.252161
        },
        "openings" : null,
        "preferredSlots" : null,
        "doAfter" : null,
        "nbEmpRequired" : 1,
        "deadline" : null,
        "skills" : [ ],
        "duration" : null,
        "pause" : true
      },
      "window" : {
        "start" : [ 9, 0 ],
        "end" : [ 9, 0 ]
      }
    }, {
      "job" : {
        "id" : -1,
        "desc" : "Pause",
        "location" : {
          "id" : 6858,
          "name" : null,
          "latitude" : 43.712074,
          "longitude" : 4.252161
        },
        "openings" : null,
        "preferredSlots" : null,
        "doAfter" : null,
        "nbEmpRequired" : 1,
        "deadline" : null,
        "skills" : [ ],
        "duration" : null,
        "pause" : true
      },
      "window" : {
        "start" : [ 9, 1 ],
        "end" : [ 13, 0 ]
      }
    } ],
    "driving" : 0.0,
    "valid" : true
  }, {
    "emp" : {
      "id" : 294,
      "name" : "294",
      "shifts" : [ {
        "start" : [ 9, 0 ],
        "end" : [ 12, 0 ]
      }, {
        "start" : [ 13, 0 ],
        "end" : [ 17, 0 ]
      } ],
      "prefSlots" : null,
      "startingLoc" : {
        "id" : 4422,
        "name" : null,
        "latitude" : 43.86948,
        "longitude" : 3.955916
      },
      "skills" : [ {
        "id" : 0,
        "name" : "MANAGEMENT",
        "level" : 5
      }, {
        "id" : 4,
        "name" : "MASONRY",
        "level" : 4
      }, {
        "id" : 9,
        "name" : "TILER",
        "level" : 5
      }, {
        "id" : 3,
        "name" : "PLUMBING",
        "level" : 2
      }, {
        "id" : 4,
        "name" : "MASONRY",
        "level" : 8
      }, {
        "id" : 6,
        "name" : "CARPENTRY",
        "level" : 10
      }, {
        "id" : 4,
        "name" : "MASONRY",
        "level" : 9
      }, {
        "id" : 5,
        "name" : "GLAZING",
        "level" : 1
      } ]
    },
    "planning" : [ {
      "job" : {
        "id" : -1,
        "desc" : "Home",
        "location" : {
          "id" : 4422,
          "name" : null,
          "latitude" : 43.86948,
          "longitude" : 3.955916
        },
        "openings" : null,
        "preferredSlots" : null,
        "doAfter" : null,
        "nbEmpRequired" : 1,
        "deadline" : null,
        "skills" : [ ],
        "duration" : null,
        "pause" : true
      },
      "window" : {
        "start" : [ 9, 0 ],
        "end" : [ 9, 0 ]
      }
    }, {
      "job" : {
        "id" : 477,
        "desc" : "TILER, GLAZING",
        "location" : {
          "id" : 7376,
          "name" : null,
          "latitude" : 43.79444,
          "longitude" : 4.1659775
        },
        "openings" : {
          "start" : [ 10, 36 ],
          "end" : [ 17, 20 ]
        },
        "preferredSlots" : null,
        "doAfter" : null,
        "nbEmpRequired" : 1,
        "deadline" : [ 9, 11 ],
        "skills" : [ {
          "id" : 9,
          "name" : "TILER",
          "level" : 1
        }, {
          "id" : 5,
          "name" : "GLAZING",
          "level" : 1
        } ],
        "duration" : 3600.000000000,
        "pause" : false
      },
      "window" : {
        "start" : [ 9, 19 ],
        "end" : [ 10, 19 ]
      }
    }, {
      "job" : {
        "id" : 534,
        "desc" : "MASONRY, TILER",
        "location" : {
          "id" : 9837,
          "name" : null,
          "latitude" : 43.539665,
          "longitude" : 4.0131693
        },
        "openings" : {
          "start" : [ 12, 38 ],
          "end" : [ 12, 44 ]
        },
        "preferredSlots" : null,
        "doAfter" : null,
        "nbEmpRequired" : 1,
        "deadline" : [ 11, 16 ],
        "skills" : [ {
          "id" : 4,
          "name" : "MASONRY",
          "level" : 2
        }, {
          "id" : 9,
          "name" : "TILER",
          "level" : 1
        } ],
        "duration" : 2700.000000000,
        "pause" : false
      },
      "window" : {
        "start" : [ 10, 50 ],
        "end" : [ 11, 35 ]
      }
    }, {
      "job" : {
        "id" : -1,
        "desc" : "Pause",
        "location" : {
          "id" : 9837,
          "name" : null,
          "latitude" : 43.539665,
          "longitude" : 4.0131693
        },
        "openings" : {
          "start" : [ 12, 38 ],
          "end" : [ 12, 44 ]
        },
        "preferredSlots" : null,
        "doAfter" : null,
        "nbEmpRequired" : 1,
        "deadline" : [ 11, 16 ],
        "skills" : [ {
          "id" : 4,
          "name" : "MASONRY",
          "level" : 2
        }, {
          "id" : 9,
          "name" : "TILER",
          "level" : 1
        } ],
        "duration" : 2700.000000000,
        "pause" : true
      },
      "window" : {
        "start" : [ 11, 36 ],
        "end" : [ 13, 0 ]
      }
    }, {
      "job" : {
        "id" : 647,
        "desc" : "MANAGEMENT",
        "location" : {
          "id" : 2320,
          "name" : null,
          "latitude" : 43.447186,
          "longitude" : 4.192481
        },
        "openings" : {
          "start" : [ 11, 0 ],
          "end" : [ 15, 6 ]
        },
        "preferredSlots" : null,
        "doAfter" : null,
        "nbEmpRequired" : 1,
        "deadline" : [ 16, 2 ],
        "skills" : [ {
          "id" : 0,
          "name" : "MANAGEMENT",
          "level" : 5
        } ],
        "duration" : 7200.000000000,
        "pause" : false
      },
      "window" : {
        "start" : [ 13, 18 ],
        "end" : [ 15, 18 ]
      }
    }, {
      "job" : {
        "id" : 876,
        "desc" : "CARPENTRY",
        "location" : {
          "id" : 1324,
          "name" : null,
          "latitude" : 43.869606,
          "longitude" : 4.1789184
        },
        "openings" : {
          "start" : [ 11, 47 ],
          "end" : [ 13, 28 ]
        },
        "preferredSlots" : null,
        "doAfter" : null,
        "nbEmpRequired" : 1,
        "deadline" : [ 11, 25 ],
        "skills" : [ {
          "id" : 6,
          "name" : "CARPENTRY",
          "level" : 5
        } ],
        "duration" : 2700.000000000,
        "pause" : false
      },
      "window" : {
        "start" : [ 16, 5 ],
        "end" : [ 16, 50 ]
      }
    } ],
    "driving" : 6900.000000000,
    "valid" : true
  }, {
    "emp" : {
      "id" : 640,
      "name" : "640",
      "shifts" : [ {
        "start" : [ 9, 0 ],
        "end" : [ 12, 0 ]
      }, {
        "start" : [ 13, 0 ],
        "end" : [ 17, 0 ]
      } ],
      "prefSlots" : null,
      "startingLoc" : {
        "id" : 6687,
        "name" : null,
        "latitude" : 43.784897,
        "longitude" : 3.957133
      },
      "skills" : [ {
        "id" : 1,
        "name" : "ENGINEER",
        "level" : 5
      } ]
    },
    "planning" : [ {
      "job" : {
        "id" : -1,
        "desc" : "Home",
        "location" : {
          "id" : 6687,
          "name" : null,
          "latitude" : 43.784897,
          "longitude" : 3.957133
        },
        "openings" : null,
        "preferredSlots" : null,
        "doAfter" : null,
        "nbEmpRequired" : 1,
        "deadline" : null,
        "skills" : [ ],
        "duration" : null,
        "pause" : true
      },
      "window" : {
        "start" : [ 9, 0 ],
        "end" : [ 9, 0 ]
      }
    }, {
      "job" : {
        "id" : -1,
        "desc" : "Pause",
        "location" : {
          "id" : 6687,
          "name" : null,
          "latitude" : 43.784897,
          "longitude" : 3.957133
        },
        "openings" : null,
        "preferredSlots" : null,
        "doAfter" : null,
        "nbEmpRequired" : 1,
        "deadline" : null,
        "skills" : [ ],
        "duration" : null,
        "pause" : true
      },
      "window" : {
        "start" : [ 9, 1 ],
        "end" : [ 13, 0 ]
      }
    } ],
    "driving" : 0.0,
    "valid" : true
  }, {
    "emp" : {
      "id" : 867,
      "name" : "867",
      "shifts" : [ {
        "start" : [ 9, 0 ],
        "end" : [ 12, 0 ]
      }, {
        "start" : [ 13, 0 ],
        "end" : [ 17, 0 ]
      } ],
      "prefSlots" : null,
      "startingLoc" : {
        "id" : 3606,
        "name" : null,
        "latitude" : 43.784523,
        "longitude" : 3.907312
      },
      "skills" : [ {
        "id" : 4,
        "name" : "MASONRY",
        "level" : 5
      } ]
    },
    "planning" : [ {
      "job" : {
        "id" : -1,
        "desc" : "Home",
        "location" : {
          "id" : 3606,
          "name" : null,
          "latitude" : 43.784523,
          "longitude" : 3.907312
        },
        "openings" : null,
        "preferredSlots" : null,
        "doAfter" : null,
        "nbEmpRequired" : 1,
        "deadline" : null,
        "skills" : [ ],
        "duration" : null,
        "pause" : true
      },
      "window" : {
        "start" : [ 9, 0 ],
        "end" : [ 9, 0 ]
      }
    }, {
      "job" : {
        "id" : -1,
        "desc" : "Pause",
        "location" : {
          "id" : 3606,
          "name" : null,
          "latitude" : 43.784523,
          "longitude" : 3.907312
        },
        "openings" : null,
        "preferredSlots" : null,
        "doAfter" : null,
        "nbEmpRequired" : 1,
        "deadline" : null,
        "skills" : [ ],
        "duration" : null,
        "pause" : true
      },
      "window" : {
        "start" : [ 9, 1 ],
        "end" : [ 13, 0 ]
      }
    } ],
    "driving" : 0.0,
    "valid" : true
  }, {
    "emp" : {
      "id" : 725,
      "name" : "725",
      "shifts" : [ {
        "start" : [ 9, 0 ],
        "end" : [ 12, 0 ]
      }, {
        "start" : [ 13, 0 ],
        "end" : [ 17, 0 ]
      } ],
      "prefSlots" : null,
      "startingLoc" : {
        "id" : 4552,
        "name" : null,
        "latitude" : 43.788994,
        "longitude" : 4.161578
      },
      "skills" : [ {
        "id" : 9,
        "name" : "TILER",
        "level" : 4
      }, {
        "id" : 9,
        "name" : "TILER",
        "level" : 5
      }, {
        "id" : 5,
        "name" : "GLAZING",
        "level" : 2
      }, {
        "id" : 9,
        "name" : "TILER",
        "level" : 10
      }, {
        "id" : 5,
        "name" : "GLAZING",
        "level" : 9
      }, {
        "id" : 6,
        "name" : "CARPENTRY",
        "level" : 1
      }, {
        "id" : 4,
        "name" : "MASONRY",
        "level" : 7
      } ]
    },
    "planning" : [ {
      "job" : {
        "id" : -1,
        "desc" : "Home",
        "location" : {
          "id" : 4552,
          "name" : null,
          "latitude" : 43.788994,
          "longitude" : 4.161578
        },
        "openings" : null,
        "preferredSlots" : null,
        "doAfter" : null,
        "nbEmpRequired" : 1,
        "deadline" : null,
        "skills" : [ ],
        "duration" : null,
        "pause" : true
      },
      "window" : {
        "start" : [ 9, 0 ],
        "end" : [ 9, 0 ]
      }
    }, {
      "job" : {
        "id" : 988,
        "desc" : "TILER, GLAZING",
        "location" : {
          "id" : 2679,
          "name" : null,
          "latitude" : 43.80001,
          "longitude" : 3.8097572
        },
        "openings" : {
          "start" : [ 12, 51 ],
          "end" : [ 17, 47 ]
        },
        "preferredSlots" : null,
        "doAfter" : null,
        "nbEmpRequired" : 1,
        "deadline" : [ 15, 22 ],
        "skills" : [ {
          "id" : 9,
          "name" : "TILER",
          "level" : 1
        }, {
          "id" : 5,
          "name" : "GLAZING",
          "level" : 4
        } ],
        "duration" : 5400.000000000,
        "pause" : false
      },
      "window" : {
        "start" : [ 9, 29 ],
        "end" : [ 10, 59 ]
      }
    }, {
      "job" : {
        "id" : -1,
        "desc" : "Pause",
        "location" : {
          "id" : 2679,
          "name" : null,
          "latitude" : 43.80001,
          "longitude" : 3.8097572
        },
        "openings" : {
          "start" : [ 12, 51 ],
          "end" : [ 17, 47 ]
        },
        "preferredSlots" : null,
        "doAfter" : null,
        "nbEmpRequired" : 1,
        "deadline" : [ 15, 22 ],
        "skills" : [ {
          "id" : 9,
          "name" : "TILER",
          "level" : 1
        }, {
          "id" : 5,
          "name" : "GLAZING",
          "level" : 4
        } ],
        "duration" : 5400.000000000,
        "pause" : true
      },
      "window" : {
        "start" : [ 11, 0 ],
        "end" : [ 13, 0 ]
      }
    } ],
    "driving" : 1740.000000000,
    "valid" : true
  }, {
    "emp" : {
      "id" : 519,
      "name" : "519",
      "shifts" : [ {
        "start" : [ 9, 0 ],
        "end" : [ 12, 0 ]
      }, {
        "start" : [ 13, 0 ],
        "end" : [ 17, 0 ]
      } ],
      "prefSlots" : null,
      "startingLoc" : {
        "id" : 4334,
        "name" : null,
        "latitude" : 43.421066,
        "longitude" : 3.887591
      },
      "skills" : [ {
        "id" : 4,
        "name" : "MASONRY",
        "level" : 10
      }, {
        "id" : 2,
        "name" : "ELECTRICIAN",
        "level" : 9
      }, {
        "id" : 0,
        "name" : "MANAGEMENT",
        "level" : 1
      } ]
    },
    "planning" : [ {
      "job" : {
        "id" : -1,
        "desc" : "Home",
        "location" : {
          "id" : 4334,
          "name" : null,
          "latitude" : 43.421066,
          "longitude" : 3.887591
        },
        "openings" : null,
        "preferredSlots" : null,
        "doAfter" : null,
        "nbEmpRequired" : 1,
        "deadline" : null,
        "skills" : [ ],
        "duration" : null,
        "pause" : true
      },
      "window" : {
        "start" : [ 9, 0 ],
        "end" : [ 9, 0 ]
      }
    }, {
      "job" : {
        "id" : -1,
        "desc" : "Pause",
        "location" : {
          "id" : 4334,
          "name" : null,
          "latitude" : 43.421066,
          "longitude" : 3.887591
        },
        "openings" : null,
        "preferredSlots" : null,
        "doAfter" : null,
        "nbEmpRequired" : 1,
        "deadline" : null,
        "skills" : [ ],
        "duration" : null,
        "pause" : true
      },
      "window" : {
        "start" : [ 9, 1 ],
        "end" : [ 13, 0 ]
      }
    } ],
    "driving" : 0.0,
    "valid" : true
  }, {
    "emp" : {
      "id" : 889,
      "name" : "889",
      "shifts" : [ {
        "start" : [ 9, 0 ],
        "end" : [ 12, 0 ]
      }, {
        "start" : [ 13, 0 ],
        "end" : [ 17, 0 ]
      } ],
      "prefSlots" : null,
      "startingLoc" : {
        "id" : 2201,
        "name" : null,
        "latitude" : 43.947174,
        "longitude" : 4.014102
      },
      "skills" : [ {
        "id" : 8,
        "name" : "IRONWORK",
        "level" : 2
      }, {
        "id" : 6,
        "name" : "CARPENTRY",
        "level" : 6
      }, {
        "id" : 2,
        "name" : "ELECTRICIAN",
        "level" : 1
      }, {
        "id" : 6,
        "name" : "CARPENTRY",
        "level" : 5
      }, {
        "id" : 5,
        "name" : "GLAZING",
        "level" : 7
      }, {
        "id" : 3,
        "name" : "PLUMBING",
        "level" : 8
      }, {
        "id" : 9,
        "name" : "TILER",
        "level" : 8
      }, {
        "id" : 8,
        "name" : "IRONWORK",
        "level" : 6
      }, {
        "id" : 1,
        "name" : "ENGINEER",
        "level" : 4
      } ]
    },
    "planning" : [ {
      "job" : {
        "id" : -1,
        "desc" : "Home",
        "location" : {
          "id" : 2201,
          "name" : null,
          "latitude" : 43.947174,
          "longitude" : 4.014102
        },
        "openings" : null,
        "preferredSlots" : null,
        "doAfter" : null,
        "nbEmpRequired" : 1,
        "deadline" : null,
        "skills" : [ ],
        "duration" : null,
        "pause" : true
      },
      "window" : {
        "start" : [ 9, 0 ],
        "end" : [ 9, 0 ]
      }
    }, {
      "job" : {
        "id" : 977,
        "desc" : "ENGINEER, CARPENTRY",
        "location" : {
          "id" : 544,
          "name" : null,
          "latitude" : 43.790497,
          "longitude" : 3.8578315
        },
        "openings" : {
          "start" : [ 9, 3 ],
          "end" : [ 15, 12 ]
        },
        "preferredSlots" : null,
        "doAfter" : null,
        "nbEmpRequired" : 1,
        "deadline" : [ 13, 9 ],
        "skills" : [ {
          "id" : 1,
          "name" : "ENGINEER",
          "level" : 1
        }, {
          "id" : 6,
          "name" : "CARPENTRY",
          "level" : 3
        } ],
        "duration" : 2700.000000000,
        "pause" : false
      },
      "window" : {
        "start" : [ 9, 22 ],
        "end" : [ 10, 7 ]
      }
    }, {
      "job" : {
        "id" : 416,
        "desc" : "CARPENTRY, PLUMBING",
        "location" : {
          "id" : 7875,
          "name" : null,
          "latitude" : 43.95015,
          "longitude" : 4.253785
        },
        "openings" : {
          "start" : [ 14, 29 ],
          "end" : [ 17, 49 ]
        },
        "preferredSlots" : null,
        "doAfter" : null,
        "nbEmpRequired" : 1,
        "deadline" : [ 14, 23 ],
        "skills" : [ {
          "id" : 6,
          "name" : "CARPENTRY",
          "level" : 4
        }, {
          "id" : 3,
          "name" : "PLUMBING",
          "level" : 4
        } ],
        "duration" : 2700.000000000,
        "pause" : false
      },
      "window" : {
        "start" : [ 10, 44 ],
        "end" : [ 11, 29 ]
      }
    }, {
      "job" : {
        "id" : -1,
        "desc" : "Pause",
        "location" : {
          "id" : 7875,
          "name" : null,
          "latitude" : 43.95015,
          "longitude" : 4.253785
        },
        "openings" : {
          "start" : [ 14, 29 ],
          "end" : [ 17, 49 ]
        },
        "preferredSlots" : null,
        "doAfter" : null,
        "nbEmpRequired" : 1,
        "deadline" : [ 14, 23 ],
        "skills" : [ {
          "id" : 6,
          "name" : "CARPENTRY",
          "level" : 4
        }, {
          "id" : 3,
          "name" : "PLUMBING",
          "level" : 4
        } ],
        "duration" : 2700.000000000,
        "pause" : true
      },
      "window" : {
        "start" : [ 11, 30 ],
        "end" : [ 13, 0 ]
      }
    } ],
    "driving" : 3540.000000000,
    "valid" : true
  } ],
  "unassigned" : [ {
    "id" : 622,
    "desc" : "PAINTING, MANAGEMENT",
    "location" : {
      "id" : 48,
      "name" : null,
      "latitude" : 43.91711,
      "longitude" : 3.9412289
    },
    "openings" : {
      "start" : [ 12, 21 ],
      "end" : [ 15, 34 ]
    },
    "preferredSlots" : null,
    "doAfter" : null,
    "nbEmpRequired" : 1,
    "deadline" : [ 17, 26 ],
    "skills" : [ {
      "id" : 7,
      "name" : "PAINTING",
      "level" : 5
    }, {
      "id" : 0,
      "name" : "MANAGEMENT",
      "level" : 4
    } ],
    "duration" : 1800.000000000,
    "pause" : false
  }, {
    "id" : 87,
    "desc" : "MANAGEMENT, ELECTRICIAN",
    "location" : {
      "id" : 433,
      "name" : null,
      "latitude" : 44.05671,
      "longitude" : 4.02878
    },
    "openings" : {
      "start" : [ 10, 24 ],
      "end" : [ 11, 52 ]
    },
    "preferredSlots" : null,
    "doAfter" : null,
    "nbEmpRequired" : 1,
    "deadline" : [ 15, 48 ],
    "skills" : [ {
      "id" : 0,
      "name" : "MANAGEMENT",
      "level" : 3
    }, {
      "id" : 2,
      "name" : "ELECTRICIAN",
      "level" : 5
    } ],
    "duration" : 1800.000000000,
    "pause" : false
  }, {
    "id" : 321,
    "desc" : "ELECTRICIAN, MANAGEMENT",
    "location" : {
      "id" : 1998,
      "name" : null,
      "latitude" : 44.018387,
      "longitude" : 3.8320012
    },
    "openings" : {
      "start" : [ 11, 44 ],
      "end" : [ 16, 38 ]
    },
    "preferredSlots" : null,
    "doAfter" : null,
    "nbEmpRequired" : 1,
    "deadline" : [ 9, 37 ],
    "skills" : [ {
      "id" : 2,
      "name" : "ELECTRICIAN",
      "level" : 2
    }, {
      "id" : 0,
      "name" : "MANAGEMENT",
      "level" : 3
    } ],
    "duration" : 5400.000000000,
    "pause" : false
  }, {
    "id" : 714,
    "desc" : "ELECTRICIAN, MANAGEMENT",
    "location" : {
      "id" : 858,
      "name" : null,
      "latitude" : 43.467747,
      "longitude" : 4.0319343
    },
    "openings" : {
      "start" : [ 10, 13 ],
      "end" : [ 15, 59 ]
    },
    "preferredSlots" : null,
    "doAfter" : null,
    "nbEmpRequired" : 1,
    "deadline" : [ 10, 41 ],
    "skills" : [ {
      "id" : 2,
      "name" : "ELECTRICIAN",
      "level" : 3
    }, {
      "id" : 0,
      "name" : "MANAGEMENT",
      "level" : 3
    } ],
    "duration" : 3600.000000000,
    "pause" : false
  } ],
  "valid" : true
}