{
  "listEdt" : [ {
    "emp" : {
      "id" : 316,
      "name" : "316",
      "shifts" : [ {
        "start" : [ 9, 0 ],
        "end" : [ 12, 0 ]
      }, {
        "start" : [ 13, 0 ],
        "end" : [ 17, 0 ]
      } ],
      "prefSlots" : null,
      "startingLoc" : {
        "id" : 7775,
        "name" : null,
        "latitude" : 43.793243,
        "longitude" : 4.1983404
      },
      "skills" : [ {
        "id" : 4,
        "name" : "MASONRY",
        "level" : 8
      }, {
        "id" : 2,
        "name" : "ELECTRICIAN",
        "level" : 2
      }, {
        "id" : 0,
        "name" : "MANAGEMENT",
        "level" : 2
      }, {
        "id" : 1,
        "name" : "ENGINEER",
        "level" : 2
      }, {
        "id" : 0,
        "name" : "MANAGEMENT",
        "level" : 8
      }, {
        "id" : 2,
        "name" : "ELECTRICIAN",
        "level" : 9
      }, {
        "id" : 2,
        "name" : "ELECTRICIAN",
        "level" : 8
      }, {
        "id" : 9,
        "name" : "TILER",
        "level" : 1
      } ]
    },
    "planning" : [ {
      "job" : {
        "id" : -1,
        "desc" : "Home",
        "location" : {
          "id" : 7775,
          "name" : null,
          "latitude" : 43.793243,
          "longitude" : 4.1983404
        },
        "openings" : null,
        "preferredSlots" : null,
        "doAfter" : null,
        "nbEmpRequired" : 1,
        "deadline" : null,
        "skills" : [ ],
        "duration" : null,
        "pause" : true
      },
      "window" : {
        "start" : [ 9, 0 ],
        "end" : [ 9, 0 ]
      }
    }, {
      "job" : {
        "id" : 502,
        "desc" : "MASONRY, ELECTRICIAN",
        "location" : {
          "id" : 833,
          "name" : null,
          "latitude" : 44.04691,
          "longitude" : 4.1703606
        },
        "openings" : {
          "start" : [ 15, 26 ],
          "end" : [ 15, 35 ]
        },
        "preferredSlots" : null,
        "doAfter" : null,
        "nbEmpRequired" : 1,
        "deadline" : [ 15, 58 ],
        "skills" : [ {
          "id" : 4,
          "name" : "MASONRY",
          "level" : 2
        }, {
          "id" : 2,
          "name" : "ELECTRICIAN",
          "level" : 2
        } ],
        "duration" : 3600.000000000,
        "pause" : false
      },
      "window" : {
        "start" : [ 9, 29 ],
        "end" : [ 10, 29 ]
      }
    }, {
      "job" : {
        "id" : 486,
        "desc" : "MASONRY",
        "location" : {
          "id" : 5662,
          "name" : null,
          "latitude" : 43.732338,
          "longitude" : 4.1685157
        },
        "openings" : {
          "start" : [ 10, 13 ],
          "end" : [ 17, 30 ]
        },
        "preferredSlots" : null,
        "doAfter" : null,
        "nbEmpRequired" : 1,
        "deadline" : [ 17, 30 ],
        "skills" : [ {
          "id" : 4,
          "name" : "MASONRY",
          "level" : 3
        } ],
        "duration" : 1800.000000000,
        "pause" : false
      },
      "window" : {
        "start" : [ 11, 4 ],
        "end" : [ 11, 34 ]
      }
    }, {
      "job" : {
        "id" : -1,
        "desc" : "Pause",
        "location" : {
          "id" : 5662,
          "name" : null,
          "latitude" : 43.732338,
          "longitude" : 4.1685157
        },
        "openings" : {
          "start" : [ 10, 13 ],
          "end" : [ 17, 30 ]
        },
        "preferredSlots" : null,
        "doAfter" : null,
        "nbEmpRequired" : 1,
        "deadline" : [ 17, 30 ],
        "skills" : [ {
          "id" : 4,
          "name" : "MASONRY",
          "level" : 3
        } ],
        "duration" : 1800.000000000,
        "pause" : true
      },
      "window" : {
        "start" : [ 11, 35 ],
        "end" : [ 13, 0 ]
      }
    }, {
      "job" : {
        "id" : 116,
        "desc" : "MANAGEMENT, ELECTRICIAN",
        "location" : {
          "id" : 161,
          "name" : null,
          "latitude" : 43.90678,
          "longitude" : 4.1976914
        },
        "openings" : {
          "start" : [ 15, 0 ],
          "end" : [ 17, 39 ]
        },
        "preferredSlots" : null,
        "doAfter" : null,
        "nbEmpRequired" : 1,
        "deadline" : [ 9, 53 ],
        "skills" : [ {
          "id" : 0,
          "name" : "MANAGEMENT",
          "level" : 2
        }, {
          "id" : 2,
          "name" : "ELECTRICIAN",
          "level" : 2
        } ],
        "duration" : 2700.000000000,
        "pause" : false
      },
      "window" : {
        "start" : [ 13, 20 ],
        "end" : [ 14, 5 ]
      }
    }, {
      "job" : {
        "id" : 372,
        "desc" : "TILER, MANAGEMENT",
        "location" : {
          "id" : 1111,
          "name" : null,
          "latitude" : 43.463085,
          "longitude" : 4.2571154
        },
        "openings" : {
          "start" : [ 10, 58 ],
          "end" : [ 13, 11 ]
        },
        "preferredSlots" : null,
        "doAfter" : null,
        "nbEmpRequired" : 1,
        "deadline" : [ 13, 0 ],
        "skills" : [ {
          "id" : 9,
          "name" : "TILER",
          "level" : 1
        }, {
          "id" : 0,
          "name" : "MANAGEMENT",
          "level" : 2
        } ],
        "duration" : 5400.000000000,
        "pause" : false
      },
      "window" : {
        "start" : [ 14, 55 ],
        "end" : [ 16, 25 ]
      }
    } ],
    "driving" : 8040.000000000,
    "valid" : true
  }, {
    "emp" : {
      "id" : 158,
      "name" : "158",
      "shifts" : [ {
        "start" : [ 9, 0 ],
        "end" : [ 12, 0 ]
      }, {
        "start" : [ 13, 0 ],
        "end" : [ 17, 0 ]
      } ],
      "prefSlots" : null,
      "startingLoc" : {
        "id" : 1783,
        "name" : null,
        "latitude" : 43.846813,
        "longitude" : 3.8577476
      },
      "skills" : [ {
        "id" : 0,
        "name" : "MANAGEMENT",
        "level" : 5
      }, {
        "id" : 1,
        "name" : "ENGINEER",
        "level" : 1
      }, {
        "id" : 7,
        "name" : "PAINTING",
        "level" : 4
      }, {
        "id" : 8,
        "name" : "IRONWORK",
        "level" : 10
      }, {
        "id" : 5,
        "name" : "GLAZING",
        "level" : 8
      }, {
        "id" : 7,
        "name" : "PAINTING",
        "level" : 7
      }, {
        "id" : 6,
        "name" : "CARPENTRY",
        "level" : 3
      } ]
    },
    "planning" : [ {
      "job" : {
        "id" : -1,
        "desc" : "Home",
        "location" : {
          "id" : 1783,
          "name" : null,
          "latitude" : 43.846813,
          "longitude" : 3.8577476
        },
        "openings" : null,
        "preferredSlots" : null,
        "doAfter" : null,
        "nbEmpRequired" : 1,
        "deadline" : null,
        "skills" : [ ],
        "duration" : null,
        "pause" : true
      },
      "window" : {
        "start" : [ 9, 0 ],
        "end" : [ 9, 0 ]
      }
    }, {
      "job" : {
        "id" : 543,
        "desc" : "CARPENTRY, MANAGEMENT",
        "location" : {
          "id" : 9134,
          "name" : null,
          "latitude" : 43.66279,
          "longitude" : 3.7116227
        },
        "openings" : {
          "start" : [ 11, 17 ],
          "end" : [ 11, 47 ]
        },
        "preferredSlots" : null,
        "doAfter" : null,
        "nbEmpRequired" : 1,
        "deadline" : [ 14, 56 ],
        "skills" : [ {
          "id" : 6,
          "name" : "CARPENTRY",
          "level" : 2
        }, {
          "id" : 0,
          "name" : "MANAGEMENT",
          "level" : 3
        } ],
        "duration" : 2700.000000000,
        "pause" : false
      },
      "window" : {
        "start" : [ 9, 24 ],
        "end" : [ 10, 9 ]
      }
    }, {
      "job" : {
        "id" : 485,
        "desc" : "IRONWORK, PAINTING",
        "location" : {
          "id" : 5133,
          "name" : null,
          "latitude" : 43.680927,
          "longitude" : 4.0560217
        },
        "openings" : {
          "start" : [ 15, 50 ],
          "end" : [ 16, 59 ]
        },
        "preferredSlots" : null,
        "doAfter" : null,
        "nbEmpRequired" : 1,
        "deadline" : [ 17, 10 ],
        "skills" : [ {
          "id" : 8,
          "name" : "IRONWORK",
          "level" : 2
        }, {
          "id" : 7,
          "name" : "PAINTING",
          "level" : 5
        } ],
        "duration" : 1800.000000000,
        "pause" : false
      },
      "window" : {
        "start" : [ 10, 37 ],
        "end" : [ 11, 7 ]
      }
    }, {
      "job" : {
        "id" : -1,
        "desc" : "Pause",
        "location" : {
          "id" : 5133,
          "name" : null,
          "latitude" : 43.680927,
          "longitude" : 4.0560217
        },
        "openings" : {
          "start" : [ 15, 50 ],
          "end" : [ 16, 59 ]
        },
        "preferredSlots" : null,
        "doAfter" : null,
        "nbEmpRequired" : 1,
        "deadline" : [ 17, 10 ],
        "skills" : [ {
          "id" : 8,
          "name" : "IRONWORK",
          "level" : 2
        }, {
          "id" : 7,
          "name" : "PAINTING",
          "level" : 5
        } ],
        "duration" : 1800.000000000,
        "pause" : true
      },
      "window" : {
        "start" : [ 11, 8 ],
        "end" : [ 13, 0 ]
      }
    } ],
    "driving" : 3120.000000000,
    "valid" : true
  }, {
    "emp" : {
      "id" : 434,
      "name" : "434",
      "shifts" : [ {
        "start" : [ 9, 0 ],
        "end" : [ 12, 0 ]
      }, {
        "start" : [ 13, 0 ],
        "end" : [ 17, 0 ]
      } ],
      "prefSlots" : null,
      "startingLoc" : {
        "id" : 7277,
        "name" : null,
        "latitude" : 43.913517,
        "longitude" : 4.2074666
      },
      "skills" : [ {
        "id" : 0,
        "name" : "MANAGEMENT",
        "level" : 10
      }, {
        "id" : 5,
        "name" : "GLAZING",
        "level" : 6
      }, {
        "id" : 9,
        "name" : "TILER",
        "level" : 7
      }, {
        "id" : 7,
        "name" : "PAINTING",
        "level" : 5
      }, {
        "id" : 3,
        "name" : "PLUMBING",
        "level" : 6
      }, {
        "id" : 3,
        "name" : "PLUMBING",
        "level" : 6
      }, {
        "id" : 7,
        "name" : "PAINTING",
        "level" : 8
      }, {
        "id" : 4,
        "name" : "MASONRY",
        "level" : 1
      }, {
        "id" : 4,
        "name" : "MASONRY",
        "level" : 2
      } ]
    },
    "planning" : [ {
      "job" : {
        "id" : -1,
        "desc" : "Home",
        "location" : {
          "id" : 7277,
          "name" : null,
          "latitude" : 43.913517,
          "longitude" : 4.2074666
        },
        "openings" : null,
        "preferredSlots" : null,
        "doAfter" : null,
        "nbEmpRequired" : 1,
        "deadline" : null,
        "skills" : [ ],
        "duration" : null,
        "pause" : true
      },
      "window" : {
        "start" : [ 9, 0 ],
        "end" : [ 9, 0 ]
      }
    }, {
      "job" : {
        "id" : 497,
        "desc" : "TILER",
        "location" : {
          "id" : 8013,
          "name" : null,
          "latitude" : 43.605637,
          "longitude" : 4.093776
        },
        "openings" : {
          "start" : [ 10, 51 ],
          "end" : [ 16, 20 ]
        },
        "preferredSlots" : null,
        "doAfter" : null,
        "nbEmpRequired" : 1,
        "deadline" : [ 15, 35 ],
        "skills" : [ {
          "id" : 9,
          "name" : "TILER",
          "level" : 5
        } ],
        "duration" : 1800.000000000,
        "pause" : false
      },
      "window" : {
        "start" : [ 9, 36 ],
        "end" : [ 10, 6 ]
      }
    }, {
      "job" : {
        "id" : 217,
        "desc" : "PLUMBING",
        "location" : {
          "id" : 6562,
          "name" : null,
          "latitude" : 43.651066,
          "longitude" : 4.0473204
        },
        "openings" : {
          "start" : [ 13, 41 ],
          "end" : [ 14, 17 ]
        },
        "preferredSlots" : null,
        "doAfter" : null,
        "nbEmpRequired" : 1,
        "deadline" : [ 10, 46 ],
        "skills" : [ {
          "id" : 3,
          "name" : "PLUMBING",
          "level" : 3
        } ],
        "duration" : 3600.000000000,
        "pause" : false
      },
      "window" : {
        "start" : [ 10, 13 ],
        "end" : [ 11, 13 ]
      }
    }, {
      "job" : {
        "id" : -1,
        "desc" : "Pause",
        "location" : {
          "id" : 6562,
          "name" : null,
          "latitude" : 43.651066,
          "longitude" : 4.0473204
        },
        "openings" : {
          "start" : [ 13, 41 ],
          "end" : [ 14, 17 ]
        },
        "preferredSlots" : null,
        "doAfter" : null,
        "nbEmpRequired" : 1,
        "deadline" : [ 10, 46 ],
        "skills" : [ {
          "id" : 3,
          "name" : "PLUMBING",
          "level" : 3
        } ],
        "duration" : 3600.000000000,
        "pause" : true
      },
      "window" : {
        "start" : [ 11, 14 ],
        "end" : [ 13, 0 ]
      }
    }, {
      "job" : {
        "id" : 266,
        "desc" : "PLUMBING, MANAGEMENT",
        "location" : {
          "id" : 6573,
          "name" : null,
          "latitude" : 43.844376,
          "longitude" : 3.797255
        },
        "openings" : {
          "start" : [ 12, 8 ],
          "end" : [ 17, 13 ]
        },
        "preferredSlots" : null,
        "doAfter" : null,
        "nbEmpRequired" : 1,
        "deadline" : [ 9, 27 ],
        "skills" : [ {
          "id" : 3,
          "name" : "PLUMBING",
          "level" : 5
        }, {
          "id" : 0,
          "name" : "MANAGEMENT",
          "level" : 5
        } ],
        "duration" : 2700.000000000,
        "pause" : false
      },
      "window" : {
        "start" : [ 13, 30 ],
        "end" : [ 14, 15 ]
      }
    }, {
      "job" : {
        "id" : 661,
        "desc" : "TILER",
        "location" : {
          "id" : 2849,
          "name" : null,
          "latitude" : 43.48552,
          "longitude" : 4.195205
        },
        "openings" : {
          "start" : [ 9, 14 ],
          "end" : [ 13, 18 ]
        },
        "preferredSlots" : null,
        "doAfter" : null,
        "nbEmpRequired" : 1,
        "deadline" : [ 11, 46 ],
        "skills" : [ {
          "id" : 9,
          "name" : "TILER",
          "level" : 5
        } ],
        "duration" : 2700.000000000,
        "pause" : false
      },
      "window" : {
        "start" : [ 15, 7 ],
        "end" : [ 15, 52 ]
      }
    } ],
    "driving" : 7500.000000000,
    "valid" : true
  }, {
    "emp" : {
      "id" : 921,
      "name" : "921",
      "shifts" : [ {
        "start" : [ 9, 0 ],
        "end" : [ 12, 0 ]
      }, {
        "start" : [ 13, 0 ],
        "end" : [ 17, 0 ]
      } ],
      "prefSlots" : null,
      "startingLoc" : {
        "id" : 1062,
        "name" : null,
        "latitude" : 43.460266,
        "longitude" : 3.8096848
      },
      "skills" : [ {
        "id" : 5,
        "name" : "GLAZING",
        "level" : 3
      }, {
        "id" : 9,
        "name" : "TILER",
        "level" : 3
      }, {
        "id" : 5,
        "name" : "GLAZING",
        "level" : 6
      }, {
        "id" : 1,
        "name" : "ENGINEER",
        "level" : 4
      }, {
        "id" : 0,
        "name" : "MANAGEMENT",
        "level" : 1
      }, {
        "id" : 7,
        "name" : "PAINTING",
        "level" : 1
      }, {
        "id" : 1,
        "name" : "ENGINEER",
        "level" : 8
      }, {
        "id" : 1,
        "name" : "ENGINEER",
        "level" : 4
      } ]
    },
    "planning" : [ {
      "job" : {
        "id" : -1,
        "desc" : "Home",
        "location" : {
          "id" : 1062,
          "name" : null,
          "latitude" : 43.460266,
          "longitude" : 3.8096848
        },
        "openings" : null,
        "preferredSlots" : null,
        "doAfter" : null,
        "nbEmpRequired" : 1,
        "deadline" : null,
        "skills" : [ ],
        "duration" : null,
        "pause" : true
      },
      "window" : {
        "start" : [ 9, 0 ],
        "end" : [ 9, 0 ]
      }
    }, {
      "job" : {
        "id" : 851,
        "desc" : "ENGINEER",
        "location" : {
          "id" : 8249,
          "name" : null,
          "latitude" : 43.975666,
          "longitude" : 3.742394
        },
        "openings" : {
          "start" : [ 14, 23 ],
          "end" : [ 16, 48 ]
        },
        "preferredSlots" : null,
        "doAfter" : null,
        "nbEmpRequired" : 1,
        "deadline" : [ 16, 9 ],
        "skills" : [ {
          "id" : 1,
          "name" : "ENGINEER",
          "level" : 4
        } ],
        "duration" : 3600.000000000,
        "pause" : false
      },
      "window" : {
        "start" : [ 9, 58 ],
        "end" : [ 10, 58 ]
      }
    }, {
      "job" : {
        "id" : 335,
        "desc" : "ENGINEER",
        "location" : {
          "id" : 9630,
          "name" : null,
          "latitude" : 44.005615,
          "longitude" : 3.8807971
        },
        "openings" : {
          "start" : [ 16, 32 ],
          "end" : [ 17, 11 ]
        },
        "preferredSlots" : null,
        "doAfter" : null,
        "nbEmpRequired" : 1,
        "deadline" : [ 10, 25 ],
        "skills" : [ {
          "id" : 1,
          "name" : "ENGINEER",
          "level" : 3
        } ],
        "duration" : 2700.000000000,
        "pause" : false
      },
      "window" : {
        "start" : [ 11, 10 ],
        "end" : [ 11, 55 ]
      }
    }, {
      "job" : {
        "id" : -1,
        "desc" : "Pause",
        "location" : {
          "id" : 9630,
          "name" : null,
          "latitude" : 44.005615,
          "longitude" : 3.8807971
        },
        "openings" : {
          "start" : [ 16, 32 ],
          "end" : [ 17, 11 ]
        },
        "preferredSlots" : null,
        "doAfter" : null,
        "nbEmpRequired" : 1,
        "deadline" : [ 10, 25 ],
        "skills" : [ {
          "id" : 1,
          "name" : "ENGINEER",
          "level" : 3
        } ],
        "duration" : 2700.000000000,
        "pause" : true
      },
      "window" : {
        "start" : [ 11, 56 ],
        "end" : [ 13, 0 ]
      }
    } ],
    "driving" : 4200.000000000,
    "valid" : true
  }, {
    "emp" : {
      "id" : 72,
      "name" : "72",
      "shifts" : [ {
        "start" : [ 9, 0 ],
        "end" : [ 12, 0 ]
      }, {
        "start" : [ 13, 0 ],
        "end" : [ 17, 0 ]
      } ],
      "prefSlots" : null,
      "startingLoc" : {
        "id" : 2658,
        "name" : null,
        "latitude" : 43.94967,
        "longitude" : 3.8044925
      },
      "skills" : [ {
        "id" : 9,
        "name" : "TILER",
        "level" : 4
      }, {
        "id" : 1,
        "name" : "ENGINEER",
        "level" : 2
      }, {
        "id" : 5,
        "name" : "GLAZING",
        "level" : 9
      }, {
        "id" : 7,
        "name" : "PAINTING",
        "level" : 2
      }, {
        "id" : 5,
        "name" : "GLAZING",
        "level" : 5
      }, {
        "id" : 0,
        "name" : "MANAGEMENT",
        "level" : 6
      }, {
        "id" : 3,
        "name" : "PLUMBING",
        "level" : 8
      }, {
        "id" : 1,
        "name" : "ENGINEER",
        "level" : 7
      }, {
        "id" : 5,
        "name" : "GLAZING",
        "level" : 9
      } ]
    },
    "planning" : [ {
      "job" : {
        "id" : -1,
        "desc" : "Home",
        "location" : {
          "id" : 2658,
          "name" : null,
          "latitude" : 43.94967,
          "longitude" : 3.8044925
        },
        "openings" : null,
        "preferredSlots" : null,
        "doAfter" : null,
        "nbEmpRequired" : 1,
        "deadline" : null,
        "skills" : [ ],
        "duration" : null,
        "pause" : true
      },
      "window" : {
        "start" : [ 9, 0 ],
        "end" : [ 9, 0 ]
      }
    }, {
      "job" : {
        "id" : 659,
        "desc" : "PLUMBING, GLAZING",
        "location" : {
          "id" : 4730,
          "name" : null,
          "latitude" : 43.74744,
          "longitude" : 3.8361714
        },
        "openings" : {
          "start" : [ 14, 18 ],
          "end" : [ 16, 33 ]
        },
        "preferredSlots" : null,
        "doAfter" : null,
        "nbEmpRequired" : 1,
        "deadline" : [ 12, 1 ],
        "skills" : [ {
          "id" : 3,
          "name" : "PLUMBING",
          "level" : 5
        }, {
          "id" : 5,
          "name" : "GLAZING",
          "level" : 2
        } ],
        "duration" : 3600.000000000,
        "pause" : false
      },
      "window" : {
        "start" : [ 9, 23 ],
        "end" : [ 10, 23 ]
      }
    }, {
      "job" : {
        "id" : -1,
        "desc" : "Pause",
        "location" : {
          "id" : 4730,
          "name" : null,
          "latitude" : 43.74744,
          "longitude" : 3.8361714
        },
        "openings" : {
          "start" : [ 14, 18 ],
          "end" : [ 16, 33 ]
        },
        "preferredSlots" : null,
        "doAfter" : null,
        "nbEmpRequired" : 1,
        "deadline" : [ 12, 1 ],
        "skills" : [ {
          "id" : 3,
          "name" : "PLUMBING",
          "level" : 5
        }, {
          "id" : 5,
          "name" : "GLAZING",
          "level" : 2
        } ],
        "duration" : 3600.000000000,
        "pause" : true
      },
      "window" : {
        "start" : [ 10, 24 ],
        "end" : [ 13, 0 ]
      }
    } ],
    "driving" : 1380.000000000,
    "valid" : true
  }, {
    "emp" : {
      "id" : 194,
      "name" : "194",
      "shifts" : [ {
        "start" : [ 9, 0 ],
        "end" : [ 12, 0 ]
      }, {
        "start" : [ 13, 0 ],
        "end" : [ 17, 0 ]
      } ],
      "prefSlots" : null,
      "startingLoc" : {
        "id" : 9654,
        "name" : null,
        "latitude" : 43.83237,
        "longitude" : 3.8829918
      },
      "skills" : [ {
        "id" : 5,
        "name" : "GLAZING",
        "level" : 8
      } ]
    },
    "planning" : [ {
      "job" : {
        "id" : -1,
        "desc" : "Home",
        "location" : {
          "id" : 9654,
          "name" : null,
          "latitude" : 43.83237,
          "longitude" : 3.8829918
        },
        "openings" : null,
        "preferredSlots" : null,
        "doAfter" : null,
        "nbEmpRequired" : 1,
        "deadline" : null,
        "skills" : [ ],
        "duration" : null,
        "pause" : true
      },
      "window" : {
        "start" : [ 9, 0 ],
        "end" : [ 9, 0 ]
      }
    }, {
      "job" : {
        "id" : -1,
        "desc" : "Pause",
        "location" : {
          "id" : 9654,
          "name" : null,
          "latitude" : 43.83237,
          "longitude" : 3.8829918
        },
        "openings" : null,
        "preferredSlots" : null,
        "doAfter" : null,
        "nbEmpRequired" : 1,
        "deadline" : null,
        "skills" : [ ],
        "duration" : null,
        "pause" : true
      },
      "window" : {
        "start" : [ 9, 1 ],
        "end" : [ 13, 0 ]
      }
    } ],
    "driving" : 0.0,
    "valid" : true
  }, {
    "emp" : {
      "id" : 54,
      "name" : "54",
      "shifts" : [ {
        "start" : [ 9, 0 ],
        "end" : [ 12, 0 ]
      }, {
        "start" : [ 13, 0 ],
        "end" : [ 17, 0 ]
      } ],
      "prefSlots" : null,
      "startingLoc" : {
        "id" : 2575,
        "name" : null,
        "latitude" : 43.992203,
        "longitude" : 4.227117
      },
      "skills" : [ {
        "id" : 7,
        "name" : "PAINTING",
        "level" : 6
      }, {
        "id" : 9,
        "name" : "TILER",
        "level" : 5
      }, {
        "id" : 1,
        "name" : "ENGINEER",
        "level" : 1
      } ]
    },
    "planning" : [ {
      "job" : {
        "id" : -1,
        "desc" : "Home",
        "location" : {
          "id" : 2575,
          "name" : null,
          "latitude" : 43.992203,
          "longitude" : 4.227117
        },
        "openings" : null,
        "preferredSlots" : null,
        "doAfter" : null,
        "nbEmpRequired" : 1,
        "deadline" : null,
        "skills" : [ ],
        "duration" : null,
        "pause" : true
      },
      "window" : {
        "start" : [ 9, 0 ],
        "end" : [ 9, 0 ]
      }
    }, {
      "job" : {
        "id" : 42,
        "desc" : "TILER",
        "location" : {
          "id" : 4448,
          "name" : null,
          "latitude" : 44.092094,
          "longitude" : 4.2098236
        },
        "openings" : {
          "start" : [ 15, 20 ],
          "end" : [ 17, 22 ]
        },
        "preferredSlots" : null,
        "doAfter" : null,
        "nbEmpRequired" : 1,
        "deadline" : [ 9, 28 ],
        "skills" : [ {
          "id" : 9,
          "name" : "TILER",
          "level" : 5
        } ],
        "duration" : 5400.000000000,
        "pause" : false
      },
      "window" : {
        "start" : [ 9, 12 ],
        "end" : [ 10, 42 ]
      }
    }, {
      "job" : {
        "id" : -1,
        "desc" : "Pause",
        "location" : {
          "id" : 4448,
          "name" : null,
          "latitude" : 44.092094,
          "longitude" : 4.2098236
        },
        "openings" : {
          "start" : [ 15, 20 ],
          "end" : [ 17, 22 ]
        },
        "preferredSlots" : null,
        "doAfter" : null,
        "nbEmpRequired" : 1,
        "deadline" : [ 9, 28 ],
        "skills" : [ {
          "id" : 9,
          "name" : "TILER",
          "level" : 5
        } ],
        "duration" : 5400.000000000,
        "pause" : true
      },
      "window" : {
        "start" : [ 10, 43 ],
        "end" : [ 13, 0 ]
      }
    }, {
      "job" : {
        "id" : 351,
        "desc" : "TILER",
        "location" : {
          "id" : 8965,
          "name" : null,
          "latitude" : 43.81098,
          "longitude" : 3.9206777
        },
        "openings" : {
          "start" : [ 9, 3 ],
          "end" : [ 16, 13 ]
        },
        "preferredSlots" : null,
        "doAfter" : null,
        "nbEmpRequired" : 1,
        "deadline" : [ 15, 31 ],
        "skills" : [ {
          "id" : 9,
          "name" : "TILER",
          "level" : 5
        } ],
        "duration" : 3600.000000000,
        "pause" : false
      },
      "window" : {
        "start" : [ 13, 39 ],
        "end" : [ 14, 39 ]
      }
    } ],
    "driving" : 3060.000000000,
    "valid" : true
  }, {
    "emp" : {
      "id" : 256,
      "name" : "256",
      "shifts" : [ {
        "start" : [ 9, 0 ],
        "end" : [ 12, 0 ]
      }, {
        "start" : [ 13, 0 ],
        "end" : [ 17, 0 ]
      } ],
      "prefSlots" : null,
      "startingLoc" : {
        "id" : 5532,
        "name" : null,
        "latitude" : 43.406914,
        "longitude" : 3.9090743
      },
      "skills" : [ {
        "id" : 1,
        "name" : "ENGINEER",
        "level" : 2
      }, {
        "id" : 0,
        "name" : "MANAGEMENT",
        "level" : 1
      }, {
        "id" : 0,
        "name" : "MANAGEMENT",
        "level" : 7
      } ]
    },
    "planning" : [ {
      "job" : {
        "id" : -1,
        "desc" : "Home",
        "location" : {
          "id" : 5532,
          "name" : null,
          "latitude" : 43.406914,
          "longitude" : 3.9090743
        },
        "openings" : null,
        "preferredSlots" : null,
        "doAfter" : null,
        "nbEmpRequired" : 1,
        "deadline" : null,
        "skills" : [ ],
        "duration" : null,
        "pause" : true
      },
      "window" : {
        "start" : [ 9, 0 ],
        "end" : [ 9, 0 ]
      }
    }, {
      "job" : {
        "id" : -1,
        "desc" : "Pause",
        "location" : {
          "id" : 5532,
          "name" : null,
          "latitude" : 43.406914,
          "longitude" : 3.9090743
        },
        "openings" : null,
        "preferredSlots" : null,
        "doAfter" : null,
        "nbEmpRequired" : 1,
        "deadline" : null,
        "skills" : [ ],
        "duration" : null,
        "pause" : true
      },
      "window" : {
        "start" : [ 9, 1 ],
        "end" : [ 13, 0 ]
      }
    } ],
    "driving" : 0.0,
    "valid" : true
  }, {
    "emp" : {
      "id" : 741,
      "name" : "741",
      "shifts" : [ {
        "start" : [ 9, 0 ],
        "end" : [ 12, 0 ]
      }, {
        "start" : [ 13, 0 ],
        "end" : [ 17, 0 ]
      } ],
      "prefSlots" : null,
      "startingLoc" : {
        "id" : 3766,
        "name" : null,
        "latitude" : 43.485786,
        "longitude" : 4.224474
      },
      "skills" : [ {
        "id" : 8,
        "name" : "IRONWORK",
        "level" : 1
      }, {
        "id" : 5,
        "name" : "GLAZING",
        "level" : 3
      } ]
    },
    "planning" : [ {
      "job" : {
        "id" : -1,
        "desc" : "Home",
        "location" : {
          "id" : 3766,
          "name" : null,
          "latitude" : 43.485786,
          "longitude" : 4.224474
        },
        "openings" : null,
        "preferredSlots" : null,
        "doAfter" : null,
        "nbEmpRequired" : 1,
        "deadline" : null,
        "skills" : [ ],
        "duration" : null,
        "pause" : true
      },
      "window" : {
        "start" : [ 9, 0 ],
        "end" : [ 9, 0 ]
      }
    }, {
      "job" : {
        "id" : -1,
        "desc" : "Pause",
        "location" : {
          "id" : 3766,
          "name" : null,
          "latitude" : 43.485786,
          "longitude" : 4.224474
        },
        "openings" : null,
        "preferredSlots" : null,
        "doAfter" : null,
        "nbEmpRequired" : 1,
        "deadline" : null,
        "skills" : [ ],
        "duration" : null,
        "pause" : true
      },
      "window" : {
        "start" : [ 9, 1 ],
        "end" : [ 13, 0 ]
      }
    } ],
    "driving" : 0.0,
    "valid" : true
  }, {
    "emp" : {
      "id" : 428,
      "name" : "428",
      "shifts" : [ {
        "start" : [ 9, 0 ],
        "end" : [ 12, 0 ]
      }, {
        "start" : [ 13, 0 ],
        "end" : [ 17, 0 ]
      } ],
      "prefSlots" : null,
      "startingLoc" : {
        "id" : 7203,
        "name" : null,
        "latitude" : 43.434273,
        "longitude" : 4.2643733
      },
      "skills" : [ {
        "id" : 9,
        "name" : "TILER",
        "level" : 2
      }, {
        "id" : 3,
        "name" : "PLUMBING",
        "level" : 5
      } ]
    },
    "planning" : [ {
      "job" : {
        "id" : -1,
        "desc" : "Home",
        "location" : {
          "id" : 7203,
          "name" : null,
          "latitude" : 43.434273,
          "longitude" : 4.2643733
        },
        "openings" : null,
        "preferredSlots" : null,
        "doAfter" : null,
        "nbEmpRequired" : 1,
        "deadline" : null,
        "skills" : [ ],
        "duration" : null,
        "pause" : true
      },
      "window" : {
        "start" : [ 9, 0 ],
        "end" : [ 9, 0 ]
      }
    }, {
      "job" : {
        "id" : -1,
        "desc" : "Pause",
        "location" : {
          "id" : 7203,
          "name" : null,
          "latitude" : 43.434273,
          "longitude" : 4.2643733
        },
        "openings" : null,
        "preferredSlots" : null,
        "doAfter" : null,
        "nbEmpRequired" : 1,
        "deadline" : null,
        "skills" : [ ],
        "duration" : null,
        "pause" : true
      },
      "window" : {
        "start" : [ 9, 1 ],
        "end" : [ 13, 0 ]
      }
    } ],
    "driving" : 0.0,
    "valid" : true
  }, {
    "emp" : {
      "id" : 120,
      "name" : "120",
      "shifts" : [ {
        "start" : [ 9, 0 ],
        "end" : [ 12, 0 ]
      }, {
        "start" : [ 13, 0 ],
        "end" : [ 17, 0 ]
      } ],
      "prefSlots" : null,
      "startingLoc" : {
        "id" : 3806,
        "name" : null,
        "latitude" : 44.06373,
        "longitude" : 4.0113697
      },
      "skills" : [ {
        "id" : 6,
        "name" : "CARPENTRY",
        "level" : 3
      }, {
        "id" : 7,
        "name" : "PAINTING",
        "level" : 8
      }, {
        "id" : 3,
        "name" : "PLUMBING",
        "level" : 10
      }, {
        "id" : 2,
        "name" : "ELECTRICIAN",
        "level" : 2
      }, {
        "id" : 9,
        "name" : "TILER",
        "level" : 3
      } ]
    },
    "planning" : [ {
      "job" : {
        "id" : -1,
        "desc" : "Home",
        "location" : {
          "id" : 3806,
          "name" : null,
          "latitude" : 44.06373,
          "longitude" : 4.0113697
        },
        "openings" : null,
        "preferredSlots" : null,
        "doAfter" : null,
        "nbEmpRequired" : 1,
        "deadline" : null,
        "skills" : [ ],
        "duration" : null,
        "pause" : true
      },
      "window" : {
        "start" : [ 9, 0 ],
        "end" : [ 9, 0 ]
      }
    }, {
      "job" : {
        "id" : 600,
        "desc" : "ELECTRICIAN, PAINTING",
        "location" : {
          "id" : 8197,
          "name" : null,
          "latitude" : 43.725933,
          "longitude" : 4.0092945
        },
        "openings" : {
          "start" : [ 11, 49 ],
          "end" : [ 16, 27 ]
        },
        "preferredSlots" : null,
        "doAfter" : null,
        "nbEmpRequired" : 1,
        "deadline" : [ 14, 45 ],
        "skills" : [ {
          "id" : 2,
          "name" : "ELECTRICIAN",
          "level" : 1
        }, {
          "id" : 7,
          "name" : "PAINTING",
          "level" : 1
        } ],
        "duration" : 2700.000000000,
        "pause" : false
      },
      "window" : {
        "start" : [ 9, 38 ],
        "end" : [ 10, 23 ]
      }
    }, {
      "job" : {
        "id" : -1,
        "desc" : "Pause",
        "location" : {
          "id" : 8197,
          "name" : null,
          "latitude" : 43.725933,
          "longitude" : 4.0092945
        },
        "openings" : {
          "start" : [ 11, 49 ],
          "end" : [ 16, 27 ]
        },
        "preferredSlots" : null,
        "doAfter" : null,
        "nbEmpRequired" : 1,
        "deadline" : [ 14, 45 ],
        "skills" : [ {
          "id" : 2,
          "name" : "ELECTRICIAN",
          "level" : 1
        }, {
          "id" : 7,
          "name" : "PAINTING",
          "level" : 1
        } ],
        "duration" : 2700.000000000,
        "pause" : true
      },
      "window" : {
        "start" : [ 10, 24 ],
        "end" : [ 13, 0 ]
      }
    } ],
    "driving" : 2280.000000000,
    "valid" : true
  }, {
    "emp" : {
      "id" : 496,
      "name" : "496",
      "shifts" : [ {
        "start" : [ 9, 0 ],
        "end" : [ 12, 0 ]
      }, {
        "start" : [ 13, 0 ],
        "end" : [ 17, 0 ]
      } ],
      "prefSlots" : null,
      "startingLoc" : {
        "id" : 9134,
        "name" : null,
        "latitude" : 43.983143,
        "longitude" : 3.9476974
      },
      "skills" : [ {
        "id" : 1,
        "name" : "ENGINEER",
        "level" : 4
      }, {
        "id" : 6,
        "name" : "CARPENTRY",
        "level" : 1
      }, {
        "id" : 3,
        "name" : "PLUMBING",
        "level" : 1
      }, {
        "id" : 8,
        "name" : "IRONWORK",
        "level" : 6
      }, {
        "id" : 7,
        "name" : "PAINTING",
        "level" : 6
      }, {
        "id" : 4,
        "name" : "MASONRY",
        "level" : 9
      }, {
        "id" : 7,
        "name" : "PAINTING",
        "level" : 1
      }, {
        "id" : 5,
        "name" : "GLAZING",
        "level" : 3
      }, {
        "id" : 7,
        "name" : "PAINTING",
        "level" : 3
      }, {
        "id" : 8,
        "name" : "IRONWORK",
        "level" : 6
      } ]
    },
    "planning" : [ {
      "job" : {
        "id" : -1,
        "desc" : "Home",
        "location" : {
          "id" : 9134,
          "name" : null,
          "latitude" : 43.983143,
          "longitude" : 3.9476974
        },
        "openings" : null,
        "preferredSlots" : null,
        "doAfter" : null,
        "nbEmpRequired" : 1,
        "deadline" : null,
        "skills" : [ ],
        "duration" : null,
        "pause" : true
      },
      "window" : {
        "start" : [ 9, 0 ],
        "end" : [ 9, 0 ]
      }
    }, {
      "job" : {
        "id" : 421,
        "desc" : "MASONRY",
        "location" : {
          "id" : 2117,
          "name" : null,
          "latitude" : 43.41118,
          "longitude" : 4.1016808
        },
        "openings" : {
          "start" : [ 14, 55 ],
          "end" : [ 16, 14 ]
        },
        "preferredSlots" : null,
        "doAfter" : null,
        "nbEmpRequired" : 1,
        "deadline" : [ 10, 1 ],
        "skills" : [ {
          "id" : 4,
          "name" : "MASONRY",
          "level" : 5
        } ],
        "duration" : 1800.000000000,
        "pause" : false
      },
      "window" : {
        "start" : [ 10, 5 ],
        "end" : [ 10, 35 ]
      }
    }, {
      "job" : {
        "id" : -1,
        "desc" : "Pause",
        "location" : {
          "id" : 2117,
          "name" : null,
          "latitude" : 43.41118,
          "longitude" : 4.1016808
        },
        "openings" : {
          "start" : [ 14, 55 ],
          "end" : [ 16, 14 ]
        },
        "preferredSlots" : null,
        "doAfter" : null,
        "nbEmpRequired" : 1,
        "deadline" : [ 10, 1 ],
        "skills" : [ {
          "id" : 4,
          "name" : "MASONRY",
          "level" : 5
        } ],
        "duration" : 1800.000000000,
        "pause" : true
      },
      "window" : {
        "start" : [ 10, 36 ],
        "end" : [ 13, 0 ]
      }
    } ],
    "driving" : 3900.000000000,
    "valid" : true
  }, {
    "emp" : {
      "id" : 508,
      "name" : "508",
      "shifts" : [ {
        "start" : [ 9, 0 ],
        "end" : [ 12, 0 ]
      }, {
        "start" : [ 13, 0 ],
        "end" : [ 17, 0 ]
      } ],
      "prefSlots" : null,
      "startingLoc" : {
        "id" : 1426,
        "name" : null,
        "latitude" : 43.760056,
        "longitude" : 4.0354905
      },
      "skills" : [ {
        "id" : 5,
        "name" : "GLAZING",
        "level" : 2
      }, {
        "id" : 6,
        "name" : "CARPENTRY",
        "level" : 4
      }, {
        "id" : 0,
        "name" : "MANAGEMENT",
        "level" : 10
      }, {
        "id" : 5,
        "name" : "GLAZING",
        "level" : 6
      }, {
        "id" : 3,
        "name" : "PLUMBING",
        "level" : 7
      } ]
    },
    "planning" : [ {
      "job" : {
        "id" : -1,
        "desc" : "Home",
        "location" : {
          "id" : 1426,
          "name" : null,
          "latitude" : 43.760056,
          "longitude" : 4.0354905
        },
        "openings" : null,
        "preferredSlots" : null,
        "doAfter" : null,
        "nbEmpRequired" : 1,
        "deadline" : null,
        "skills" : [ ],
        "duration" : null,
        "pause" : true
      },
      "window" : {
        "start" : [ 9, 0 ],
        "end" : [ 9, 0 ]
      }
    }, {
      "job" : {
        "id" : 864,
        "desc" : "MANAGEMENT, CARPENTRY",
        "location" : {
          "id" : 2603,
          "name" : null,
          "latitude" : 43.91467,
          "longitude" : 3.974959
        },
        "openings" : {
          "start" : [ 12, 3 ],
          "end" : [ 14, 41 ]
        },
        "preferredSlots" : null,
        "doAfter" : null,
        "nbEmpRequired" : 1,
        "deadline" : [ 13, 35 ],
        "skills" : [ {
          "id" : 0,
          "name" : "MANAGEMENT",
          "level" : 4
        }, {
          "id" : 6,
          "name" : "CARPENTRY",
          "level" : 4
        } ],
        "duration" : 5400.000000000,
        "pause" : false
      },
      "window" : {
        "start" : [ 9, 18 ],
        "end" : [ 10, 48 ]
      }
    }, {
      "job" : {
        "id" : -1,
        "desc" : "Pause",
        "location" : {
          "id" : 2603,
          "name" : null,
          "latitude" : 43.91467,
          "longitude" : 3.974959
        },
        "openings" : {
          "start" : [ 12, 3 ],
          "end" : [ 14, 41 ]
        },
        "preferredSlots" : null,
        "doAfter" : null,
        "nbEmpRequired" : 1,
        "deadline" : [ 13, 35 ],
        "skills" : [ {
          "id" : 0,
          "name" : "MANAGEMENT",
          "level" : 4
        }, {
          "id" : 6,
          "name" : "CARPENTRY",
          "level" : 4
        } ],
        "duration" : 5400.000000000,
        "pause" : true
      },
      "window" : {
        "start" : [ 10, 49 ],
        "end" : [ 13, 0 ]
      }
    } ],
    "driving" : 1080.000000000,
    "valid" : true
  }, {
    "emp" : {
      "id" : 354,
      "name" : "354",
      "shifts" : [ {
        "start" : [ 9, 0 ],
        "end" : [ 12, 0 ]
      }, {
        "start" : [ 13, 0 ],
        "end" : [ 17, 0 ]
      } ],
      "prefSlots" : null,
      "startingLoc" : {
        "id" : 3481,
        "name" : null,
        "latitude" : 43.75021,
        "longitude" : 4.202919
      },
      "skills" : [ {
        "id" : 6,
        "name" : "CARPENTRY",
        "level" : 8
      }, {
        "id" : 7,
        "name" : "PAINTING",
        "level" : 2
      } ]
    },
    "planning" : [ {
      "job" : {
        "id" : -1,
        "desc" : "Home",
        "location" : {
          "id" : 3481,
          "name" : null,
          "latitude" : 43.75021,
          "longitude" : 4.202919
        },
        "openings" : null,
        "preferredSlots" : null,
        "doAfter" : null,
        "nbEmpRequired" : 1,
        "deadline" : null,
        "skills" : [ ],
        "duration" : null,
        "pause" : true
      },
      "window" : {
        "start" : [ 9, 0 ],
        "end" : [ 9, 0 ]
      }
    }, {
      "job" : {
        "id" : -1,
        "desc" : "Pause",
        "location" : {
          "id" : 3481,
          "name" : null,
          "latitude" : 43.75021,
          "longitude" : 4.202919
        },
        "openings" : null,
        "preferredSlots" : null,
        "doAfter" : null,
        "nbEmpRequired" : 1,
        "deadline" : null,
        "skills" : [ ],
        "duration" : null,
        "pause" : true
      },
      "window" : {
        "start" : [ 9, 1 ],
        "end" : [ 13, 0 ]
      }
    } ],
    "driving" : 0.0,
    "valid" : true
  }, {
    "emp" : {
      "id" : 446,
      "name" : "446",
      "shifts" : [ {
        "start" : [ 9, 0 ],
        "end" : [ 12, 0 ]
      }, {
        "start" : [ 13, 0 ],
        "end" : [ 17, 0 ]
      } ],
      "prefSlots" : null,
      "startingLoc" : {
        "id" : 1859,
        "name" : null,
        "latitude" : 43.479736,
        "longitude" : 3.867047
      },
      "skills" : [ {
        "id" : 6,
        "name" : "CARPENTRY",
        "level" : 6
      } ]
    },
    "planning" : [ {
      "job" : {
        "id" : -1,
        "desc" : "Home",
        "location" : {
          "id" : 1859,
          "name" : null,
          "latitude" : 43.479736,
          "longitude" : 3.867047
        },
        "openings" : null,
        "preferredSlots" : null,
        "doAfter" : null,
        "nbEmpRequired" : 1,
        "deadline" : null,
        "skills" : [ ],
        "duration" : null,
        "pause" : true
      },
      "window" : {
        "start" : [ 9, 0 ],
        "end" : [ 9, 0 ]
      }
    }, {
      "job" : {
        "id" : -1,
        "desc" : "Pause",
        "location" : {
          "id" : 1859,
          "name" : null,
          "latitude" : 43.479736,
          "longitude" : 3.867047
        },
        "openings" : null,
        "preferredSlots" : null,
        "doAfter" : null,
        "nbEmpRequired" : 1,
        "deadline" : null,
        "skills" : [ ],
        "duration" : null,
        "pause" : true
      },
      "window" : {
        "start" : [ 9, 1 ],
        "end" : [ 13, 0 ]
      }
    } ],
    "driving" : 0.0,
    "valid" : true
  }, {
    "emp" : {
      "id" : 498,
      "name" : "498",
      "shifts" : [ {
        "start" : [ 9, 0 ],
        "end" : [ 12, 0 ]
      }, {
        "start" : [ 13, 0 ],
        "end" : [ 17, 0 ]
      } ],
      "prefSlots" : null,
      "startingLoc" : {
        "id" : 3502,
        "name" : null,
        "latitude" : 43.928814,
        "longitude" : 3.846923
      },
      "skills" : [ {
        "id" : 9,
        "name" : "TILER",
        "level" : 4
      } ]
    },
    "planning" : [ {
      "job" : {
        "id" : -1,
        "desc" : "Home",
        "location" : {
          "id" : 3502,
          "name" : null,
          "latitude" : 43.928814,
          "longitude" : 3.846923
        },
        "openings" : null,
        "preferredSlots" : null,
        "doAfter" : null,
        "nbEmpRequired" : 1,
        "deadline" : null,
        "skills" : [ ],
        "duration" : null,
        "pause" : true
      },
      "window" : {
        "start" : [ 9, 0 ],
        "end" : [ 9, 0 ]
      }
    }, {
      "job" : {
        "id" : -1,
        "desc" : "Pause",
        "location" : {
          "id" : 3502,
          "name" : null,
          "latitude" : 43.928814,
          "longitude" : 3.846923
        },
        "openings" : null,
        "preferredSlots" : null,
        "doAfter" : null,
        "nbEmpRequired" : 1,
        "deadline" : null,
        "skills" : [ ],
        "duration" : null,
        "pause" : true
      },
      "window" : {
        "start" : [ 9, 1 ],
        "end" : [ 13, 0 ]
      }
    } ],
    "driving" : 0.0,
    "valid" : true
  }, {
    "emp" : {
      "id" : 593,
      "name" : "593",
      "shifts" : [ {
        "start" : [ 9, 0 ],
        "end" : [ 12, 0 ]
      }, {
        "start" : [ 13, 0 ],
        "end" : [ 17, 0 ]
      } ],
      "prefSlots" : null,
      "startingLoc" : {
        "id" : 2588,
        "name" : null,
        "latitude" : 43.916027,
        "longitude" : 3.9466007
      },
      "skills" : [ {
        "id" : 7,
        "name" : "PAINTING",
        "level" : 9
      }, {
        "id" : 6,
        "name" : "CARPENTRY",
        "level" : 3
      }, {
        "id" : 8,
        "name" : "IRONWORK",
        "level" : 2
      }, {
        "id" : 7,
        "name" : "PAINTING",
        "level" : 10
      } ]
    },
    "planning" : [ {
      "job" : {
        "id" : -1,
        "desc" : "Home",
        "location" : {
          "id" : 2588,
          "name" : null,
          "latitude" : 43.916027,
          "longitude" : 3.9466007
        },
        "openings" : null,
        "preferredSlots" : null,
        "doAfter" : null,
        "nbEmpRequired" : 1,
        "deadline" : null,
        "skills" : [ ],
        "duration" : null,
        "pause" : true
      },
      "window" : {
        "start" : [ 9, 0 ],
        "end" : [ 9, 0 ]
      }
    }, {
      "job" : {
        "id" : -1,
        "desc" : "Pause",
        "location" : {
          "id" : 2588,
          "name" : null,
          "latitude" : 43.916027,
          "longitude" : 3.9466007
        },
        "openings" : null,
        "preferredSlots" : null,
        "doAfter" : null,
        "nbEmpRequired" : 1,
        "deadline" : null,
        "skills" : [ ],
        "duration" : null,
        "pause" : true
      },
      "window" : {
        "start" : [ 9, 1 ],
        "end" : [ 13, 0 ]
      }
    } ],
    "driving" : 0.0,
    "valid" : true
  }, {
    "emp" : {
      "id" : 587,
      "name" : "587",
      "shifts" : [ {
        "start" : [ 9, 0 ],
        "end" : [ 12, 0 ]
      }, {
        "start" : [ 13, 0 ],
        "end" : [ 17, 0 ]
      } ],
      "prefSlots" : null,
      "startingLoc" : {
        "id" : 3254,
        "name" : null,
        "latitude" : 43.873547,
        "longitude" : 3.7488465
      },
      "skills" : [ {
        "id" : 7,
        "name" : "PAINTING",
        "level" : 7
      }, {
        "id" : 7,
        "name" : "PAINTING",
        "level" : 3
      } ]
    },
    "planning" : [ {
      "job" : {
        "id" : -1,
        "desc" : "Home",
        "location" : {
          "id" : 3254,
          "name" : null,
          "latitude" : 43.873547,
          "longitude" : 3.7488465
        },
        "openings" : null,
        "preferredSlots" : null,
        "doAfter" : null,
        "nbEmpRequired" : 1,
        "deadline" : null,
        "skills" : [ ],
        "duration" : null,
        "pause" : true
      },
      "window" : {
        "start" : [ 9, 0 ],
        "end" : [ 9, 0 ]
      }
    }, {
      "job" : {
        "id" : -1,
        "desc" : "Pause",
        "location" : {
          "id" : 3254,
          "name" : null,
          "latitude" : 43.873547,
          "longitude" : 3.7488465
        },
        "openings" : null,
        "preferredSlots" : null,
        "doAfter" : null,
        "nbEmpRequired" : 1,
        "deadline" : null,
        "skills" : [ ],
        "duration" : null,
        "pause" : true
      },
      "window" : {
        "start" : [ 9, 1 ],
        "end" : [ 13, 0 ]
      }
    } ],
    "driving" : 0.0,
    "valid" : true
  }, {
    "emp" : {
      "id" : 382,
      "name" : "382",
      "shifts" : [ {
        "start" : [ 9, 0 ],
        "end" : [ 12, 0 ]
      }, {
        "start" : [ 13, 0 ],
        "end" : [ 17, 0 ]
      } ],
      "prefSlots" : null,
      "startingLoc" : {
        "id" : 8477,
        "name" : null,
        "latitude" : 43.703873,
        "longitude" : 4.007556
      },
      "skills" : [ {
        "id" : 8,
        "name" : "IRONWORK",
        "level" : 4
      }, {
        "id" : 5,
        "name" : "GLAZING",
        "level" : 4
      }, {
        "id" : 1,
        "name" : "ENGINEER",
        "level" : 10
      }, {
        "id" : 7,
        "name" : "PAINTING",
        "level" : 10
      } ]
    },
    "planning" : [ {
      "job" : {
        "id" : -1,
        "desc" : "Home",
        "location" : {
          "id" : 8477,
          "name" : null,
          "latitude" : 43.703873,
          "longitude" : 4.007556
        },
        "openings" : null,
        "preferredSlots" : null,
        "doAfter" : null,
        "nbEmpRequired" : 1,
        "deadline" : null,
        "skills" : [ ],
        "duration" : null,
        "pause" : true
      },
      "window" : {
        "start" : [ 9, 0 ],
        "end" : [ 9, 0 ]
      }
    }, {
      "job" : {
        "id" : -1,
        "desc" : "Pause",
        "location" : {
          "id" : 8477,
          "name" : null,
          "latitude" : 43.703873,
          "longitude" : 4.007556
        },
        "openings" : null,
        "preferredSlots" : null,
        "doAfter" : null,
        "nbEmpRequired" : 1,
        "deadline" : null,
        "skills" : [ ],
        "duration" : null,
        "pause" : true
      },
      "window" : {
        "start" : [ 9, 1 ],
        "end" : [ 13, 0 ]
      }
    } ],
    "driving" : 0.0,
    "valid" : true
  }, {
    "emp" : {
      "id" : 985,
      "name" : "985",
      "shifts" : [ {
        "start" : [ 9, 0 ],
        "end" : [ 12, 0 ]
      }, {
        "start" : [ 13, 0 ],
        "end" : [ 17, 0 ]
      } ],
      "prefSlots" : null,
      "startingLoc" : {
        "id" : 3986,
        "name" : null,
        "latitude" : 43.51745,
        "longitude" : 3.9031162
      },
      "skills" : [ {
        "id" : 6,
        "name" : "CARPENTRY",
        "level" : 2
      }, {
        "id" : 6,
        "name" : "CARPENTRY",
        "level" : 10
      }, {
        "id" : 6,
        "name" : "CARPENTRY",
        "level" : 7
      }, {
        "id" : 4,
        "name" : "MASONRY",
        "level" : 9
      }, {
        "id" : 8,
        "name" : "IRONWORK",
        "level" : 8
      }, {
        "id" : 2,
        "name" : "ELECTRICIAN",
        "level" : 1
      }, {
        "id" : 4,
        "name" : "MASONRY",
        "level" : 10
      } ]
    },
    "planning" : [ {
      "job" : {
        "id" : -1,
        "desc" : "Home",
        "location" : {
          "id" : 3986,
          "name" : null,
          "latitude" : 43.51745,
          "longitude" : 3.9031162
        },
        "openings" : null,
        "preferredSlots" : null,
        "doAfter" : null,
        "nbEmpRequired" : 1,
        "deadline" : null,
        "skills" : [ ],
        "duration" : null,
        "pause" : true
      },
      "window" : {
        "start" : [ 9, 0 ],
        "end" : [ 9, 0 ]
      }
    }, {
      "job" : {
        "id" : -1,
        "desc" : "Pause",
        "location" : {
          "id" : 3986,
          "name" : null,
          "latitude" : 43.51745,
          "longitude" : 3.9031162
        },
        "openings" : null,
        "preferredSlots" : null,
        "doAfter" : null,
        "nbEmpRequired" : 1,
        "deadline" : null,
        "skills" : [ ],
        "duration" : null,
        "pause" : true
      },
      "window" : {
        "start" : [ 9, 1 ],
        "end" : [ 13, 0 ]
      }
    } ],
    "driving" : 0.0,
    "valid" : true
  } ],
  "unassigned" : [ {
    "id" : 429,
    "desc" : "MASONRY, GLAZING",
    "location" : {
      "id" : 8737,
      "name" : null,
      "latitude" : 43.877556,
      "longitude" : 3.8386726
    },
    "openings" : {
      "start" : [ 14, 10 ],
      "end" : [ 17, 38 ]
    },
    "preferredSlots" : null,
    "doAfter" : null,
    "nbEmpRequired" : 1,
    "deadline" : [ 16, 29 ],
    "skills" : [ {
      "id" : 4,
      "name" : "MASONRY",
      "level" : 4
    }, {
      "id" : 5,
      "name" : "GLAZING",
      "level" : 5
    } ],
    "duration" : 1800.000000000,
    "pause" : false
  }, {
    "id" : 881,
    "desc" : "ELECTRICIAN, PAINTING",
    "location" : {
      "id" : 7091,
      "name" : null,
      "latitude" : 43.563255,
      "longitude" : 3.748717
    },
    "openings" : {
      "start" : [ 11, 42 ],
      "end" : [ 13, 12 ]
    },
    "preferredSlots" : null,
    "doAfter" : null,
    "nbEmpRequired" : 1,
    "deadline" : [ 10, 48 ],
    "skills" : [ {
      "id" : 2,
      "name" : "ELECTRICIAN",
      "level" : 3
    }, {
      "id" : 7,
      "name" : "PAINTING",
      "level" : 3
    } ],
    "duration" : 3600.000000000,
    "pause" : false
  } ],
  "valid" : true
}