{
  "listEdt" : [ {
    "emp" : {
      "id" : 818,
      "name" : "818",
      "shifts" : [ {
        "start" : [ 9, 0 ],
        "end" : [ 12, 0 ]
      }, {
        "start" : [ 13, 0 ],
        "end" : [ 17, 0 ]
      } ],
      "prefSlots" : null,
      "startingLoc" : {
        "id" : 4523,
        "name" : null,
        "latitude" : 43.73069,
        "longitude" : 3.7208247
      },
      "skills" : [ {
        "id" : 0,
        "name" : "MANAGEMENT",
        "level" : 7
      }, {
        "id" : 3,
        "name" : "PLUMBING",
        "level" : 2
      }, {
        "id" : 6,
        "name" : "CARPENTRY",
        "level" : 4
      }, {
        "id" : 7,
        "name" : "PAINTING",
        "level" : 8
      }, {
        "id" : 5,
        "name" : "GLAZING",
        "level" : 8
      }, {
        "id" : 9,
        "name" : "TILER",
        "level" : 10
      }, {
        "id" : 9,
        "name" : "TILER",
        "level" : 9
      }, {
        "id" : 0,
        "name" : "MANAGEMENT",
        "level" : 9
      } ]
    },
    "planning" : [ {
      "job" : {
        "id" : -1,
        "desc" : "Home",
        "location" : {
          "id" : 4523,
          "name" : null,
          "latitude" : 43.73069,
          "longitude" : 3.7208247
        },
        "openings" : null,
        "preferredSlots" : null,
        "doAfter" : null,
        "nbEmpRequired" : 1,
        "deadline" : null,
        "skills" : [ ],
        "duration" : null,
        "pause" : true
      },
      "window" : {
        "start" : [ 9, 0 ],
        "end" : [ 9, 0 ]
      }
    }, {
      "job" : {
        "id" : 378,
        "desc" : "TILER, CARPENTRY",
        "location" : {
          "id" : 6850,
          "name" : null,
          "latitude" : 43.723484,
          "longitude" : 3.8992386
        },
        "openings" : {
          "start" : [ 16, 0 ],
          "end" : [ 17, 45 ]
        },
        "preferredSlots" : null,
        "doAfter" : null,
        "nbEmpRequired" : 1,
        "deadline" : [ 10, 21 ],
        "skills" : [ {
          "id" : 9,
          "name" : "TILER",
          "level" : 4
        }, {
          "id" : 6,
          "name" : "CARPENTRY",
          "level" : 3
        } ],
        "duration" : 5400.000000000,
        "pause" : false
      },
      "window" : {
        "start" : [ 9, 15 ],
        "end" : [ 10, 45 ]
      }
    }, {
      "job" : {
        "id" : 211,
        "desc" : "PLUMBING, CARPENTRY",
        "location" : {
          "id" : 6869,
          "name" : null,
          "latitude" : 43.781883,
          "longitude" : 3.8560214
        },
        "openings" : {
          "start" : [ 15, 12 ],
          "end" : [ 16, 58 ]
        },
        "preferredSlots" : null,
        "doAfter" : null,
        "nbEmpRequired" : 1,
        "deadline" : [ 13, 33 ],
        "skills" : [ {
          "id" : 3,
          "name" : "PLUMBING",
          "level" : 1
        }, {
          "id" : 6,
          "name" : "CARPENTRY",
          "level" : 4
        } ],
        "duration" : 3600.000000000,
        "pause" : false
      },
      "window" : {
        "start" : [ 10, 53 ],
        "end" : [ 11, 53 ]
      }
    }, {
      "job" : {
        "id" : -1,
        "desc" : "Pause",
        "location" : {
          "id" : 6869,
          "name" : null,
          "latitude" : 43.781883,
          "longitude" : 3.8560214
        },
        "openings" : {
          "start" : [ 15, 12 ],
          "end" : [ 16, 58 ]
        },
        "preferredSlots" : null,
        "doAfter" : null,
        "nbEmpRequired" : 1,
        "deadline" : [ 13, 33 ],
        "skills" : [ {
          "id" : 3,
          "name" : "PLUMBING",
          "level" : 1
        }, {
          "id" : 6,
          "name" : "CARPENTRY",
          "level" : 4
        } ],
        "duration" : 3600.000000000,
        "pause" : true
      },
      "window" : {
        "start" : [ 11, 54 ],
        "end" : [ 13, 0 ]
      }
    }, {
      "job" : {
        "id" : 824,
        "desc" : "MANAGEMENT, PAINTING",
        "location" : {
          "id" : 1351,
          "name" : null,
          "latitude" : 43.602276,
          "longitude" : 4.2667475
        },
        "openings" : {
          "start" : [ 10, 15 ],
          "end" : [ 12, 45 ]
        },
        "preferredSlots" : null,
        "doAfter" : null,
        "nbEmpRequired" : 1,
        "deadline" : [ 11, 15 ],
        "skills" : [ {
          "id" : 0,
          "name" : "MANAGEMENT",
          "level" : 3
        }, {
          "id" : 7,
          "name" : "PAINTING",
          "level" : 5
        } ],
        "duration" : 2700.000000000,
        "pause" : false
      },
      "window" : {
        "start" : [ 13, 39 ],
        "end" : [ 14, 24 ]
      }
    }, {
      "job" : {
        "id" : 159,
        "desc" : "PAINTING",
        "location" : {
          "id" : 8796,
          "name" : null,
          "latitude" : 44.092743,
          "longitude" : 4.2972817
        },
        "openings" : {
          "start" : [ 13, 45 ],
          "end" : [ 15, 25 ]
        },
        "preferredSlots" : null,
        "doAfter" : null,
        "nbEmpRequired" : 1,
        "deadline" : [ 12, 20 ],
        "skills" : [ {
          "id" : 7,
          "name" : "PAINTING",
          "level" : 3
        } ],
        "duration" : 3600.000000000,
        "pause" : false
      },
      "window" : {
        "start" : [ 15, 19 ],
        "end" : [ 16, 19 ]
      }
    } ],
    "driving" : 7020.000000000,
    "valid" : true
  }, {
    "emp" : {
      "id" : 769,
      "name" : "769",
      "shifts" : [ {
        "start" : [ 9, 0 ],
        "end" : [ 12, 0 ]
      }, {
        "start" : [ 13, 0 ],
        "end" : [ 17, 0 ]
      } ],
      "prefSlots" : null,
      "startingLoc" : {
        "id" : 870,
        "name" : null,
        "latitude" : 43.798634,
        "longitude" : 4.0247445
      },
      "skills" : [ {
        "id" : 7,
        "name" : "PAINTING",
        "level" : 7
      }, {
        "id" : 3,
        "name" : "PLUMBING",
        "level" : 10
      }, {
        "id" : 1,
        "name" : "ENGINEER",
        "level" : 8
      }, {
        "id" : 0,
        "name" : "MANAGEMENT",
        "level" : 9
      }, {
        "id" : 2,
        "name" : "ELECTRICIAN",
        "level" : 5
      }, {
        "id" : 4,
        "name" : "MASONRY",
        "level" : 4
      } ]
    },
    "planning" : [ {
      "job" : {
        "id" : -1,
        "desc" : "Home",
        "location" : {
          "id" : 870,
          "name" : null,
          "latitude" : 43.798634,
          "longitude" : 4.0247445
        },
        "openings" : null,
        "preferredSlots" : null,
        "doAfter" : null,
        "nbEmpRequired" : 1,
        "deadline" : null,
        "skills" : [ ],
        "duration" : null,
        "pause" : true
      },
      "window" : {
        "start" : [ 9, 0 ],
        "end" : [ 9, 0 ]
      }
    }, {
      "job" : {
        "id" : 66,
        "desc" : "ENGINEER",
        "location" : {
          "id" : 3303,
          "name" : null,
          "latitude" : 43.809837,
          "longitude" : 4.083869
        },
        "openings" : {
          "start" : [ 12, 58 ],
          "end" : [ 17, 56 ]
        },
        "preferredSlots" : null,
        "doAfter" : null,
        "nbEmpRequired" : 1,
        "deadline" : [ 10, 34 ],
        "skills" : [ {
          "id" : 1,
          "name" : "ENGINEER",
          "level" : 1
        } ],
        "duration" : 1800.000000000,
        "pause" : false
      },
      "window" : {
        "start" : [ 9, 5 ],
        "end" : [ 9, 35 ]
      }
    }, {
      "job" : {
        "id" : 215,
        "desc" : "ENGINEER",
        "location" : {
          "id" : 2762,
          "name" : null,
          "latitude" : 43.576763,
          "longitude" : 3.8921497
        },
        "openings" : {
          "start" : [ 9, 27 ],
          "end" : [ 11, 6 ]
        },
        "preferredSlots" : null,
        "doAfter" : null,
        "nbEmpRequired" : 1,
        "deadline" : [ 11, 52 ],
        "skills" : [ {
          "id" : 1,
          "name" : "ENGINEER",
          "level" : 2
        } ],
        "duration" : 1800.000000000,
        "pause" : false
      },
      "window" : {
        "start" : [ 10, 6 ],
        "end" : [ 10, 36 ]
      }
    }, {
      "job" : {
        "id" : 715,
        "desc" : "ELECTRICIAN",
        "location" : {
          "id" : 9643,
          "name" : null,
          "latitude" : 43.614647,
          "longitude" : 3.8503346
        },
        "openings" : {
          "start" : [ 9, 8 ],
          "end" : [ 13, 29 ]
        },
        "preferredSlots" : null,
        "doAfter" : null,
        "nbEmpRequired" : 1,
        "deadline" : [ 13, 36 ],
        "skills" : [ {
          "id" : 2,
          "name" : "ELECTRICIAN",
          "level" : 3
        } ],
        "duration" : 2700.000000000,
        "pause" : false
      },
      "window" : {
        "start" : [ 10, 42 ],
        "end" : [ 11, 27 ]
      }
    }, {
      "job" : {
        "id" : -1,
        "desc" : "Pause",
        "location" : {
          "id" : 9643,
          "name" : null,
          "latitude" : 43.614647,
          "longitude" : 3.8503346
        },
        "openings" : {
          "start" : [ 9, 8 ],
          "end" : [ 13, 29 ]
        },
        "preferredSlots" : null,
        "doAfter" : null,
        "nbEmpRequired" : 1,
        "deadline" : [ 13, 36 ],
        "skills" : [ {
          "id" : 2,
          "name" : "ELECTRICIAN",
          "level" : 3
        } ],
        "duration" : 2700.000000000,
        "pause" : true
      },
      "window" : {
        "start" : [ 11, 28 ],
        "end" : [ 13, 0 ]
      }
    }, {
      "job" : {
        "id" : 157,
        "desc" : "ENGINEER",
        "location" : {
          "id" : 305,
          "name" : null,
          "latitude" : 43.902912,
          "longitude" : 4.259955
        },
        "openings" : {
          "start" : [ 13, 16 ],
          "end" : [ 15, 37 ]
        },
        "preferredSlots" : null,
        "doAfter" : null,
        "nbEmpRequired" : 1,
        "deadline" : [ 15, 31 ],
        "skills" : [ {
          "id" : 1,
          "name" : "ENGINEER",
          "level" : 5
        } ],
        "duration" : 5400.000000000,
        "pause" : false
      },
      "window" : {
        "start" : [ 13, 46 ],
        "end" : [ 15, 16 ]
      }
    }, {
      "job" : {
        "id" : 47,
        "desc" : "PLUMBING",
        "location" : {
          "id" : 4373,
          "name" : null,
          "latitude" : 44.04394,
          "longitude" : 4.164494
        },
        "openings" : {
          "start" : [ 10, 20 ],
          "end" : [ 14, 55 ]
        },
        "preferredSlots" : null,
        "doAfter" : null,
        "nbEmpRequired" : 1,
        "deadline" : [ 15, 37 ],
        "skills" : [ {
          "id" : 3,
          "name" : "PLUMBING",
          "level" : 5
        } ],
        "duration" : 2700.000000000,
        "pause" : false
      },
      "window" : {
        "start" : [ 15, 34 ],
        "end" : [ 16, 19 ]
      }
    } ],
    "driving" : 6360.000000000,
    "valid" : true
  } ],
  "unassigned" : [ {
    "id" : 345,
    "desc" : "IRONWORK, PLUMBING",
    "location" : {
      "id" : 7259,
      "name" : null,
      "latitude" : 43.62355,
      "longitude" : 3.9282105
    },
    "openings" : {
      "start" : [ 10, 12 ],
      "end" : [ 16, 31 ]
    },
    "preferredSlots" : null,
    "doAfter" : null,
    "nbEmpRequired" : 1,
    "deadline" : [ 9, 43 ],
    "skills" : [ {
      "id" : 8,
      "name" : "IRONWORK",
      "level" : 5
    }, {
      "id" : 3,
      "name" : "PLUMBING",
      "level" : 3
    } ],
    "duration" : 3600.000000000,
    "pause" : false
  }, {
    "id" : 178,
    "desc" : "GLAZING, ELECTRICIAN",
    "location" : {
      "id" : 5648,
      "name" : null,
      "latitude" : 43.661957,
      "longitude" : 3.740293
    },
    "openings" : {
      "start" : [ 14, 13 ],
      "end" : [ 16, 56 ]
    },
    "preferredSlots" : null,
    "doAfter" : null,
    "nbEmpRequired" : 1,
    "deadline" : [ 10, 8 ],
    "skills" : [ {
      "id" : 5,
      "name" : "GLAZING",
      "level" : 2
    }, {
      "id" : 2,
      "name" : "ELECTRICIAN",
      "level" : 2
    } ],
    "duration" : 1800.000000000,
    "pause" : false
  }, {
    "id" : 310,
    "desc" : "PAINTING, MASONRY",
    "location" : {
      "id" : 4268,
      "name" : null,
      "latitude" : 43.672626,
      "longitude" : 3.7101586
    },
    "openings" : {
      "start" : [ 10, 1 ],
      "end" : [ 16, 55 ]
    },
    "preferredSlots" : null,
    "doAfter" : null,
    "nbEmpRequired" : 1,
    "deadline" : [ 11, 23 ],
    "skills" : [ {
      "id" : 7,
      "name" : "PAINTING",
      "level" : 3
    }, {
      "id" : 4,
      "name" : "MASONRY",
      "level" : 5
    } ],
    "duration" : 3600.000000000,
    "pause" : false
  }, {
    "id" : 928,
    "desc" : "ENGINEER, GLAZING",
    "location" : {
      "id" : 2344,
      "name" : null,
      "latitude" : 43.500637,
      "longitude" : 4.1437635
    },
    "openings" : {
      "start" : [ 9, 25 ],
      "end" : [ 17, 51 ]
    },
    "preferredSlots" : null,
    "doAfter" : null,
    "nbEmpRequired" : 1,
    "deadline" : [ 12, 15 ],
    "skills" : [ {
      "id" : 1,
      "name" : "ENGINEER",
      "level" : 4
    }, {
      "id" : 5,
      "name" : "GLAZING",
      "level" : 2
    } ],
    "duration" : 1800.000000000,
    "pause" : false
  }, {
    "id" : 167,
    "desc" : "GLAZING",
    "location" : {
      "id" : 3345,
      "name" : null,
      "latitude" : 43.507282,
      "longitude" : 3.7418494
    },
    "openings" : {
      "start" : [ 10, 16 ],
      "end" : [ 15, 37 ]
    },
    "preferredSlots" : null,
    "doAfter" : null,
    "nbEmpRequired" : 1,
    "deadline" : [ 14, 27 ],
    "skills" : [ {
      "id" : 5,
      "name" : "GLAZING",
      "level" : 5
    } ],
    "duration" : 2700.000000000,
    "pause" : false
  }, {
    "id" : 744,
    "desc" : "CARPENTRY, IRONWORK",
    "location" : {
      "id" : 7064,
      "name" : null,
      "latitude" : 43.58548,
      "longitude" : 3.9816105
    },
    "openings" : {
      "start" : [ 10, 20 ],
      "end" : [ 15, 39 ]
    },
    "preferredSlots" : null,
    "doAfter" : null,
    "nbEmpRequired" : 1,
    "deadline" : [ 15, 39 ],
    "skills" : [ {
      "id" : 6,
      "name" : "CARPENTRY",
      "level" : 1
    }, {
      "id" : 8,
      "name" : "IRONWORK",
      "level" : 5
    } ],
    "duration" : 2700.000000000,
    "pause" : false
  }, {
    "id" : 911,
    "desc" : "TILER, ELECTRICIAN",
    "location" : {
      "id" : 7799,
      "name" : null,
      "latitude" : 43.68618,
      "longitude" : 3.8790507
    },
    "openings" : {
      "start" : [ 11, 57 ],
      "end" : [ 16, 21 ]
    },
    "preferredSlots" : null,
    "doAfter" : null,
    "nbEmpRequired" : 1,
    "deadline" : [ 15, 44 ],
    "skills" : [ {
      "id" : 9,
      "name" : "TILER",
      "level" : 3
    }, {
      "id" : 2,
      "name" : "ELECTRICIAN",
      "level" : 4
    } ],
    "duration" : 1800.000000000,
    "pause" : false
  }, {
    "id" : 72,
    "desc" : "CARPENTRY",
    "location" : {
      "id" : 2891,
      "name" : null,
      "latitude" : 43.607986,
      "longitude" : 4.224449
    },
    "openings" : {
      "start" : [ 15, 25 ],
      "end" : [ 17, 25 ]
    },
    "preferredSlots" : null,
    "doAfter" : null,
    "nbEmpRequired" : 1,
    "deadline" : [ 16, 9 ],
    "skills" : [ {
      "id" : 6,
      "name" : "CARPENTRY",
      "level" : 4
    } ],
    "duration" : 7200.000000000,
    "pause" : false
  }, {
    "id" : 875,
    "desc" : "MANAGEMENT, ENGINEER",
    "location" : {
      "id" : 3581,
      "name" : null,
      "latitude" : 44.01499,
      "longitude" : 4.0182447
    },
    "openings" : {
      "start" : [ 12, 12 ],
      "end" : [ 17, 10 ]
    },
    "preferredSlots" : null,
    "doAfter" : null,
    "nbEmpRequired" : 1,
    "deadline" : [ 16, 52 ],
    "skills" : [ {
      "id" : 0,
      "name" : "MANAGEMENT",
      "level" : 2
    }, {
      "id" : 1,
      "name" : "ENGINEER",
      "level" : 4
    } ],
    "duration" : 7200.000000000,
    "pause" : false
  }, {
    "id" : 205,
    "desc" : "TILER",
    "location" : {
      "id" : 2118,
      "name" : null,
      "latitude" : 43.602257,
      "longitude" : 4.2868485
    },
    "openings" : {
      "start" : [ 12, 36 ],
      "end" : [ 16, 45 ]
    },
    "preferredSlots" : null,
    "doAfter" : null,
    "nbEmpRequired" : 1,
    "deadline" : [ 17, 42 ],
    "skills" : [ {
      "id" : 9,
      "name" : "TILER",
      "level" : 1
    } ],
    "duration" : 1800.000000000,
    "pause" : false
  }, {
    "id" : 924,
    "desc" : "MASONRY, MANAGEMENT",
    "location" : {
      "id" : 3066,
      "name" : null,
      "latitude" : 44.086983,
      "longitude" : 4.2478933
    },
    "openings" : {
      "start" : [ 9, 43 ],
      "end" : [ 10, 42 ]
    },
    "preferredSlots" : null,
    "doAfter" : null,
    "nbEmpRequired" : 1,
    "deadline" : [ 17, 51 ],
    "skills" : [ {
      "id" : 4,
      "name" : "MASONRY",
      "level" : 4
    }, {
      "id" : 0,
      "name" : "MANAGEMENT",
      "level" : 5
    } ],
    "duration" : 5400.000000000,
    "pause" : false
  } ],
  "valid" : true
}