{
  "listEdt" : [ {
    "emp" : {
      "id" : 559,
      "name" : "559",
      "shifts" : [ {
        "start" : [ 9, 0 ],
        "end" : [ 12, 0 ]
      }, {
        "start" : [ 13, 0 ],
        "end" : [ 17, 0 ]
      } ],
      "prefSlots" : null,
      "startingLoc" : {
        "id" : 2402,
        "name" : null,
        "latitude" : 43.97277,
        "longitude" : 4.095633
      },
      "skills" : [ {
        "id" : 1,
        "name" : "ENGINEER",
        "level" : 4
      }, {
        "id" : 0,
        "name" : "MANAGEMENT",
        "level" : 10
      }, {
        "id" : 8,
        "name" : "IRONWORK",
        "level" : 8
      }, {
        "id" : 0,
        "name" : "MANAGEMENT",
        "level" : 1
      }, {
        "id" : 6,
        "name" : "CARPENTRY",
        "level" : 9
      }, {
        "id" : 9,
        "name" : "TILER",
        "level" : 2
      }, {
        "id" : 4,
        "name" : "MASONRY",
        "level" : 6
      } ]
    },
    "planning" : [ {
      "job" : {
        "id" : -1,
        "desc" : "Home",
        "location" : {
          "id" : 2402,
          "name" : null,
          "latitude" : 43.97277,
          "longitude" : 4.095633
        },
        "openings" : null,
        "preferredSlots" : null,
        "doAfter" : null,
        "nbEmpRequired" : 1,
        "deadline" : null,
        "skills" : [ ],
        "duration" : null,
        "pause" : true
      },
      "window" : {
        "start" : [ 9, 0 ],
        "end" : [ 9, 0 ]
      }
    }, {
      "job" : {
        "id" : 862,
        "desc" : "MANAGEMENT",
        "location" : {
          "id" : 3743,
          "name" : null,
          "latitude" : 43.754524,
          "longitude" : 3.779573
        },
        "openings" : {
          "start" : [ 11, 3 ],
          "end" : [ 16, 16 ]
        },
        "preferredSlots" : null,
        "doAfter" : null,
        "nbEmpRequired" : 1,
        "deadline" : [ 10, 27 ],
        "skills" : [ {
          "id" : 0,
          "name" : "MANAGEMENT",
          "level" : 3
        } ],
        "duration" : 1800.000000000,
        "pause" : false
      },
      "window" : {
        "start" : [ 9, 36 ],
        "end" : [ 10, 6 ]
      }
    }, {
      "job" : {
        "id" : 157,
        "desc" : "CARPENTRY, IRONWORK",
        "location" : {
          "id" : 683,
          "name" : null,
          "latitude" : 43.50214,
          "longitude" : 3.7743487
        },
        "openings" : {
          "start" : [ 10, 12 ],
          "end" : [ 13, 51 ]
        },
        "preferredSlots" : null,
        "doAfter" : null,
        "nbEmpRequired" : 1,
        "deadline" : [ 10, 33 ],
        "skills" : [ {
          "id" : 6,
          "name" : "CARPENTRY",
          "level" : 4
        }, {
          "id" : 8,
          "name" : "IRONWORK",
          "level" : 3
        } ],
        "duration" : 3600.000000000,
        "pause" : false
      },
      "window" : {
        "start" : [ 10, 35 ],
        "end" : [ 11, 35 ]
      }
    }, {
      "job" : {
        "id" : -1,
        "desc" : "Pause",
        "location" : {
          "id" : 683,
          "name" : null,
          "latitude" : 43.50214,
          "longitude" : 3.7743487
        },
        "openings" : {
          "start" : [ 10, 12 ],
          "end" : [ 13, 51 ]
        },
        "preferredSlots" : null,
        "doAfter" : null,
        "nbEmpRequired" : 1,
        "deadline" : [ 10, 33 ],
        "skills" : [ {
          "id" : 6,
          "name" : "CARPENTRY",
          "level" : 4
        }, {
          "id" : 8,
          "name" : "IRONWORK",
          "level" : 3
        } ],
        "duration" : 3600.000000000,
        "pause" : true
      },
      "window" : {
        "start" : [ 11, 36 ],
        "end" : [ 13, 0 ]
      }
    }, {
      "job" : {
        "id" : 605,
        "desc" : "ENGINEER",
        "location" : {
          "id" : 7546,
          "name" : null,
          "latitude" : 43.690674,
          "longitude" : 4.029747
        },
        "openings" : {
          "start" : [ 10, 29 ],
          "end" : [ 15, 11 ]
        },
        "preferredSlots" : null,
        "doAfter" : null,
        "nbEmpRequired" : 1,
        "deadline" : [ 10, 52 ],
        "skills" : [ {
          "id" : 1,
          "name" : "ENGINEER",
          "level" : 1
        } ],
        "duration" : 1800.000000000,
        "pause" : false
      },
      "window" : {
        "start" : [ 13, 30 ],
        "end" : [ 14, 0 ]
      }
    }, {
      "job" : {
        "id" : 244,
        "desc" : "CARPENTRY",
        "location" : {
          "id" : 8806,
          "name" : null,
          "latitude" : 44.060516,
          "longitude" : 3.8774478
        },
        "openings" : {
          "start" : [ 10, 15 ],
          "end" : [ 15, 33 ]
        },
        "preferredSlots" : null,
        "doAfter" : null,
        "nbEmpRequired" : 1,
        "deadline" : [ 10, 59 ],
        "skills" : [ {
          "id" : 6,
          "name" : "CARPENTRY",
          "level" : 2
        } ],
        "duration" : 5400.000000000,
        "pause" : false
      },
      "window" : {
        "start" : [ 14, 43 ],
        "end" : [ 16, 13 ]
      }
    }, {
      "job" : {
        "id" : 324,
        "desc" : "MASONRY",
        "location" : {
          "id" : 5640,
          "name" : null,
          "latitude" : 44.00645,
          "longitude" : 3.7372375
        },
        "openings" : {
          "start" : [ 14, 30 ],
          "end" : [ 15, 22 ]
        },
        "preferredSlots" : null,
        "doAfter" : null,
        "nbEmpRequired" : 1,
        "deadline" : [ 13, 46 ],
        "skills" : [ {
          "id" : 4,
          "name" : "MASONRY",
          "level" : 1
        } ],
        "duration" : 1800.000000000,
        "pause" : false
      },
      "window" : {
        "start" : [ 16, 26 ],
        "end" : [ 16, 56 ]
      }
    } ],
    "driving" : 9060.000000000,
    "valid" : true
  }, {
    "emp" : {
      "id" : 535,
      "name" : "535",
      "shifts" : [ {
        "start" : [ 9, 0 ],
        "end" : [ 12, 0 ]
      }, {
        "start" : [ 13, 0 ],
        "end" : [ 17, 0 ]
      } ],
      "prefSlots" : null,
      "startingLoc" : {
        "id" : 7987,
        "name" : null,
        "latitude" : 43.568123,
        "longitude" : 3.8311226
      },
      "skills" : [ {
        "id" : 5,
        "name" : "GLAZING",
        "level" : 7
      }, {
        "id" : 8,
        "name" : "IRONWORK",
        "level" : 7
      }, {
        "id" : 1,
        "name" : "ENGINEER",
        "level" : 10
      }, {
        "id" : 4,
        "name" : "MASONRY",
        "level" : 1
      }, {
        "id" : 5,
        "name" : "GLAZING",
        "level" : 9
      }, {
        "id" : 8,
        "name" : "IRONWORK",
        "level" : 6
      }, {
        "id" : 4,
        "name" : "MASONRY",
        "level" : 8
      }, {
        "id" : 9,
        "name" : "TILER",
        "level" : 9
      }, {
        "id" : 8,
        "name" : "IRONWORK",
        "level" : 4
      }, {
        "id" : 8,
        "name" : "IRONWORK",
        "level" : 9
      } ]
    },
    "planning" : [ {
      "job" : {
        "id" : -1,
        "desc" : "Home",
        "location" : {
          "id" : 7987,
          "name" : null,
          "latitude" : 43.568123,
          "longitude" : 3.8311226
        },
        "openings" : null,
        "preferredSlots" : null,
        "doAfter" : null,
        "nbEmpRequired" : 1,
        "deadline" : null,
        "skills" : [ ],
        "duration" : null,
        "pause" : true
      },
      "window" : {
        "start" : [ 9, 0 ],
        "end" : [ 9, 0 ]
      }
    }, {
      "job" : {
        "id" : 494,
        "desc" : "ENGINEER, TILER",
        "location" : {
          "id" : 3441,
          "name" : null,
          "latitude" : 43.50403,
          "longitude" : 4.224349
        },
        "openings" : {
          "start" : [ 12, 20 ],
          "end" : [ 15, 24 ]
        },
        "preferredSlots" : null,
        "doAfter" : null,
        "nbEmpRequired" : 1,
        "deadline" : [ 9, 34 ],
        "skills" : [ {
          "id" : 1,
          "name" : "ENGINEER",
          "level" : 5
        }, {
          "id" : 9,
          "name" : "TILER",
          "level" : 1
        } ],
        "duration" : 3600.000000000,
        "pause" : false
      },
      "window" : {
        "start" : [ 9, 33 ],
        "end" : [ 10, 33 ]
      }
    }, {
      "job" : {
        "id" : 961,
        "desc" : "TILER",
        "location" : {
          "id" : 403,
          "name" : null,
          "latitude" : 43.431145,
          "longitude" : 4.156036
        },
        "openings" : {
          "start" : [ 10, 40 ],
          "end" : [ 13, 51 ]
        },
        "preferredSlots" : null,
        "doAfter" : null,
        "nbEmpRequired" : 1,
        "deadline" : [ 10, 11 ],
        "skills" : [ {
          "id" : 9,
          "name" : "TILER",
          "level" : 3
        } ],
        "duration" : 2700.000000000,
        "pause" : false
      },
      "window" : {
        "start" : [ 10, 43 ],
        "end" : [ 11, 28 ]
      }
    }, {
      "job" : {
        "id" : -1,
        "desc" : "Pause",
        "location" : {
          "id" : 403,
          "name" : null,
          "latitude" : 43.431145,
          "longitude" : 4.156036
        },
        "openings" : {
          "start" : [ 10, 40 ],
          "end" : [ 13, 51 ]
        },
        "preferredSlots" : null,
        "doAfter" : null,
        "nbEmpRequired" : 1,
        "deadline" : [ 10, 11 ],
        "skills" : [ {
          "id" : 9,
          "name" : "TILER",
          "level" : 3
        } ],
        "duration" : 2700.000000000,
        "pause" : true
      },
      "window" : {
        "start" : [ 11, 29 ],
        "end" : [ 13, 0 ]
      }
    }, {
      "job" : {
        "id" : 25,
        "desc" : "TILER, ENGINEER",
        "location" : {
          "id" : 6553,
          "name" : null,
          "latitude" : 44.030323,
          "longitude" : 4.0445805
        },
        "openings" : {
          "start" : [ 14, 12 ],
          "end" : [ 15, 59 ]
        },
        "preferredSlots" : null,
        "doAfter" : null,
        "nbEmpRequired" : 1,
        "deadline" : [ 10, 16 ],
        "skills" : [ {
          "id" : 9,
          "name" : "TILER",
          "level" : 1
        }, {
          "id" : 1,
          "name" : "ENGINEER",
          "level" : 5
        } ],
        "duration" : 3600.000000000,
        "pause" : false
      },
      "window" : {
        "start" : [ 14, 8 ],
        "end" : [ 15, 8 ]
      }
    }, {
      "job" : {
        "id" : 105,
        "desc" : "TILER",
        "location" : {
          "id" : 9957,
          "name" : null,
          "latitude" : 43.66729,
          "longitude" : 3.957378
        },
        "openings" : {
          "start" : [ 11, 17 ],
          "end" : [ 14, 27 ]
        },
        "preferredSlots" : null,
        "doAfter" : null,
        "nbEmpRequired" : 1,
        "deadline" : [ 10, 30 ],
        "skills" : [ {
          "id" : 9,
          "name" : "TILER",
          "level" : 5
        } ],
        "duration" : 1800.000000000,
        "pause" : false
      },
      "window" : {
        "start" : [ 15, 49 ],
        "end" : [ 16, 19 ]
      }
    } ],
    "driving" : 9120.000000000,
    "valid" : true
  }, {
    "emp" : {
      "id" : 339,
      "name" : "339",
      "shifts" : [ {
        "start" : [ 9, 0 ],
        "end" : [ 12, 0 ]
      }, {
        "start" : [ 13, 0 ],
        "end" : [ 17, 0 ]
      } ],
      "prefSlots" : null,
      "startingLoc" : {
        "id" : 6941,
        "name" : null,
        "latitude" : 43.852776,
        "longitude" : 3.7634819
      },
      "skills" : [ {
        "id" : 7,
        "name" : "PAINTING",
        "level" : 4
      }, {
        "id" : 1,
        "name" : "ENGINEER",
        "level" : 10
      }, {
        "id" : 4,
        "name" : "MASONRY",
        "level" : 7
      }, {
        "id" : 5,
        "name" : "GLAZING",
        "level" : 7
      }, {
        "id" : 5,
        "name" : "GLAZING",
        "level" : 4
      }, {
        "id" : 5,
        "name" : "GLAZING",
        "level" : 8
      }, {
        "id" : 6,
        "name" : "CARPENTRY",
        "level" : 7
      } ]
    },
    "planning" : [ {
      "job" : {
        "id" : -1,
        "desc" : "Home",
        "location" : {
          "id" : 6941,
          "name" : null,
          "latitude" : 43.852776,
          "longitude" : 3.7634819
        },
        "openings" : null,
        "preferredSlots" : null,
        "doAfter" : null,
        "nbEmpRequired" : 1,
        "deadline" : null,
        "skills" : [ ],
        "duration" : null,
        "pause" : true
      },
      "window" : {
        "start" : [ 9, 0 ],
        "end" : [ 9, 0 ]
      }
    }, {
      "job" : {
        "id" : 946,
        "desc" : "PAINTING, GLAZING",
        "location" : {
          "id" : 4710,
          "name" : null,
          "latitude" : 44.082985,
          "longitude" : 3.7942753
        },
        "openings" : {
          "start" : [ 10, 40 ],
          "end" : [ 16, 2 ]
        },
        "preferredSlots" : null,
        "doAfter" : null,
        "nbEmpRequired" : 1,
        "deadline" : [ 10, 42 ],
        "skills" : [ {
          "id" : 7,
          "name" : "PAINTING",
          "level" : 1
        }, {
          "id" : 5,
          "name" : "GLAZING",
          "level" : 3
        } ],
        "duration" : 5400.000000000,
        "pause" : false
      },
      "window" : {
        "start" : [ 9, 26 ],
        "end" : [ 10, 56 ]
      }
    }, {
      "job" : {
        "id" : 6,
        "desc" : "ENGINEER, GLAZING",
        "location" : {
          "id" : 5386,
          "name" : null,
          "latitude" : 43.85361,
          "longitude" : 4.026265
        },
        "openings" : {
          "start" : [ 11, 36 ],
          "end" : [ 16, 57 ]
        },
        "preferredSlots" : null,
        "doAfter" : null,
        "nbEmpRequired" : 1,
        "deadline" : [ 14, 46 ],
        "skills" : [ {
          "id" : 1,
          "name" : "ENGINEER",
          "level" : 5
        }, {
          "id" : 5,
          "name" : "GLAZING",
          "level" : 3
        } ],
        "duration" : 1800.000000000,
        "pause" : false
      },
      "window" : {
        "start" : [ 11, 28 ],
        "end" : [ 11, 58 ]
      }
    }, {
      "job" : {
        "id" : -1,
        "desc" : "Pause",
        "location" : {
          "id" : 5386,
          "name" : null,
          "latitude" : 43.85361,
          "longitude" : 4.026265
        },
        "openings" : {
          "start" : [ 11, 36 ],
          "end" : [ 16, 57 ]
        },
        "preferredSlots" : null,
        "doAfter" : null,
        "nbEmpRequired" : 1,
        "deadline" : [ 14, 46 ],
        "skills" : [ {
          "id" : 1,
          "name" : "ENGINEER",
          "level" : 5
        }, {
          "id" : 5,
          "name" : "GLAZING",
          "level" : 3
        } ],
        "duration" : 1800.000000000,
        "pause" : true
      },
      "window" : {
        "start" : [ 11, 59 ],
        "end" : [ 13, 0 ]
      }
    }, {
      "job" : {
        "id" : 81,
        "desc" : "GLAZING",
        "location" : {
          "id" : 3431,
          "name" : null,
          "latitude" : 43.68711,
          "longitude" : 3.8316352
        },
        "openings" : {
          "start" : [ 9, 4 ],
          "end" : [ 17, 36 ]
        },
        "preferredSlots" : null,
        "doAfter" : null,
        "nbEmpRequired" : 1,
        "deadline" : [ 10, 58 ],
        "skills" : [ {
          "id" : 5,
          "name" : "GLAZING",
          "level" : 5
        } ],
        "duration" : 5400.000000000,
        "pause" : false
      },
      "window" : {
        "start" : [ 13, 25 ],
        "end" : [ 14, 55 ]
      }
    }, {
      "job" : {
        "id" : 222,
        "desc" : "GLAZING",
        "location" : {
          "id" : 6026,
          "name" : null,
          "latitude" : 43.4237,
          "longitude" : 3.8813796
        },
        "openings" : {
          "start" : [ 12, 32 ],
          "end" : [ 15, 59 ]
        },
        "preferredSlots" : null,
        "doAfter" : null,
        "nbEmpRequired" : 1,
        "deadline" : [ 11, 11 ],
        "skills" : [ {
          "id" : 5,
          "name" : "GLAZING",
          "level" : 3
        } ],
        "duration" : 3600.000000000,
        "pause" : false
      },
      "window" : {
        "start" : [ 15, 25 ],
        "end" : [ 16, 25 ]
      }
    }, {
      "job" : {
        "id" : 267,
        "desc" : "MASONRY",
        "location" : {
          "id" : 1594,
          "name" : null,
          "latitude" : 43.45249,
          "longitude" : 3.8523946
        },
        "openings" : {
          "start" : [ 11, 7 ],
          "end" : [ 12, 28 ]
        },
        "preferredSlots" : null,
        "doAfter" : null,
        "nbEmpRequired" : 1,
        "deadline" : [ 14, 36 ],
        "skills" : [ {
          "id" : 4,
          "name" : "MASONRY",
          "level" : 2
        } ],
        "duration" : 1800.000000000,
        "pause" : false
      },
      "window" : {
        "start" : [ 16, 29 ],
        "end" : [ 16, 59 ]
      }
    } ],
    "driving" : 7020.000000000,
    "valid" : true
  }, {
    "emp" : {
      "id" : 920,
      "name" : "920",
      "shifts" : [ {
        "start" : [ 9, 0 ],
        "end" : [ 12, 0 ]
      }, {
        "start" : [ 13, 0 ],
        "end" : [ 17, 0 ]
      } ],
      "prefSlots" : null,
      "startingLoc" : {
        "id" : 1932,
        "name" : null,
        "latitude" : 44.04647,
        "longitude" : 4.003158
      },
      "skills" : [ {
        "id" : 9,
        "name" : "TILER",
        "level" : 10
      }, {
        "id" : 3,
        "name" : "PLUMBING",
        "level" : 2
      }, {
        "id" : 8,
        "name" : "IRONWORK",
        "level" : 8
      }, {
        "id" : 6,
        "name" : "CARPENTRY",
        "level" : 6
      }, {
        "id" : 6,
        "name" : "CARPENTRY",
        "level" : 2
      }, {
        "id" : 7,
        "name" : "PAINTING",
        "level" : 6
      }, {
        "id" : 2,
        "name" : "ELECTRICIAN",
        "level" : 7
      }, {
        "id" : 3,
        "name" : "PLUMBING",
        "level" : 10
      } ]
    },
    "planning" : [ {
      "job" : {
        "id" : -1,
        "desc" : "Home",
        "location" : {
          "id" : 1932,
          "name" : null,
          "latitude" : 44.04647,
          "longitude" : 4.003158
        },
        "openings" : null,
        "preferredSlots" : null,
        "doAfter" : null,
        "nbEmpRequired" : 1,
        "deadline" : null,
        "skills" : [ ],
        "duration" : null,
        "pause" : true
      },
      "window" : {
        "start" : [ 9, 0 ],
        "end" : [ 9, 0 ]
      }
    }, {
      "job" : {
        "id" : 588,
        "desc" : "CARPENTRY, ELECTRICIAN",
        "location" : {
          "id" : 9601,
          "name" : null,
          "latitude" : 43.58107,
          "longitude" : 4.223377
        },
        "openings" : {
          "start" : [ 14, 8 ],
          "end" : [ 16, 32 ]
        },
        "preferredSlots" : null,
        "doAfter" : null,
        "nbEmpRequired" : 1,
        "deadline" : [ 9, 31 ],
        "skills" : [ {
          "id" : 6,
          "name" : "CARPENTRY",
          "level" : 2
        }, {
          "id" : 2,
          "name" : "ELECTRICIAN",
          "level" : 1
        } ],
        "duration" : 3600.000000000,
        "pause" : false
      },
      "window" : {
        "start" : [ 9, 55 ],
        "end" : [ 10, 55 ]
      }
    }, {
      "job" : {
        "id" : 588,
        "desc" : "TILER",
        "location" : {
          "id" : 6410,
          "name" : null,
          "latitude" : 43.5483,
          "longitude" : 4.247924
        },
        "openings" : {
          "start" : [ 12, 55 ],
          "end" : [ 16, 40 ]
        },
        "preferredSlots" : null,
        "doAfter" : null,
        "nbEmpRequired" : 1,
        "deadline" : [ 12, 7 ],
        "skills" : [ {
          "id" : 9,
          "name" : "TILER",
          "level" : 3
        } ],
        "duration" : 2700.000000000,
        "pause" : false
      },
      "window" : {
        "start" : [ 11, 0 ],
        "end" : [ 11, 45 ]
      }
    }, {
      "job" : {
        "id" : -1,
        "desc" : "Pause",
        "location" : {
          "id" : 6410,
          "name" : null,
          "latitude" : 43.5483,
          "longitude" : 4.247924
        },
        "openings" : {
          "start" : [ 12, 55 ],
          "end" : [ 16, 40 ]
        },
        "preferredSlots" : null,
        "doAfter" : null,
        "nbEmpRequired" : 1,
        "deadline" : [ 12, 7 ],
        "skills" : [ {
          "id" : 9,
          "name" : "TILER",
          "level" : 3
        } ],
        "duration" : 2700.000000000,
        "pause" : true
      },
      "window" : {
        "start" : [ 11, 46 ],
        "end" : [ 13, 0 ]
      }
    }, {
      "job" : {
        "id" : 117,
        "desc" : "IRONWORK, PLUMBING",
        "location" : {
          "id" : 3400,
          "name" : null,
          "latitude" : 44.065655,
          "longitude" : 4.223047
        },
        "openings" : {
          "start" : [ 13, 14 ],
          "end" : [ 15, 50 ]
        },
        "preferredSlots" : null,
        "doAfter" : null,
        "nbEmpRequired" : 1,
        "deadline" : [ 10, 15 ],
        "skills" : [ {
          "id" : 8,
          "name" : "IRONWORK",
          "level" : 4
        }, {
          "id" : 3,
          "name" : "PLUMBING",
          "level" : 3
        } ],
        "duration" : 5400.000000000,
        "pause" : false
      },
      "window" : {
        "start" : [ 13, 58 ],
        "end" : [ 15, 28 ]
      }
    }, {
      "job" : {
        "id" : 811,
        "desc" : "ELECTRICIAN, TILER",
        "location" : {
          "id" : 8906,
          "name" : null,
          "latitude" : 44.025665,
          "longitude" : 4.281153
        },
        "openings" : {
          "start" : [ 11, 0 ],
          "end" : [ 11, 44 ]
        },
        "preferredSlots" : null,
        "doAfter" : null,
        "nbEmpRequired" : 1,
        "deadline" : [ 10, 47 ],
        "skills" : [ {
          "id" : 2,
          "name" : "ELECTRICIAN",
          "level" : 4
        }, {
          "id" : 9,
          "name" : "TILER",
          "level" : 1
        } ],
        "duration" : 3600.000000000,
        "pause" : false
      },
      "window" : {
        "start" : [ 15, 35 ],
        "end" : [ 16, 35 ]
      }
    } ],
    "driving" : 7500.000000000,
    "valid" : true
  }, {
    "emp" : {
      "id" : 587,
      "name" : "587",
      "shifts" : [ {
        "start" : [ 9, 0 ],
        "end" : [ 12, 0 ]
      }, {
        "start" : [ 13, 0 ],
        "end" : [ 17, 0 ]
      } ],
      "prefSlots" : null,
      "startingLoc" : {
        "id" : 6851,
        "name" : null,
        "latitude" : 43.747486,
        "longitude" : 4.1590652
      },
      "skills" : [ {
        "id" : 4,
        "name" : "MASONRY",
        "level" : 1
      }, {
        "id" : 3,
        "name" : "PLUMBING",
        "level" : 2
      }, {
        "id" : 7,
        "name" : "PAINTING",
        "level" : 4
      } ]
    },
    "planning" : [ {
      "job" : {
        "id" : -1,
        "desc" : "Home",
        "location" : {
          "id" : 6851,
          "name" : null,
          "latitude" : 43.747486,
          "longitude" : 4.1590652
        },
        "openings" : null,
        "preferredSlots" : null,
        "doAfter" : null,
        "nbEmpRequired" : 1,
        "deadline" : null,
        "skills" : [ ],
        "duration" : null,
        "pause" : true
      },
      "window" : {
        "start" : [ 9, 0 ],
        "end" : [ 9, 0 ]
      }
    }, {
      "job" : {
        "id" : 272,
        "desc" : "PAINTING, MASONRY",
        "location" : {
          "id" : 2452,
          "name" : null,
          "latitude" : 43.557972,
          "longitude" : 3.8017392
        },
        "openings" : {
          "start" : [ 15, 19 ],
          "end" : [ 16, 30 ]
        },
        "preferredSlots" : null,
        "doAfter" : null,
        "nbEmpRequired" : 1,
        "deadline" : [ 11, 9 ],
        "skills" : [ {
          "id" : 7,
          "name" : "PAINTING",
          "level" : 2
        }, {
          "id" : 4,
          "name" : "MASONRY",
          "level" : 1
        } ],
        "duration" : 7200.000000000,
        "pause" : false
      },
      "window" : {
        "start" : [ 9, 36 ],
        "end" : [ 11, 36 ]
      }
    }, {
      "job" : {
        "id" : -1,
        "desc" : "Pause",
        "location" : {
          "id" : 2452,
          "name" : null,
          "latitude" : 43.557972,
          "longitude" : 3.8017392
        },
        "openings" : {
          "start" : [ 15, 19 ],
          "end" : [ 16, 30 ]
        },
        "preferredSlots" : null,
        "doAfter" : null,
        "nbEmpRequired" : 1,
        "deadline" : [ 11, 9 ],
        "skills" : [ {
          "id" : 7,
          "name" : "PAINTING",
          "level" : 2
        }, {
          "id" : 4,
          "name" : "MASONRY",
          "level" : 1
        } ],
        "duration" : 7200.000000000,
        "pause" : true
      },
      "window" : {
        "start" : [ 11, 37 ],
        "end" : [ 13, 0 ]
      }
    }, {
      "job" : {
        "id" : 880,
        "desc" : "PAINTING",
        "location" : {
          "id" : 9984,
          "name" : null,
          "latitude" : 43.546036,
          "longitude" : 4.038608
        },
        "openings" : {
          "start" : [ 12, 31 ],
          "end" : [ 15, 36 ]
        },
        "preferredSlots" : null,
        "doAfter" : null,
        "nbEmpRequired" : 1,
        "deadline" : [ 12, 7 ],
        "skills" : [ {
          "id" : 7,
          "name" : "PAINTING",
          "level" : 1
        } ],
        "duration" : 1800.000000000,
        "pause" : false
      },
      "window" : {
        "start" : [ 13, 20 ],
        "end" : [ 13, 50 ]
      }
    }, {
      "job" : {
        "id" : 183,
        "desc" : "PLUMBING",
        "location" : {
          "id" : 9168,
          "name" : null,
          "latitude" : 43.84208,
          "longitude" : 4.169044
        },
        "openings" : {
          "start" : [ 16, 29 ],
          "end" : [ 17, 49 ]
        },
        "preferredSlots" : null,
        "doAfter" : null,
        "nbEmpRequired" : 1,
        "deadline" : [ 12, 10 ],
        "skills" : [ {
          "id" : 3,
          "name" : "PLUMBING",
          "level" : 2
        } ],
        "duration" : 7200.000000000,
        "pause" : false
      },
      "window" : {
        "start" : [ 14, 25 ],
        "end" : [ 16, 25 ]
      }
    } ],
    "driving" : 5460.000000000,
    "valid" : true
  }, {
    "emp" : {
      "id" : 815,
      "name" : "815",
      "shifts" : [ {
        "start" : [ 9, 0 ],
        "end" : [ 12, 0 ]
      }, {
        "start" : [ 13, 0 ],
        "end" : [ 17, 0 ]
      } ],
      "prefSlots" : null,
      "startingLoc" : {
        "id" : 4049,
        "name" : null,
        "latitude" : 43.757442,
        "longitude" : 3.773177
      },
      "skills" : [ {
        "id" : 4,
        "name" : "MASONRY",
        "level" : 3
      }, {
        "id" : 3,
        "name" : "PLUMBING",
        "level" : 9
      }, {
        "id" : 2,
        "name" : "ELECTRICIAN",
        "level" : 9
      }, {
        "id" : 9,
        "name" : "TILER",
        "level" : 10
      }, {
        "id" : 7,
        "name" : "PAINTING",
        "level" : 9
      } ]
    },
    "planning" : [ {
      "job" : {
        "id" : -1,
        "desc" : "Home",
        "location" : {
          "id" : 4049,
          "name" : null,
          "latitude" : 43.757442,
          "longitude" : 3.773177
        },
        "openings" : null,
        "preferredSlots" : null,
        "doAfter" : null,
        "nbEmpRequired" : 1,
        "deadline" : null,
        "skills" : [ ],
        "duration" : null,
        "pause" : true
      },
      "window" : {
        "start" : [ 9, 0 ],
        "end" : [ 9, 0 ]
      }
    }, {
      "job" : {
        "id" : 773,
        "desc" : "TILER",
        "location" : {
          "id" : 1308,
          "name" : null,
          "latitude" : 43.87386,
          "longitude" : 4.2878203
        },
        "openings" : {
          "start" : [ 13, 17 ],
          "end" : [ 16, 53 ]
        },
        "preferredSlots" : null,
        "doAfter" : null,
        "nbEmpRequired" : 1,
        "deadline" : [ 11, 7 ],
        "skills" : [ {
          "id" : 9,
          "name" : "TILER",
          "level" : 3
        } ],
        "duration" : 3600.000000000,
        "pause" : false
      },
      "window" : {
        "start" : [ 9, 44 ],
        "end" : [ 10, 44 ]
      }
    }, {
      "job" : {
        "id" : 52,
        "desc" : "ELECTRICIAN",
        "location" : {
          "id" : 3770,
          "name" : null,
          "latitude" : 43.816185,
          "longitude" : 4.17501
        },
        "openings" : {
          "start" : [ 12, 31 ],
          "end" : [ 12, 33 ]
        },
        "preferredSlots" : null,
        "doAfter" : null,
        "nbEmpRequired" : 1,
        "deadline" : [ 11, 16 ],
        "skills" : [ {
          "id" : 2,
          "name" : "ELECTRICIAN",
          "level" : 3
        } ],
        "duration" : 2700.000000000,
        "pause" : false
      },
      "window" : {
        "start" : [ 10, 56 ],
        "end" : [ 11, 41 ]
      }
    }, {
      "job" : {
        "id" : -1,
        "desc" : "Pause",
        "location" : {
          "id" : 3770,
          "name" : null,
          "latitude" : 43.816185,
          "longitude" : 4.17501
        },
        "openings" : {
          "start" : [ 12, 31 ],
          "end" : [ 12, 33 ]
        },
        "preferredSlots" : null,
        "doAfter" : null,
        "nbEmpRequired" : 1,
        "deadline" : [ 11, 16 ],
        "skills" : [ {
          "id" : 2,
          "name" : "ELECTRICIAN",
          "level" : 3
        } ],
        "duration" : 2700.000000000,
        "pause" : true
      },
      "window" : {
        "start" : [ 11, 42 ],
        "end" : [ 13, 0 ]
      }
    }, {
      "job" : {
        "id" : 106,
        "desc" : "TILER, PAINTING",
        "location" : {
          "id" : 7984,
          "name" : null,
          "latitude" : 43.54446,
          "longitude" : 4.295446
        },
        "openings" : {
          "start" : [ 16, 17 ],
          "end" : [ 17, 19 ]
        },
        "preferredSlots" : null,
        "doAfter" : null,
        "nbEmpRequired" : 1,
        "deadline" : [ 11, 8 ],
        "skills" : [ {
          "id" : 9,
          "name" : "TILER",
          "level" : 5
        }, {
          "id" : 7,
          "name" : "PAINTING",
          "level" : 2
        } ],
        "duration" : 5400.000000000,
        "pause" : false
      },
      "window" : {
        "start" : [ 13, 32 ],
        "end" : [ 15, 2 ]
      }
    }, {
      "job" : {
        "id" : 124,
        "desc" : "TILER",
        "location" : {
          "id" : 9987,
          "name" : null,
          "latitude" : 43.748737,
          "longitude" : 4.277322
        },
        "openings" : {
          "start" : [ 14, 48 ],
          "end" : [ 17, 20 ]
        },
        "preferredSlots" : null,
        "doAfter" : null,
        "nbEmpRequired" : 1,
        "deadline" : [ 11, 21 ],
        "skills" : [ {
          "id" : 9,
          "name" : "TILER",
          "level" : 3
        } ],
        "duration" : 3600.000000000,
        "pause" : false
      },
      "window" : {
        "start" : [ 15, 25 ],
        "end" : [ 16, 25 ]
      }
    } ],
    "driving" : 6660.000000000,
    "valid" : true
  }, {
    "emp" : {
      "id" : 781,
      "name" : "781",
      "shifts" : [ {
        "start" : [ 9, 0 ],
        "end" : [ 12, 0 ]
      }, {
        "start" : [ 13, 0 ],
        "end" : [ 17, 0 ]
      } ],
      "prefSlots" : null,
      "startingLoc" : {
        "id" : 3484,
        "name" : null,
        "latitude" : 43.48822,
        "longitude" : 3.8591962
      },
      "skills" : [ {
        "id" : 0,
        "name" : "MANAGEMENT",
        "level" : 1
      }, {
        "id" : 3,
        "name" : "PLUMBING",
        "level" : 3
      }, {
        "id" : 5,
        "name" : "GLAZING",
        "level" : 9
      }, {
        "id" : 9,
        "name" : "TILER",
        "level" : 2
      }, {
        "id" : 1,
        "name" : "ENGINEER",
        "level" : 8
      }, {
        "id" : 9,
        "name" : "TILER",
        "level" : 3
      }, {
        "id" : 4,
        "name" : "MASONRY",
        "level" : 5
      } ]
    },
    "planning" : [ {
      "job" : {
        "id" : -1,
        "desc" : "Home",
        "location" : {
          "id" : 3484,
          "name" : null,
          "latitude" : 43.48822,
          "longitude" : 3.8591962
        },
        "openings" : null,
        "preferredSlots" : null,
        "doAfter" : null,
        "nbEmpRequired" : 1,
        "deadline" : null,
        "skills" : [ ],
        "duration" : null,
        "pause" : true
      },
      "window" : {
        "start" : [ 9, 0 ],
        "end" : [ 9, 0 ]
      }
    }, {
      "job" : {
        "id" : 617,
        "desc" : "GLAZING, TILER",
        "location" : {
          "id" : 574,
          "name" : null,
          "latitude" : 43.81229,
          "longitude" : 3.7897773
        },
        "openings" : {
          "start" : [ 12, 23 ],
          "end" : [ 13, 26 ]
        },
        "preferredSlots" : null,
        "doAfter" : null,
        "nbEmpRequired" : 1,
        "deadline" : [ 10, 43 ],
        "skills" : [ {
          "id" : 5,
          "name" : "GLAZING",
          "level" : 3
        }, {
          "id" : 9,
          "name" : "TILER",
          "level" : 3
        } ],
        "duration" : 5400.000000000,
        "pause" : false
      },
      "window" : {
        "start" : [ 9, 37 ],
        "end" : [ 11, 7 ]
      }
    }, {
      "job" : {
        "id" : 726,
        "desc" : "GLAZING",
        "location" : {
          "id" : 9379,
          "name" : null,
          "latitude" : 43.77851,
          "longitude" : 3.9467971
        },
        "openings" : {
          "start" : [ 11, 29 ],
          "end" : [ 15, 43 ]
        },
        "preferredSlots" : null,
        "doAfter" : null,
        "nbEmpRequired" : 1,
        "deadline" : [ 11, 43 ],
        "skills" : [ {
          "id" : 5,
          "name" : "GLAZING",
          "level" : 4
        } ],
        "duration" : 1800.000000000,
        "pause" : false
      },
      "window" : {
        "start" : [ 11, 21 ],
        "end" : [ 11, 51 ]
      }
    }, {
      "job" : {
        "id" : -1,
        "desc" : "Pause",
        "location" : {
          "id" : 9379,
          "name" : null,
          "latitude" : 43.77851,
          "longitude" : 3.9467971
        },
        "openings" : {
          "start" : [ 11, 29 ],
          "end" : [ 15, 43 ]
        },
        "preferredSlots" : null,
        "doAfter" : null,
        "nbEmpRequired" : 1,
        "deadline" : [ 11, 43 ],
        "skills" : [ {
          "id" : 5,
          "name" : "GLAZING",
          "level" : 4
        } ],
        "duration" : 1800.000000000,
        "pause" : true
      },
      "window" : {
        "start" : [ 11, 52 ],
        "end" : [ 13, 0 ]
      }
    }, {
      "job" : {
        "id" : 666,
        "desc" : "TILER, MASONRY",
        "location" : {
          "id" : 7828,
          "name" : null,
          "latitude" : 43.56153,
          "longitude" : 4.0511537
        },
        "openings" : {
          "start" : [ 10, 38 ],
          "end" : [ 13, 2 ]
        },
        "preferredSlots" : null,
        "doAfter" : null,
        "nbEmpRequired" : 1,
        "deadline" : [ 11, 54 ],
        "skills" : [ {
          "id" : 9,
          "name" : "TILER",
          "level" : 2
        }, {
          "id" : 4,
          "name" : "MASONRY",
          "level" : 1
        } ],
        "duration" : 5400.000000000,
        "pause" : false
      },
      "window" : {
        "start" : [ 13, 26 ],
        "end" : [ 14, 56 ]
      }
    }, {
      "job" : {
        "id" : 96,
        "desc" : "ENGINEER",
        "location" : {
          "id" : 3202,
          "name" : null,
          "latitude" : 43.769184,
          "longitude" : 3.9329896
        },
        "openings" : {
          "start" : [ 13, 43 ],
          "end" : [ 14, 25 ]
        },
        "preferredSlots" : null,
        "doAfter" : null,
        "nbEmpRequired" : 1,
        "deadline" : [ 12, 24 ],
        "skills" : [ {
          "id" : 1,
          "name" : "ENGINEER",
          "level" : 4
        } ],
        "duration" : 3600.000000000,
        "pause" : false
      },
      "window" : {
        "start" : [ 15, 21 ],
        "end" : [ 16, 21 ]
      }
    } ],
    "driving" : 6120.000000000,
    "valid" : true
  }, {
    "emp" : {
      "id" : 102,
      "name" : "102",
      "shifts" : [ {
        "start" : [ 9, 0 ],
        "end" : [ 12, 0 ]
      }, {
        "start" : [ 13, 0 ],
        "end" : [ 17, 0 ]
      } ],
      "prefSlots" : null,
      "startingLoc" : {
        "id" : 8042,
        "name" : null,
        "latitude" : 43.95036,
        "longitude" : 4.089051
      },
      "skills" : [ {
        "id" : 4,
        "name" : "MASONRY",
        "level" : 8
      }, {
        "id" : 4,
        "name" : "MASONRY",
        "level" : 2
      }, {
        "id" : 4,
        "name" : "MASONRY",
        "level" : 7
      } ]
    },
    "planning" : [ {
      "job" : {
        "id" : -1,
        "desc" : "Home",
        "location" : {
          "id" : 8042,
          "name" : null,
          "latitude" : 43.95036,
          "longitude" : 4.089051
        },
        "openings" : null,
        "preferredSlots" : null,
        "doAfter" : null,
        "nbEmpRequired" : 1,
        "deadline" : null,
        "skills" : [ ],
        "duration" : null,
        "pause" : true
      },
      "window" : {
        "start" : [ 9, 0 ],
        "end" : [ 9, 0 ]
      }
    }, {
      "job" : {
        "id" : 25,
        "desc" : "MASONRY",
        "location" : {
          "id" : 4298,
          "name" : null,
          "latitude" : 43.82366,
          "longitude" : 4.0697536
        },
        "openings" : {
          "start" : [ 10, 2 ],
          "end" : [ 10, 55 ]
        },
        "preferredSlots" : null,
        "doAfter" : null,
        "nbEmpRequired" : 1,
        "deadline" : [ 13, 16 ],
        "skills" : [ {
          "id" : 4,
          "name" : "MASONRY",
          "level" : 1
        } ],
        "duration" : 2700.000000000,
        "pause" : false
      },
      "window" : {
        "start" : [ 9, 15 ],
        "end" : [ 10, 0 ]
      }
    }, {
      "job" : {
        "id" : 723,
        "desc" : "MASONRY",
        "location" : {
          "id" : 3392,
          "name" : null,
          "latitude" : 43.679375,
          "longitude" : 3.9247136
        },
        "openings" : {
          "start" : [ 11, 44 ],
          "end" : [ 14, 0 ]
        },
        "preferredSlots" : null,
        "doAfter" : null,
        "nbEmpRequired" : 1,
        "deadline" : [ 15, 21 ],
        "skills" : [ {
          "id" : 4,
          "name" : "MASONRY",
          "level" : 4
        } ],
        "duration" : 3600.000000000,
        "pause" : false
      },
      "window" : {
        "start" : [ 10, 20 ],
        "end" : [ 11, 20 ]
      }
    }, {
      "job" : {
        "id" : -1,
        "desc" : "Pause",
        "location" : {
          "id" : 3392,
          "name" : null,
          "latitude" : 43.679375,
          "longitude" : 3.9247136
        },
        "openings" : {
          "start" : [ 11, 44 ],
          "end" : [ 14, 0 ]
        },
        "preferredSlots" : null,
        "doAfter" : null,
        "nbEmpRequired" : 1,
        "deadline" : [ 15, 21 ],
        "skills" : [ {
          "id" : 4,
          "name" : "MASONRY",
          "level" : 4
        } ],
        "duration" : 3600.000000000,
        "pause" : true
      },
      "window" : {
        "start" : [ 11, 21 ],
        "end" : [ 13, 0 ]
      }
    }, {
      "job" : {
        "id" : 368,
        "desc" : "MASONRY",
        "location" : {
          "id" : 5799,
          "name" : null,
          "latitude" : 43.540813,
          "longitude" : 3.7561803
        },
        "openings" : {
          "start" : [ 9, 3 ],
          "end" : [ 12, 47 ]
        },
        "preferredSlots" : null,
        "doAfter" : null,
        "nbEmpRequired" : 1,
        "deadline" : [ 15, 29 ],
        "skills" : [ {
          "id" : 4,
          "name" : "MASONRY",
          "level" : 3
        } ],
        "duration" : 2700.000000000,
        "pause" : false
      },
      "window" : {
        "start" : [ 13, 21 ],
        "end" : [ 14, 6 ]
      }
    }, {
      "job" : {
        "id" : 908,
        "desc" : "MASONRY",
        "location" : {
          "id" : 2214,
          "name" : null,
          "latitude" : 43.52117,
          "longitude" : 3.8258271
        },
        "openings" : {
          "start" : [ 9, 12 ],
          "end" : [ 10, 3 ]
        },
        "preferredSlots" : null,
        "doAfter" : null,
        "nbEmpRequired" : 1,
        "deadline" : [ 15, 52 ],
        "skills" : [ {
          "id" : 4,
          "name" : "MASONRY",
          "level" : 1
        } ],
        "duration" : 1800.000000000,
        "pause" : false
      },
      "window" : {
        "start" : [ 14, 13 ],
        "end" : [ 14, 43 ]
      }
    } ],
    "driving" : 3780.000000000,
    "valid" : true
  }, {
    "emp" : {
      "id" : 244,
      "name" : "244",
      "shifts" : [ {
        "start" : [ 9, 0 ],
        "end" : [ 12, 0 ]
      }, {
        "start" : [ 13, 0 ],
        "end" : [ 17, 0 ]
      } ],
      "prefSlots" : null,
      "startingLoc" : {
        "id" : 3371,
        "name" : null,
        "latitude" : 43.994553,
        "longitude" : 3.9204128
      },
      "skills" : [ {
        "id" : 1,
        "name" : "ENGINEER",
        "level" : 1
      }, {
        "id" : 5,
        "name" : "GLAZING",
        "level" : 1
      }, {
        "id" : 4,
        "name" : "MASONRY",
        "level" : 6
      }, {
        "id" : 0,
        "name" : "MANAGEMENT",
        "level" : 5
      } ]
    },
    "planning" : [ {
      "job" : {
        "id" : -1,
        "desc" : "Home",
        "location" : {
          "id" : 3371,
          "name" : null,
          "latitude" : 43.994553,
          "longitude" : 3.9204128
        },
        "openings" : null,
        "preferredSlots" : null,
        "doAfter" : null,
        "nbEmpRequired" : 1,
        "deadline" : null,
        "skills" : [ ],
        "duration" : null,
        "pause" : true
      },
      "window" : {
        "start" : [ 9, 0 ],
        "end" : [ 9, 0 ]
      }
    }, {
      "job" : {
        "id" : 646,
        "desc" : "MANAGEMENT, GLAZING",
        "location" : {
          "id" : 4949,
          "name" : null,
          "latitude" : 43.868767,
          "longitude" : 3.9337482
        },
        "openings" : {
          "start" : [ 10, 58 ],
          "end" : [ 17, 58 ]
        },
        "preferredSlots" : null,
        "doAfter" : null,
        "nbEmpRequired" : 1,
        "deadline" : [ 10, 39 ],
        "skills" : [ {
          "id" : 0,
          "name" : "MANAGEMENT",
          "level" : 5
        }, {
          "id" : 5,
          "name" : "GLAZING",
          "level" : 1
        } ],
        "duration" : 1800.000000000,
        "pause" : false
      },
      "window" : {
        "start" : [ 9, 15 ],
        "end" : [ 9, 45 ]
      }
    }, {
      "job" : {
        "id" : 375,
        "desc" : "MANAGEMENT",
        "location" : {
          "id" : 1001,
          "name" : null,
          "latitude" : 43.653404,
          "longitude" : 4.0506396
        },
        "openings" : {
          "start" : [ 9, 20 ],
          "end" : [ 13, 24 ]
        },
        "preferredSlots" : null,
        "doAfter" : null,
        "nbEmpRequired" : 1,
        "deadline" : [ 11, 16 ],
        "skills" : [ {
          "id" : 0,
          "name" : "MANAGEMENT",
          "level" : 2
        } ],
        "duration" : 5400.000000000,
        "pause" : false
      },
      "window" : {
        "start" : [ 10, 11 ],
        "end" : [ 11, 41 ]
      }
    }, {
      "job" : {
        "id" : -1,
        "desc" : "Pause",
        "location" : {
          "id" : 1001,
          "name" : null,
          "latitude" : 43.653404,
          "longitude" : 4.0506396
        },
        "openings" : {
          "start" : [ 9, 20 ],
          "end" : [ 13, 24 ]
        },
        "preferredSlots" : null,
        "doAfter" : null,
        "nbEmpRequired" : 1,
        "deadline" : [ 11, 16 ],
        "skills" : [ {
          "id" : 0,
          "name" : "MANAGEMENT",
          "level" : 2
        } ],
        "duration" : 5400.000000000,
        "pause" : true
      },
      "window" : {
        "start" : [ 11, 42 ],
        "end" : [ 13, 0 ]
      }
    }, {
      "job" : {
        "id" : 907,
        "desc" : "MANAGEMENT",
        "location" : {
          "id" : 4649,
          "name" : null,
          "latitude" : 43.83302,
          "longitude" : 3.9894829
        },
        "openings" : {
          "start" : [ 12, 21 ],
          "end" : [ 14, 33 ]
        },
        "preferredSlots" : null,
        "doAfter" : null,
        "nbEmpRequired" : 1,
        "deadline" : [ 12, 26 ],
        "skills" : [ {
          "id" : 0,
          "name" : "MANAGEMENT",
          "level" : 5
        } ],
        "duration" : 7200.000000000,
        "pause" : false
      },
      "window" : {
        "start" : [ 13, 21 ],
        "end" : [ 15, 21 ]
      }
    }, {
      "job" : {
        "id" : 593,
        "desc" : "MANAGEMENT",
        "location" : {
          "id" : 5144,
          "name" : null,
          "latitude" : 44.011543,
          "longitude" : 3.7125142
        },
        "openings" : {
          "start" : [ 14, 8 ],
          "end" : [ 17, 5 ]
        },
        "preferredSlots" : null,
        "doAfter" : null,
        "nbEmpRequired" : 1,
        "deadline" : [ 15, 9 ],
        "skills" : [ {
          "id" : 0,
          "name" : "MANAGEMENT",
          "level" : 3
        } ],
        "duration" : 3600.000000000,
        "pause" : false
      },
      "window" : {
        "start" : [ 15, 51 ],
        "end" : [ 16, 51 ]
      }
    } ],
    "driving" : 5520.000000000,
    "valid" : true
  }, {
    "emp" : {
      "id" : 527,
      "name" : "527",
      "shifts" : [ {
        "start" : [ 9, 0 ],
        "end" : [ 12, 0 ]
      }, {
        "start" : [ 13, 0 ],
        "end" : [ 17, 0 ]
      } ],
      "prefSlots" : null,
      "startingLoc" : {
        "id" : 2868,
        "name" : null,
        "latitude" : 43.95649,
        "longitude" : 3.958158
      },
      "skills" : [ {
        "id" : 4,
        "name" : "MASONRY",
        "level" : 4
      }, {
        "id" : 1,
        "name" : "ENGINEER",
        "level" : 6
      }, {
        "id" : 3,
        "name" : "PLUMBING",
        "level" : 1
      }, {
        "id" : 5,
        "name" : "GLAZING",
        "level" : 8
      }, {
        "id" : 6,
        "name" : "CARPENTRY",
        "level" : 4
      }, {
        "id" : 9,
        "name" : "TILER",
        "level" : 5
      }, {
        "id" : 0,
        "name" : "MANAGEMENT",
        "level" : 2
      }, {
        "id" : 2,
        "name" : "ELECTRICIAN",
        "level" : 7
      }, {
        "id" : 1,
        "name" : "ENGINEER",
        "level" : 5
      } ]
    },
    "planning" : [ {
      "job" : {
        "id" : -1,
        "desc" : "Home",
        "location" : {
          "id" : 2868,
          "name" : null,
          "latitude" : 43.95649,
          "longitude" : 3.958158
        },
        "openings" : null,
        "preferredSlots" : null,
        "doAfter" : null,
        "nbEmpRequired" : 1,
        "deadline" : null,
        "skills" : [ ],
        "duration" : null,
        "pause" : true
      },
      "window" : {
        "start" : [ 9, 0 ],
        "end" : [ 9, 0 ]
      }
    }, {
      "job" : {
        "id" : 168,
        "desc" : "ELECTRICIAN",
        "location" : {
          "id" : 8467,
          "name" : null,
          "latitude" : 44.06413,
          "longitude" : 4.093792
        },
        "openings" : {
          "start" : [ 11, 16 ],
          "end" : [ 12, 13 ]
        },
        "preferredSlots" : null,
        "doAfter" : null,
        "nbEmpRequired" : 1,
        "deadline" : [ 12, 10 ],
        "skills" : [ {
          "id" : 2,
          "name" : "ELECTRICIAN",
          "level" : 4
        } ],
        "duration" : 2700.000000000,
        "pause" : false
      },
      "window" : {
        "start" : [ 9, 17 ],
        "end" : [ 10, 2 ]
      }
    }, {
      "job" : {
        "id" : 425,
        "desc" : "MASONRY, ELECTRICIAN",
        "location" : {
          "id" : 4531,
          "name" : null,
          "latitude" : 43.554665,
          "longitude" : 3.7088094
        },
        "openings" : {
          "start" : [ 16, 15 ],
          "end" : [ 17, 33 ]
        },
        "preferredSlots" : null,
        "doAfter" : null,
        "nbEmpRequired" : 1,
        "deadline" : [ 12, 22 ],
        "skills" : [ {
          "id" : 4,
          "name" : "MASONRY",
          "level" : 4
        }, {
          "id" : 2,
          "name" : "ELECTRICIAN",
          "level" : 3
        } ],
        "duration" : 1800.000000000,
        "pause" : false
      },
      "window" : {
        "start" : [ 11, 7 ],
        "end" : [ 11, 37 ]
      }
    }, {
      "job" : {
        "id" : -1,
        "desc" : "Pause",
        "location" : {
          "id" : 4531,
          "name" : null,
          "latitude" : 43.554665,
          "longitude" : 3.7088094
        },
        "openings" : {
          "start" : [ 16, 15 ],
          "end" : [ 17, 33 ]
        },
        "preferredSlots" : null,
        "doAfter" : null,
        "nbEmpRequired" : 1,
        "deadline" : [ 12, 22 ],
        "skills" : [ {
          "id" : 4,
          "name" : "MASONRY",
          "level" : 4
        }, {
          "id" : 2,
          "name" : "ELECTRICIAN",
          "level" : 3
        } ],
        "duration" : 1800.000000000,
        "pause" : true
      },
      "window" : {
        "start" : [ 11, 38 ],
        "end" : [ 13, 0 ]
      }
    }, {
      "job" : {
        "id" : 97,
        "desc" : "CARPENTRY",
        "location" : {
          "id" : 9645,
          "name" : null,
          "latitude" : 43.67398,
          "longitude" : 3.861013
        },
        "openings" : {
          "start" : [ 9, 51 ],
          "end" : [ 10, 21 ]
        },
        "preferredSlots" : null,
        "doAfter" : null,
        "nbEmpRequired" : 1,
        "deadline" : [ 12, 23 ],
        "skills" : [ {
          "id" : 6,
          "name" : "CARPENTRY",
          "level" : 2
        } ],
        "duration" : 5400.000000000,
        "pause" : false
      },
      "window" : {
        "start" : [ 13, 19 ],
        "end" : [ 14, 49 ]
      }
    }, {
      "job" : {
        "id" : 51,
        "desc" : "GLAZING",
        "location" : {
          "id" : 4100,
          "name" : null,
          "latitude" : 43.723946,
          "longitude" : 4.135607
        },
        "openings" : {
          "start" : [ 10, 30 ],
          "end" : [ 16, 32 ]
        },
        "preferredSlots" : null,
        "doAfter" : null,
        "nbEmpRequired" : 1,
        "deadline" : [ 12, 28 ],
        "skills" : [ {
          "id" : 5,
          "name" : "GLAZING",
          "level" : 3
        } ],
        "duration" : 2700.000000000,
        "pause" : false
      },
      "window" : {
        "start" : [ 15, 12 ],
        "end" : [ 15, 57 ]
      }
    }, {
      "job" : {
        "id" : 874,
        "desc" : "MASONRY, CARPENTRY",
        "location" : {
          "id" : 3490,
          "name" : null,
          "latitude" : 43.87856,
          "longitude" : 4.166844
        },
        "openings" : {
          "start" : [ 11, 6 ],
          "end" : [ 13, 26 ]
        },
        "preferredSlots" : null,
        "doAfter" : null,
        "nbEmpRequired" : 1,
        "deadline" : [ 14, 2 ],
        "skills" : [ {
          "id" : 4,
          "name" : "MASONRY",
          "level" : 2
        }, {
          "id" : 6,
          "name" : "CARPENTRY",
          "level" : 1
        } ],
        "duration" : 1800.000000000,
        "pause" : false
      },
      "window" : {
        "start" : [ 16, 15 ],
        "end" : [ 16, 45 ]
      }
    } ],
    "driving" : 8520.000000000,
    "valid" : true
  } ],
  "unassigned" : [ {
    "id" : 628,
    "desc" : "PLUMBING, GLAZING",
    "location" : {
      "id" : 7660,
      "name" : null,
      "latitude" : 43.53939,
      "longitude" : 4.2291646
    },
    "openings" : {
      "start" : [ 11, 14 ],
      "end" : [ 15, 43 ]
    },
    "preferredSlots" : null,
    "doAfter" : null,
    "nbEmpRequired" : 1,
    "deadline" : [ 9, 18 ],
    "skills" : [ {
      "id" : 3,
      "name" : "PLUMBING",
      "level" : 4
    }, {
      "id" : 5,
      "name" : "GLAZING",
      "level" : 5
    } ],
    "duration" : 1800.000000000,
    "pause" : false
  }, {
    "id" : 217,
    "desc" : "ENGINEER, MANAGEMENT",
    "location" : {
      "id" : 6539,
      "name" : null,
      "latitude" : 43.67647,
      "longitude" : 4.0781927
    },
    "openings" : {
      "start" : [ 13, 0 ],
      "end" : [ 16, 43 ]
    },
    "preferredSlots" : null,
    "doAfter" : null,
    "nbEmpRequired" : 1,
    "deadline" : [ 10, 9 ],
    "skills" : [ {
      "id" : 1,
      "name" : "ENGINEER",
      "level" : 5
    }, {
      "id" : 0,
      "name" : "MANAGEMENT",
      "level" : 5
    } ],
    "duration" : 3600.000000000,
    "pause" : false
  }, {
    "id" : 871,
    "desc" : "MASONRY, ELECTRICIAN",
    "location" : {
      "id" : 4182,
      "name" : null,
      "latitude" : 43.50703,
      "longitude" : 3.7023952
    },
    "openings" : {
      "start" : [ 9, 45 ],
      "end" : [ 16, 46 ]
    },
    "preferredSlots" : null,
    "doAfter" : null,
    "nbEmpRequired" : 1,
    "deadline" : [ 10, 19 ],
    "skills" : [ {
      "id" : 4,
      "name" : "MASONRY",
      "level" : 5
    }, {
      "id" : 2,
      "name" : "ELECTRICIAN",
      "level" : 4
    } ],
    "duration" : 7200.000000000,
    "pause" : false
  }, {
    "id" : 428,
    "desc" : "IRONWORK, GLAZING",
    "location" : {
      "id" : 2541,
      "name" : null,
      "latitude" : 43.731724,
      "longitude" : 3.9713898
    },
    "openings" : {
      "start" : [ 9, 45 ],
      "end" : [ 12, 33 ]
    },
    "preferredSlots" : null,
    "doAfter" : null,
    "nbEmpRequired" : 1,
    "deadline" : [ 10, 29 ],
    "skills" : [ {
      "id" : 8,
      "name" : "IRONWORK",
      "level" : 2
    }, {
      "id" : 5,
      "name" : "GLAZING",
      "level" : 1
    } ],
    "duration" : 5400.000000000,
    "pause" : false
  }, {
    "id" : 204,
    "desc" : "CARPENTRY, PLUMBING",
    "location" : {
      "id" : 9385,
      "name" : null,
      "latitude" : 43.538414,
      "longitude" : 3.756417
    },
    "openings" : {
      "start" : [ 9, 12 ],
      "end" : [ 11, 36 ]
    },
    "preferredSlots" : null,
    "doAfter" : null,
    "nbEmpRequired" : 1,
    "deadline" : [ 10, 32 ],
    "skills" : [ {
      "id" : 6,
      "name" : "CARPENTRY",
      "level" : 2
    }, {
      "id" : 3,
      "name" : "PLUMBING",
      "level" : 4
    } ],
    "duration" : 1800.000000000,
    "pause" : false
  }, {
    "id" : 67,
    "desc" : "GLAZING, MANAGEMENT",
    "location" : {
      "id" : 8381,
      "name" : null,
      "latitude" : 43.791885,
      "longitude" : 3.7515063
    },
    "openings" : {
      "start" : [ 9, 4 ],
      "end" : [ 14, 20 ]
    },
    "preferredSlots" : null,
    "doAfter" : null,
    "nbEmpRequired" : 1,
    "deadline" : [ 10, 49 ],
    "skills" : [ {
      "id" : 5,
      "name" : "GLAZING",
      "level" : 2
    }, {
      "id" : 0,
      "name" : "MANAGEMENT",
      "level" : 5
    } ],
    "duration" : 1800.000000000,
    "pause" : false
  }, {
    "id" : 595,
    "desc" : "CARPENTRY, IRONWORK",
    "location" : {
      "id" : 9146,
      "name" : null,
      "latitude" : 43.778122,
      "longitude" : 4.226922
    },
    "openings" : {
      "start" : [ 15, 24 ],
      "end" : [ 17, 12 ]
    },
    "preferredSlots" : null,
    "doAfter" : null,
    "nbEmpRequired" : 1,
    "deadline" : [ 11, 14 ],
    "skills" : [ {
      "id" : 6,
      "name" : "CARPENTRY",
      "level" : 3
    }, {
      "id" : 8,
      "name" : "IRONWORK",
      "level" : 1
    } ],
    "duration" : 2700.000000000,
    "pause" : false
  }, {
    "id" : 643,
    "desc" : "MASONRY, IRONWORK",
    "location" : {
      "id" : 6522,
      "name" : null,
      "latitude" : 44.03572,
      "longitude" : 3.7044697
    },
    "openings" : {
      "start" : [ 10, 46 ],
      "end" : [ 17, 34 ]
    },
    "preferredSlots" : null,
    "doAfter" : null,
    "nbEmpRequired" : 1,
    "deadline" : [ 11, 35 ],
    "skills" : [ {
      "id" : 4,
      "name" : "MASONRY",
      "level" : 3
    }, {
      "id" : 8,
      "name" : "IRONWORK",
      "level" : 3
    } ],
    "duration" : 3600.000000000,
    "pause" : false
  }, {
    "id" : 371,
    "desc" : "MASONRY, IRONWORK",
    "location" : {
      "id" : 7834,
      "name" : null,
      "latitude" : 43.873337,
      "longitude" : 3.929451
    },
    "openings" : {
      "start" : [ 12, 18 ],
      "end" : [ 16, 19 ]
    },
    "preferredSlots" : null,
    "doAfter" : null,
    "nbEmpRequired" : 1,
    "deadline" : [ 11, 45 ],
    "skills" : [ {
      "id" : 4,
      "name" : "MASONRY",
      "level" : 5
    }, {
      "id" : 8,
      "name" : "IRONWORK",
      "level" : 1
    } ],
    "duration" : 3600.000000000,
    "pause" : false
  }, {
    "id" : 378,
    "desc" : "PLUMBING",
    "location" : {
      "id" : 4359,
      "name" : null,
      "latitude" : 43.74891,
      "longitude" : 3.8254046
    },
    "openings" : {
      "start" : [ 9, 34 ],
      "end" : [ 16, 13 ]
    },
    "preferredSlots" : null,
    "doAfter" : null,
    "nbEmpRequired" : 1,
    "deadline" : [ 11, 47 ],
    "skills" : [ {
      "id" : 3,
      "name" : "PLUMBING",
      "level" : 5
    } ],
    "duration" : 1800.000000000,
    "pause" : false
  }, {
    "id" : 935,
    "desc" : "CARPENTRY, PLUMBING",
    "location" : {
      "id" : 6405,
      "name" : null,
      "latitude" : 43.918003,
      "longitude" : 3.7339458
    },
    "openings" : {
      "start" : [ 11, 48 ],
      "end" : [ 17, 12 ]
    },
    "preferredSlots" : null,
    "doAfter" : null,
    "nbEmpRequired" : 1,
    "deadline" : [ 12, 1 ],
    "skills" : [ {
      "id" : 6,
      "name" : "CARPENTRY",
      "level" : 2
    }, {
      "id" : 3,
      "name" : "PLUMBING",
      "level" : 2
    } ],
    "duration" : 3600.000000000,
    "pause" : false
  }, {
    "id" : 138,
    "desc" : "PAINTING",
    "location" : {
      "id" : 5822,
      "name" : null,
      "latitude" : 43.80007,
      "longitude" : 4.154848
    },
    "openings" : {
      "start" : [ 12, 34 ],
      "end" : [ 14, 2 ]
    },
    "preferredSlots" : null,
    "doAfter" : null,
    "nbEmpRequired" : 1,
    "deadline" : [ 12, 21 ],
    "skills" : [ {
      "id" : 7,
      "name" : "PAINTING",
      "level" : 2
    } ],
    "duration" : 5400.000000000,
    "pause" : false
  }, {
    "id" : 790,
    "desc" : "MASONRY, TILER",
    "location" : {
      "id" : 6872,
      "name" : null,
      "latitude" : 43.44564,
      "longitude" : 4.027006
    },
    "openings" : {
      "start" : [ 9, 40 ],
      "end" : [ 15, 7 ]
    },
    "preferredSlots" : null,
    "doAfter" : null,
    "nbEmpRequired" : 1,
    "deadline" : [ 12, 45 ],
    "skills" : [ {
      "id" : 4,
      "name" : "MASONRY",
      "level" : 4
    }, {
      "id" : 9,
      "name" : "TILER",
      "level" : 4
    } ],
    "duration" : 2700.000000000,
    "pause" : false
  }, {
    "id" : 209,
    "desc" : "ENGINEER",
    "location" : {
      "id" : 8238,
      "name" : null,
      "latitude" : 43.516685,
      "longitude" : 4.0301867
    },
    "openings" : {
      "start" : [ 12, 21 ],
      "end" : [ 12, 48 ]
    },
    "preferredSlots" : null,
    "doAfter" : null,
    "nbEmpRequired" : 1,
    "deadline" : [ 12, 46 ],
    "skills" : [ {
      "id" : 1,
      "name" : "ENGINEER",
      "level" : 2
    } ],
    "duration" : 2700.000000000,
    "pause" : false
  }, {
    "id" : 256,
    "desc" : "ELECTRICIAN, GLAZING",
    "location" : {
      "id" : 8380,
      "name" : null,
      "latitude" : 43.676384,
      "longitude" : 4.1353426
    },
    "openings" : {
      "start" : [ 9, 17 ],
      "end" : [ 9, 50 ]
    },
    "preferredSlots" : null,
    "doAfter" : null,
    "nbEmpRequired" : 1,
    "deadline" : [ 12, 50 ],
    "skills" : [ {
      "id" : 2,
      "name" : "ELECTRICIAN",
      "level" : 2
    }, {
      "id" : 5,
      "name" : "GLAZING",
      "level" : 1
    } ],
    "duration" : 3600.000000000,
    "pause" : false
  }, {
    "id" : 503,
    "desc" : "IRONWORK, PAINTING",
    "location" : {
      "id" : 3755,
      "name" : null,
      "latitude" : 43.639294,
      "longitude" : 3.8212895
    },
    "openings" : {
      "start" : [ 10, 4 ],
      "end" : [ 11, 12 ]
    },
    "preferredSlots" : null,
    "doAfter" : null,
    "nbEmpRequired" : 1,
    "deadline" : [ 12, 58 ],
    "skills" : [ {
      "id" : 8,
      "name" : "IRONWORK",
      "level" : 3
    }, {
      "id" : 7,
      "name" : "PAINTING",
      "level" : 2
    } ],
    "duration" : 1800.000000000,
    "pause" : false
  }, {
    "id" : 150,
    "desc" : "ELECTRICIAN",
    "location" : {
      "id" : 1213,
      "name" : null,
      "latitude" : 43.534462,
      "longitude" : 3.8429837
    },
    "openings" : {
      "start" : [ 9, 38 ],
      "end" : [ 16, 49 ]
    },
    "preferredSlots" : null,
    "doAfter" : null,
    "nbEmpRequired" : 1,
    "deadline" : [ 13, 21 ],
    "skills" : [ {
      "id" : 2,
      "name" : "ELECTRICIAN",
      "level" : 3
    } ],
    "duration" : 3600.000000000,
    "pause" : false
  }, {
    "id" : 98,
    "desc" : "PAINTING, MASONRY",
    "location" : {
      "id" : 7258,
      "name" : null,
      "latitude" : 43.58216,
      "longitude" : 4.0621076
    },
    "openings" : {
      "start" : [ 10, 19 ],
      "end" : [ 14, 56 ]
    },
    "preferredSlots" : null,
    "doAfter" : null,
    "nbEmpRequired" : 1,
    "deadline" : [ 13, 31 ],
    "skills" : [ {
      "id" : 7,
      "name" : "PAINTING",
      "level" : 3
    }, {
      "id" : 4,
      "name" : "MASONRY",
      "level" : 1
    } ],
    "duration" : 3600.000000000,
    "pause" : false
  }, {
    "id" : 648,
    "desc" : "ELECTRICIAN, MASONRY",
    "location" : {
      "id" : 6321,
      "name" : null,
      "latitude" : 44.04694,
      "longitude" : 3.7905018
    },
    "openings" : {
      "start" : [ 13, 26 ],
      "end" : [ 15, 21 ]
    },
    "preferredSlots" : null,
    "doAfter" : null,
    "nbEmpRequired" : 1,
    "deadline" : [ 13, 40 ],
    "skills" : [ {
      "id" : 2,
      "name" : "ELECTRICIAN",
      "level" : 4
    }, {
      "id" : 4,
      "name" : "MASONRY",
      "level" : 5
    } ],
    "duration" : 3600.000000000,
    "pause" : false
  }, {
    "id" : 850,
    "desc" : "PAINTING",
    "location" : {
      "id" : 6283,
      "name" : null,
      "latitude" : 43.96219,
      "longitude" : 3.730873
    },
    "openings" : {
      "start" : [ 12, 23 ],
      "end" : [ 13, 32 ]
    },
    "preferredSlots" : null,
    "doAfter" : null,
    "nbEmpRequired" : 1,
    "deadline" : [ 13, 49 ],
    "skills" : [ {
      "id" : 7,
      "name" : "PAINTING",
      "level" : 5
    } ],
    "duration" : 7200.000000000,
    "pause" : false
  }, {
    "id" : 407,
    "desc" : "TILER",
    "location" : {
      "id" : 4557,
      "name" : null,
      "latitude" : 44.08217,
      "longitude" : 3.8208458
    },
    "openings" : {
      "start" : [ 11, 5 ],
      "end" : [ 13, 20 ]
    },
    "preferredSlots" : null,
    "doAfter" : null,
    "nbEmpRequired" : 1,
    "deadline" : [ 13, 54 ],
    "skills" : [ {
      "id" : 9,
      "name" : "TILER",
      "level" : 5
    } ],
    "duration" : 2700.000000000,
    "pause" : false
  }, {
    "id" : 231,
    "desc" : "PLUMBING, GLAZING",
    "location" : {
      "id" : 7473,
      "name" : null,
      "latitude" : 43.990803,
      "longitude" : 4.275956
    },
    "openings" : {
      "start" : [ 10, 28 ],
      "end" : [ 15, 15 ]
    },
    "preferredSlots" : null,
    "doAfter" : null,
    "nbEmpRequired" : 1,
    "deadline" : [ 14, 0 ],
    "skills" : [ {
      "id" : 3,
      "name" : "PLUMBING",
      "level" : 3
    }, {
      "id" : 5,
      "name" : "GLAZING",
      "level" : 1
    } ],
    "duration" : 3600.000000000,
    "pause" : false
  }, {
    "id" : 516,
    "desc" : "PLUMBING, PAINTING",
    "location" : {
      "id" : 9935,
      "name" : null,
      "latitude" : 43.63031,
      "longitude" : 4.09947
    },
    "openings" : {
      "start" : [ 10, 7 ],
      "end" : [ 12, 39 ]
    },
    "preferredSlots" : null,
    "doAfter" : null,
    "nbEmpRequired" : 1,
    "deadline" : [ 14, 20 ],
    "skills" : [ {
      "id" : 3,
      "name" : "PLUMBING",
      "level" : 1
    }, {
      "id" : 7,
      "name" : "PAINTING",
      "level" : 2
    } ],
    "duration" : 5400.000000000,
    "pause" : false
  }, {
    "id" : 167,
    "desc" : "ENGINEER, MASONRY",
    "location" : {
      "id" : 7635,
      "name" : null,
      "latitude" : 43.521248,
      "longitude" : 3.8443856
    },
    "openings" : {
      "start" : [ 11, 20 ],
      "end" : [ 13, 4 ]
    },
    "preferredSlots" : null,
    "doAfter" : null,
    "nbEmpRequired" : 1,
    "deadline" : [ 14, 49 ],
    "skills" : [ {
      "id" : 1,
      "name" : "ENGINEER",
      "level" : 2
    }, {
      "id" : 4,
      "name" : "MASONRY",
      "level" : 1
    } ],
    "duration" : 2700.000000000,
    "pause" : false
  }, {
    "id" : 924,
    "desc" : "PLUMBING",
    "location" : {
      "id" : 6910,
      "name" : null,
      "latitude" : 43.54749,
      "longitude" : 3.8277836
    },
    "openings" : {
      "start" : [ 10, 14 ],
      "end" : [ 16, 59 ]
    },
    "preferredSlots" : null,
    "doAfter" : null,
    "nbEmpRequired" : 1,
    "deadline" : [ 14, 55 ],
    "skills" : [ {
      "id" : 3,
      "name" : "PLUMBING",
      "level" : 5
    } ],
    "duration" : 1800.000000000,
    "pause" : false
  }, {
    "id" : 915,
    "desc" : "TILER, ELECTRICIAN",
    "location" : {
      "id" : 992,
      "name" : null,
      "latitude" : 43.42735,
      "longitude" : 4.214657
    },
    "openings" : {
      "start" : [ 12, 5 ],
      "end" : [ 16, 39 ]
    },
    "preferredSlots" : null,
    "doAfter" : null,
    "nbEmpRequired" : 1,
    "deadline" : [ 15, 3 ],
    "skills" : [ {
      "id" : 9,
      "name" : "TILER",
      "level" : 1
    }, {
      "id" : 2,
      "name" : "ELECTRICIAN",
      "level" : 2
    } ],
    "duration" : 2700.000000000,
    "pause" : false
  }, {
    "id" : 642,
    "desc" : "ELECTRICIAN",
    "location" : {
      "id" : 5278,
      "name" : null,
      "latitude" : 43.9423,
      "longitude" : 4.198882
    },
    "openings" : {
      "start" : [ 15, 2 ],
      "end" : [ 15, 55 ]
    },
    "preferredSlots" : null,
    "doAfter" : null,
    "nbEmpRequired" : 1,
    "deadline" : [ 15, 3 ],
    "skills" : [ {
      "id" : 2,
      "name" : "ELECTRICIAN",
      "level" : 3
    } ],
    "duration" : 3600.000000000,
    "pause" : false
  }, {
    "id" : 498,
    "desc" : "TILER",
    "location" : {
      "id" : 4776,
      "name" : null,
      "latitude" : 43.507828,
      "longitude" : 3.814073
    },
    "openings" : {
      "start" : [ 16, 42 ],
      "end" : [ 17, 50 ]
    },
    "preferredSlots" : null,
    "doAfter" : null,
    "nbEmpRequired" : 1,
    "deadline" : [ 15, 6 ],
    "skills" : [ {
      "id" : 9,
      "name" : "TILER",
      "level" : 4
    } ],
    "duration" : 3600.000000000,
    "pause" : false
  }, {
    "id" : 908,
    "desc" : "ELECTRICIAN",
    "location" : {
      "id" : 3592,
      "name" : null,
      "latitude" : 43.702274,
      "longitude" : 4.1070127
    },
    "openings" : {
      "start" : [ 13, 53 ],
      "end" : [ 15, 30 ]
    },
    "preferredSlots" : null,
    "doAfter" : null,
    "nbEmpRequired" : 1,
    "deadline" : [ 15, 20 ],
    "skills" : [ {
      "id" : 2,
      "name" : "ELECTRICIAN",
      "level" : 1
    } ],
    "duration" : 2700.000000000,
    "pause" : false
  }, {
    "id" : 754,
    "desc" : "ENGINEER, CARPENTRY",
    "location" : {
      "id" : 2907,
      "name" : null,
      "latitude" : 43.64057,
      "longitude" : 3.7961318
    },
    "openings" : {
      "start" : [ 13, 33 ],
      "end" : [ 17, 11 ]
    },
    "preferredSlots" : null,
    "doAfter" : null,
    "nbEmpRequired" : 1,
    "deadline" : [ 15, 23 ],
    "skills" : [ {
      "id" : 1,
      "name" : "ENGINEER",
      "level" : 3
    }, {
      "id" : 6,
      "name" : "CARPENTRY",
      "level" : 5
    } ],
    "duration" : 3600.000000000,
    "pause" : false
  }, {
    "id" : 694,
    "desc" : "IRONWORK",
    "location" : {
      "id" : 5344,
      "name" : null,
      "latitude" : 44.03299,
      "longitude" : 4.137269
    },
    "openings" : {
      "start" : [ 12, 21 ],
      "end" : [ 13, 59 ]
    },
    "preferredSlots" : null,
    "doAfter" : null,
    "nbEmpRequired" : 1,
    "deadline" : [ 15, 30 ],
    "skills" : [ {
      "id" : 8,
      "name" : "IRONWORK",
      "level" : 4
    } ],
    "duration" : 3600.000000000,
    "pause" : false
  }, {
    "id" : 695,
    "desc" : "PLUMBING, MASONRY",
    "location" : {
      "id" : 6457,
      "name" : null,
      "latitude" : 43.842728,
      "longitude" : 4.184863
    },
    "openings" : {
      "start" : [ 9, 11 ],
      "end" : [ 14, 25 ]
    },
    "preferredSlots" : null,
    "doAfter" : null,
    "nbEmpRequired" : 1,
    "deadline" : [ 15, 31 ],
    "skills" : [ {
      "id" : 3,
      "name" : "PLUMBING",
      "level" : 1
    }, {
      "id" : 4,
      "name" : "MASONRY",
      "level" : 2
    } ],
    "duration" : 3600.000000000,
    "pause" : false
  }, {
    "id" : 526,
    "desc" : "PLUMBING, IRONWORK",
    "location" : {
      "id" : 7256,
      "name" : null,
      "latitude" : 44.026264,
      "longitude" : 4.2173676
    },
    "openings" : {
      "start" : [ 12, 33 ],
      "end" : [ 13, 3 ]
    },
    "preferredSlots" : null,
    "doAfter" : null,
    "nbEmpRequired" : 1,
    "deadline" : [ 15, 33 ],
    "skills" : [ {
      "id" : 3,
      "name" : "PLUMBING",
      "level" : 4
    }, {
      "id" : 8,
      "name" : "IRONWORK",
      "level" : 5
    } ],
    "duration" : 3600.000000000,
    "pause" : false
  }, {
    "id" : 153,
    "desc" : "IRONWORK, ELECTRICIAN",
    "location" : {
      "id" : 2949,
      "name" : null,
      "latitude" : 44.01419,
      "longitude" : 4.1789064
    },
    "openings" : {
      "start" : [ 11, 5 ],
      "end" : [ 11, 6 ]
    },
    "preferredSlots" : null,
    "doAfter" : null,
    "nbEmpRequired" : 1,
    "deadline" : [ 15, 44 ],
    "skills" : [ {
      "id" : 8,
      "name" : "IRONWORK",
      "level" : 4
    }, {
      "id" : 2,
      "name" : "ELECTRICIAN",
      "level" : 5
    } ],
    "duration" : 3600.000000000,
    "pause" : false
  }, {
    "id" : 988,
    "desc" : "PAINTING, GLAZING",
    "location" : {
      "id" : 3525,
      "name" : null,
      "latitude" : 43.507027,
      "longitude" : 3.800483
    },
    "openings" : {
      "start" : [ 12, 33 ],
      "end" : [ 12, 56 ]
    },
    "preferredSlots" : null,
    "doAfter" : null,
    "nbEmpRequired" : 1,
    "deadline" : [ 16, 4 ],
    "skills" : [ {
      "id" : 7,
      "name" : "PAINTING",
      "level" : 2
    }, {
      "id" : 5,
      "name" : "GLAZING",
      "level" : 2
    } ],
    "duration" : 1800.000000000,
    "pause" : false
  }, {
    "id" : 403,
    "desc" : "PAINTING, TILER",
    "location" : {
      "id" : 3216,
      "name" : null,
      "latitude" : 43.94739,
      "longitude" : 3.9795208
    },
    "openings" : {
      "start" : [ 13, 6 ],
      "end" : [ 14, 50 ]
    },
    "preferredSlots" : null,
    "doAfter" : null,
    "nbEmpRequired" : 1,
    "deadline" : [ 16, 15 ],
    "skills" : [ {
      "id" : 7,
      "name" : "PAINTING",
      "level" : 4
    }, {
      "id" : 9,
      "name" : "TILER",
      "level" : 1
    } ],
    "duration" : 3600.000000000,
    "pause" : false
  }, {
    "id" : 121,
    "desc" : "PLUMBING, GLAZING",
    "location" : {
      "id" : 1165,
      "name" : null,
      "latitude" : 43.81228,
      "longitude" : 3.7077408
    },
    "openings" : {
      "start" : [ 14, 27 ],
      "end" : [ 16, 31 ]
    },
    "preferredSlots" : null,
    "doAfter" : null,
    "nbEmpRequired" : 1,
    "deadline" : [ 16, 18 ],
    "skills" : [ {
      "id" : 3,
      "name" : "PLUMBING",
      "level" : 1
    }, {
      "id" : 5,
      "name" : "GLAZING",
      "level" : 1
    } ],
    "duration" : 1800.000000000,
    "pause" : false
  }, {
    "id" : 595,
    "desc" : "TILER, MANAGEMENT",
    "location" : {
      "id" : 3676,
      "name" : null,
      "latitude" : 43.80841,
      "longitude" : 3.92592
    },
    "openings" : {
      "start" : [ 11, 20 ],
      "end" : [ 15, 52 ]
    },
    "preferredSlots" : null,
    "doAfter" : null,
    "nbEmpRequired" : 1,
    "deadline" : [ 16, 18 ],
    "skills" : [ {
      "id" : 9,
      "name" : "TILER",
      "level" : 4
    }, {
      "id" : 0,
      "name" : "MANAGEMENT",
      "level" : 4
    } ],
    "duration" : 1800.000000000,
    "pause" : false
  }, {
    "id" : 337,
    "desc" : "ENGINEER, TILER",
    "location" : {
      "id" : 3528,
      "name" : null,
      "latitude" : 44.07761,
      "longitude" : 3.9818797
    },
    "openings" : {
      "start" : [ 16, 12 ],
      "end" : [ 17, 9 ]
    },
    "preferredSlots" : null,
    "doAfter" : null,
    "nbEmpRequired" : 1,
    "deadline" : [ 16, 22 ],
    "skills" : [ {
      "id" : 1,
      "name" : "ENGINEER",
      "level" : 4
    }, {
      "id" : 9,
      "name" : "TILER",
      "level" : 1
    } ],
    "duration" : 1800.000000000,
    "pause" : false
  }, {
    "id" : 309,
    "desc" : "MANAGEMENT",
    "location" : {
      "id" : 5259,
      "name" : null,
      "latitude" : 44.001385,
      "longitude" : 3.9826539
    },
    "openings" : {
      "start" : [ 16, 32 ],
      "end" : [ 16, 55 ]
    },
    "preferredSlots" : null,
    "doAfter" : null,
    "nbEmpRequired" : 1,
    "deadline" : [ 16, 28 ],
    "skills" : [ {
      "id" : 0,
      "name" : "MANAGEMENT",
      "level" : 2
    } ],
    "duration" : 1800.000000000,
    "pause" : false
  }, {
    "id" : 271,
    "desc" : "TILER, ELECTRICIAN",
    "location" : {
      "id" : 7952,
      "name" : null,
      "latitude" : 43.795937,
      "longitude" : 4.058314
    },
    "openings" : {
      "start" : [ 13, 30 ],
      "end" : [ 14, 18 ]
    },
    "preferredSlots" : null,
    "doAfter" : null,
    "nbEmpRequired" : 1,
    "deadline" : [ 16, 30 ],
    "skills" : [ {
      "id" : 9,
      "name" : "TILER",
      "level" : 4
    }, {
      "id" : 2,
      "name" : "ELECTRICIAN",
      "level" : 1
    } ],
    "duration" : 1800.000000000,
    "pause" : false
  }, {
    "id" : 748,
    "desc" : "CARPENTRY, ENGINEER",
    "location" : {
      "id" : 9280,
      "name" : null,
      "latitude" : 43.852592,
      "longitude" : 4.199904
    },
    "openings" : {
      "start" : [ 15, 16 ],
      "end" : [ 17, 7 ]
    },
    "preferredSlots" : null,
    "doAfter" : null,
    "nbEmpRequired" : 1,
    "deadline" : [ 16, 39 ],
    "skills" : [ {
      "id" : 6,
      "name" : "CARPENTRY",
      "level" : 5
    }, {
      "id" : 1,
      "name" : "ENGINEER",
      "level" : 3
    } ],
    "duration" : 3600.000000000,
    "pause" : false
  }, {
    "id" : 159,
    "desc" : "CARPENTRY, MASONRY",
    "location" : {
      "id" : 2128,
      "name" : null,
      "latitude" : 43.838974,
      "longitude" : 3.87485
    },
    "openings" : {
      "start" : [ 11, 25 ],
      "end" : [ 14, 3 ]
    },
    "preferredSlots" : null,
    "doAfter" : null,
    "nbEmpRequired" : 1,
    "deadline" : [ 16, 40 ],
    "skills" : [ {
      "id" : 6,
      "name" : "CARPENTRY",
      "level" : 5
    }, {
      "id" : 4,
      "name" : "MASONRY",
      "level" : 1
    } ],
    "duration" : 2700.000000000,
    "pause" : false
  }, {
    "id" : 609,
    "desc" : "MANAGEMENT",
    "location" : {
      "id" : 2893,
      "name" : null,
      "latitude" : 44.05977,
      "longitude" : 4.0258408
    },
    "openings" : {
      "start" : [ 11, 36 ],
      "end" : [ 12, 4 ]
    },
    "preferredSlots" : null,
    "doAfter" : null,
    "nbEmpRequired" : 1,
    "deadline" : [ 16, 40 ],
    "skills" : [ {
      "id" : 0,
      "name" : "MANAGEMENT",
      "level" : 5
    } ],
    "duration" : 1800.000000000,
    "pause" : false
  }, {
    "id" : 943,
    "desc" : "TILER, GLAZING",
    "location" : {
      "id" : 3039,
      "name" : null,
      "latitude" : 43.791557,
      "longitude" : 4.016654
    },
    "openings" : {
      "start" : [ 12, 30 ],
      "end" : [ 12, 46 ]
    },
    "preferredSlots" : null,
    "doAfter" : null,
    "nbEmpRequired" : 1,
    "deadline" : [ 16, 41 ],
    "skills" : [ {
      "id" : 9,
      "name" : "TILER",
      "level" : 3
    }, {
      "id" : 5,
      "name" : "GLAZING",
      "level" : 2
    } ],
    "duration" : 3600.000000000,
    "pause" : false
  }, {
    "id" : 837,
    "desc" : "PAINTING, MANAGEMENT",
    "location" : {
      "id" : 8927,
      "name" : null,
      "latitude" : 43.463333,
      "longitude" : 4.154437
    },
    "openings" : {
      "start" : [ 11, 52 ],
      "end" : [ 14, 14 ]
    },
    "preferredSlots" : null,
    "doAfter" : null,
    "nbEmpRequired" : 1,
    "deadline" : [ 16, 46 ],
    "skills" : [ {
      "id" : 7,
      "name" : "PAINTING",
      "level" : 3
    }, {
      "id" : 0,
      "name" : "MANAGEMENT",
      "level" : 4
    } ],
    "duration" : 5400.000000000,
    "pause" : false
  }, {
    "id" : 12,
    "desc" : "GLAZING, IRONWORK",
    "location" : {
      "id" : 6394,
      "name" : null,
      "latitude" : 44.070393,
      "longitude" : 3.9699867
    },
    "openings" : {
      "start" : [ 9, 37 ],
      "end" : [ 12, 3 ]
    },
    "preferredSlots" : null,
    "doAfter" : null,
    "nbEmpRequired" : 1,
    "deadline" : [ 16, 47 ],
    "skills" : [ {
      "id" : 5,
      "name" : "GLAZING",
      "level" : 3
    }, {
      "id" : 8,
      "name" : "IRONWORK",
      "level" : 3
    } ],
    "duration" : 1800.000000000,
    "pause" : false
  }, {
    "id" : 735,
    "desc" : "TILER, IRONWORK",
    "location" : {
      "id" : 5540,
      "name" : null,
      "latitude" : 43.85575,
      "longitude" : 4.21238
    },
    "openings" : {
      "start" : [ 10, 26 ],
      "end" : [ 16, 23 ]
    },
    "preferredSlots" : null,
    "doAfter" : null,
    "nbEmpRequired" : 1,
    "deadline" : [ 16, 55 ],
    "skills" : [ {
      "id" : 9,
      "name" : "TILER",
      "level" : 3
    }, {
      "id" : 8,
      "name" : "IRONWORK",
      "level" : 1
    } ],
    "duration" : 3600.000000000,
    "pause" : false
  }, {
    "id" : 469,
    "desc" : "MANAGEMENT",
    "location" : {
      "id" : 8674,
      "name" : null,
      "latitude" : 43.81102,
      "longitude" : 4.140464
    },
    "openings" : {
      "start" : [ 9, 18 ],
      "end" : [ 14, 15 ]
    },
    "preferredSlots" : null,
    "doAfter" : null,
    "nbEmpRequired" : 1,
    "deadline" : [ 16, 59 ],
    "skills" : [ {
      "id" : 0,
      "name" : "MANAGEMENT",
      "level" : 3
    } ],
    "duration" : 5400.000000000,
    "pause" : false
  }, {
    "id" : 919,
    "desc" : "GLAZING, IRONWORK",
    "location" : {
      "id" : 1097,
      "name" : null,
      "latitude" : 44.087574,
      "longitude" : 4.0426764
    },
    "openings" : {
      "start" : [ 10, 15 ],
      "end" : [ 14, 24 ]
    },
    "preferredSlots" : null,
    "doAfter" : null,
    "nbEmpRequired" : 1,
    "deadline" : [ 17, 4 ],
    "skills" : [ {
      "id" : 5,
      "name" : "GLAZING",
      "level" : 4
    }, {
      "id" : 8,
      "name" : "IRONWORK",
      "level" : 2
    } ],
    "duration" : 2700.000000000,
    "pause" : false
  }, {
    "id" : 305,
    "desc" : "IRONWORK",
    "location" : {
      "id" : 6751,
      "name" : null,
      "latitude" : 43.51702,
      "longitude" : 4.2452364
    },
    "openings" : {
      "start" : [ 13, 46 ],
      "end" : [ 15, 5 ]
    },
    "preferredSlots" : null,
    "doAfter" : null,
    "nbEmpRequired" : 1,
    "deadline" : [ 17, 17 ],
    "skills" : [ {
      "id" : 8,
      "name" : "IRONWORK",
      "level" : 2
    } ],
    "duration" : 5400.000000000,
    "pause" : false
  }, {
    "id" : 825,
    "desc" : "MASONRY, TILER",
    "location" : {
      "id" : 9063,
      "name" : null,
      "latitude" : 44.031254,
      "longitude" : 4.2600822
    },
    "openings" : {
      "start" : [ 10, 22 ],
      "end" : [ 16, 44 ]
    },
    "preferredSlots" : null,
    "doAfter" : null,
    "nbEmpRequired" : 1,
    "deadline" : [ 17, 20 ],
    "skills" : [ {
      "id" : 4,
      "name" : "MASONRY",
      "level" : 5
    }, {
      "id" : 9,
      "name" : "TILER",
      "level" : 2
    } ],
    "duration" : 3600.000000000,
    "pause" : false
  }, {
    "id" : 279,
    "desc" : "TILER, GLAZING",
    "location" : {
      "id" : 1428,
      "name" : null,
      "latitude" : 43.70446,
      "longitude" : 4.2316437
    },
    "openings" : {
      "start" : [ 12, 57 ],
      "end" : [ 15, 53 ]
    },
    "preferredSlots" : null,
    "doAfter" : null,
    "nbEmpRequired" : 1,
    "deadline" : [ 17, 20 ],
    "skills" : [ {
      "id" : 9,
      "name" : "TILER",
      "level" : 3
    }, {
      "id" : 5,
      "name" : "GLAZING",
      "level" : 2
    } ],
    "duration" : 5400.000000000,
    "pause" : false
  }, {
    "id" : 413,
    "desc" : "MANAGEMENT, TILER",
    "location" : {
      "id" : 4236,
      "name" : null,
      "latitude" : 43.621758,
      "longitude" : 3.7306972
    },
    "openings" : {
      "start" : [ 9, 54 ],
      "end" : [ 17, 6 ]
    },
    "preferredSlots" : null,
    "doAfter" : null,
    "nbEmpRequired" : 1,
    "deadline" : [ 17, 21 ],
    "skills" : [ {
      "id" : 0,
      "name" : "MANAGEMENT",
      "level" : 1
    }, {
      "id" : 9,
      "name" : "TILER",
      "level" : 1
    } ],
    "duration" : 2700.000000000,
    "pause" : false
  }, {
    "id" : 61,
    "desc" : "TILER",
    "location" : {
      "id" : 8251,
      "name" : null,
      "latitude" : 43.42251,
      "longitude" : 3.7334938
    },
    "openings" : {
      "start" : [ 9, 7 ],
      "end" : [ 15, 55 ]
    },
    "preferredSlots" : null,
    "doAfter" : null,
    "nbEmpRequired" : 1,
    "deadline" : [ 17, 33 ],
    "skills" : [ {
      "id" : 9,
      "name" : "TILER",
      "level" : 4
    } ],
    "duration" : 1800.000000000,
    "pause" : false
  }, {
    "id" : 727,
    "desc" : "GLAZING, ENGINEER",
    "location" : {
      "id" : 8046,
      "name" : null,
      "latitude" : 43.844875,
      "longitude" : 4.07533
    },
    "openings" : {
      "start" : [ 13, 50 ],
      "end" : [ 17, 42 ]
    },
    "preferredSlots" : null,
    "doAfter" : null,
    "nbEmpRequired" : 1,
    "deadline" : [ 17, 41 ],
    "skills" : [ {
      "id" : 5,
      "name" : "GLAZING",
      "level" : 1
    }, {
      "id" : 1,
      "name" : "ENGINEER",
      "level" : 2
    } ],
    "duration" : 1800.000000000,
    "pause" : false
  }, {
    "id" : 602,
    "desc" : "ENGINEER",
    "location" : {
      "id" : 4889,
      "name" : null,
      "latitude" : 43.756176,
      "longitude" : 3.814705
    },
    "openings" : {
      "start" : [ 10, 7 ],
      "end" : [ 16, 13 ]
    },
    "preferredSlots" : null,
    "doAfter" : null,
    "nbEmpRequired" : 1,
    "deadline" : [ 17, 54 ],
    "skills" : [ {
      "id" : 1,
      "name" : "ENGINEER",
      "level" : 4
    } ],
    "duration" : 2700.000000000,
    "pause" : false
  }, {
    "id" : 879,
    "desc" : "ENGINEER, MANAGEMENT",
    "location" : {
      "id" : 5508,
      "name" : null,
      "latitude" : 43.5354,
      "longitude" : 4.135089
    },
    "openings" : {
      "start" : [ 12, 18 ],
      "end" : [ 16, 47 ]
    },
    "preferredSlots" : null,
    "doAfter" : null,
    "nbEmpRequired" : 1,
    "deadline" : [ 17, 54 ],
    "skills" : [ {
      "id" : 1,
      "name" : "ENGINEER",
      "level" : 5
    }, {
      "id" : 0,
      "name" : "MANAGEMENT",
      "level" : 4
    } ],
    "duration" : 2700.000000000,
    "pause" : false
  } ],
  "valid" : true
}