{
  "listEdt" : [ {
    "emp" : {
      "id" : 695,
      "name" : "695",
      "shifts" : [ {
        "start" : [ 9, 0 ],
        "end" : [ 12, 0 ]
      }, {
        "start" : [ 13, 0 ],
        "end" : [ 17, 0 ]
      } ],
      "prefSlots" : null,
      "startingLoc" : {
        "id" : 8310,
        "name" : null,
        "latitude" : 43.699203,
        "longitude" : 4.216201
      },
      "skills" : [ {
        "id" : 0,
        "name" : "MANAGEMENT",
        "level" : 6
      } ]
    },
    "planning" : [ {
      "job" : {
        "id" : -1,
        "desc" : "Home",
        "location" : {
          "id" : 8310,
          "name" : null,
          "latitude" : 43.699203,
          "longitude" : 4.216201
        },
        "openings" : null,
        "preferredSlots" : null,
        "doAfter" : null,
        "nbEmpRequired" : 1,
        "deadline" : null,
        "skills" : [ ],
        "duration" : null,
        "pause" : true
      },
      "window" : {
        "start" : [ 9, 0 ],
        "end" : [ 9, 0 ]
      }
    }, {
      "job" : {
        "id" : 20,
        "desc" : "MANAGEMENT",
        "location" : {
          "id" : 4462,
          "name" : null,
          "latitude" : 43.91629,
          "longitude" : 3.7816334
        },
        "openings" : {
          "start" : [ 14, 4 ],
          "end" : [ 16, 56 ]
        },
        "preferredSlots" : null,
        "doAfter" : null,
        "nbEmpRequired" : 1,
        "deadline" : [ 10, 54 ],
        "skills" : [ {
          "id" : 0,
          "name" : "MANAGEMENT",
          "level" : 5
        } ],
        "duration" : 2700.000000000,
        "pause" : false
      },
      "window" : {
        "start" : [ 9, 43 ],
        "end" : [ 10, 28 ]
      }
    }, {
      "job" : {
        "id" : -1,
        "desc" : "Pause",
        "location" : {
          "id" : 4462,
          "name" : null,
          "latitude" : 43.91629,
          "longitude" : 3.7816334
        },
        "openings" : {
          "start" : [ 14, 4 ],
          "end" : [ 16, 56 ]
        },
        "preferredSlots" : null,
        "doAfter" : null,
        "nbEmpRequired" : 1,
        "deadline" : [ 10, 54 ],
        "skills" : [ {
          "id" : 0,
          "name" : "MANAGEMENT",
          "level" : 5
        } ],
        "duration" : 2700.000000000,
        "pause" : true
      },
      "window" : {
        "start" : [ 10, 29 ],
        "end" : [ 13, 0 ]
      }
    } ],
    "driving" : 2580.000000000,
    "valid" : true
  }, {
    "emp" : {
      "id" : 950,
      "name" : "950",
      "shifts" : [ {
        "start" : [ 9, 0 ],
        "end" : [ 12, 0 ]
      }, {
        "start" : [ 13, 0 ],
        "end" : [ 17, 0 ]
      } ],
      "prefSlots" : null,
      "startingLoc" : {
        "id" : 2602,
        "name" : null,
        "latitude" : 43.766964,
        "longitude" : 4.004013
      },
      "skills" : [ {
        "id" : 2,
        "name" : "ELECTRICIAN",
        "level" : 5
      }, {
        "id" : 8,
        "name" : "IRONWORK",
        "level" : 9
      }, {
        "id" : 4,
        "name" : "MASONRY",
        "level" : 9
      }, {
        "id" : 4,
        "name" : "MASONRY",
        "level" : 5
      }, {
        "id" : 0,
        "name" : "MANAGEMENT",
        "level" : 2
      }, {
        "id" : 0,
        "name" : "MANAGEMENT",
        "level" : 2
      }, {
        "id" : 0,
        "name" : "MANAGEMENT",
        "level" : 6
      }, {
        "id" : 8,
        "name" : "IRONWORK",
        "level" : 5
      }, {
        "id" : 9,
        "name" : "TILER",
        "level" : 5
      } ]
    },
    "planning" : [ {
      "job" : {
        "id" : -1,
        "desc" : "Home",
        "location" : {
          "id" : 2602,
          "name" : null,
          "latitude" : 43.766964,
          "longitude" : 4.004013
        },
        "openings" : null,
        "preferredSlots" : null,
        "doAfter" : null,
        "nbEmpRequired" : 1,
        "deadline" : null,
        "skills" : [ ],
        "duration" : null,
        "pause" : true
      },
      "window" : {
        "start" : [ 9, 0 ],
        "end" : [ 9, 0 ]
      }
    }, {
      "job" : {
        "id" : 656,
        "desc" : "ELECTRICIAN, MANAGEMENT",
        "location" : {
          "id" : 256,
          "name" : null,
          "latitude" : 43.864838,
          "longitude" : 4.101825
        },
        "openings" : {
          "start" : [ 12, 59 ],
          "end" : [ 17, 29 ]
        },
        "preferredSlots" : null,
        "doAfter" : null,
        "nbEmpRequired" : 1,
        "deadline" : [ 13, 35 ],
        "skills" : [ {
          "id" : 2,
          "name" : "ELECTRICIAN",
          "level" : 2
        }, {
          "id" : 0,
          "name" : "MANAGEMENT",
          "level" : 3
        } ],
        "duration" : 2700.000000000,
        "pause" : false
      },
      "window" : {
        "start" : [ 9, 14 ],
        "end" : [ 9, 59 ]
      }
    }, {
      "job" : {
        "id" : 485,
        "desc" : "TILER",
        "location" : {
          "id" : 421,
          "name" : null,
          "latitude" : 43.888096,
          "longitude" : 4.104679
        },
        "openings" : {
          "start" : [ 12, 10 ],
          "end" : [ 17, 51 ]
        },
        "preferredSlots" : null,
        "doAfter" : null,
        "nbEmpRequired" : 1,
        "deadline" : [ 11, 28 ],
        "skills" : [ {
          "id" : 9,
          "name" : "TILER",
          "level" : 1
        } ],
        "duration" : 2700.000000000,
        "pause" : false
      },
      "window" : {
        "start" : [ 10, 2 ],
        "end" : [ 10, 47 ]
      }
    }, {
      "job" : {
        "id" : -1,
        "desc" : "Pause",
        "location" : {
          "id" : 421,
          "name" : null,
          "latitude" : 43.888096,
          "longitude" : 4.104679
        },
        "openings" : {
          "start" : [ 12, 10 ],
          "end" : [ 17, 51 ]
        },
        "preferredSlots" : null,
        "doAfter" : null,
        "nbEmpRequired" : 1,
        "deadline" : [ 11, 28 ],
        "skills" : [ {
          "id" : 9,
          "name" : "TILER",
          "level" : 1
        } ],
        "duration" : 2700.000000000,
        "pause" : true
      },
      "window" : {
        "start" : [ 10, 48 ],
        "end" : [ 13, 0 ]
      }
    } ],
    "driving" : 1020.000000000,
    "valid" : true
  }, {
    "emp" : {
      "id" : 1,
      "name" : "1",
      "shifts" : [ {
        "start" : [ 9, 0 ],
        "end" : [ 12, 0 ]
      }, {
        "start" : [ 13, 0 ],
        "end" : [ 17, 0 ]
      } ],
      "prefSlots" : null,
      "startingLoc" : {
        "id" : 3396,
        "name" : null,
        "latitude" : 43.876186,
        "longitude" : 4.136562
      },
      "skills" : [ {
        "id" : 2,
        "name" : "ELECTRICIAN",
        "level" : 1
      }, {
        "id" : 5,
        "name" : "GLAZING",
        "level" : 4
      }, {
        "id" : 7,
        "name" : "PAINTING",
        "level" : 2
      }, {
        "id" : 3,
        "name" : "PLUMBING",
        "level" : 7
      } ]
    },
    "planning" : [ {
      "job" : {
        "id" : -1,
        "desc" : "Home",
        "location" : {
          "id" : 3396,
          "name" : null,
          "latitude" : 43.876186,
          "longitude" : 4.136562
        },
        "openings" : null,
        "preferredSlots" : null,
        "doAfter" : null,
        "nbEmpRequired" : 1,
        "deadline" : null,
        "skills" : [ ],
        "duration" : null,
        "pause" : true
      },
      "window" : {
        "start" : [ 9, 0 ],
        "end" : [ 9, 0 ]
      }
    }, {
      "job" : {
        "id" : 223,
        "desc" : "GLAZING",
        "location" : {
          "id" : 9476,
          "name" : null,
          "latitude" : 43.737923,
          "longitude" : 3.8216782
        },
        "openings" : {
          "start" : [ 11, 35 ],
          "end" : [ 11, 41 ]
        },
        "preferredSlots" : null,
        "doAfter" : null,
        "nbEmpRequired" : 1,
        "deadline" : [ 12, 5 ],
        "skills" : [ {
          "id" : 5,
          "name" : "GLAZING",
          "level" : 2
        } ],
        "duration" : 2700.000000000,
        "pause" : false
      },
      "window" : {
        "start" : [ 9, 30 ],
        "end" : [ 10, 15 ]
      }
    }, {
      "job" : {
        "id" : 229,
        "desc" : "GLAZING",
        "location" : {
          "id" : 2337,
          "name" : null,
          "latitude" : 43.553215,
          "longitude" : 3.7079132
        },
        "openings" : {
          "start" : [ 11, 2 ],
          "end" : [ 11, 16 ]
        },
        "preferredSlots" : null,
        "doAfter" : null,
        "nbEmpRequired" : 1,
        "deadline" : [ 16, 35 ],
        "skills" : [ {
          "id" : 5,
          "name" : "GLAZING",
          "level" : 3
        } ],
        "duration" : 2700.000000000,
        "pause" : false
      },
      "window" : {
        "start" : [ 10, 38 ],
        "end" : [ 11, 23 ]
      }
    }, {
      "job" : {
        "id" : -1,
        "desc" : "Pause",
        "location" : {
          "id" : 2337,
          "name" : null,
          "latitude" : 43.553215,
          "longitude" : 3.7079132
        },
        "openings" : {
          "start" : [ 11, 2 ],
          "end" : [ 11, 16 ]
        },
        "preferredSlots" : null,
        "doAfter" : null,
        "nbEmpRequired" : 1,
        "deadline" : [ 16, 35 ],
        "skills" : [ {
          "id" : 5,
          "name" : "GLAZING",
          "level" : 3
        } ],
        "duration" : 2700.000000000,
        "pause" : true
      },
      "window" : {
        "start" : [ 11, 24 ],
        "end" : [ 13, 0 ]
      }
    } ],
    "driving" : 3180.000000000,
    "valid" : true
  }, {
    "emp" : {
      "id" : 325,
      "name" : "325",
      "shifts" : [ {
        "start" : [ 9, 0 ],
        "end" : [ 12, 0 ]
      }, {
        "start" : [ 13, 0 ],
        "end" : [ 17, 0 ]
      } ],
      "prefSlots" : null,
      "startingLoc" : {
        "id" : 3645,
        "name" : null,
        "latitude" : 43.523933,
        "longitude" : 4.090325
      },
      "skills" : [ {
        "id" : 8,
        "name" : "IRONWORK",
        "level" : 8
      }, {
        "id" : 4,
        "name" : "MASONRY",
        "level" : 8
      }, {
        "id" : 6,
        "name" : "CARPENTRY",
        "level" : 7
      }, {
        "id" : 1,
        "name" : "ENGINEER",
        "level" : 8
      }, {
        "id" : 1,
        "name" : "ENGINEER",
        "level" : 2
      } ]
    },
    "planning" : [ {
      "job" : {
        "id" : -1,
        "desc" : "Home",
        "location" : {
          "id" : 3645,
          "name" : null,
          "latitude" : 43.523933,
          "longitude" : 4.090325
        },
        "openings" : null,
        "preferredSlots" : null,
        "doAfter" : null,
        "nbEmpRequired" : 1,
        "deadline" : null,
        "skills" : [ ],
        "duration" : null,
        "pause" : true
      },
      "window" : {
        "start" : [ 9, 0 ],
        "end" : [ 9, 0 ]
      }
    }, {
      "job" : {
        "id" : 420,
        "desc" : "ENGINEER",
        "location" : {
          "id" : 6313,
          "name" : null,
          "latitude" : 43.562126,
          "longitude" : 4.0401726
        },
        "openings" : {
          "start" : [ 13, 0 ],
          "end" : [ 16, 4 ]
        },
        "preferredSlots" : null,
        "doAfter" : null,
        "nbEmpRequired" : 1,
        "deadline" : [ 10, 0 ],
        "skills" : [ {
          "id" : 1,
          "name" : "ENGINEER",
          "level" : 4
        } ],
        "duration" : 1800.000000000,
        "pause" : false
      },
      "window" : {
        "start" : [ 9, 6 ],
        "end" : [ 9, 36 ]
      }
    }, {
      "job" : {
        "id" : -1,
        "desc" : "Pause",
        "location" : {
          "id" : 6313,
          "name" : null,
          "latitude" : 43.562126,
          "longitude" : 4.0401726
        },
        "openings" : {
          "start" : [ 13, 0 ],
          "end" : [ 16, 4 ]
        },
        "preferredSlots" : null,
        "doAfter" : null,
        "nbEmpRequired" : 1,
        "deadline" : [ 10, 0 ],
        "skills" : [ {
          "id" : 1,
          "name" : "ENGINEER",
          "level" : 4
        } ],
        "duration" : 1800.000000000,
        "pause" : true
      },
      "window" : {
        "start" : [ 9, 37 ],
        "end" : [ 13, 0 ]
      }
    } ],
    "driving" : 360.000000000,
    "valid" : true
  }, {
    "emp" : {
      "id" : 371,
      "name" : "371",
      "shifts" : [ {
        "start" : [ 9, 0 ],
        "end" : [ 12, 0 ]
      }, {
        "start" : [ 13, 0 ],
        "end" : [ 17, 0 ]
      } ],
      "prefSlots" : null,
      "startingLoc" : {
        "id" : 6716,
        "name" : null,
        "latitude" : 43.905655,
        "longitude" : 3.7245479
      },
      "skills" : [ {
        "id" : 0,
        "name" : "MANAGEMENT",
        "level" : 1
      }, {
        "id" : 8,
        "name" : "IRONWORK",
        "level" : 4
      }, {
        "id" : 0,
        "name" : "MANAGEMENT",
        "level" : 8
      }, {
        "id" : 0,
        "name" : "MANAGEMENT",
        "level" : 4
      }, {
        "id" : 3,
        "name" : "PLUMBING",
        "level" : 5
      }, {
        "id" : 5,
        "name" : "GLAZING",
        "level" : 1
      }, {
        "id" : 6,
        "name" : "CARPENTRY",
        "level" : 5
      }, {
        "id" : 7,
        "name" : "PAINTING",
        "level" : 4
      }, {
        "id" : 3,
        "name" : "PLUMBING",
        "level" : 2
      }, {
        "id" : 4,
        "name" : "MASONRY",
        "level" : 5
      } ]
    },
    "planning" : [ {
      "job" : {
        "id" : -1,
        "desc" : "Home",
        "location" : {
          "id" : 6716,
          "name" : null,
          "latitude" : 43.905655,
          "longitude" : 3.7245479
        },
        "openings" : null,
        "preferredSlots" : null,
        "doAfter" : null,
        "nbEmpRequired" : 1,
        "deadline" : null,
        "skills" : [ ],
        "duration" : null,
        "pause" : true
      },
      "window" : {
        "start" : [ 9, 0 ],
        "end" : [ 9, 0 ]
      }
    }, {
      "job" : {
        "id" : 793,
        "desc" : "CARPENTRY, MANAGEMENT",
        "location" : {
          "id" : 1921,
          "name" : null,
          "latitude" : 43.487053,
          "longitude" : 4.2863417
        },
        "openings" : {
          "start" : [ 9, 45 ],
          "end" : [ 13, 53 ]
        },
        "preferredSlots" : null,
        "doAfter" : null,
        "nbEmpRequired" : 1,
        "deadline" : [ 9, 57 ],
        "skills" : [ {
          "id" : 6,
          "name" : "CARPENTRY",
          "level" : 1
        }, {
          "id" : 0,
          "name" : "MANAGEMENT",
          "level" : 5
        } ],
        "duration" : 3600.000000000,
        "pause" : false
      },
      "window" : {
        "start" : [ 10, 5 ],
        "end" : [ 11, 5 ]
      }
    }, {
      "job" : {
        "id" : -1,
        "desc" : "Pause",
        "location" : {
          "id" : 1921,
          "name" : null,
          "latitude" : 43.487053,
          "longitude" : 4.2863417
        },
        "openings" : {
          "start" : [ 9, 45 ],
          "end" : [ 13, 53 ]
        },
        "preferredSlots" : null,
        "doAfter" : null,
        "nbEmpRequired" : 1,
        "deadline" : [ 9, 57 ],
        "skills" : [ {
          "id" : 6,
          "name" : "CARPENTRY",
          "level" : 1
        }, {
          "id" : 0,
          "name" : "MANAGEMENT",
          "level" : 5
        } ],
        "duration" : 3600.000000000,
        "pause" : true
      },
      "window" : {
        "start" : [ 11, 6 ],
        "end" : [ 13, 0 ]
      }
    } ],
    "driving" : 3900.000000000,
    "valid" : true
  } ],
  "unassigned" : [ {
    "id" : 948,
    "desc" : "GLAZING, TILER",
    "location" : {
      "id" : 3204,
      "name" : null,
      "latitude" : 43.91174,
      "longitude" : 4.287141
    },
    "openings" : {
      "start" : [ 11, 34 ],
      "end" : [ 14, 47 ]
    },
    "preferredSlots" : null,
    "doAfter" : null,
    "nbEmpRequired" : 1,
    "deadline" : [ 13, 38 ],
    "skills" : [ {
      "id" : 5,
      "name" : "GLAZING",
      "level" : 1
    }, {
      "id" : 9,
      "name" : "TILER",
      "level" : 3
    } ],
    "duration" : 5400.000000000,
    "pause" : false
  }, {
    "id" : 550,
    "desc" : "TILER, ENGINEER",
    "location" : {
      "id" : 3325,
      "name" : null,
      "latitude" : 43.93317,
      "longitude" : 4.1123075
    },
    "openings" : {
      "start" : [ 9, 0 ],
      "end" : [ 14, 45 ]
    },
    "preferredSlots" : null,
    "doAfter" : null,
    "nbEmpRequired" : 1,
    "deadline" : [ 17, 23 ],
    "skills" : [ {
      "id" : 9,
      "name" : "TILER",
      "level" : 4
    }, {
      "id" : 1,
      "name" : "ENGINEER",
      "level" : 1
    } ],
    "duration" : 2700.000000000,
    "pause" : false
  }, {
    "id" : 184,
    "desc" : "ELECTRICIAN, ENGINEER",
    "location" : {
      "id" : 4397,
      "name" : null,
      "latitude" : 43.686073,
      "longitude" : 4.1541777
    },
    "openings" : {
      "start" : [ 16, 5 ],
      "end" : [ 16, 49 ]
    },
    "preferredSlots" : null,
    "doAfter" : null,
    "nbEmpRequired" : 1,
    "deadline" : [ 9, 0 ],
    "skills" : [ {
      "id" : 2,
      "name" : "ELECTRICIAN",
      "level" : 2
    }, {
      "id" : 1,
      "name" : "ENGINEER",
      "level" : 5
    } ],
    "duration" : 5400.000000000,
    "pause" : false
  } ],
  "valid" : true
}