{
  "listEdt" : [ {
    "emp" : {
      "id" : 802,
      "name" : "802",
      "shifts" : [ {
        "start" : [ 9, 0 ],
        "end" : [ 12, 0 ]
      }, {
        "start" : [ 13, 0 ],
        "end" : [ 17, 0 ]
      } ],
      "prefSlots" : null,
      "startingLoc" : {
        "id" : 985,
        "name" : null,
        "latitude" : 43.99675,
        "longitude" : 4.2037573
      },
      "skills" : [ {
        "id" : 1,
        "name" : "ENGINEER",
        "level" : 8
      }, {
        "id" : 3,
        "name" : "PLUMBING",
        "level" : 4
      }, {
        "id" : 5,
        "name" : "GLAZING",
        "level" : 10
      }, {
        "id" : 8,
        "name" : "IRONWORK",
        "level" : 1
      }, {
        "id" : 7,
        "name" : "PAINTING",
        "level" : 1
      }, {
        "id" : 8,
        "name" : "IRONWORK",
        "level" : 1
      }, {
        "id" : 2,
        "name" : "ELECTRICIAN",
        "level" : 4
      }, {
        "id" : 2,
        "name" : "ELECTRICIAN",
        "level" : 2
      }, {
        "id" : 4,
        "name" : "MASONRY",
        "level" : 4
      }, {
        "id" : 2,
        "name" : "ELECTRICIAN",
        "level" : 10
      } ]
    },
    "planning" : [ {
      "job" : {
        "id" : 770,
        "desc" : "ELECTRICIAN",
        "location" : {
          "id" : 7492,
          "name" : null,
          "latitude" : 44.041878,
          "longitude" : 3.7902493
        },
        "openings" : {
          "start" : [ 16, 48 ],
          "end" : [ 17, 35 ]
        },
        "preferredSlots" : null,
        "doAfter" : null,
        "nbEmpRequired" : 1,
        "deadline" : [ 14, 10 ],
        "skills" : [ {
          "id" : 2,
          "name" : "ELECTRICIAN",
          "level" : 3
        } ],
        "duration" : 5400.000000000,
        "pause" : false
      },
      "window" : {
        "start" : [ 12, 40 ],
        "end" : [ 14, 10 ]
      }
    }, {
      "job" : {
        "id" : 352,
        "desc" : "GLAZING",
        "location" : {
          "id" : 6356,
          "name" : null,
          "latitude" : 43.769863,
          "longitude" : 4.0068107
        },
        "openings" : {
          "start" : [ 10, 26 ],
          "end" : [ 14, 34 ]
        },
        "preferredSlots" : null,
        "doAfter" : null,
        "nbEmpRequired" : 1,
        "deadline" : [ 15, 57 ],
        "skills" : [ {
          "id" : 5,
          "name" : "GLAZING",
          "level" : 1
        } ],
        "duration" : 3600.000000000,
        "pause" : false
      },
      "window" : {
        "start" : [ 14, 44, 54 ],
        "end" : [ 15, 44, 54 ]
      }
    }, {
      "job" : {
        "id" : 928,
        "desc" : "PLUMBING",
        "location" : {
          "id" : 6435,
          "name" : null,
          "latitude" : 43.84967,
          "longitude" : 4.072242
        },
        "openings" : {
          "start" : [ 10, 53 ],
          "end" : [ 13, 4 ]
        },
        "preferredSlots" : null,
        "doAfter" : null,
        "nbEmpRequired" : 1,
        "deadline" : [ 17, 51 ],
        "skills" : [ {
          "id" : 3,
          "name" : "PLUMBING",
          "level" : 3
        } ],
        "duration" : 3600.000000000,
        "pause" : false
      },
      "window" : {
        "start" : [ 11, 8, 54 ],
        "end" : [ 12, 8, 54 ]
      }
    } ],
    "driving" : 0.0,
    "valid" : true
  }, {
    "emp" : {
      "id" : 84,
      "name" : "84",
      "shifts" : [ {
        "start" : [ 9, 0 ],
        "end" : [ 12, 0 ]
      }, {
        "start" : [ 13, 0 ],
        "end" : [ 17, 0 ]
      } ],
      "prefSlots" : null,
      "startingLoc" : {
        "id" : 7328,
        "name" : null,
        "latitude" : 43.585743,
        "longitude" : 4.0717483
      },
      "skills" : [ {
        "id" : 1,
        "name" : "ENGINEER",
        "level" : 3
      }, {
        "id" : 8,
        "name" : "IRONWORK",
        "level" : 5
      }, {
        "id" : 7,
        "name" : "PAINTING",
        "level" : 8
      }, {
        "id" : 2,
        "name" : "ELECTRICIAN",
        "level" : 4
      }, {
        "id" : 5,
        "name" : "GLAZING",
        "level" : 8
      }, {
        "id" : 5,
        "name" : "GLAZING",
        "level" : 4
      }, {
        "id" : 5,
        "name" : "GLAZING",
        "level" : 4
      }, {
        "id" : 5,
        "name" : "GLAZING",
        "level" : 8
      }, {
        "id" : 4,
        "name" : "MASONRY",
        "level" : 10
      }, {
        "id" : 6,
        "name" : "CARPENTRY",
        "level" : 4
      } ]
    },
    "planning" : [ {
      "job" : {
        "id" : 315,
        "desc" : "IRONWORK",
        "location" : {
          "id" : 8407,
          "name" : null,
          "latitude" : 43.466423,
          "longitude" : 3.9791534
        },
        "openings" : {
          "start" : [ 11, 46 ],
          "end" : [ 17, 43 ]
        },
        "preferredSlots" : null,
        "doAfter" : null,
        "nbEmpRequired" : 1,
        "deadline" : [ 17, 20 ],
        "skills" : [ {
          "id" : 8,
          "name" : "IRONWORK",
          "level" : 3
        } ],
        "duration" : 1800.000000000,
        "pause" : false
      },
      "window" : {
        "start" : [ 13, 10, 22 ],
        "end" : [ 13, 40, 22 ]
      }
    }, {
      "job" : {
        "id" : 987,
        "desc" : "PAINTING",
        "location" : {
          "id" : 7153,
          "name" : null,
          "latitude" : 43.45675,
          "longitude" : 3.8516796
        },
        "openings" : {
          "start" : [ 12, 23 ],
          "end" : [ 12, 56 ]
        },
        "preferredSlots" : null,
        "doAfter" : null,
        "nbEmpRequired" : 1,
        "deadline" : [ 13, 0 ],
        "skills" : [ {
          "id" : 7,
          "name" : "PAINTING",
          "level" : 4
        } ],
        "duration" : 1800.000000000,
        "pause" : false
      },
      "window" : {
        "start" : [ 12, 30 ],
        "end" : [ 13, 0 ]
      }
    } ],
    "driving" : 0.0,
    "valid" : true
  } ],
  "unassigned" : [ {
    "id" : 211,
    "desc" : "IRONWORK, PLUMBING",
    "location" : {
      "id" : 4518,
      "name" : null,
      "latitude" : 43.512558,
      "longitude" : 3.9111876
    },
    "openings" : {
      "start" : [ 10, 33 ],
      "end" : [ 12, 8 ]
    },
    "preferredSlots" : null,
    "doAfter" : null,
    "nbEmpRequired" : 1,
    "deadline" : [ 13, 15 ],
    "skills" : [ {
      "id" : 8,
      "name" : "IRONWORK",
      "level" : 3
    }, {
      "id" : 3,
      "name" : "PLUMBING",
      "level" : 5
    } ],
    "duration" : 2700.000000000,
    "pause" : false
  }, {
    "id" : 211,
    "desc" : "IRONWORK, PLUMBING",
    "location" : {
      "id" : 4518,
      "name" : null,
      "latitude" : 43.512558,
      "longitude" : 3.9111876
    },
    "openings" : {
      "start" : [ 10, 33 ],
      "end" : [ 12, 8 ]
    },
    "preferredSlots" : null,
    "doAfter" : null,
    "nbEmpRequired" : 1,
    "deadline" : [ 13, 15 ],
    "skills" : [ {
      "id" : 8,
      "name" : "IRONWORK",
      "level" : 3
    }, {
      "id" : 3,
      "name" : "PLUMBING",
      "level" : 5
    } ],
    "duration" : 2700.000000000,
    "pause" : false
  }, {
    "id" : 211,
    "desc" : "IRONWORK, PLUMBING",
    "location" : {
      "id" : 4518,
      "name" : null,
      "latitude" : 43.512558,
      "longitude" : 3.9111876
    },
    "openings" : {
      "start" : [ 10, 33 ],
      "end" : [ 12, 8 ]
    },
    "preferredSlots" : null,
    "doAfter" : null,
    "nbEmpRequired" : 1,
    "deadline" : [ 13, 15 ],
    "skills" : [ {
      "id" : 8,
      "name" : "IRONWORK",
      "level" : 3
    }, {
      "id" : 3,
      "name" : "PLUMBING",
      "level" : 5
    } ],
    "duration" : 2700.000000000,
    "pause" : false
  }, {
    "id" : 211,
    "desc" : "IRONWORK, PLUMBING",
    "location" : {
      "id" : 4518,
      "name" : null,
      "latitude" : 43.512558,
      "longitude" : 3.9111876
    },
    "openings" : {
      "start" : [ 10, 33 ],
      "end" : [ 12, 8 ]
    },
    "preferredSlots" : null,
    "doAfter" : null,
    "nbEmpRequired" : 1,
    "deadline" : [ 13, 15 ],
    "skills" : [ {
      "id" : 8,
      "name" : "IRONWORK",
      "level" : 3
    }, {
      "id" : 3,
      "name" : "PLUMBING",
      "level" : 5
    } ],
    "duration" : 2700.000000000,
    "pause" : false
  }, {
    "id" : 211,
    "desc" : "IRONWORK, PLUMBING",
    "location" : {
      "id" : 4518,
      "name" : null,
      "latitude" : 43.512558,
      "longitude" : 3.9111876
    },
    "openings" : {
      "start" : [ 10, 33 ],
      "end" : [ 12, 8 ]
    },
    "preferredSlots" : null,
    "doAfter" : null,
    "nbEmpRequired" : 1,
    "deadline" : [ 13, 15 ],
    "skills" : [ {
      "id" : 8,
      "name" : "IRONWORK",
      "level" : 3
    }, {
      "id" : 3,
      "name" : "PLUMBING",
      "level" : 5
    } ],
    "duration" : 2700.000000000,
    "pause" : false
  }, {
    "id" : 211,
    "desc" : "IRONWORK, PLUMBING",
    "location" : {
      "id" : 4518,
      "name" : null,
      "latitude" : 43.512558,
      "longitude" : 3.9111876
    },
    "openings" : {
      "start" : [ 10, 33 ],
      "end" : [ 12, 8 ]
    },
    "preferredSlots" : null,
    "doAfter" : null,
    "nbEmpRequired" : 1,
    "deadline" : [ 13, 15 ],
    "skills" : [ {
      "id" : 8,
      "name" : "IRONWORK",
      "level" : 3
    }, {
      "id" : 3,
      "name" : "PLUMBING",
      "level" : 5
    } ],
    "duration" : 2700.000000000,
    "pause" : false
  }, {
    "id" : 211,
    "desc" : "IRONWORK, PLUMBING",
    "location" : {
      "id" : 4518,
      "name" : null,
      "latitude" : 43.512558,
      "longitude" : 3.9111876
    },
    "openings" : {
      "start" : [ 10, 33 ],
      "end" : [ 12, 8 ]
    },
    "preferredSlots" : null,
    "doAfter" : null,
    "nbEmpRequired" : 1,
    "deadline" : [ 13, 15 ],
    "skills" : [ {
      "id" : 8,
      "name" : "IRONWORK",
      "level" : 3
    }, {
      "id" : 3,
      "name" : "PLUMBING",
      "level" : 5
    } ],
    "duration" : 2700.000000000,
    "pause" : false
  }, {
    "id" : 211,
    "desc" : "IRONWORK, PLUMBING",
    "location" : {
      "id" : 4518,
      "name" : null,
      "latitude" : 43.512558,
      "longitude" : 3.9111876
    },
    "openings" : {
      "start" : [ 10, 33 ],
      "end" : [ 12, 8 ]
    },
    "preferredSlots" : null,
    "doAfter" : null,
    "nbEmpRequired" : 1,
    "deadline" : [ 13, 15 ],
    "skills" : [ {
      "id" : 8,
      "name" : "IRONWORK",
      "level" : 3
    }, {
      "id" : 3,
      "name" : "PLUMBING",
      "level" : 5
    } ],
    "duration" : 2700.000000000,
    "pause" : false
  } ],
  "valid" : true
}